<svg
  height="100px"
  width="100px"
  fill="#000000"
  xmlns="http://www.w3.org/2000/svg"
  viewBox="0 0 100 100"
  x="0px"
  y="0px"
>
  <g data-name="Adam Toledo">
    <path
      data-name="adam toledo"
      d="M56.51611,75.24219l.41016,1.44336a7.7463,7.7463,0,0,1-3.53955.15918c-.15869-.03028-.31983-.06543-.48193-.10059a2.83229,2.83229,0,0,0-1.57569-.0791,2.61563,2.61563,0,0,0-.29053.15234,2.422,2.422,0,0,1-1.0205.374l-.02881-.3526-.02881.3526a2.42208,2.42208,0,0,1-1.02051-.374,2.651,2.651,0,0,0-.29-.15234,2.84312,2.84312,0,0,0-1.57617.0791c-.16211.03516-.32324.07031-.48291.10059a7.7454,7.7454,0,0,1-3.53857-.15918l.41015-1.44336a6.23684,6.23684,0,0,0,2.8501.12793c.146-.02735.293-.05957.44043-.0918a4.02394,4.02394,0,0,1,2.47461.002,4.35287,4.35287,0,0,1,.45508.2334,2.249,2.249,0,0,0,.30664.15076,2.249,2.249,0,0,0,.30664-.15076,4.31089,4.31089,0,0,1,.45556-.2334,4.02948,4.02948,0,0,1,2.47413-.002c.14746.03223.29443.06445.43945.0918A6.21413,6.21413,0,0,0,56.51611,75.24219Zm-10.10791-8a5.49547,5.49547,0,0,1,1.4585.52246l.31592.13476c.1084.04688.26562.11329.48.18653a3.1169,3.1169,0,0,0,1.30615.32666V68.416l.02051-.00171.02051.00171V68.4126a3.117,3.117,0,0,0,1.30615-.32666c.21484-.07324.373-.14063.4956-.19239l.3003-.1289a5.69429,5.69429,0,0,1,1.457-.52246,1.53828,1.53828,0,0,1,.9126.499l1.05664-1.06445a2.985,2.985,0,0,0-1.834-.92871,4.82233,4.82233,0,0,0-2.18262.63769l-.314.13477c-.09277.03906-.23047.09863-.42334.16113l-.1416.06445a1.3558,1.3558,0,0,1-1.30664,0l-.1416-.06445a4.67,4.67,0,0,1-.43946-.16894l-.29785-.127a4.97581,4.97581,0,0,0-2.18408-.63769,2.98526,2.98526,0,0,0-1.83252.92871l1.05664,1.06445A1.539,1.539,0,0,1,46.4082,67.24219ZM61.98877,43.63672c-1.77783-.02832-3.56982.02441-5.32813.16113l.15528,1.99414c1.6958-.13183,3.42187-.18847,5.13916-.15527a22.66933,22.66933,0,0,1,3.80713.24805,15.14281,15.14281,0,0,1,5.25586,2.03711l1.04394-1.707A17.11559,17.11559,0,0,0,66.11084,43.916,24.32864,24.32864,0,0,0,61.98877,43.63672Zm-23.96484,2c1.7124-.03125,3.44287.02344,5.13867.15527l.15527-1.99414c-1.75879-.13672-3.55029-.18945-5.32764-.16113a24.33079,24.33079,0,0,0-4.12255.2793,17.11564,17.11564,0,0,0-5.95118,2.29882l1.044,1.707a15.14274,15.14274,0,0,1,5.25586-2.03711A22.67181,22.67181,0,0,1,38.02393,45.63672ZM23.24609,61.11719a2.253,2.253,0,0,1,.37745-1.61426l-1.22168-.86914a3.68967,3.68967,0,0,0,.8955,5.165l.86231-1.22852A2.26213,2.26213,0,0,1,23.24609,61.11719Zm60.09912-3.55371-.22949.876a36.48077,36.48077,0,0,1-3.93017,10.24512l-.1045.17383a4.91983,4.91983,0,0,1-2.29834,2.26855,5.7286,5.7286,0,0,1-1.85449.34571c-.03369,0-.06787.001-.10156.001a5.73309,5.73309,0,0,1-.97626-.0943,14.50233,14.50233,0,0,1-1.39239,4.109,19.93042,19.93042,0,0,1-3.03223,3.9961l-.24023.27246c-.92041,1.04687-2.62842,2.64941-5.72852,5.55957A24.48212,24.48212,0,0,1,59.99512,88.294a19.16345,19.16345,0,0,1-4.62158,2.14843,20.01666,20.01666,0,0,1-5.26416.98828h-.21387a20.00486,20.00486,0,0,1-5.29053-.98828A19.16327,19.16327,0,0,1,39.9834,88.294a24.48256,24.48256,0,0,1-3.46192-2.97754c-3.10009-2.91016-4.8081-4.5127-5.72851-5.55957l-.24024-.27246a19.9307,19.9307,0,0,1-3.03222-3.9961,14.50369,14.50369,0,0,1-1.39337-4.1142,5.72759,5.72759,0,0,1-1.00068.09955c-.03369,0-.06738-.001-.10156-.001a5.73869,5.73869,0,0,1-1.854-.34473,4.92285,4.92285,0,0,1-2.29981-2.26953l-.10449-.17383a36.48329,36.48329,0,0,1-3.92871-10.24121l-.231-.87988a8.58806,8.58806,0,0,1,.065-4.458,3.17065,3.17065,0,0,1,.831-1.30176,3.40469,3.40469,0,0,1,.99585-.60309,23.13128,23.13128,0,0,1-1.11139-3.81537,24.89466,24.89466,0,0,1-.39648-6.185,30.00726,30.00726,0,0,1,1.98242-10.30835,42.80853,42.80853,0,0,1,1.82373-3.88544c.00006-.00012,1.24914-2.41595,2.45819-4.28192C28.897,14.017,38.71765,10.98889,38.71777,10.98889a27.33925,27.33925,0,0,1,7.21582-1.18945c.46393-.09277,1.18537-.22309,2.07367-.32337a30.86666,30.86666,0,0,1,10.2367.76838c.7428.15551,1.7901.39386,3.03821.74444.00012,0,9.8208,3.02814,15.46258,11.73566,1.20905,1.866,2.45813,4.2818,2.45819,4.28192a42.80853,42.80853,0,0,1,1.82373,3.88544,30.00726,30.00726,0,0,1,1.98242,10.30835,24.89466,24.89466,0,0,1-.39648,6.185,23.12276,23.12276,0,0,1-1.11737,3.83027,3.40707,3.40707,0,0,1,.95154.58526,3.19017,3.19017,0,0,1,.83252,1.30078A8.59425,8.59425,0,0,1,83.34521,57.56348Zm-1.47656-3.95215a1.68541,1.68541,0,0,0-.438-.707,1.77156,1.77156,0,0,0-.63378-.35352c-.67237-.1748-1.46436.38672-2.103.83984a6.32008,6.32008,0,0,0-1.86621,2.03516l-1.29883-.75c.02142-.03711.0473-.07.06921-.10663a42.18359,42.18359,0,0,0,.87628-8.9812,18.623,18.623,0,0,0-1.6773-7.40088,2.878,2.878,0,0,0-1.348-1.4273,4.328,4.328,0,0,0-1.98236-.15863,12.81222,12.81222,0,0,1-3.01324-.42286c-2.68958-.67413-3.14252-2.19342-4.22907-1.79736-.79364.28931-1.86529,1.57874-2.53741,1.58588-.04565.00049-.08978-.0019-.08984-.0019a1.57718,1.57718,0,0,1-1.00873-.44177c-1.30841-1.08575-2.57788-2.13867-3.4477-1.88232a6.44655,6.44655,0,0,0-.68231.46789c-.53949.38825-.72455.57111-1.24719.933-.389.26935-.58362.404-.63434.42291-1.09588.40686-2.6123-.54627-4.30841-1.61231a2.53252,2.53252,0,0,0-1.05725-.42291,2.78259,2.78259,0,0,0-1.53247.29853c-2.10455.91534-2.30341,1.53967-3.01379,1.44592-.94617-.12488-.9289-1.27661-1.90308-1.42731-.7226-.11175-.97614.48419-2.7489,1.37445-1.21631.61084-1.82556.9198-2.4317.74011-.95746-.28387-1.03382-1.35534-1.90308-1.48016-.58124-.08343-.97266.33453-1.63873.79291a9.84827,9.84827,0,0,1-4.28949,1.55926c-2.11627.291-2.96924-.3656-4.0365.42316a3.70443,3.70443,0,0,0-1.03082,1.50659A13.4627,13.4627,0,0,0,23.57233,43.399c0,.00012-.11536.81573-.15851,1.55456A31.5206,31.5206,0,0,0,24.41821,54.654c-.01623-.0246-.04736-.06256-.06878-.092.02343.039.05108.07422.07391.11377l-1.29883.75a6.21811,6.21811,0,0,0-1.793-1.9834c-.71093-.50488-1.50683-1.0664-2.17529-.8916a1.76556,1.76556,0,0,0-.6377.35742,1.66975,1.66975,0,0,0-.43457.70215,7.15122,7.15122,0,0,0-.02685,3.56934l.23193.88574a35.22869,35.22869,0,0,0,3.75977,9.83984l.1123.1875a3.55448,3.55448,0,0,0,1.56543,1.64161,4.31,4.31,0,0,0,1.32617.23828,3.39829,3.39829,0,0,0,.86475-.08136c-.0415-.4657-.08252-.93164-.08447-1.41083l1.5-.00586a13.53557,13.53557,0,0,0,1.51465,6.31445,18.65016,18.65016,0,0,0,2.831,3.7041l.24024.27344c.87353.99219,2.5625,2.57813,5.6289,5.45606A23.14987,23.14987,0,0,0,40.80762,87.04a17.627,17.627,0,0,0,4.25927,1.97461,18.37408,18.37408,0,0,0,4.855.916H50.083a18.389,18.389,0,0,0,4.82861-.916A17.6271,17.6271,0,0,0,59.1709,87.04a23.15007,23.15007,0,0,0,3.25976-2.81738c3.06641-2.87793,4.75538-4.46387,5.62891-5.45606l.24023-.27344a18.64989,18.64989,0,0,0,2.83106-3.7041,13.53569,13.53569,0,0,0,1.51465-6.31445l1.5.00586c-.002.48016-.043.947-.08466,1.41363a3.93922,3.93922,0,0,0,.84.07856,4.29957,4.29957,0,0,0,1.32617-.23926,3.55445,3.55445,0,0,0,1.564-1.63965l.1123-.18848a35.22552,35.22552,0,0,0,3.76074-9.84277l.231-.88379A7.1463,7.1463,0,0,0,81.86865,53.61133ZM76.32812,59.502a2.19,2.19,0,0,1-.53564,3.06836l.86231,1.22852a3.69075,3.69075,0,0,0,.897-5.16406ZM57.2002,50.71289l.79394,1.27344a7.86341,7.86341,0,0,1,1.8891-.83856c-.00262.042-.01282.07952-.01282.123a2.06165,2.06165,0,1,0,4.12329,0,1.84676,1.84676,0,0,0-.02038-.196,7.8739,7.8739,0,0,1,2.679,1.28363l.90039-1.19922a9.15792,9.15792,0,0,0-10.35253-.44629Zm-24.75342.44629.90136,1.19922a7.83611,7.83611,0,0,1,2.67859-1.28418,1.8412,1.8412,0,0,0-.02044.19653,2.06165,2.06165,0,1,0,4.12329,0c0-.04272-.01-.07965-.01258-.12091a7.87519,7.87519,0,0,1,1.88837.83649l.79492-1.27149a9.1548,9.1548,0,0,0-10.35351.44434Z"
    ></path>
  </g>
</svg>
