<?xml version="1.0" encoding="UTF-8" standalone="no"?>
<!-- Created with Inkscape (http://www.inkscape.org/) -->
<svg
  xmlns:inkscape="http://www.inkscape.org/namespaces/inkscape"
  xmlns:rdf="http://www.w3.org/1999/02/22-rdf-syntax-ns#"
  xmlns="http://www.w3.org/2000/svg"
  xmlns:cc="http://creativecommons.org/ns#"
  xmlns:dc="http://purl.org/dc/elements/1.1/"
  xmlns:sodipodi="http://sodipodi.sourceforge.net/DTD/sodipodi-0.dtd"
  xmlns:svg="http://www.w3.org/2000/svg"
  xmlns:ns1="http://sozi.baierouge.fr"
  xmlns:xlink="http://www.w3.org/1999/xlink"
  id="svg4015"
  sodipodi:docname="allende.svg"
  viewBox="0 0 543.61 822.59"
  version="1.1"
  inkscape:version="0.47 r22583"
>
  <sodipodi:namedview
    id="base"
    bordercolor="#666666"
    inkscape:pageshadow="2"
    inkscape:window-y="40"
    pagecolor="#ffffff"
    inkscape:window-height="675"
    inkscape:window-maximized="1"
    inkscape:zoom="0.35"
    inkscape:window-x="-4"
    showgrid="false"
    borderopacity="1.0"
    inkscape:current-layer="layer1"
    inkscape:cx="308.95482"
    inkscape:cy="433.83655"
    inkscape:window-width="1024"
    inkscape:pageopacity="0.0"
    inkscape:document-units="px"
  />
  <g
    id="layer1"
    inkscape:label="Ebene 1"
    inkscape:groupmode="layer"
    transform="translate(-41.045 -143.61)"
  >
    <path
      id="path4053"
      style="fill: #000000"
      d="m233.45 160.9c-3.6288-0.0219-9.1865 0.59434-7.4541 0.92802 3.7156 0.71565 2.0041 3.7766-3.3528 6.0171-2.3129 0.96735-2.9832 4.6179-0.95795 5.2089 0.65859 0.19219 4.3719 0.90718 8.2623 1.5866 6.698 1.1697 11.32 3.7735 10.118 5.7178-0.25027 0.40495 0.95313 1.834 2.6643 3.1732l3.1133 2.4548-1.856 3.1433c-1.0234 1.7325-1.6762 3.3588-1.4369 3.6223 0.23931 0.26344-2.4607 0.62254-6.0171 0.77834-6.1839 0.27089-6.4821 0.18724-6.4961-1.9159-0.0487-7.2989-6.0697-5.1384-9.1604 3.293-1.0415 2.8412-2.2589 1.8851-2.9337-2.335-0.35437-2.2162-1.5336-4.9642-2.6344-6.077-5.026-5.081-5.0805-5.3269-0.59872-5.0292 5.675 0.37693 5.8847-1.2999 0.7484-6.4362-3.9053-3.9053-4.4961-4.2009-7.2445-3.4127-4.148 1.1896-4.9712 1.8292-6.0171 4.5802-0.68342 1.7975-1.3285 2.2176-2.5745 1.6764-0.9147-0.39728-3.0236-0.93091-4.7-1.1675-1.8946-0.26739-4.2042-1.6839-6.077-3.742-3.0661-3.3694-4.6044-3.7001-5.7477-1.2274-0.35091 0.75894-1.1275 2.3541-1.7363 3.5324-0.60877 1.1783-1.1076 2.952-1.1076 3.9516 0 2.2195 6.9869 8.7413 9.37 8.7413 0.94686 0 2.1338 0.40273 2.6344 0.89808 0.50053 0.49536 2.1894 1.1281 3.742 1.407 4.994 0.89699 7.2944 4.168 9.4598 13.501 0.12307 0.53044 0.94609 2.0238 1.856 3.3229 0.90994 1.2991 1.6764 2.864 1.6764 3.4726 0 1.5071-2.4196 3.4179-3.263 2.5745-0.37461-0.37461-2.4785-0.8112-4.67-0.95795-4.6483-0.31127-7.5072-2.4615-5.6878-4.2808 3.1277-3.1277-0.45894-7.2947-6.5261-7.5738-6.5346-0.30063-6.9309-0.62246-6.2566-5.1191 0.47178-3.146 0.23754-4.3715-0.98788-5.3885-2.5985-2.1566-8.2603-4.0213-12.513-4.1312-4.8542-0.12542-6.0774-1.1104-3.6223-2.9337 1.4903-1.1068 1.6262-1.7146 0.7484-3.1133-0.87932-1.401-2.2023-1.6938-6.9751-1.5567-5.5526 0.15958-6.137 0.40067-9.6993 4.0713-2.0825 2.1459-4.1802 3.8917-4.67 3.8917-1.6502 0-3.8917 2.9841-3.8917 5.1789 0 1.1979 0.84405 2.9787 1.886 3.9216 2.6423 2.3913 8.9678 1.456 12.394-1.8261 3.468-3.3226 5.7777-3.1161 9.6394 0.86815 1.782 1.8386 4.6088 3.5825 6.2566 3.8917 4.7056 0.88278 6.6279 5.3583 5.598 12.962-0.72828 5.3773-1.0891 6.0803-3.3229 6.6757-1.3755 0.36666-6.4656 3.4074-11.316 6.7655-16.292 11.28-17.796 12.255-19.249 12.304-0.79633 0.0269-3.5983-1.46-6.2267-3.293-2.6283-1.8329-6.1608-4.0112-7.8732-4.8197-4.177-1.9722-4.3109-5.5737-0.26942-7.6636 2.6535-1.3722 2.9801-1.3338 4.4305 0.35923 5.4579 6.3708 6.0972 6.8254 9.4897 6.8254 3.4206 0 5.4821-1.1184 18.68-10.238 9.1866-6.3479 7.4201-10.316-6.5261-14.669-3.3226-1.037-6.6966-2.5355-7.484-3.3229-1.7353-1.7353-12.159-0.99097-15.178 1.0777-1.0393 0.71217-2.5748 1.2872-3.4127 1.2872-0.83794 0-2.7144 1.244-4.1611 2.7541s-6.2671 4.4033-10.687 6.4362c-5.4265 2.4958-8.1955 4.3179-8.5318 5.628-0.27389 1.0671-2.91 6.1824-5.8675 11.346-4.1992 7.3314-5.1337 9.6595-4.2809 10.687 1.1303 1.362-0.18054 8.6413-1.6764 9.3101-1.1853 0.52999-5.5644 6.7772-7.7235 11.016-1.1261 2.211-2.6633 4.3664-3.3828 4.7898-0.71949 0.42341-1.8125 2.3949-2.4548 4.3707-0.64226 1.9758-1.5644 3.5923-2.0356 3.5923-1.1998 0-4.0779 10.312-3.3828 12.124 0.81674 2.1284-5.0385 13.804-8.2623 16.465-3.6172 2.9854-5.937 8.5709-4.7 11.286 0.66089 1.4505 0.51786 2.8063-0.44904 4.67-0.7489 1.4435-1.3471 3.5845-1.3471 4.7598s-0.86216 2.9081-1.9159 3.8618c-1.0537 0.95363-1.9159 2.746-1.9159 3.9815 0 1.3582-0.56816 2.2452-1.4369 2.2452-1.2437 0-1.461 4.2198-1.6465 31.373-0.27908 40.863-0.35433 38.426 0.98789 50.203 1.2645 11.094 3.595 19.217 7.933 27.811 3.8498 7.6265 3.7539 12.421-0.29936 16.435l-3.0535 3.0235 0.17962 18.201c0.29778 30.612 0.49171 31.366 12.274 43.647 3.8258 3.9878 7.2559 8.403 7.6038 9.7891l0.62866 2.5146 2.3649-2.3649c1.3007-1.3007 2.8135-2.0881 3.3828-1.7363 0.67673 0.41824 0.87211-0.14409 0.53885-1.6465-3.0503-13.751-3.6441-16.908-3.5923-19.458 0.09057-4.4683-0.84116-17.346-1.886-25.955-0.51156-4.215-1.165-10.897-1.4669-14.848l-0.56878-7.1846 4.6401-2.2452c2.773-1.3457 5.7449-2.0847 7.4541-1.856 2.4736 0.33091 2.5943 0.47087 0.92802 1.1076-5.1537 1.9694-6.7261 3.418-6.6159 6.077 0.27465 6.6223 1.5272 20.207 2.1255 23.111l0.65859 3.2032 2.6344-2.0656c1.4451-1.1367 2.6344-2.8773 2.6344-3.8618 0-2.1069 1.5722-3.3959 2.1255-1.7363 0.22568 0.67703 3.28-1.16 7.4541-4.4904 9.8922-7.8928 15.327-13.457 15.327-15.686 0-3.9432 2.4156-4.9095 12.214-4.9095h9.1904l-2.335 2.4847c-2.444 2.6207-11.544 9.0107-12.843 9.0107-1.427 0-9.1006 6.8424-9.1006 8.1127 0 0.69666-0.83274 2.2758-1.8261 3.5025-1.441 1.7796-2.0841 1.9816-3.1732 1.0777-1.1001-0.91298-2.4556-0.21316-7.035 3.5624-3.1315 2.5818-5.684 5.4732-5.6878 6.4362-0.0048 1.1598-0.65405 1.6699-1.9159 1.5567-1.0458-0.0938-3.7089 1.3254-5.9273 3.1433l-4.0414 3.3229 1.3771 4.5203c0.75587 2.4909 1.3713 6.1113 1.3771 8.0528 0.0057 1.9415 0.45184 4.697 0.98789 6.107 1.4123 3.7146 8.9379 12.19 13.651 15.387 4.8532 3.292 5.7149 4.5102 5.9573 8.5018 0.10143 1.6707 1.2514 4.9503 2.5446 7.2745l2.335 4.221 8.1127-0.26943c11.851-0.40811 16.873-1.6612 27.661-6.9452 5.3215-2.6064 9.6693-4.9199 9.6693-5.1191 0-0.19917-1.1156-0.35923-2.4548-0.35923-3.3194 0-3.8306-0.79378-2.3649-3.5324 2.0184-3.7715 0.79469-5.2307-3.8318-4.6102-7.0324 0.94324-6.762-3.4192 0.62866-9.6394 3.2534-2.7381 4.1598-6.0484 2.1853-8.0229-1.5031-1.5031-0.69118-5.4777 1.1974-5.8375 0.88552-0.16871 3.2565 1.1362 5.2687 2.9337 4.5318 4.0481 7.8563 4.9675 10.717 2.9637 1.175-0.82303 2.7979-1.2329 3.5923-0.92802 0.79441 0.30484 3.5588-0.51968 6.1369-1.8261 4.0482-2.0514 5.4745-2.2923 10.508-1.7662 3.2053 0.33502 6.0567 0.99808 6.3464 1.4669 0.28972 0.46878-0.4436 3.3056-1.6465 6.3165-1.6218 4.0593-3.9818 7.2327-9.1006 12.244-7.1933 7.042-17.382 14.468-21.165 15.417-1.2096 0.30359-2.1853 0.88877-2.1853 1.3172 0 0.4284-3.0466 2.1775-6.7655 3.8917s-7.1568 3.8388-7.6337 4.7299c-0.54823 1.0244-2.6326 1.8738-5.6579 2.2751-2.6319 0.34913-5.0143 1.0068-5.2987 1.4669-0.52281 0.84594-17.29 0.5727-29.906-0.47898-7.9347-0.66143-8.1557-0.83949-13.351-10.837l-3.6522-7.0649-5.5382 0.59872c-5.0584 0.5287-5.9517 0.98913-10.328 5.3885l-4.7898 4.8197v7.3044c0 8.9523 1.2052 13.178 6.2566 21.853 2.1548 3.7009 4.7586 8.2104 5.7777 9.9986s4.1469 5.8835 6.9751 9.1006c10.846 12.337 12.938 17.615 14.549 36.971 1.8431 22.144 5.1557 42.585 7.3044 45.114 0.70674 0.8318 1.2796 2.125 1.2872 2.8739 0.0149 1.4623 2.3434 8.4646 3.7121 11.196 2.7739 5.536 4.9033 11.053 4.4605 11.495-0.28298 0.28297-0.10693 0.98133 0.35923 1.5567 2.1552 2.66 5.1807 8.9693 5.4783 11.406 0.18108 1.4824 0.96953 3.6224 1.7662 4.7598 0.7967 1.1374 1.464 2.9432 1.4669 4.0114 0.003 1.0682 0.64986 3.1908 1.4369 4.7 0.78706 1.5091 1.4369 3.5496 1.4369 4.5503s0.38614 2.5876 0.86814 3.5025c0.7957 1.5103 3.4246 11.288 4.3108 16.016 0.4679 2.4966 3.0468 9.1996 6.0471 15.806 1.316 2.8978 2.4998 5.9714 2.6643 6.8254 0.57657 2.9932 5.4218 11.604 8.2923 14.758 1.5941 1.7517 4.0646 5.3799 5.4783 8.0528s3.461 5.5026 4.5802 6.2866c1.1192 0.78393 3.5625 2.8976 5.4184 4.7 1.8559 1.8023 4.2647 3.5445 5.3586 3.8917 1.0938 0.34716 2.0057 0.98449 2.0057 1.407 0 0.4225 2.4787 1.9124 5.5082 3.3229 7.8879 3.6727 13.851 7.321 17.393 10.627 1.6933 1.5806 4.2902 4.0244 5.7777 5.4184s3.5121 3.9805 4.4904 5.7477c0.97828 1.7672 3.1613 5.0184 4.8796 7.2146s3.1518 4.5671 3.1732 5.2688c0.0215 0.70163 1.3146 2.756 2.8739 4.5802 1.5592 1.8242 2.8439 3.8176 2.8439 4.4305 0 0.61293 1.0465 3.4927 2.335 6.4063s2.7364 8.0329 3.2331 11.376c0.87194 5.8677 2.3295 10.85 4.221 14.579 0.498 0.98174 1.0777 2.6838 1.2872 3.7719 0.20956 1.0882 1.6095 3.2913 3.1433 4.9095s3.5595 4.4425 4.4904 6.2866c2.2822 4.5207 4.8898 7.9723 10.029 13.292 2.3709 2.4542 7.4889 7.9154 11.376 12.124 6.7544 7.3139 7.2838 7.6674 11.974 8.1426 2.6991 0.27343 7.496 0.37064 10.657 0.23949 18.475-0.76649 22.652-1.1032 23.739-2.0057 0.66368-0.55079 3.4842-1.3086 6.2566-1.6764 3.0034-0.39842 5.5044-1.315 6.1968-2.2751 0.63912-0.88626 1.9438-1.9166 2.9038-2.2751 1.2308-0.45963 1.6545-1.4328 1.4369-3.293-0.26577-2.2726 0.25474-2.8998 3.7121-4.5503 3.8623-1.8439 3.9955-2.051 3.4726-5.5082-0.51359-3.3957-0.40079-3.5923 2.0356-3.5923 1.909 0 2.5156-0.43479 2.335-1.6764-0.37357-2.5688 1.0832-6.139 2.335-5.6878 1.5887 0.57255 4.4904-1.0852 4.4904-2.5745 0-1.6304 2.8863-4.8514 5.0592-5.6579 1.1884-0.44108 1.5255-1.2925 1.1675-2.814-0.75387-3.2043 0.49476-4.3943 5.0592-4.8197 2.2446-0.2092 4.5894-0.87734 5.2089-1.4968 0.86307-0.86311 0.85098-1.1376-0.0299-1.1376-1.7006 0-1.3992-2.6346 0.4191-3.6522 0.86515-0.48417 2.3307-0.68503 3.2331-0.44904 1.1137 0.29124 2.2701-0.68104 3.6522-3.0235 1.1199-1.8981 2.8096-3.7259 3.742-4.0713 0.93239-0.34537 3.3235-2.2978 5.2987-4.3108 2.2652-2.3086 4.476-3.6522 5.9872-3.6522 1.7658 0 2.3949-0.5187 2.3949-1.9458 0-1.1567 0.99429-2.3744 2.4847-3.0535 2.0468-0.93257 2.9936-0.85674 5.2687 0.44904 1.5255 0.87551 2.784 1.1909 2.784 0.68853s-0.43108-0.92801-0.95795-0.92801c-1.6396 0-1.0487-2.9058 0.71846-3.5325 0.92203-0.32698 2.323-1.1226 3.1134-1.7662 0.79031-0.64362 2.9457-1.6537 4.7898-2.2452 1.8441-0.59145 5.4944-3.0689 8.1127-5.5082 2.6182-2.4393 6.2824-5.4023 8.1426-6.5859 5.5647-3.5406 31.849-28.791 38.797-37.27 2.6945-3.2882 4.2642-4.4006 6.2566-4.4006 2.6805 0 3.8318-1.4208 3.8318-4.7898 0-2.3669 2.5721-4.8398 4.3407-4.1611 2.1963 0.84278 4.3484-1.4763 3.7121-4.0114-0.42834-1.7067 0.0538-2.6061 2.1554-3.9516 3.8432-2.4605 5.1156-4.283 4.8496-6.9152-0.14742-1.4587 0.48402-2.6724 1.7064-3.3528 2.8174-1.5683 3.4168-2.7148 2.814-5.2687-0.39021-1.6531 0.19219-3.0452 2.0356-4.9694 1.4036-1.4651 2.3183-3.2207 2.0656-3.9216-0.2527-0.70092 0.15047-1.9833 0.89808-2.8439 0.89855-1.0343 1.4543-4.2814 1.5866-9.5795 0.17517-7.014 0.51561-8.4742 2.814-11.735 1.4445-2.0493 2.6344-4.4357 2.6344-5.2987 0-0.86299 0.63317-2.4875 1.407-3.5923 1.0707-1.5286 1.5062-6.2124 1.8261-19.608 0.4069-17.039 2.19-31.195 4.2509-33.678 1.3866-1.6708 1.4805-19.003 0.14968-26.553-0.60368-3.4247-1.291-8.8893-1.5567-12.154-0.27854-3.4226-1.0733-6.4153-1.856-7.0649-1.3657-1.1334-1.89-3.7719-0.7484-3.7719 0.33707 0 1.107 0.67717 1.7064 1.4968 0.92371 1.2632 1.1119 1.1005 1.2872-1.0178 0.34665-4.1884 1.8568-5.8872 8.3522-9.5196 3.4295-1.9179 7.4387-5.0613 8.891-6.9751s4.619-5.6797 7.0649-8.3522c5.5072-6.0174 9.4598-15.008 9.4598-21.584 0-4.9573-1.2959-6.4867-2.2452-2.6643-0.29442 1.1855-1.1527 4.7419-1.9159 7.9031-1.7305 7.1676-4.5747 12.901-7.8732 15.896-1.3953 1.2667-3.4227 3.275-4.5203 4.4605s-2.6196 2.1554-3.3828 2.1554c-0.76316 0-3.048 1.5088-5.0891 3.3528-2.0412 1.8441-4.3601 3.3528-5.1191 3.3528-0.75892 0-1.9778 0.88029-2.7242 1.9458-2.6455 3.777-6.2934-0.76941-6.4961-8.0827-0.0791-2.853-0.10676-2.875-0.80828-0.56879-1.3096 4.3052-3.9715 8.6924-4.9095 8.1127-1.6032-0.99085-0.97357 0.73853 0.71847 1.9758 1.5224 1.1132 1.5308 1.3443-0.0599 3.7719-1.8623 2.8422-1.4945 5.2987 0.80827 5.2987 1.2353 0 1.2714 0.31146 0.26942 1.9159-0.65807 1.0538-1.7313 1.9159-2.3949 1.9159-1.4334 0-1.6101 2.5058-0.23949 3.3528 0.52688 0.32563 0.95796 2.6998 0.95796 5.2687 0 2.569 0.43096 5.7987 0.95795 7.1846 0.64667 1.7009 0.63949 3.1198-0.0299 4.3707-0.78041 1.4582-0.67822 1.856 0.47898 1.856 2.078 0 1.8197 3.5521-0.44904 6.4362-1.438 1.8281-1.6566 2.8297-0.92802 4.191 0.52802 0.98663 0.69426 2.8861 0.35923 4.221-0.35582 1.4177-0.1077 3.0405 0.59872 3.8917 0.9763 1.1764 0.94798 1.9226-0.0898 3.8618-1.1046 2.0639-1.0608 2.7566 0.29936 5.0592 0.9207 1.5586 1.2397 3.0546 0.7484 3.5624-0.4646 0.48012-1.9869 4.4329-3.3828 8.7712-1.3958 4.3384-2.9526 8.1391-3.4426 8.442-0.49008 0.3029-0.86815 1.5326-0.86815 2.7541 0 2.478-1.4406 3.9888-4.3108 4.5203-1.2977 0.24034-1.9415 1.1646-2.0057 2.8439-0.14228 3.7248-1.1432 4.8466-3.263 3.7121-2.4887-1.3319-2.3963-1.4017-4.3108 2.8439-1.3686 3.035-1.4685 4.1186-0.53885 5.2388 0.64187 0.77342 1.0104 2.3729 0.83821 3.5624-0.25511 1.7625-0.91972 2.1783-3.6522 2.2153-3.0111 0.0408-3.3502 0.28766-3.2032 2.5446 0.25461 3.9079-3.329 5.4209-7.8133 3.293-1.9046-0.90379-3.7132-2.2762-4.0114-3.0535-0.59399-1.5479 3.1592-6.107 5.0292-6.107 2.0591 0 2.3497-2.7211 0.35923-3.3528-2.2812-0.72403-2.5152-4.8191-0.3293-5.6579 0.83787-0.32151 1.8429-0.36837 2.2452-0.11975 1.1501 0.71083 2.8586-3.8757 2.2751-6.107-0.30261-1.1572-0.0763-2.0057 0.53885-2.0057 0.58833 0 1.0777-0.64662 1.0777-1.4369 0-0.79031-0.58281-1.4369-1.2872-1.4369-0.97212 0-1.2836-1.9728-1.2573-8.2025 0.0353-8.3834-0.90602-10.632-4.0114-9.4897-0.73303 0.26952-1.51-0.37262-1.7962-1.4669-0.59736-2.2843-2.2694-2.4015-5.9872-0.47897-2.0589 1.0647-2.6043 1.895-2.2153 3.3828 0.33132 1.267-0.25427 2.8008-1.6166 4.2509-1.4992 1.5958-1.9288 2.8852-1.4669 4.3407 0.81471 2.5669-1.1998 7.6636-3.0235 7.6636-2.003 0-2.8111 2.987-1.1376 4.221 2.4837 1.8314 3.7362 4.9154 2.4847 6.1668-0.60759 0.60759-1.586 1.1076-2.1554 1.1076-0.56942 0-1.4989 1.2932-2.0955 2.8738-0.72532 1.9216-1.754 2.8739-3.0834 2.8739-2.276 0-5.997 2.833-5.2687 4.0114 0.26755 0.43289 1.3557 0.77834 2.3949 0.77834 2.662 0 3.5038 2.8616 1.3172 4.4605-2.4066 1.7598-6.1968 1.6638-6.1968-0.14968 0-2.1696-1.7033-1.7092-2.4548 0.65859-0.44597 1.4051-0.15073 2.4362 0.89809 3.2032 1.8297 1.3379 2.0888 5.1946 0.35923 5.3586-2.5449 0.24123-4.1197-0.30704-5.3286-1.856-1.166-1.494-1.3554-1.4679-2.6643 0.29936-1.2522 1.6906-1.2598 2.0148 0.11974 3.0235 0.85475 0.62501 1.4187 1.942 1.2274 2.9038-0.27467 1.3807-1.2558 1.7363-4.6401 1.7363-4.1123 0-4.277 0.1071-3.9815 2.6344 0.35516 3.0374-0.86826 3.3363-4.9694 1.1974-3.6969-1.9281-4.782-1.8107-5.8974 0.6586-1.2256 2.7133-2.7363 3.1611-4.5802 1.3172-1.9449-1.9449-2.5745-1.8865-2.5745 0.29936 0 0.98923-0.67193 2.3689-1.4968 3.0535-1.2447 1.033-2.0125 0.96163-4.4006-0.44904-3.0956-1.8286-3.4087-1.7239-5.0592 1.5866-0.68151 1.367-1.9442 2.1554-3.4127 2.1554-1.4314 0-3.5557 1.2964-5.4783 3.3528-2.432 2.6013-3.3228 3.073-3.9815 2.0656-0.70303-1.0751-1.2491-1.0305-3.2331 0.26943-1.3179 0.8635-3.419 1.766-4.67 2.0057-1.251 0.23966-2.8083 1.1973-3.4426 2.1255-2.1023 3.076-4.4135 5.0292-5.9573 5.0292-1.6247 0-13.853 6.8419-16.525 9.2502-1.224 1.1035-2.051 1.212-3.5324 0.41911-3.7249-1.9935-5.7211-1.3156-6.0471 2.0656-0.27046 2.805-0.58396 3.1059-3.1732 2.9337-1.5806-0.10512-4.879-0.31756-7.3044-0.47898-2.4254-0.16143-5.1521-0.93878-6.077-1.7064-1.0025-0.83198-3.3552-1.3055-5.8375-1.1974-2.2902 0.0997-4.4419-0.26387-4.7598-0.77833-0.7207-1.1661-5.2508-1.1783-7.0649-0.0299-1.8852 1.1933-4.6507-1.5161-3.1133-3.0535 1.6527-1.6527 1.305-2.8385-0.6586-2.2153-0.97461 0.30933-3.6641-0.45335-6.077-1.7363-3.4965-1.8591-5.0697-2.1648-8.0827-1.5866-5.8798 1.1282-10.991 3.9712-10.418 5.7776 0.26985 0.85021-0.10331 2.3289-0.80827 3.293-1.1879 1.6246-1.4381 1.651-3.5923 0.23948-1.58-1.0352-2.8015-1.2422-3.7719-0.62865-2.6464 1.6731-4.4156 0.93665-6.0471-2.4847-1.5409-3.2312-3.5025-3.7273-3.5025-0.89808 0 0.72157-0.69404 1.9813-1.5267 2.814-1.38 1.38-1.7669 1.3653-4.2809-0.11974-2.6155-1.545-2.8597-1.5157-4.7 0.14968-1.8774 1.6991-2.0799 1.6813-6.4961 0-2.5105-0.95577-5.628-2.8797-6.9452-4.2808-1.3172-1.4012-3.5554-2.8499-4.9694-3.2032-1.892-0.47269-2.651-1.3261-2.8739-3.263-0.2354-2.0455-1.2066-3.0302-4.3707-4.4605-2.2392-1.0122-4.0713-2.2666-4.0713-2.784 0-0.5175-2.0859-3.1522-4.6102-5.8375s-5.2662-5.8774-6.107-7.0948c-1.4809-2.1446-1.6522-2.167-5.1191-0.71846-4.3894 1.834-11.909 1.9307-16.046 0.20955-1.6954-0.70536-3.6223-1.0905-4.2808-0.86815-0.65859 0.2224-1.1974-0.003-1.1974-0.50891 0-1.4445 2.4782-3.1524 3.4426-2.365 0.47839 0.39058-0.16633-0.4162-1.407-1.8261s-1.9637-3.0306-1.6166-3.5923c0.34715-0.5617 0.243-1.7423-0.23949-2.6044-0.62751-1.1213-1.0881-1.2256-1.5866-0.41911-0.53261 0.86183-1.0025 0.85742-2.0356 0-1.7646-1.4645-1.7193-2.814 0.0898-2.814 0.79032 0 1.4369-0.27726 1.4369-0.62866 0-1.3724-6.9967-13.245-8.412-14.279-0.88215-0.64473-1.2284-1.7553-0.86815-2.6942 0.36659-0.95533-0.11574-2.331-1.1974-3.4127-1.5278-1.5278-3.8517-9.2245-4.3407-14.429-0.0751-0.79957-0.36259-1.8773-0.65859-2.3949-0.9665-1.6901-0.82048-9.1006 0.17961-9.1006 1.6138 0 3.7167-6.6759 4.2509-13.531 0.37447-4.8051 1.237-6.0344 3.1433-4.4605 1.34 1.1063 1.4307 0.80342 0.89808-2.6044-0.3294-2.1075-1.4163-6.7317-2.4248-10.298-1.6833-5.9524-1.7007-6.5791-0.26942-7.4541 1.2247-0.74861 1.0429-0.84307-0.83821-0.44904-1.3172 0.27592-3.0415 0.067-3.8318-0.44904-1.1989-0.7828-1.2357-1.2484-0.20955-2.9038 1.5457-2.4936 0.76484-3.8318-2.2452-3.8318-2.5942 0-3.0517-1.7607-1.1974-4.7299 0.94286-1.5097 0.85491-2.2082-0.47897-3.6821-0.89864-0.99299-1.6166-2.7178-1.6166-3.8618s-0.86216-2.9577-1.9159-4.0114c-2.0438-2.0438-2.5372-5.2507-0.95796-6.2267 0.52688-0.32563 0.95796-1.0563 0.95796-1.6165 0-0.64628-0.53309-0.57051-1.4369 0.17961-1.7396 1.4437-4.3108 0.59875-4.3108-1.407 0-0.80685 0.86216-2.329 1.9159-3.3828 2.4875-2.4875 2.4124-3.6331-0.23948-4.0114-3.184-0.45426-3.4736-3.6522-0.3293-3.6522 2.1128 0 2.4847-0.41323 2.4847-2.9337 0-1.6974 1.1688-4.6338 2.784-6.9452 3.6973-5.2906 10.953-12.154 12.843-12.154 0.82762 0 1.771-0.43281 2.0955-0.95796 0.32455-0.52514 2.7243-1.8732 5.3286-2.9936s4.7299-2.3639 4.7299-2.784c0-0.42013-1.401-1.0388-3.1134-1.3771-1.7123-0.33824-4.2368-1.0651-5.598-1.5866-1.7885-0.68523-3.6048-0.5574-6.526 0.44904-2.535 0.87337-6.0677 1.2431-9.4897 0.95796-3.0013-0.25011-6.643-0.45192-8.0827-0.44904-3.6548 0.008-4.0968-1.363-1.2573-3.8318 1.8044-1.5689 2.1418-2.4314 1.3771-3.3528-0.5639-0.67947-0.69459-1.7554-0.29936-2.3949 0.51977-0.84102 0.21863-0.94578-1.1076-0.38917-1.9463 0.81684-7.132 0.80101-7.963-0.0299-0.2724-0.2724-0.0559-1.2287 0.50892-2.1255 0.69765-1.1076 2.534-1.7265 5.7178-1.886 6.8022-0.3407 8.4457-0.61451 9.1305-1.5567 0.70858-0.97495 2.7541 0.0463 2.7541 1.3771 0 0.49578-1.0777 0.89808-2.3949 0.89808s-2.3949 0.43108-2.3949 0.95795c0 1.8749 8.3183 0.91338 16.345-1.886 10.314-3.5972 13.83-3.1108 13.83 1.9458 0 2.8642-0.30608 3.293-2.3949 3.293-3.7014 0-3.0655 2.8084 0.71847 3.1732 1.9285 0.18594 3.1133 0.82396 3.1133 1.6764 0 2.2393 2.3204 1.5806 5.2688-1.4968 1.5143-1.5806 3.6466-2.8739 4.7598-2.8739s2.4854-0.44976 3.0535-1.0178c0.56806-0.56807 2.2888-0.89138 3.8019-0.71847 2.1327 0.24371 2.6829 0.73003 2.4548 2.2153-0.16179 1.0538-0.2655 3.6062-0.20955 5.6579 0.077 2.825-0.51508 4.3817-2.4548 6.4063-1.8611 1.9426-2.387 3.2712-1.9758 4.9095 0.31125 1.2401-0.0658 3.4806-0.8382 4.9694-0.77239 1.4888-1.407 3.7718-1.407 5.0891 0 1.3174-1.0746 4.4131-2.3649 6.8554-3.11 5.8863-5.2987 11.475-5.2987 13.471 0 0.89044-0.86216 3.417-1.9159 5.598-1.0538 2.181-1.9159 4.5448-1.9159 5.2687 0 0.72392-1.0777 4.4025-2.3949 8.1725-1.3172 3.7701-2.3949 7.6823-2.3949 8.6814 0 0.99913-0.66066 2.3544-1.4669 3.0235-0.91867 0.76243-1.4408 2.6859-1.3771 5.149 0.0559 2.1615-0.19784 5.9786-0.56878 8.4719-0.76533 5.144 0.64261 6.5636 4.4605 4.5203 1.7953-0.9608 2.332-0.90616 3.3229 0.44904 1.0994 1.5036 1.4264 1.5339 4.1611 0.11975 1.9768-1.0223 2.9637-1.1841 2.9637-0.44905 0 0.78987 0.33931 0.82683 1.2274 0.0898 0.68014-0.56446 2.6797-1.3028 4.4605-1.6165 1.7808-0.31373 4.3589-1.1638 5.7178-1.886 1.3589-0.72218 5.4355-2.507 9.0706-3.9815 3.7522-1.522 6.798-3.3749 7.035-4.2808 0.22951-0.87771 2.696-2.709 5.4783-4.0713 6.5947-3.2291 11.315-8.4573 10.508-11.675-0.49131-1.9575 0.24658-3.1489 4.5203-7.1248 6.5486-6.0922 7.0901-6.1242 6.6159-0.26942-0.22854 2.8214 2.2524 2.8404 4.221 0.0299 0.82018-1.171 1.4968-3.1108 1.4968-4.3108 0-2.403 1.7796-2.8126 4.9095-1.1376 1.6616 0.88924 2.5686 0.41835 6.2866-3.3528 4.7581-4.8263 5.8978-5.2128 7.9929-2.6942 2.671 3.2109 6.4669 9.3209 7.0649 11.346 0.66608 2.2553 4.4006 6.0392 4.4006 4.4605 0-0.55099-0.87372-2.8822-1.9159-5.1789-1.0422-2.2968-1.9043-5.3278-1.9159-6.7057-0.0116-1.3778-0.96238-3.7003-2.1254-5.1789l-2.1255-2.6942 6.1968-5.598c4.8014-4.3498 7.6257-6.0799 12.633-7.6936 7.9294-2.5554 12.912-7.147 14.279-13.232 0.54906-2.4437 2.3031-5.6808 4.3108-7.9031l3.3828-3.742-2.1554-2.3051c-2.0143-2.1441-2.3218-2.2003-4.4006-0.83821-1.7673 1.158-5.0194 1.4419-15.627 1.3172-12.959-0.15242-13.528-0.0812-17.004 2.3051-5.5574 3.8159-18.781 8.2155-19.788 6.5859-0.2705-0.43766-3.4274-0.46064-7.005-0.0299-6.4362 0.77485-9.849 0.43088-9.849-1.0178 0-0.41136-1.6136-1.4727-3.5923-2.365-3.8344-1.7291-6.9452-6.0457-6.9452-9.6394 0-1.2034-0.86216-3.3005-1.9159-4.6401-2.3906-3.0392-2.7-11.299-0.47898-13.142 1.3032-1.0816 1.2995-1.472-0.0898-3.5923-1.4541-2.2192-1.4171-2.5474 0.3293-4.9095 1.4844-2.0078 1.6587-2.988 0.86814-4.7598-0.72702-1.6293-0.6598-2.751 0.23949-4.191 1.0041-1.6077 0.9954-2.3949-0.0299-4.3108-1.0663-1.9923-1.0461-2.4873 0.17962-3.1732 1.0899-0.60992 1.4097-2.4068 1.3172-7.3942-0.0674-3.635-0.46844-7.178-0.89808-7.8732-0.42963-0.69517-0.90651-4.2224-1.0777-7.8432-0.17118-3.6208-0.78723-7.4557-1.3471-8.5018-0.55988-1.0462-0.95283-6.0062-0.86814-11.016 0.12154-7.1909 0.54166-9.5688 1.9159-11.316 0.95751-1.2173 2.0105-3.3775 2.365-4.7898 0.35446-1.4123 1.0283-2.7938 1.4968-3.0834 0.46851-0.28956 0.86815-1.3645 0.86815-2.3949 0-1.0836 1.2965-2.6853 3.0834-3.7719 4.14-2.5177 8.7183-1.7958 18.471 2.8739 8.1786 3.9162 13.958 8.6496 18.141 14.848 2.5258 3.743 8.07 10.662 11.166 13.92 0.85185 0.89654 3.6221 4.6058 6.1369 8.2324 5.0817 7.3283 13.275 16.536 16.255 18.261 5.2569 3.0424 38.442 3.2356 40.294 0.23949 0.30558-0.49444 2.6421-1.7996 5.2089-2.9038s5.407-2.8268 6.3165-3.8318c0.90954-1.005 2.2416-1.8261 2.9337-1.8261 0.74358 0 1.0256-0.58855 0.68852-1.4669-0.4194-1.0929-1.3376-1.3239-3.4127-0.86814-1.5522 0.3409-7.6421 0.54033-13.531 0.44904-5.889-0.0913-11.765-0.16281-13.082-0.14968-1.3172 0.0131-4.1843-0.78971-6.3764-1.7962-2.1921-1.0064-6.0718-2.3197-8.6216-2.9038-8.2892-1.8988-11.074-4.0261-20.506-15.627-2.0733-2.55-3.7719-5.071-3.7719-5.628 0-0.55701-1.4835-2.821-3.293-5.0292-3.795-4.6312-7.9048-12.631-6.9751-13.561 1.1018-1.1018 7.5273 4.5494 8.891 7.8133 0.71955 1.7221 2.0866 3.9127 3.0235 4.8496 0.93689 0.9369 1.7104 1.9441 1.7363 2.2452 0.12948 1.5051 1.6113 4.8621 2.1853 4.9694 2.8201 0.52726 4.9694 0.44603 4.9694-0.17962 0-0.41103-0.39766-0.87213-0.86815-1.0478-1.448-0.54053-6.9407-10.558-6.4662-11.795 0.58141-1.5151 8.9131-4.2887 9.9088-3.293 1.5251 1.5251 16.907-3.6655 18.89-6.3764 1.022-1.3976 1.3368-1.4174 2.5745-0.17962 0.77401 0.77401 3.1207 1.9817 5.2089 2.6643 2.0882 0.68261 5.3106 1.8676 7.1547 2.6643 4.286 1.8518 16.715 2.7411 17.632 1.2573 1.1711-1.8948 7.0918-1.2931 8.2324 0.83821 1.4084 2.6317 3.694 2.4032 4.7898-0.47898 1.0503-2.7625 5.1093-3.3227 6.4662-0.89808 0.74839 1.3373 1.3106 1.315 5.4484-0.0898 4.5497-1.5447 4.5938-1.5156 7.0948 0.80827 1.7237 1.6016 4.0864 2.5049 7.4241 2.8739 4.7346 0.52339 5.0057 0.42641 8.5018-3.263 1.9861-2.0959 3.4603-3.961 3.263-4.1312-1.5644-1.35-38.459-23.533-41.072-24.697-10.196-4.5406-29.846-6.4358-33.498-3.2331-1.5434 1.3535-7.1796 2.5148-11.885 2.4548-1.5109-0.0192-3.2352 0.34025-3.8318 0.80827-0.59663 0.46804-2.9098 1.1253-5.149 1.4669-7.1219 1.0864-5.1217-2.1639 4.5503-7.3942 1.8441-0.99722 5.1884-3.0618 7.4541-4.5802 2.2656-1.5184 4.351-2.7541 4.6401-2.7541 0.28912 0 1.9021-0.56849 3.5624-1.2872 11.374-4.924 17.949-6.0449 26.493-4.4605 2.8978 0.53739 6.8728 1.2613 8.8311 1.5866 4.6428 0.7712 15.52 10.91 16.734 15.597 0.69918 2.6982 2.77 4.517 13.411 11.795 6.919 4.7321 13.049 8.3164 13.621 7.963 2.1181-1.3091 1.1495-12.193-1.9458-21.704-3.1582-9.7035-5.3913-12.32-10.567-12.394-2.6946-0.0382-6.9645-3.3423-6.107-4.7299 0.59296-0.95946-0.63865-1.3744-3.1133-1.0478-0.67307 0.0888-2.8102-1.1471-4.7598-2.7541s-4.4699-2.9337-5.5681-2.9337-3.673-0.78952-5.7477-1.7662c-4.1541-1.9556-19.991-4.4528-21.674-3.4127-0.58324 0.36046-3.0469 0.79056-5.4783 0.92801-10.895 0.61594-29.353 5.0712-36.881 8.9209-7.5729 3.8728-9.3975 3.9848-10.927 0.62866-1.0126-2.2225-0.61144-2.4924 16.614-11.136 16.735-8.3974 17.692-9.0204 17.692-11.615v-2.7541l-7.4241 0.62866c-10.268 0.85076-16.103 2.6344-25.625 7.8133-1.0538 0.57311-4.0713 2.1224-6.7057 3.4426-9.6138 4.818-16.334 8.5268-17.812 9.849-0.8318 0.74426-1.9578 1.3471-2.5146 1.3471-0.55688 0-2.2628 0.64986-3.7719 1.4369-4.1727 2.1762-5.7565 1.8122-6.4063-1.4369-0.38667-1.9334-1.1588-2.8739-2.335-2.8739-0.96154 0-2.2471-0.48086-2.8439-1.0777-0.59683-0.59683-1.8176-0.79694-2.7242-0.44904-1.5012 0.57606-1.5158 0.72964-0.11974 1.7962 0.84311 0.64409 2.1448 3.0231 2.9038 5.2687 1.367 4.0445 1.3727 4.0932-1.2872 5.9872-4.0783 2.904-8.4326 3.5065-9.2203 1.2872-0.69105-1.947-4.1667-6.1264-5.0592-6.077-0.30332 0.0168-1.3369 0.64341-2.3051 1.377-1.6883 1.2793-1.6589 1.4708 0.71847 4.9694 1.3633 2.0063 2.4847 3.9471 2.4847 4.3108 0 2.1697-16.623 3.9422-22.512 2.3949-1.5806-0.41533-4.8137-0.90619-7.1846-1.0777-2.3709-0.1715-8.2655-0.6321-13.082-1.0178-7.3329-0.58726-9.1169-0.44136-10.987 0.86815-1.7496 1.2255-4.6077 1.5567-13.202 1.5567-8.9349 0-11.301 0.30297-12.753 1.6166-1.6361 1.4806-1.91 1.4728-3.3229 0.0599-1.1368-1.1368-2.1264-1.2956-3.8019-0.65859-4.3709 1.6618-17.493 2.2246-20.027 0.86814-2.7808-1.4883-2.8961-2.1631-0.74841-4.3108 1.0799-1.0799 2.5659-1.4298 4.5503-1.1076l2.9637 0.47898v-5.4184c0-4.2346-0.41609-5.7758-1.9159-7.035-1.1859-0.99561-2.2806-1.2694-2.8439-0.71847-1.4907 1.4578-2.1844 1.0713-4.4006-2.5146-1.1605-1.8777-3.7639-4.4576-5.8076-5.7477-2.0437-1.2902-3.7121-2.9882-3.7121-3.7719 0-0.78371-0.45351-1.4369-0.98789-1.4369-0.55294 0-0.73648-1.2423-0.44904-2.8739 0.27778-1.5768-0.0184-3.7048-0.6586-4.7299-0.9266-1.4837-0.90413-2.3717 0.14968-4.3407 1.017-1.9002 1.0479-2.724 0.17962-3.5923-1.7171-1.7171-1.3235-4.3812 0.71846-5.0292 1.0014-0.31782 2.0769-1.6067 2.3949-2.8739 0.31804-1.2672 2.5259-3.7066 4.9095-5.4184l4.3407-3.1134-2.3949-1.9758c-3.0458-2.5308-2.4614-6.97 1.0178-7.8432 3.11-0.78056 2.8593-2.1773-0.59872-3.3828-2.9786-1.0384-3.4956-2.2072-1.9758-4.6102 1.2573-1.9879-0.58618-3.8617-3.8019-3.8617-2.6429 0-4.5581-2.3049-2.814-3.3828 0.50387-0.31142 0.92802-1.4265 0.92802-2.4847 0-1.4598-0.46348-1.7891-1.856-1.3471-2.1415 0.6797-3.211-0.57925-2.3649-2.784 0.42286-1.102 0.95633-1.2658 1.7962-0.56878 0.83995 0.69709 1.6676 0.43795 2.9038-0.92802 1.9946-2.204 1.3566-3.4842-1.1675-2.335-0.94475 0.43013-2.1374 0.85473-2.6643 0.92802-2.1473 0.29853-6.7909 2.9368-7.963 4.5203-1.9956 2.6961-2.9054 1.9965-3.6223-2.784-0.55058-3.6716-0.3474-4.6976 1.0478-5.7178 1.5933-1.1651 1.5954-1.4405 0.11975-4.5503-1.1834-2.4938-1.3441-3.9258-0.62866-5.8076 1.091-2.8696 3.6888-4.2476 4.7598-2.5146 0.5336 0.86338 0.91614 0.7521 1.377-0.44904 0.34585-0.90127 0.12971-2.2302-0.47897-2.9637-0.85365-1.0286-0.76133-1.746 0.44904-3.0834 0.86302-0.95364 1.5866-2.2437 1.5866-2.8739 0-0.63015 1.1165-1.5754 2.4847-2.0955 1.3682-0.52018 2.7142-1.8056 2.9936-2.8739 0.27936-1.0683 1.9142-2.5369 3.6522-3.263 2.3581-0.98527 3.2407-2.0168 3.4726-4.0414 0.29183-2.5482 0.63652-2.7228 5.3286-2.9936 4.9662-0.28668 4.9882-0.32513 4.4305-3.1133-0.47799-2.3899-0.19309-2.9288 1.9458-3.742 1.3806-0.5249 3.8076-0.70533 5.3885-0.38917 2.9901 0.59803 3.2416 0.21548 2.9038-4.1012-0.18111-2.3141 4.0203-6.107 6.7656-6.107 0.98511 0 2.4105-1.2532 3.2331-2.8439 2.1797-4.215 6.9024-6.5181 5.9573-2.9038-0.33818 1.2932-0.0216 1.9159 0.95795 1.9159 1.0765 0 1.2923-0.61553 0.83821-2.4248-0.77249-3.0779 0.11629-4.747 1.7962-3.3528 1.8566 1.5409 5.7556 0.59183 6.1369-1.4968 0.18286-1.0018 0.72171-2.2236 1.1974-2.7242 1.5288-1.6084 0.86754-5.7035-1.5567-9.6394-2.2248-3.6121-3.1023-7.1846-1.7662-7.1846 0.33124 0 3.0176 1.6551 5.9872 3.6821 6.1019 4.1651 8.4225 4.2629 12.813 0.56878 2.616-2.2012 3.0082-2.2694 4.4904-0.92802 1.8022 1.6309 5.3753 1.9764 6.2267 0.59872 0.29992-0.48527-1.6027-3.5855-4.2509-6.8853-3.2608-4.063-4.5209-6.3159-3.8618-6.9751 0.53534-0.53534 0.98789-1.7918 0.98789-2.784 0-2.7686 1.4-1.6938 6.526 4.9394 4.3064 5.5726 5.0373 6.1024 8.7114 6.3764 2.4495 0.18269 4.181-0.12338 4.4305-0.80827 0.37584-1.0315 1.1475-4.933 1.3172-6.6458 0.0392-0.39516 1.7589-0.71847 3.8019-0.71847 4.4425 0 6.326-1.8317 5.4484-5.3286-0.89354-3.5601 0.89954-5.2089 5.7178-5.2089 6.1816 0 7.1547-0.64621 7.1547-4.7898 0-4.3845 1.8167-5.4244 5.0592-2.8739 1.9749 1.5534 3.3447 1.7402 9.3999 1.2573 3.899-0.31094 7.5751-0.9379 8.1725-1.407 0.59741-0.46909 1.3632-4.6239 1.7064-9.2203 1.1163-14.95 1.6776-18.411 2.9637-18.411 1.918 0 2.525-2.8179 1.8261-8.412-0.79311-6.3478-3.0971-8.8311-8.2324-8.8311-4.485 0-4.7569-1.5676-0.83821-5.0592 2.6983-2.4042 5.6205-9.7966 4.3707-11.046-1.2723-1.2723-16.55-4.6219-23.47-5.149-0.41295-0.0314-0.88859-0.0567-1.407-0.0599zm69.242 6.7656 1.5866 2.4248c2.5998 3.9678 5.7837 5.6216 12.124 6.3165 1.0417 0.11417 2.5669 5.1364 3.0235 9.9088 0.24151 2.524 1.2211 5.4338 2.1554 6.4662 0.93428 1.0324 2.2334 1.886 2.9038 1.886 1.76 0 5.2089-4.6868 5.2089-7.0948 0-1.1289 0.66915-3.0094 1.4968-4.191 2.1904-3.1272 0.37046-7.765-4.6401-11.795-3.9226-3.1548-4.3404-3.273-13.95-3.5923l-9.9088-0.32929zm53.436 1.0777c-1.2126 0.0306-2.378 0.3577-4.1312 1.0178-5.6026 2.1096-5.7478 2.4836-2.3949 5.6878 2.4716 2.362 3.4991 2.7526 6.2566 2.3051 1.8186-0.29512 4.1079-0.074 5.0891 0.50891 1.4687 0.87249 5.8468 0.67926 6.8254-0.29936 0.13971-0.13972-0.37677-1.7896-1.1675-3.6821-1.2038-2.881-2.1973-3.6413-6.0171-4.7299-1.986-0.56598-3.2479-0.83881-4.4605-0.80828zm-7.3942 10.597c-2.3042-0.0316-4.2813 0.41958-5.3585 1.4968-2.4581 2.4581-0.37707 4.9593 7.3942 8.9209 6.9674 3.5518 9.1815 3.999 12.693 2.5446 2.1304-0.88244 2.1114-4.2247-0.0299-6.8853-2.875-3.5721-9.6293-6.0074-14.699-6.077zm-58.226 1.1974c-0.74103-0.004-1.4541 0.15693-2.0656 0.53885-1.0076 0.62923-2.2754 1.1376-2.814 1.1376-1.7357 0-6.841 5.159-8.1127 8.2025-0.67896 1.625-3.2247 5.2233-5.6579 7.963-6.9445 7.8192-7.047 8.1159-7.7834 21.524l-0.68852 12.304 2.6643 2.7841c3.1185 3.255 3.1501 3.2445 5.9872 1.2573 1.4379-1.0072 2.5568-1.205 3.3229-0.59872 2.4257 1.9194 7.7646 1.1458 10.567-1.5267l2.6942-2.5745 1.9458 2.6344c2.3838 3.2625 5.2074 3.3838 7.6337 0.29936 1.0818-1.3752 2.4361-2.1434 3.263-1.8261 0.77764 0.29841 2.0425 0.0467 2.7841-0.56878 1.1403-0.94639 1.1316-1.751 0.0599-5.149-0.69695-2.2096-1.8021-6.0677-2.4548-8.5916-0.66867-2.5861-1.9563-4.999-2.9637-5.5382-1.3811-0.73913-1.6739-1.6651-1.2573-4.0414 0.29656-1.6917 0.93929-3.481 1.4369-3.9815 0.49765-0.50053 0.92802-1.6308 0.92802-2.5146 0-0.88386 0.66413-2.1828 1.4968-2.8739 0.95824-0.79531 1.354-2.1593 1.0478-3.7121-0.35917-1.821 0.23174-3.1971 2.335-5.3885 1.8451-1.9224 2.6146-3.5097 2.2153-4.5503-0.79611-2.0746-2.1412-2.0093-5.598 0.26942-3.17 2.0897-4.125 1.8263-5.3885-1.4968-0.90049-2.3684-3.375-3.9706-5.598-3.9815zm20.446 14.25c-1.1049 0.0687-2.3982 1.5717-6.8853 7.4241-2.6849 3.5019-2.7813 5.8675-0.23949 5.8675 1.0538 0 1.9366 0.53884 1.9758 1.1974 0.19178 3.226 1.0624 5.9659 2.0656 6.5859 0.61217 0.37834 1.2085 2.6432 1.3471 5.0293 0.13863 2.3861 0.93617 5.6693 1.7662 7.2744 1.2354 2.389 2.1098 2.9038 4.7898 2.9038 2.2358 0 3.7116 0.63737 4.67 2.0057 2.507 3.5792 5.7872 5.1668 11.645 5.6579 6.0552 0.50761 10.018 0.17618 10.118-0.83821 0.0331-0.33373 0.38605-4.1994 0.80827-8.6216 0.64384-6.7433 1.1283-8.3148 2.9637-9.6993 1.2329-0.92995 2.9235-4.0026 3.8618-7.035 1.381-4.4633 1.4571-5.9533 0.50891-8.7114-1.3287-3.8648-4.12-7.2445-5.9872-7.2445-0.7158 0-2.1015-0.49446-3.0834-1.1076-2.4692-1.542-7.2251 1.3523-11.406 6.9152-3.7392 4.9757-7.7435 6.7964-13.112 6.0171-4.7282-0.6863-4.7067-0.64346-3.3528-3.1732 1.4301-2.6721 0.28361-9.5344-1.7064-10.298-0.27192-0.10435-0.49342-0.16553-0.7484-0.14968zm64.333 4.7898c-1.8491 0.0401-3.8014 0.71675-5.8375 2.0356-5.3644 3.4748-4.3591 7.4479 2.2452 8.8611 2.5921 0.55466 3.0995 1.0249 2.6942 2.5745-0.72937 2.7892 0.17891 4.5111 3.3229 6.1369 1.7837 0.92243 3.961 1.224 6.0171 0.83821 3.6802-0.69041 8.5545 1.3501 11.585 4.8796 1.0538 1.2272 4.0069 3.3268 6.5859 4.67 2.5791 1.3432 5.1655 2.8539 5.7477 3.3229 0.58218 0.46899 3.4486 1.6534 6.3464 2.6344 7.842 2.6548 10.225 6.9622 3.1133 5.628-2.7294-0.51204-3.2803-0.35885-2.8439 0.77833 0.29647 0.77259 1.0712 3.1187 1.7064 5.2388 0.98915 3.3015 1.5061 3.8514 3.6522 3.7121 2.0598-0.13378 2.5686 0.29817 2.814 2.4248 0.55022 4.7678-0.99941 6.0047-9.1006 7.3643-7.9098 1.3274-11.663 2.8322-14.729 5.8974-2.5385 2.5385-2.357 3.4637 1.0178 5.2089 2.9585 1.5299 15.652 13.92 19.788 19.309 1.2717 1.6568 3.5677 3.5185 5.1191 4.1611 2.681 1.1105 2.8163 1.4389 2.6044 6.4063-0.1766 4.1409 0.13321 5.4198 1.4669 6.1668 0.92574 0.5185 2.5067 2.5996 3.5324 4.6102 1.5387 3.0161 2.6188 3.8365 6.1668 4.7299 2.3651 0.59555 5.6415 1.0777 7.2745 1.0777h2.9637l-2.4548-4.221c-1.6222-2.768-2.1071-4.3369-1.3771-4.5802 0.73961-0.24653 0.2533-2.0837-1.4669-5.4783-2.7798-5.4857-2.3862-7.1994 1.5267-6.6458 1.2462 0.17632 2.0596 0.58153 1.7962 0.86814-0.26344 0.28661 0.30114 1.7139 1.2573 3.1732 0.95618 1.4593 1.8139 3.578 1.9159 4.7299 0.21364 2.4126 4.2073 10.931 5.5082 11.735 1.5191 0.93886 1.0246 6.8795-0.62865 7.5139-0.8334 0.31981-4.9064 0.56878-9.0407 0.56878-5.5562 0-7.898 0.3841-9.0108 1.4968-2.2994 2.2994-1.828 3.1443 2.0955 3.8019 1.9758 0.33113 5.7013 1.2774 8.2923 2.0955 2.591 0.81818 7.1913 1.5565 10.238 1.6166 3.0469 0.0601 6.0528 0.6042 6.6757 1.2274 1.8657 1.8665 0.28142 4.1312-2.9038 4.1312-1.5972 0-2.9038 0.39058-2.9038 0.86814 0 0.84247-0.93099 0.67199-11.974-2.2751-2.6344-0.70303-6.4112-1.5496-8.3821-1.886l-3.5923-0.62866 0.23949 14.758 0.23948 14.758 3.3528 4.9394c2.0723 3.0471 3.4608 4.3971 3.6522 3.5025 0.43743-2.0441 3.0535-1.8144 3.0535 0.26943 0 0.94837-0.53526 2.2416-1.1675 2.8739-0.89409 0.89408-0.89409 1.1376 0 1.1376 0.63224 0 1.1675 0.59087 1.1675 1.3172 0 1.4406 9.9875 10.399 10.747 9.6394 0.25672-0.25672-0.60069-4.6638-1.886-9.7891-1.2853-5.1252-2.3512-10.496-2.3949-11.944-0.0437-1.4489-0.45901-2.6344-0.89808-2.6344-0.43906 0-0.77833-0.64661-0.77833-1.4369 0-0.79031 0.54021-1.4369 1.2274-1.4369 1.7219 0 10.268 5.5057 10.268 6.6159 0 0.49538 0.24561 1.511 0.53885 2.2751 0.32712 0.85246-0.2089 1.5883-1.3471 1.886-1.7976 0.47008-1.7587 0.75732 0.77833 9.4598 1.44 4.9394 2.3671 9.4119 2.0656 9.9388-0.74554 1.3027-0.17929 5.5559 0.89808 6.6757 0.48156 0.50053 0.89808 3.8414 0.89808 7.4241 0 4.8907-0.32755 6.4961-1.3172 6.4961-1.0062 0-1.5163 2.8907-2.1554 12.214-0.66235 9.6622-1.125 12.172-2.1853 11.944-0.7372-0.15793-2.0304-0.00086-2.8739 0.35923-0.84342 0.36007-3.0355 0.57305-4.8796 0.47897-1.8441-0.0941-6.8015 0.5033-11.016 1.3172-4.215 0.81389-8.9074 1.4668-10.418 1.4669-2.5143 0.00015-2.6895-0.22229-2.0955-2.6344 1.7514-7.1122 1.7287-7.632-0.53885-9.2203-1.2212-0.85539-3.2465-1.5567-4.4904-1.5567-1.3891 0-2.1077-0.46194-1.856-1.1974 0.27-0.78921 2.5116-1.1907 6.556-1.1974 6.7301-0.0109 9.926 0.74456 15.716 3.6821 6.2326 3.1619 7.5665 3.9309 9.3101 5.3286 2.3051 1.8478 2.4004 1.2688 2.9936-16.285l0.50891-14.908-13.771-13.681c-8.5441-8.488-13.549-14.171-13.232-14.998 0.28114-0.73263-0.13788-2.9647-0.92801-4.9394-1.542-3.8538-1.6465-4.2388-1.6465-6.4662 0-1.0738-0.62759-1.3117-2.3949-0.86814-1.7484 0.43881-2.3949 0.22915-2.3949-0.80828 0-0.78157-0.26942-2.784-0.59872-4.4305-0.48365-2.4182-0.30415-2.9936 1.0178-2.9936 2.3302 0 1.2706-2.3267-1.2274-2.6942-2.389-0.35152-2.7384-1.8847-0.62866-2.6942 0.78732-0.30211 1.1362-0.99616 0.80827-1.5267-0.73971-1.1969 1.4233-2.6129 3.9815-2.6344 1.5437-0.0129 1.9478-0.77025 2.1554-3.8019 0.33698-4.9212-1.3772-5.9162-4.1611-2.4248-1.8704 2.3457-2.3816 2.5411-3.7121 1.4369-1.8103-1.5024-2.6131-0.83073-4.3707 3.8019-1.7935 4.7272-2.7635 5.7477-5.4783 5.7477-1.8966 0-2.2379 0.34059-1.6764 1.6764 0.38756 0.92203 0.93206 2.6929 1.1974 3.9216 0.26538 1.2288 1.0756 2.4477 1.7962 2.7242 0.72062 0.27653 1.3172 0.9407 1.3172 1.4669 0 0.52616 1.0777 2.2365 2.3949 3.8019s2.3949 3.4711 2.3949 4.221c0 0.74989 0.43107 1.3471 0.95795 1.3471 0.52687 0 0.95795 1.2531 0.95795 2.784 0 2.4933-0.67275 3.0927-6.3464 5.7477-3.4838 1.6303-6.9849 2.9637-7.7834 2.9637-1.1405 0-1.3168 0.77022-0.86815 3.5923 0.31408 1.9758 0.2021 4.1692-0.23949 4.8796-1.3695 2.2033-4.2895 0.82547-5.2388-2.4847-0.89354-3.1156-2.5146-4.283-2.5146-1.7962 0 0.72971-1.116 2.0565-2.4548 2.9337-1.999 1.3098-2.9837 1.3913-5.5082 0.50892-2.4346-0.85098-5.4201-0.67649-14.399 0.80827-6.2357 1.0311-11.806 2.3464-12.394 2.9337-0.58731 0.58731-2.2852 1.0777-3.742 1.0777-2.6653 0-8.0408 1.609-14.579 4.3407l-3.5324 1.4669 3.0834 4.2808c1.6912 2.355 3.7475 4.3162 4.5802 4.3707 0.83271 0.0545 4.8399 0.0391 8.891-0.0599 6.535-0.15956 7.4853 0.0247 8.5916 1.7962 1.5625 2.5021 2.3549 2.5322 2.9936 0.0898 0.67677-2.588 4.9338-2.5254 6.7655 0.0898 1.1804 1.6853 2.0061 1.8862 5.5382 1.3771 3.1872-0.45945 5.062-0.12477 7.963 1.377 2.0872 1.0805 4.3503 1.9458 5.0292 1.9458 0.67891 0 1.2573 0.63722 1.2573 1.407 0 0.76979 0.82452 2.1708 1.8261 3.1133 1.0016 0.94256 2.2003 3.6462 2.6643 6.0172 0.7274 3.717 1.1643 4.3108 3.2032 4.3108 1.6922 0 2.6951 0.79539 3.5624 2.7841 0.66657 1.5284 1.821 3.2527 2.5446 3.8318 0.72354 0.57912 1.5855 3.8456 1.9458 7.2445 0.36038 3.3989 1.1532 7.063 1.7363 8.1426 1.1907 2.2044 1.0701 12.695-0.26943 23.26-0.65529 5.1684-1.5448 7.8883-3.3828 10.298-1.9155 2.5113-2.3848 3.9419-1.9159 6.077 0.54548 2.4836-0.0158 3.4104-5.3885 8.6515-3.3127 3.2316-6.5773 5.8675-7.2445 5.8675-0.66718 0-2.8237 0.86216-4.7898 1.9159-1.9661 1.0538-4.074 1.9159-4.7 1.9159-0.62596 0-2.4596 1.1286-4.0713 2.4847s-3.9242 2.3724-5.1191 2.2751c-7.015-0.57099-8.496 1.3577-1.886 2.4548 1.9573 0.32486 6.6199 1.4794 10.358 2.5446l6.7955 1.9458 3.9216-2.0356c2.1684-1.1062 4.5818-2.0057 5.3286-2.0057 0.74678 0 1.8975-0.65113 2.5745-1.4669 1.3833-1.6668 5.2388-1.5416 5.2388 0.17962 0 0.61468 0.32331 1.4609 0.71846 1.856 0.39516 0.39516 0.71847 2.5331 0.71847 4.7598 0 4.6531-0.46968 4.975-9.1006 6.2267-4.4821 0.65002-6.0956 1.357-7.484 3.263-2.0284 2.7846-4.9992 3.0998-8.1426 0.89808-2.1067-1.4756-2.1607-1.4487-1.5567 0.95796 0.43847 1.747 0.22953 2.4933-0.68853 2.5146-1.9195 0.0446-6.7645 4.6054-6.077 5.7178 1.1334 1.8338 12.013-0.12282 15.148-2.7242 0.83636-0.69411 3.7924-1.5786 6.5859-1.9758 6.9245-0.98464 12.236-3.7443 14.938-7.7534 2.2688-3.3658 2.4427-6.7595 0.83821-15.567-0.41256-2.2646 0.11511-3.0466 3.5624-5.4184 6.3883-4.3952 9.328-11.438 9.6993-23.17 0.46901-14.822 2.7668-17.563 16.285-19.518 6.0972-0.88177 25.093-1.275 26.284-0.53885 0.59614 0.36843 1.4431 1.9369 1.856 3.4726 0.55613 2.0682 1.3278 2.7986 2.9936 2.814 3.0836 0.0285 3.4662 2.0275 1.0478 5.2987-2.3631 3.1963-2.5359 4.193-0.65859 3.4726 1.4497-0.55629 4.4006 2.1075 4.4006 3.9815 0 0.6284-1.1855 1.6529-2.6344 2.2751-3.5833 1.5389-3.5425 1.4842-2.2153 3.0834 1.4659 1.7663 0.54132 3.4127-1.9159 3.4127-1.2283 0-1.856 0.66453-1.856 1.9458 0 1.1666-0.92066 2.2876-2.3051 2.814-3.3072 1.2574-3.6219 2.2751-1.9458 6.2866 1.4233 3.4063 1.3997 3.6504-0.59872 5.7776-1.511 1.6083-1.9339 2.8986-1.4968 4.6401 0.69045 2.751-2.1999 11.265-4.8197 14.16-1.8678 2.0638-2.0646 4.0197-2.2153 24.188l-0.0898 13.351 2.9637 2.6942c3.7044 3.3834 4.0785 3.3803 3.3229-0.0599-0.47341-2.1554-0.0563-3.3574 1.8261-5.3885 3.2732-3.5319 4.0464-6.2725 2.0955-7.3643-1.8926-1.0592-1.973-3.0269-0.20956-4.4904 1.4558-1.2082 4.732-0.40175 3.8917 0.95795-0.29151 0.47167-0.13893 0.83821 0.35923 0.83821 1.5566 0 1.9818-6.0811 0.53885-7.7235-0.73076-0.8318-1.3172-2.3801-1.3172-3.4127 0-1.6689 0.61178-1.845 5.5082-1.6764 3.0295 0.1043 5.8315 0.22172 6.2267 0.26942 0.39515 0.0477 0.71846 1.5698 0.71846 3.3828s0.42534 3.5625 0.95796 3.8917c0.5326 0.32917 0.93515 1.7589 0.89808 3.1732-0.16067 6.1247 1.3326 11.67 5.8076 21.734 0.93712 2.1075 2.4311 6.095 3.3229 8.8611 1.8581 5.7632 3.1818 6.6221 2.6044 1.6764-0.21613-1.8513 0.10285-3.9881 0.71846-4.7299 0.7507-0.90454 0.82042-1.9087 0.20956-3.0834-1.0522-2.0234-2.6226-9.2252-3.5325-16.136-0.34688-2.6344-1.2356-6.2462-1.9758-8.0228-0.74017-1.7767-1.3471-4.8466-1.3471-6.8254s-0.68994-5.2418-1.5267-7.2445c-1.1956-2.8614-1.3738-5.3002-0.83821-11.376 0.37484-4.2524 1.1135-8.8012 1.6465-10.118 1.172-2.8963 1.6453-29.581 0.53885-30.265-0.43056-0.2661 0.0573-1.6625 1.0777-3.0834 1.1328-1.5773 1.9366-4.4398 2.0656-7.3643 0.11617-2.6344 0.7943-5.9415 1.4968-7.3643 0.70252-1.4227 1.2872-3.4023 1.2872-4.4006 0-3.7841 9.4669-9.2984 17.722-10.298 3.1561-0.38216 6.2761-1.1063 6.9152-1.6165 1.2103-0.96622 15.455 1.459 18.68 3.1732 2.8362 1.5075 2.7679 1.0275-0.6586-3.742-3.4522-4.8052-6.0698-6.5532-12.394-8.2623-2.3626-0.63854-4.7377-2.2531-6.4362-4.3707-2.5406-3.1673-2.7088-3.9205-2.8439-13.531-0.0886-6.2978 0.33685-11.489 1.1076-13.621 0.93003-2.572 0.99474-3.9926 0.20955-5.628-1.9119-3.9822-2.1052-5.3898-0.80827-6.4662 0.70558-0.58557 1.5282-2.6546 1.8261-4.6101 0.29793-1.9556 0.91154-5.7178 1.3471-8.3522 0.87739-5.3065-0.25109-11.806-4.0114-23.051-1.2451-3.7231-3.1979-11.388-4.3407-17.034-1.1428-5.6458-3.1875-12.734-4.5203-15.746-1.3328-3.0126-2.7528-7.4182-3.1732-9.7891-0.42043-2.3709-1.2159-5.604-1.7662-7.1846-0.93481-2.6851-2.2003-7.5734-4.9394-19.159-0.62283-2.6344-1.2784-5.4364-1.4669-6.2267-1.1104-4.6556-4.5338-11.954-7.963-17.004-4.2194-6.2133-22.721-24.976-27.481-27.87-1.5814-0.96172-4.1852-3.0776-5.7777-4.67-1.5924-1.5924-3.8219-3.1778-4.9394-3.5324-1.1176-0.3547-2.529-1.2356-3.1433-1.9758-0.61432-0.74022-3.8218-2.2537-7.1248-3.3528-6.5923-2.1938-13.258-7.9414-17.123-14.788-3.5302-6.2534-12.636-10.864-21.734-10.957l-6.2267-0.0599 2.784 2.1255c1.5347 1.1596 4.5086 3.3888 6.6159 4.9694s3.9397 3.6257 4.0713 4.5503c0.13158 0.92453-0.11343 1.4604-0.53885 1.1974-0.42541-0.26292-1.0279 0.21599-1.3471 1.0478-0.4803 1.2516-1.3973 0.92595-5.2687-1.9159-2.5727-1.8886-4.9831-3.4426-5.3586-3.4426-0.37543 0-2.635-1.7243-5.0292-3.8318s-5.0495-3.8501-5.8974-3.8618c-0.84785-0.0117-2.6044-0.85565-3.9216-1.886-1.5855-1.2402-3.3298-1.8364-5.1789-1.7962zm-18.74 15.956c-0.40841 0.0262-0.78277 0.15883-1.1376 0.44904-3.6507 2.986-5.8518 8.7754-5.9273 15.567-0.096 8.6394 0.76104 11.974 3.1433 11.974 1.0126 0 2.1291 0.43108 2.4548 0.95796 0.32563 0.52687 1.276 0.95795 2.1255 0.95795 0.84945 0 2.3262 0.70882 3.263 1.5567 0.95982 0.86864 3.6254 1.6076 6.107 1.7064 3.4168 0.1359 4.8585 0.72154 6.4961 2.6344 1.1609 1.356 3.6528 3.3789 5.5382 4.4904 1.8853 1.1115 3.9442 3.1004 4.5503 4.4305 1.4711 3.2286 4.2623 3.1426 11.286-0.4191 3.1038-1.574 6.7356-2.8952 8.0528-2.9038 2.9318-0.0192 9.1941-3.6594 8.0229-4.67-4.9382-4.261-6.2522-4.756-11.436-4.221-3.3451 0.34525-5.2089 0.19113-5.2089-0.44904 0-0.55073 1.5088-2.8221 3.3528-5.0292 1.8441-2.2072 3.3528-4.5958 3.3528-5.3286s-1.6166-2.3857-3.5923-3.6522c-2.946-1.8884-3.8508-2.0935-5.0292-1.1076-0.79031 0.66117-2.6658 1.5002-4.1611 1.856-1.4953 0.35588-3.8716 1.6981-5.2687 2.9936-2.6449 2.4525-6.8554 3.2139-6.8554 1.2274 0-0.62977 1.0313-2.2463 2.3051-3.5923 2.6487-2.7989 3.5277-8.63 1.6465-10.897-1.56-1.8796-3.4137-1.2181-4.7598 1.7363-1.1452 2.5135-6.3561 5.7089-7.8432 4.7898-0.60168-0.37188-0.58993-1.2367 0.0299-2.3949 0.52829-0.98714 0.95795-2.7119 0.95795-3.8618 0-1.7521-0.41752-2.0289-2.5745-1.6166-3.5654 0.68157-5.0891-0.0894-5.0891-2.6044 0-2.5362-2.0321-4.6934-3.8019-4.5802zm66.189 112.2c-0.66095 0.0439-2.1374 1.6148-3.6223 3.9216-1.9038 2.9576-2.4295 4.356-1.4369 3.8318 0.86079-0.45462 2.3268-1.0378 3.2331-1.3172 1.869-0.57605 3.3402-5.0974 2.0656-6.3464-0.0594-0.0582-0.14507-0.0961-0.23949-0.0898zm-310.02 12.543c-1.4959 0-1.9105 1.143-0.80827 2.2452 1.1022 1.1023 2.2452 0.68764 2.2452-0.80827 0-0.79031-0.64662-1.4369-1.4369-1.4369zm117.11 70.05c-0.58546 0.10767-0.83834 0.8457-0.26943 1.7662 0.35261 0.57052 1.0802 0.75061 1.6166 0.41911 0.65431-0.40438 0.62811-0.92857-0.0599-1.6166-0.46108-0.46107-0.93598-0.63339-1.2872-0.56878zm13.621 1.1076c-0.52106 0.0509-0.92802 0.53529-0.92802 1.5567 0 1.1767 0.60818 2.0057 1.4968 2.0057 0.89208 0 1.3808-0.64134 1.1974-1.5866-0.26218-1.3518-1.0963-2.0412-1.7662-1.9758zm147.55 4.5203c-0.52688 0-0.95796 0.45985-0.95796 1.0178 0 0.55797 0.43108 0.74474 0.95796 0.41911 0.52687-0.32563 0.95795-0.78548 0.95795-1.0178 0-0.23234-0.43108-0.4191-0.95795-0.4191zm-160.13 1.1974c-0.35569 0.0457-0.7049 0.22592-1.0478 0.56878-0.72867 0.72867-0.66178 1.4648 0.20955 2.5146 1.6742 2.0173 2.9038 1.848 2.9038-0.38917 0-1.7305-0.99851-2.8313-2.0656-2.6942zm1.0478 5.5082c-1.8917 0-2.095 2.9678-0.29936 4.2808 0.98728 0.72192 1.9596 1.1538 2.1554 0.95795 0.70251-0.7025-0.90684-5.2388-1.856-5.2388zm9.1006 1.4968c-0.93907 0.0662-1.6087 1.3342-1.0178 2.8739 0.50379 1.3129 0.86294 1.3924 2.0356 0.4191 1.1156-0.92591 1.1992-1.4964 0.32929-2.5446-0.44757-0.5393-0.92026-0.77847-1.3471-0.7484zm280.8 36.642c-3.7973-0.0677-7.2163 0.80189-9.5795 2.6044-5.2367 3.9942-7.1232 11.031-7.6936 28.978-0.20817 6.55-0.79494 11.368-1.4968 12.214-0.63682 0.76738-0.90456 2.0469-0.59872 2.8439 0.72568 1.8911 1.2701 1.8187 4.191-0.47897 2.8989-2.2803 5.3412-2.4476 6.9751-0.47898 1.3767 1.6588 3.8318 1.9304 3.8318 0.4191 0-0.5645-0.64662-1.6644-1.4369-2.4548-2.1981-2.1981-1.7568-4.191 0.92802-4.191 1.3808 0 2.7832 0.79553 3.3828 1.9159 1.1776 2.2003 2.8739 2.5576 2.8739 0.59872 0-1.8235 4.2052-4.4305 7.1547-4.4305 2.9325 0 3.1564 1.9148 0.50891 4.3108-1.0537 0.95363-1.9159 2.3959-1.9159 3.2032 0 1.0553 0.73247 0.74319 2.6643-1.1076 1.4777-1.4158 3.6568-2.5745 4.8197-2.5745 1.9338 0 2.063-0.32077 1.4968-3.8618-0.47566-2.9746-0.26826-4.1398 0.92801-5.0292 1.2107-0.90025 1.694-3.6661 2.1853-12.394 0.73218-13.006 0.77241-12.941-7.4541-17.093-3.788-1.9122-7.9675-2.9259-11.765-2.9936zm26.942 4.1012c-0.0605-0.002-0.11941-0.00034-0.14968 0.0299-0.24218 0.24218 0.23068 2.3496 1.0478 4.7 2.6519 7.6284 0.97723 27.88-3.263 39.246-0.29485 0.79032-1.0571 3.5923-1.6764 6.2267-0.61933 2.6344-1.4563 5.5442-1.856 6.4662-0.39976 0.92203-0.49411 1.6764-0.20955 1.6764 0.95742 0 7.3427-12.851 7.3643-14.818 0.0117-1.071 0.88559-3.0235 1.9159-4.3407 1.6903-2.1609 1.8667-3.9803 1.886-18.74 0.0211-16.215 0.006-16.393-2.365-18.62-1.1507-1.081-2.2701-1.8159-2.6942-1.8261zm-82.653 13.381c-0.24635 0.10618-0.38917 0.5956-0.38917 1.4369 0 0.82145 0.42249 1.229 0.95796 0.89808 0.53546-0.33093 0.72224-1.0063 0.4191-1.4968-0.41059-0.66436-0.74153-0.94439-0.98789-0.83821zm36.582 32.6c-1.3972-0.14397-3.0169 2.418-4.3407 7.3343-0.56774 2.1084-1.9948 5.0579-3.1732 6.556-2.2874 2.908-2.3338 5.6919-0.14968 8.1426 0.74134 0.8318 1.3471 2.1864 1.3471 3.0235 0 0.83716 1.6165 2.3544 3.5923 3.3828 5.5386 2.8828 9.3025 2.6733 11.675-0.65859 1.0896-1.5302 1.9758-3.4959 1.9758-4.3707 0-2.1004-3.7075-10.831-6.0171-14.19-1.0069-1.464-2.2491-4.1583-2.7541-5.9872-0.57676-2.0889-1.3171-3.1467-2.1554-3.2331zm28.2 0.11974c-1.1842 0.0522-2.2042 1.6-1.6465 3.0535 0.33026 0.86065 1.2119 1.2556 2.0656 0.92801 1.7038-0.65379 1.9401-2.8319 0.41911-3.7719-0.27346-0.16901-0.56493-0.22159-0.83821-0.20955zm-7.6038 3.6223c-1.0768 0-2.0846 2.4956-1.3172 3.263 1.1532 1.1532 2.1853 0.52011 2.1853-1.3471 0-1.0538-0.39764-1.9159-0.86814-1.9159zm-343.04 6.7057c-0.52687 0-0.95795 0.45986-0.95795 1.0178 0 0.55796 0.43108 0.74473 0.95795 0.4191 0.52688-0.32563 0.95796-0.78548 0.95796-1.0178 0-0.23234-0.43108-0.4191-0.95796-0.4191zm135.76 12.573c-0.13087 0.0157-0.24496 0.0653-0.32929 0.14968-1.2063 1.2063 0.42839 3.162 4.0713 4.9095 9.6951 4.6508 12.868 5.5473 21.434 5.9573 2.8978 0.13867 7.8552 0.65105 11.016 1.1376 6.5179 1.0031 10.896 0.56862 12.813-1.2573 2.3178-2.2082 0.23059-3.5528-4.8197-3.1134-2.594 0.22569-7.6306-0.15375-11.166-0.83821-3.5356-0.68446-8.1595-1.2679-10.298-1.2872s-4.725-0.66337-5.7477-1.4369c-2.257-1.7071-5.399-1.8456-6.9152-0.32929-0.85221 0.85221-1.2692 0.7383-1.7363-0.47898-0.36215-0.94377-1.6488-1.6166-3.1732-1.6166-1.4189 0-3.0886-0.5141-3.7121-1.1376-0.4676-0.46761-1.0443-0.70582-1.4369-0.6586zm0.83821 40.414c-0.20592 0.0918-0.38519 0.48476-0.62865 1.1376-0.43542 1.1675-0.14306 2.796 0.71846 4.1611 0.77501 1.228 1.1597 2.8326 0.86815 3.5923-0.29153 0.7597 0.19756 2.167 1.1076 3.1134 3.4592 3.5971 5.9872 7.8222 5.9872 10.058 0 1.5378 0.67061 2.5026 1.9758 2.8439 1.0839 0.28344 2.4712 1.8505 3.0834 3.4726 0.61226 1.6221 1.58 2.9337 2.1554 2.9337 1.6145 0 5.3563 3.8361 4.7299 4.8496-0.30626 0.49548-0.29569 1.3292 0.0299 1.856 0.77235 1.2497 1.7538 1.2099 3.0834-0.11975 1.3064-1.3064-3.572-11.564-6.4662-13.591-1.0151-0.71101-2.7469-3.2952-3.8318-5.7477-1.0849-2.4526-3.684-6.4421-5.7777-8.8611-2.0936-2.419-4.5259-5.756-5.3885-7.4241-0.8936-1.728-1.3033-2.4281-1.6465-2.2751zm26.314 42.809c-0.49578 0-1.1712 0.43108-1.4968 0.95796-0.32563 0.52687 0.0766 0.95795 0.89808 0.95795 0.82141 0 1.4968-0.43108 1.4968-0.95795 0-0.52688-0.4023-0.95796-0.89808-0.95796zm-58.495 12.453c-0.52687 0-0.95795 0.64662-0.95795 1.4369 0 0.79031 0.43108 1.4369 0.95795 1.4369 0.52688 0 0.95796-0.64662 0.95796-1.4369 0-0.79031-0.43108-1.4369-0.95796-1.4369zm4.5503 5.8076c-0.11989 0.0283-0.23413 0.0845-0.3293 0.17962-0.24078 0.24078-0.18253 1.1699 0.14968 2.0356 0.74497 1.9414 2.335 2.0587 2.335 0.17961 0-1.2583-1.3162-2.5926-2.1554-2.3949zm-34.756 1.856c-1.8371 0-4.5267 6.5712-3.8318 9.34 0.30684 1.2225 1.2647 2.1554 2.2153 2.1554 2.3302 0 5.9573-2.6703 5.9573-4.4006 0-2.4219-2.8627-7.0948-4.3407-7.0948zm64.692 0.95796c-0.52688 0-0.95796 0.64662-0.95796 1.4369 0 0.79031 0.43108 1.4369 0.95796 1.4369 0.52687 0 0.95795-0.64662 0.95795-1.4369 0-0.79031-0.43108-1.4369-0.95795-1.4369zm-24.847 4.7898c-1.9162 0-2.6732 1.8472-1.3172 3.2032 1.0268 1.0268 2.6517 0.17648 2.9936-1.5866 0.20884-1.0768-0.33723-1.6166-1.6764-1.6166zm32.511 1.9159c-0.52687 0-0.95795 0.43108-0.95795 0.95795s0.43108 0.95795 0.95795 0.95795c0.52688 0 0.95795-0.43108 0.95795-0.95795s-0.43107-0.95795-0.95795-0.95795zm-21.494 3.0834c-2.009 0.0192-1.6027 1.095 1.1675 3.263 1.6963 1.3275 3.0834 2.8468 3.0834 3.3828 0 2.2752-4.4044 4.5789-8.8311 4.6102-4.2898 0.0303-4.5675 0.19038-5.3286 3.1433-0.5846 2.268-1.4297 3.1994-3.1134 3.4426-1.2712 0.18367-3.1968 0.93806-4.2509 1.6764-1.3526 0.94741-4.8908 1.3471-12.094 1.3471-7.9043 0-10.482 0.32418-11.406 1.4369-2.0686 2.4926-3.0639 1.5683-1.3771-1.2872 1.0613-1.7967 1.3322-3.2695 0.77834-4.2509-1.0149-1.7983-7.9534-7.3942-9.1604-7.3942-1.6506 0-1.9733 2.9776-0.80828 7.4541 0.64658 2.4844 1.3675 5.2289 1.5866 6.077 0.31716 1.2274-0.66584 1.6672-4.8197 2.1554-7.2481 0.85188-14.855-1.009-16.195-3.9516-0.7288-1.5996-1.7336-2.2053-3.4726-2.0955-4.0216 0.25382-4.8496 0.0105-4.8496-1.3771 0-0.72579 0.63388-1.8482 1.4369-2.5146 2.2954-1.905 0.89261-2.25-1.856-0.44904-1.3629 0.89301-2.4548 2.1853-2.4548 2.8439 0 0.65865-0.94238 2.344-2.0656 3.7719-1.5209 1.9335-2.5886 2.4753-4.221 2.0656-2.1614-0.54249-11.211 3.2466-12.423 5.2089-0.31478 0.50931-1.6266 0.92802-2.9337 0.92802-3.1962 0-9.1998 3.2077-10.717 5.7178-1.4015 2.3184-3.0834 1.7725-3.0834-0.98789 0-1.0226-0.10777-1.8383-0.23949-1.8261s-4.1192 1.9183-8.8611 4.2509c-7.7039 3.7896-8.7461 4.0923-9.7891 2.7242-1.0278-1.3482-1.2852-1.2109-2.1554 1.0777-0.54348 1.4295-1.0111 3.0878-1.0178 3.7121-0.007 0.62429-0.86874 3.874-1.9159 7.2146-1.8462 5.8895-1.8856 8.7029-0.29936 17.393 0.79337 4.3465 2.9858 7.6997 4.6401 7.0649 0.95423-0.36617 1.3984 0.5884 1.6166 3.6223 0.23389 3.253 0.64092 4.1442 1.9458 4.0414 0.9694-0.0764 2.5586 1.3246 3.8019 3.3528 1.1746 1.9162 3.1379 4.2782 4.3407 5.2388 1.5072 1.2036 2.0305 2.3947 1.6764 3.8318-0.42949 1.7434 0.16008 2.3333 3.5923 3.7121 3.9891 1.6024 8.9871 1.2929 14.16-0.86814 1.3352-0.55782 2.0146-0.72765 4.191-1.1076 0.45967-0.0803 0.32604-0.77317-0.29936-1.5267-0.90805-1.0941-0.75073-1.5766 0.77833-2.3949 1.0531-0.56362 2.6204-1.0178 3.5025-1.0178 1.236 0 1.4552-0.56282 0.98789-2.4248-0.81008-3.2276 1.641-4.1364 5.2987-1.9758 1.5219 0.89902 2.7841 1.3328 2.7841 0.95796 0-1.7374 3.7849 2.9943 4.3108 5.3885 0.59898 2.7271-1.2697 7.6162-3.9516 10.298-1.4474 1.4474-1.6583 2.443-0.68853 3.4127 0.98382 0.98383 2.41 0.76278 4.0713-0.62865 2.0886-1.7494 8.7207-3.7052 11.406-3.3528 1.8274 0.2398 2.4457-0.37943 3.5624-3.5324 0.74637-2.1075 1.3694-5.1482 1.3771-6.7655 0.0153-3.1262 4.0856-7.6872 5.8675-6.5859 0.5267 0.32552 1.46 0.19523 2.0955-0.29936 0.63552-0.49459 3.9584-1.018 7.3643-1.1376 3.4058-0.11952 6.9514-0.62821 7.9031-1.1376 0.95175-0.50936 2.1154-0.70285 2.5745-0.4191 0.45912 0.28375 2.4172 0.73778 4.3707 0.98789 2.9002 0.37131 4.2015-0.0697 7.0948-2.3949 3.0644-2.4626 3.5024-3.2871 3.1732-6.107-0.25677-2.1994-0.95682-3.4207-2.1853-3.742-2.0126-0.52632-2.5289-3.4688-0.62866-3.5923 0.65859-0.0428 2.3829-0.16311 3.8318-0.26943 1.8938-0.13896 2.6344 0.23348 2.6344 1.3771 0 0.87492 0.654 2.1394 1.4669 2.814 0.81668 0.67779 1.3524 2.34 1.1974 3.7121-0.15427 1.3657 0.16165 2.7002 0.68853 2.9637 0.52687 0.26344 1.108-0.81594 1.2872-2.3949 0.56538-4.9798 4.1947-5.862 5.7477-1.407 0.95896 2.7509 3.4407 4.642 4.5802 3.5025 0.29347-0.29347 0.17848-1.1025-0.26943-1.7962-0.44792-0.69364-1.5168-3.4127-2.365-6.0471-1.0314-3.2038-2.1416-4.8927-3.3528-5.1191-0.99595-0.18611-2.5049-0.95582-3.3528-1.7064-1.1653-1.0314-4.6736-1.3771-14.369-1.407-18.991-0.0586-20.644 0.008-23.38 1.0478-4.6025 1.7499-9.663 1.1487-12.843-1.5267-3.6276-3.0524-3.6722-4.3378-0.29936-8.1127 2.5244-2.8253 4.9057-3.6631 17.004-6.107 8.9256-1.803 12.37-2.5396 18.201-3.8318 3.6881-0.81729 9.2921-1.9261 12.453-2.4847 3.1612-0.55856 8.0516-1.7009 10.867-2.5146 3.8888-1.124 8.0314-1.3724 17.243-1.0178 15.908 0.61234 17.942 0.95511 23.5 3.9216 2.5811 1.3777 5.7453 2.5146 7.005 2.5146s3.9816 0.86215 6.0471 1.9159 5.1781 1.9159 6.9152 1.9159c3.1222 0 3.158-0.0466 2.8739-4.0713-0.31333-4.4382 2.2899-9.8396 5.2987-10.987 2.9962-1.1422 6.1905-4.7652 5.8375-6.6159-0.69057-3.6206-8.8314-2.7683-10.597 1.1076-1.3537 2.9711-2.4791 3.0344-3.2032 0.14968-0.35651-1.4205-2.0905-2.9994-4.7898-4.3108-2.3359-1.1349-4.2509-2.6311-4.2509-3.3229 0-1.9848 2.0688-3.5691 4.7299-3.5923h2.4548l-2.0356-1.6764c-1.1091-0.91032-2.2718-2.4066-2.6044-3.3528-0.51536-1.4662-1.5596-1.6786-7.0649-1.4369-6.0681 0.26636-6.5318 0.4422-7.3942 2.9038-0.76571 2.1856-0.52024 3.0097 1.3771 5.0292 3.4229 3.6436 1.4515 4.9876-4.4006 2.9936-2.5064-0.85403-5.1658-1.5567-5.8974-1.5567-2.1812 0-7.9031-4.8762-7.9031-6.7356 0-0.94824-1.5088-2.6622-3.3528-3.8019-1.8441-1.1397-3.3528-2.2542-3.3528-2.4847 0-0.94736 5.3578 0.90382 6.4063 2.2153 0.62353 0.7799 1.5978 1.1414 2.1853 0.77834 1.3088-0.8089-0.50877-3.3828-2.3949-3.3828-0.67376 0-2.0964-1.4587-3.1433-3.2331-1.4239-2.4133-2.787-3.3924-5.4484-3.8917-1.2043-0.22593-2.1443-0.33568-2.814-0.32929zm27.242 1.7064c-0.52688 0-0.95795 0.19877-0.95795 0.41911s-0.27891 1.0825-0.59872 1.9159c-0.38157 0.99435-0.0522 1.4968 0.95795 1.4968 0.90078 0 1.5567-0.79482 1.5567-1.9159 0-1.0538-0.43108-1.9159-0.95795-1.9159zm27.212 15.776c-1.2205 0.10808-2.3051 0.91322-2.3051 2.0656 0 0.84407 1.0561 1.3172 2.8739 1.3172 3.0912 0 3.6647-1.0046 1.5567-2.7541-0.59889-0.49704-1.3932-0.6935-2.1255-0.62866zm160.07 47-0.47897 3.8318c-0.26344 2.0984-0.16175 7.035 0.23949 10.987 1.0803 10.639-1.1167 32.968-4.0114 40.713-1.2528 3.3517-5.0084 14.794-5.2687 16.046-0.13782 0.66261-0.50926 1.8441-0.80828 2.6344-0.299 0.79031-0.79256 2.632-1.1076 4.0713-0.34883 1.5935-1.7012 3.1708-3.4426 4.0713-2.1906 1.1328-2.8439 2.1539-2.8439 4.3108 0 1.7628-1.0748 4.028-2.8739 6.077-1.5806 1.8002-2.87 3.8594-2.8739 4.5802-0.004 0.72076-0.8691 2.6104-1.9159 4.191s-1.9121 3.7758-1.9159 4.8796c-0.004 1.1038-0.83215 2.7855-1.856 3.7121-1.0239 0.92661-2.1483 2.929-2.4847 4.4605-0.33635 1.5314-1.2541 3.4095-2.0356 4.191-0.78154 0.78155-1.6271 2.619-1.886 4.0713-0.25887 1.4523-1.5533 3.5864-2.8739 4.7299-1.373 1.1889-2.586 3.4077-2.814 5.2089-0.25806 2.039-1.3874 3.9375-3.2032 5.3586-1.9874 1.5554-2.6361 2.7508-2.2751 4.1312 0.28019 1.0714-0.11747 2.6876-0.86814 3.5923-0.75067 0.90471-2.1698 3.3708-3.1433 5.4783-0.97346 2.1075-2.1252 4.5934-2.5745 5.5082-0.44935 0.91488-0.80828 2.6592-0.80828 3.8917s-1.0751 3.2487-2.3649 4.4605c-1.2899 1.2118-2.5959 3.4612-2.9337 4.9993-0.33782 1.5381-1.6363 3.8735-2.8739 5.2089s-2.0256 3.048-1.7363 3.8019c0.28929 0.7539-0.60016 2.8366-1.9758 4.6401s-2.4847 4.0055-2.4847 4.8796c0 0.87407-0.86216 2.6718-1.9159 4.0114-1.0706 1.3611-1.9159 3.9105-1.9159 5.7477 0 3.4908-7.5458 20.217-10.059 22.302-0.79143 0.65683-1.4369 1.8531-1.4369 2.6643 0 0.81123-1.0882 3.3085-2.3949 5.5382-1.9137 3.2654-2.1132 4.2546-1.1076 5.0891 0.75881 0.62976 7.7844 1.1487 17.932 1.3172 9.1818 0.15248 17.266 0.16738 17.962 0.0299 0.69607-0.13744 24.513-0.28097 52.927-0.29936l51.67-0.0299 0.14968-15.537c0.0923-8.5454 0.0736-47.868-0.0599-87.383l-0.23949-71.846-12.334-12.453c-12.379-12.496-16.257-16.85-16.285-18.351-0.009-0.44377-1.7347-2.7481-3.8618-5.1191-2.1271-2.3709-5.5376-6.6817-7.5738-9.5795s-5.8061-7.4033-8.3522-10.029l-4.6102-4.7898zm-78.522 12.334c-0.29194 0.0694-0.65821 0.54874-0.92802 1.2573-0.51986 1.3653-0.40724 1.4779 0.53885 0.53885 0.65469-0.64982 0.95354-1.4414 0.6586-1.7363-0.0738-0.0738-0.17211-0.083-0.26943-0.0599zm-152.46 57.417c-0.11451 0.0193-0.22752 0.0683-0.35924 0.14968-0.52687 0.32563-0.95795 0.78548-0.95795 1.0178 0 0.23234 0.43108 0.4191 0.95795 0.4191 0.52688 0 0.95796-0.45985 0.95796-1.0178 0-0.41848-0.25521-0.62654-0.59872-0.56879zm173.87 36.223c-0.2189 0.01-0.72445 0.31634-1.3172 0.80827-0.79031 0.6559-1.4369 1.413-1.4369 1.6764 0 0.26343 0.64662-0.0626 1.4369-0.71847 0.79031-0.6559 1.4369-1.413 1.4369-1.6764 0-0.0659-0.0468-0.0931-0.11975-0.0898z"
    />
  </g>
  <metadata>
    <rdf:RDF>
      <cc:Work>
        <dc:format>image/svg+xml</dc:format>
        <dc:type rdf:resource="http://purl.org/dc/dcmitype/StillImage" />
        <cc:license
          rdf:resource="http://creativecommons.org/licenses/publicdomain/"
        />
        <dc:publisher>
          <cc:Agent rdf:about="http://openclipart.org/">
            <dc:title>Openclipart</dc:title>
          </cc:Agent>
        </dc:publisher>
        <dc:title>Salvador Allende</dc:title>
        <dc:date>2011-07-31T16:44:14</dc:date>
        <dc:description />
        <dc:source
          >https://openclipart.org/detail/152887/salvador-allende-by-worker</dc:source
        >
        <dc:creator>
          <cc:Agent>
            <dc:title>worker</dc:title>
          </cc:Agent>
        </dc:creator>
        <dc:subject>
          <rdf:Bag>
            <rdf:li>1973</rdf:li>
            <rdf:li>911</rdf:li>
            <rdf:li>Allende</rdf:li>
            <rdf:li>Chile</rdf:li>
            <rdf:li>President</rdf:li>
            <rdf:li>Presidents</rdf:li>
            <rdf:li>Salvador</rdf:li>
            <rdf:li>eleven</rdf:li>
            <rdf:li>famous-people</rdf:li>
            <rdf:li>marxist</rdf:li>
            <rdf:li>nine</rdf:li>
            <rdf:li>pd government</rdf:li>
            <rdf:li>socialist</rdf:li>
            <rdf:li>unite</rdf:li>
            <rdf:li>workers</rdf:li>
          </rdf:Bag>
        </dc:subject>
      </cc:Work>
      <cc:License rdf:about="http://creativecommons.org/licenses/publicdomain/">
        <cc:permits rdf:resource="http://creativecommons.org/ns#Reproduction" />
        <cc:permits rdf:resource="http://creativecommons.org/ns#Distribution" />
        <cc:permits
          rdf:resource="http://creativecommons.org/ns#DerivativeWorks"
        />
      </cc:License>
    </rdf:RDF>
  </metadata>
</svg>
