<?xml version="1.0" encoding="UTF-8" standalone="no"?>
<!-- Created with Inkscape (http://www.inkscape.org/) -->
<svg
  xmlns:dc="http://purl.org/dc/elements/1.1/"
  xmlns:cc="http://web.resource.org/cc/"
  xmlns:rdf="http://www.w3.org/1999/02/22-rdf-syntax-ns#"
  xmlns:svg="http://www.w3.org/2000/svg"
  xmlns="http://www.w3.org/2000/svg"
  xmlns:sodipodi="http://sodipodi.sourceforge.net/DTD/sodipodi-0.dtd"
  xmlns:inkscape="http://www.inkscape.org/namespaces/inkscape"
  width="344"
  height="217"
  id="svg3073"
  sodipodi:version="0.32"
  inkscape:version="0.44"
  version="1.0"
  sodipodi:docbase="/home/ogre/Desktop"
  sodipodi:docname="Anarchist_Flag.svg"
>
  <defs id="defs3075" />
  <sodipodi:namedview
    id="base"
    pagecolor="#ffffff"
    bordercolor="#666666"
    borderopacity="1.0"
    inkscape:pageopacity="0.0"
    inkscape:pageshadow="2"
    inkscape:zoom="0.35"
    inkscape:cx="350.30569"
    inkscape:cy="405.0276"
    inkscape:document-units="px"
    inkscape:current-layer="layer1"
    inkscape:window-width="989"
    inkscape:window-height="622"
    inkscape:window-x="1280"
    inkscape:window-y="25"
  />
  <metadata id="metadata3078">
    <rdf:RDF>
      <cc:Work rdf:about="">
        <dc:format>image/svg+xml</dc:format>
        <dc:type rdf:resource="http://purl.org/dc/dcmitype/StillImage" />
      </cc:Work>
    </rdf:RDF>
  </metadata>
  <g
    inkscape:label="Ebene 1"
    inkscape:groupmode="layer"
    id="layer1"
    transform="translate(-165.1429,-558.1479)"
  >
    <rect
      style="
        opacity: 1;
        fill: white;
        fill-opacity: 1;
        stroke: none;
        stroke-width: 1.00000024;
        stroke-linecap: round;
        stroke-linejoin: round;
        stroke-miterlimit: 4;
        stroke-dasharray: none;
        stroke-dashoffset: 0;
        stroke-opacity: 1;
      "
      id="rect3093"
      width="217.14285"
      height="197.14285"
      x="233.71432"
      y="563.7193"
    />
    <path
      style="fill: black"
      d="M 165.14286,666.6479 L 165.14286,558.1479 L 337.14286,558.1479 L 509.14286,558.1479 L 509.14286,666.6479 L 509.14286,775.1479 L 337.14286,775.1479 L 165.14286,775.1479 L 165.14286,666.6479 z M 352.6386,744.51013 C 379.5213,736.92203 400.81239,715.5283 408.73044,688.1479 C 411.07362,680.04526 411.47772,676.80927 411.47772,666.1479 C 411.47772,655.49362 411.07413,652.25739 408.74443,644.23079 C 400.71566,616.569 379.74988,595.58247 352.1386,587.56895 C 344.02609,585.21449 340.822,584.81304 330.14286,584.81304 C 319.46372,584.81304 316.25963,585.21449 308.14712,587.56895 C 280.53584,595.58247 259.57006,616.569 251.54129,644.23079 C 249.21159,652.25739 248.808,655.49362 248.808,666.1479 C 248.808,676.80927 249.2121,680.04526 251.55527,688.1479 C 257.80617,709.76334 271.96708,727.28478 292.14286,738.36736 C 309.70113,748.01214 332.15464,750.29208 352.6386,744.51013 z M 320.12063,735.22725 C 312.69344,734.19525 305.01523,731.61327 296.97464,727.44388 C 285.7905,721.64441 285.83429,724.06805 296.41283,696.34937 L 305.64286,672.16418 L 329.64866,672.15604 L 353.65446,672.1479 L 362.93819,696.8979 L 372.22193,721.6479 L 369.93543,723.50817 C 359.34351,732.12565 336.49067,737.50185 320.12063,735.22725 z M 272.46185,705.36493 C 266.32707,696.16939 261.14286,682.51045 261.14286,675.54256 L 261.14286,672.1479 L 276.14286,672.1479 C 284.39286,672.1479 291.14286,672.42457 291.14286,672.76271 C 291.14286,673.77938 277.00929,708.59045 276.28208,709.36493 C 275.91178,709.75929 274.19267,707.95929 272.46185,705.36493 z M 376.2136,692.3979 C 372.21093,682.6354 368.70942,674.0854 368.43246,673.3979 C 368.04244,672.42978 371.44837,672.1479 383.53587,672.1479 L 399.14286,672.1479 L 399.14286,675.54256 C 399.14286,679.48144 395.80298,690.8531 392.94418,696.6479 C 390.55402,701.49277 384.8649,710.14329 384.06701,710.14597 C 383.7503,710.14703 380.21626,702.1604 376.2136,692.3979 z M 261.14286,656.75324 C 261.14286,654.88617 262.09452,650.27367 263.25765,646.50324 C 270.50921,622.99649 287.26899,606.33075 310.86405,599.16397 C 323.45246,595.34035 323.55269,593.48703 309.25735,628.87444 L 296.64286,660.10099 L 278.89286,660.12444 L 261.14286,660.1479 L 261.14286,656.75324 z M 311.14286,659.3018 C 311.14286,656.34909 329.38698,608.98862 330.19385,609.84674 C 330.60817,610.28738 331.64666,612.6729 332.5016,615.1479 C 333.35653,617.6229 335.4815,623.4729 337.22374,628.1479 C 338.96598,632.8229 341.86654,640.6979 343.66941,645.6479 C 345.47229,650.5979 347.43022,655.8854 348.02036,657.3979 L 349.09336,660.1479 L 330.11811,660.1479 C 319.68172,660.1479 311.14286,659.76716 311.14286,659.3018 z M 361.70087,656.8979 C 360.96391,655.1104 355.80172,642.3979 350.22934,628.6479 C 344.65696,614.8979 339.44017,602.1854 338.63648,600.3979 L 337.17522,597.1479 L 340.0537,597.1479 C 344.00888,597.1479 355.48515,600.79369 362.21936,604.1895 C 374.1593,610.21037 386.08039,622.13146 392.10126,634.0714 C 395.66398,641.13661 399.14286,652.3425 399.14286,656.75324 L 399.14286,660.1479 L 381.09183,660.1479 L 363.04081,660.1479 L 361.70087,656.8979 z "
      id="path3091"
    />
  </g>
</svg>
