<svg
  height="100px"
  width="100px"
  fill="#000000"
  xmlns="http://www.w3.org/2000/svg"
  xmlns:xlink="http://www.w3.org/1999/xlink"
  version="1.1"
  x="0px"
  y="0px"
  viewBox="0 0 100 100"
  enable-background="new 0 0 100 100"
  xml:space="preserve"
>
  <path
    d="M91.37,86.328c-0.075-0.139-0.441-0.414-0.441-0.414L70.305,68.523l0.036-0.115c0,0-0.137-0.129-0.29-0.252  c-0.159-0.139-0.261-0.255-0.308-0.405c-0.035-0.139-0.072-0.337-0.012-0.41c0.06-0.058,0.219-0.249,0.346-0.306  c0.113-0.048,0.113-0.184,0.113-0.184s0.01-0.124-0.027-0.244c-0.039-0.104-0.101-0.254-0.251-0.371  c-0.132-0.117-0.451-0.355-0.479-0.406c-0.034-0.059,0.109-0.672,0.176-0.979c0.08-0.315,0.462-1.051,0.462-1.051l-0.693-0.574  l0.103-0.451l0.427,0.36l0.756-0.938l-0.079-0.907c0,0-0.08-0.2-0.153-0.291c-0.069-0.087-0.565-0.554-1.232-1.058  c-0.67-0.5-2.34-1.682-5.161-3.623c-2.81-1.945-3.781-2.693-4.368-3.127c-0.582-0.435-1.258-1.004-1.558-1.164  c-0.308-0.176-0.756-0.133-1.104-0.092c-0.348,0.043-0.664,0.287-0.951,0.632c-0.286,0.346-1.853,2.218-1.853,2.218l-0.211-0.178  l0.21-0.325l-0.08-0.069l0.367-0.611c0,0-0.427-0.395-0.79-0.583c-0.373-0.194-0.796-0.319-0.796-0.319s0.165-0.238,0.24-0.396  c0.08-0.156,0.087-0.373,0.031-0.473c-0.057-0.1-0.345-0.33-0.345-0.33l-0.43-0.348l0,0l-0.163,1.531l-1.384,0.555l0.265,0.609  l-1.119,0.408l-0.095,1.209l-1.245,0.146l-0.206,0.914l0.32,0.276c0,0,0.195,0.18,0.346,0.188c0.146,0.015,0.245-0.082,0.245-0.082  l0.545-0.633l1.188,1.486l0.536-0.562l0.399,0.1c0,0-0.352,0.283-0.488,0.57c-0.133,0.301,0.019,0.653,0.115,0.975  c0.107,0.342,0.078,0.744,0.078,0.744s-0.46,0.584-0.838,1.053c-0.366,0.467-1.282,1.365-1.282,1.365l-0.478,0.025l-0.16,0.173  l0.321,0.535c0,0-1.544,1.8-2.685,2.812c-1.161,1.015-2.416,1.782-3.527,2.558c-1.111,0.76-1.701,1.025-1.701,1.025  s-0.007,0.029,0.109,0.244c0.121,0.226,1.257,2.104,1.723,2.82c0.468,0.717,1.619,2.18,1.753,2.287  c0.141,0.123,0.24,0.041,0.357-0.074c0.134-0.104,1.287-0.963,2.219-1.572c0.934-0.619,2.081-1.369,3.407-2.477  c1.335-1.103,2.63-2.381,2.63-2.381s0.423,0.223,0.485,0.283c0.064,0.047,0.108,0.107,0.171,0.215  c0.073,0.119,3.197,2.715,3.197,2.715l-0.058,0.156c0,0,1.364,1.134,1.433,1.273c0.067,0.152-0.079,0.63-0.101,0.799  c-0.017,0.178-0.268,0.551-0.458,0.689c-0.172,0.168-0.346,0.125-0.437,0.189c-0.083,0.055-0.169,0.145-0.14,0.225  c0.022,0.084,0.128,0.143,0.304,0.277c0.158,0.137,0.246,0.289,0.26,0.445c0.017,0.154-0.506,2.291-0.541,2.619  c-0.04,0.328-0.227,0.799-0.31,0.955c-0.076,0.139-0.229,0.229-0.494,0.508c-0.259,0.275-0.213,0.459,0.011,0.709  c0.232,0.244,0.579,0.469,0.854,0.615c0.26,0.166,2.748,1.385,3.029,1.498c0.273,0.113,0.531,0.15,0.645,0.121  c0.129-0.031,0.178-0.156,0.241-0.41c0.06-0.266,0.388-2.924,0.628-5.156c0.235-2.234,0.286-3.238,0.41-3.689  c0.112-0.446,0.47-0.946,0.968-1.275c0.512-0.353,1.458-0.367,2.111,0.035c0.66,0.388,1.342,1.19,1.863,1.783  c0.524,0.586,1.325,1.678,3.071,4.42c1.732,2.73,3.956,6.635,5.431,8.953c1.477,2.328,3.859,6.416,3.859,6.416  s-0.103-0.016-0.224-0.055c-0.126-0.051-0.661-0.074-0.831-0.025c-0.186,0.031-0.333,0.129-0.436,0.285  c-0.151,0.23-0.055,0.537,0.082,0.715c0.075,0.113,0.207,0.248,0.422,0.324c0.208,0.076,0.661,0.145,0.938,0.045  c0.274-0.119,0.442-0.441,0.442-0.441s0.097-0.057,0.16,0.035c0.063,0.068,0.318,0.33,0.471,0.703  c0.157,0.367,0.633,0.984,0.841,1.1c0.224,0.109,0.417,0.041,0.894-0.424c0.491-0.473,3.483-3.232,4.934-4.754  c1.467-1.514,3.278-3.461,3.525-3.76C91.488,86.805,91.438,86.453,91.37,86.328z M58.428,70.746c-0.433,0.064-0.8,0.009-1.137-0.204  c-0.329-0.194-2.636-2.185-2.669-2.263c-0.103-0.316,0.033-0.695,0.196-1.029c0.117-0.24,0.408-0.74,0.938-0.957  c0.514-0.215,1.189,0.011,1.189,0.011l1.695,1.39c0,0-0.142,0.78-0.615,1.207c-0.479,0.41-0.752,0.449-0.89,0.475  c-0.126,0.025-0.219,0.076-0.193,0.157c0.032,0.077,0.194,0.148,0.448,0.079c0.233-0.051,0.705-0.082,1.125-0.57  c0.414-0.494,0.59-0.901,0.59-0.901s0.251,0.147,0.315,0.261c0.065,0.117,0.406,0.877,0.118,1.306  C59.254,70.139,58.864,70.702,58.428,70.746z M65.567,62.483c-0.42-0.267-0.561-0.399-0.561-0.399l-8.601-7.24  c0,0-0.359-0.371-0.456-0.832c-0.079-0.467,0.041-0.73,0.313-1.113c0.291-0.361,0.533-0.541,0.878-0.578  c0.348-0.027,0.614-0.035,0.867,0.193c0.271,0.212,3.878,3.14,3.878,3.14s4.044,3.43,4.231,3.573  c0.183,0.163,0.603,0.541,0.585,0.918c-0.024,0.359-0.174,1.605-0.356,1.902C66.163,62.344,65.984,62.738,65.567,62.483z   M79.724,94.287c-0.188,0.035-0.529,0.016-0.688-0.105c-0.229-0.174-0.259-0.611,0.267-0.594c0.234,0.008,0.517,0.096,0.56,0.223  C79.905,93.945,79.9,94.252,79.724,94.287z"
  ></path>
  <path
    d="M47.087,54.894l-1.174-0.303l-0.207-1.173l-0.646,0.154l-0.306-1.459l-1.48-0.426l0,0L22.014,70.176  c0,0-0.433,0.422-0.583,0.53c-0.163,0.104-0.118,0.349-0.199,0.479c-0.079,0.123-0.416,0.391-0.416,0.391s-4.764-0.962-5.106-1.012  c-0.345-0.052-0.718,0.023-0.913,0.164c-0.188,0.142-0.367,0.58-0.321,0.807c0.035,0.225,0.21,0.485,0.21,0.485l3.325,3.995  l-9.268,7.854l-0.146-0.004l-0.552,0.469l0.005,0.184l-0.11,0.113l-0.238-0.088l-0.248,0.186l0.07,0.262l-0.12,0.084l-0.285-0.068  l-2.194,1.854c0,0-0.035,0.084,0.063,0.324c0.101,0.221,0.235,0.385,0.395,0.574c0.155,0.191,0.246,0.324,0.486,0.508  c0.22,0.184,0.381,0.182,0.381,0.182l2.222-1.885l-0.061-0.227l0.134-0.092l0.188,0.107l0.272-0.227l-0.09-0.221l0.206-0.152  l0.169,0.043c0,0,0.494-0.41,0.556-0.463c0.065-0.053,0.033-0.166,0.033-0.166l9.261-7.74c0,0,0.071,0.031,0.124,0.096  c0.054,0.072-0.012,0.236-0.066,0.299c-0.059,0.072-0.331,0.305-0.331,0.305l0.669,0.586l0.806-0.615l0.162,0.199l0.491-0.393  l-0.682-0.887c0,0-0.08-0.096-0.119-0.25c-0.041-0.154,0.027-0.316,0.027-0.316l1.73-1.463c0,0,0.045-0.027,0.124-0.049  c0.077-0.014,0.124,0.043,0.124,0.043l0.226,0.273l0.16-0.016l0.086,0.105l-0.036,0.125l0.331,0.361l0.18-0.094l0.381,0.449  c0,0-0.003,0.285,0.069,0.398c0.049,0.129,0.821,1.078,0.821,1.078l0.346-0.262l-0.198-0.449l0.058-0.332  c0,0-0.253-0.373-0.472-0.588c-0.22-0.211-0.347-0.189-0.347-0.189l-0.352-0.404l0.149-0.156l-0.181-0.225l0.423-0.371l0.129,0.096  l0.149-0.037l0.29,0.285c0,0,0.145,0.074,0.287,0.113c0.147,0.027,0.32-0.047,0.32-0.047l22.859-18.59l-0.864-0.36L47.087,54.894z   M20.796,73.4l-1.916,1.631c0,0-0.07-0.02-0.019-0.15c0.059-0.123,0.112-0.145,0.112-0.145l1.447-1.252c0,0,0.106-0.07,0.225-0.125  C20.778,73.312,20.796,73.4,20.796,73.4z M20.05,72.285c0.017,0.093,0.033,0.318-0.016,0.373c-0.051,0.076-2.216,1.906-2.216,1.906  L16.88,73.48l0.153-0.376c0,0,0.06-0.165,0.015-0.226c-0.053-0.057-0.665-0.791-0.665-0.791s0.089-0.26,0.18-0.371  c0.097-0.102,0.265-0.219,0.265-0.219l3.074,0.668C19.902,72.166,20.028,72.184,20.05,72.285z"
  ></path>
  <polygon points="70.692,73.08 70.691,73.08 70.692,73.081 "></polygon>
  <polygon
    points="51.497,38.191 55.78,9.257 48.118,10.802 40.455,9.257 44.739,38.191 36.592,37.349 48.118,52.939 59.644,37.349   "
  ></polygon>
  <path
    d="M21.023,69.16l0.029-0.029l4.37-3.799c-2.926-4.352-4.633-9.59-4.633-15.228c0-12.688,8.646-23.354,20.366-26.434  l-0.813-5.489c-14.614,3.501-25.478,16.65-25.478,32.337c0,7.02,2.177,13.53,5.89,18.897C20.837,69.338,20.935,69.246,21.023,69.16z  "
  ></path>
  <path
    d="M70.489,65.804l5.135,3.406c3.626-5.327,5.748-11.761,5.748-18.691c0-15.688-10.864-28.836-25.479-32.337l-0.812,5.489  c11.721,3.08,20.366,13.747,20.366,26.434C75.447,55.947,73.612,61.361,70.489,65.804z"
  ></path>
  <path
    d="M55.081,76.537l0.002-0.002c-2.225,0.584-4.558,0.898-6.965,0.898c-6.294,0-12.09-2.129-16.71-5.704l-4.948,4.024  c5.819,4.998,13.385,8.02,21.658,8.02c2.86,0,5.637-0.363,8.286-1.043L55.081,76.537z"
  ></path>
</svg>
