<svg
  xmlns="http://www.w3.org/2000/svg"
  xmlns:xlink="http://www.w3.org/1999/xlink"
  version="1.1"
  x="0px"
  y="0px"
  viewBox="-7 2.5 144.75 121.875"
  enable-background="new -7 2.5 144.75 97.5"
  xml:space="preserve"
>
  <path
    d="M30.158,81.749l-2.304,13.232l7.77,1.351c-0.533-5.064-2.252-9.907-5.155-14.528L30.158,81.749z"
  />
  <path
    d="M60.164,74.388c-2.866,0-5.355-1.648-6.85-4.56c-1.44-2.881-1.455-5.894-0.174-8.292c-1.783-0.611-3.896-2.103-5.104-5.664  l-0.095-0.279l-0.052-0.29c-1.365-7.52,5.553-11.394,9.687-13.708c0.707-0.396,1.377-0.771,1.95-1.123l0.208-0.127  c-0.061-0.348-0.12-0.693-0.174-1.061c-0.222-1.548,0.215-2.95,1.748-4.691l-6.882-5.557L43.49,42.583  c-0.389-0.047-0.759-0.074-1.12-0.073c-0.095-0.03-0.19-0.062-0.284-0.099l-8.366-8.366l18.202-18.197l-9.495-9.499l-27.7,27.696  l18.045,18.042l-8.548,8.547L6.02,42.43l-9.494,9.498l27.697,27.701l15.461-15.465l10.035,4.576L39.171,91.876  c5.204-1.641,10.325-2.08,15.36-1.314l6.803-14.92c-0.092-0.417-0.16-0.859-0.188-1.32C60.819,74.363,60.492,74.388,60.164,74.388z"
  />
  <path
    d="M66.641,17.296c0.275,4.877,0.607,7.578,1.78,11.448l8.918-5.881L66.641,17.296z"
  />
  <path
    d="M88.983,60.192l-3.674-1.786l-0.263,0.186c-0.415,0.483-0.905,0.974-1.506,1.47l-0.042,0.034l-0.042,0.032l-2.237,1.747  l-0.142,0.11l-0.082,0.054L65.484,72.704c-0.652,1.118-0.274,2.325,0.361,3.827c0.445,0.908,1.18,1.23,1.992,1.23  c1.158,0,2.473-0.656,3.328-1.203l0.285-0.2l17.733-12.439l0.055-0.402C89.643,60.549,88.99,60.195,88.983,60.192z"
  />
  <path
    d="M94.271,68.204c-0.19-0.053-0.566-0.127-1.219-0.151l-2.035-0.076l-0.613-0.023L76.567,77.71  c-0.113,0.111-0.189,0.243-0.271,0.372c-0.874,1.366-0.04,3.571,1.949,4.536c0.608,0.295,1.283,0.422,1.993,0.422  c1.9,0,4.064-0.914,5.945-1.983l3.953-3.593l0.132-0.119c2.812-2.555,4.524-4.25,4.322-6.79  C94.497,69.376,94.39,68.588,94.271,68.204z"
  />
  <path
    d="M64.726,51.9L61.2,44.129c-3.856,2.285-9.669,4.767-9.46,9.607c0.012,0.277,0.032,0.559,0.086,0.853  c0.053,0.155,0.112,0.287,0.169,0.431c0.837,2.117,2.091,2.925,3.546,2.925c0.541,0,1.11-0.115,1.694-0.306l0.198-0.14l6.07-4.28  l1.072-0.757l0.306-0.216L64.726,51.9z"
  />
  <path
    d="M78.513,55.103c-1.219,2.005-3.086,3.715-5.53,4.94l-3.719,1.865l-1.719-3.788l-0.798-1.761l-0.054-0.119l-0.13-0.285  l-8.968,6.323c-1.876,1.585-1.583,4.002-0.704,5.761c0.854,1.665,2.028,2.349,3.272,2.349c0.782,0,1.592-0.27,2.369-0.736  l10.404-6.823c0.008-0.006,0.015-0.011,0.021-0.016l8.037-5.837c0.18-0.147,0.342-0.29,0.49-0.429L78.513,55.103z"
  />
  <path
    d="M121.721,38.359c-2.852,0-5.656-0.205-8.754-0.781c-4.095-0.762-9.157-4.799-13.278-7.209  c-3.97-2.32-8.8-6.848-13.176-6.849c-0.162,0-0.324,0.006-0.485,0.019c-1.118,0.089-2.692,0.696-4.405,1.553  c-2.232,1.117-4.702,2.661-6.711,4.046c-0.908,0.626-3.009,2.011-5.163,3.563c-2.065,1.487-4.174,3.125-5.332,4.398  c-0.474,0.521-0.785,0.979-0.871,1.34c-0.023,0.099-0.036,0.192-0.024,0.276c0.066,0.454,0.14,0.895,0.219,1.329l7.449,16.423  c4.032-2.022,6.236-6.116,4.215-10.922c0.136-0.106,0.259-0.203,0.386-0.302c3.032-2.368,3.421-2.574,4.806-3.492  c0.309,1.073,0.653,2.058,1.031,2.969c1.16,2.797,2.658,4.852,4.556,6.311c2.648,2.035,6.074,2.913,10.471,2.998  c0.137,0.003,0.308,0.003,0.509,0.003c0.152,0,0.322,0,0.507,0c2.739,0,8.619,0.076,8.693,2.515  c-0.049,0.842-1.909,1.125-4.343,1.125c-2.913,0-6.643-0.404-9.083-0.737c-0.995-0.136-1.782-0.26-2.203-0.34  c2.435,1.184,2.728,3.904,2.621,5.921c-0.031,0.592-0.095,1.127-0.151,1.54c0.198,0.008,0.379,0.023,0.562,0.038  c4.051,0.327,4.519,2.436,4.813,6.144c0.374,4.697-2.859,7.558-5.751,10.187c0.491-0.079,0.935-0.15,1.357-0.218  c5.096-0.817,5.554-0.893,8.917-1.777c3.237-0.848,6.833-2.184,8.079-4.676c2.051-3.736,3.546-5.299,6.876-6.463  c1.664-0.581,3.923-0.787,6.414-0.787c3.282,0,6.969,0.357,10.224,0.685V37.624C129.688,37.968,125.659,38.359,121.721,38.359z"
  />
</svg>
