<?xml version="1.0" encoding="UTF-8" standalone="no"?>
<!-- Created with Inkscape (http://www.inkscape.org/) -->
<svg
  xmlns:dc="http://purl.org/dc/elements/1.1/"
  xmlns:cc="http://creativecommons.org/ns#"
  xmlns:rdf="http://www.w3.org/1999/02/22-rdf-syntax-ns#"
  xmlns:svg="http://www.w3.org/2000/svg"
  xmlns="http://www.w3.org/2000/svg"
  xmlns:sodipodi="http://sodipodi.sourceforge.net/DTD/sodipodi-0.dtd"
  xmlns:inkscape="http://www.inkscape.org/namespaces/inkscape"
  width="761.74194"
  height="762.06995"
  id="svg3765"
  version="1.1"
  inkscape:version="0.48.4 r9939"
  sodipodi:docname="New document 23"
>
  <defs id="defs3767" />
  <sodipodi:namedview
    id="base"
    pagecolor="#ffffff"
    bordercolor="#666666"
    borderopacity="1.0"
    inkscape:pageopacity="0.0"
    inkscape:pageshadow="2"
    inkscape:zoom="0.35"
    inkscape:cx="372.82129"
    inkscape:cy="312.59159"
    inkscape:document-units="px"
    inkscape:current-layer="layer1"
    showgrid="false"
    fit-margin-top="0"
    fit-margin-left="0"
    fit-margin-right="0"
    fit-margin-bottom="0"
    inkscape:snap-page="true"
    inkscape:window-width="1280"
    inkscape:window-height="723"
    inkscape:window-x="0"
    inkscape:window-y="26"
    inkscape:window-maximized="1"
  />
  <metadata id="metadata3770">
    <rdf:RDF>
      <cc:Work rdf:about="">
        <dc:format>image/svg+xml</dc:format>
        <dc:type rdf:resource="http://purl.org/dc/dcmitype/StillImage" />
        <dc:title />
      </cc:Work>
    </rdf:RDF>
  </metadata>
  <g
    inkscape:label="Layer 1"
    inkscape:groupmode="layer"
    id="layer1"
    transform="translate(-2.1787053,-82.883851)"
  >
    <g id="g3872">
      <rect
        transform="translate(2.1787053,82.883851)"
        y="0"
        x="0"
        height="762.06995"
        width="761.74194"
        id="rect3870"
        style="fill: #d40000; fill-opacity: 1; stroke: none"
      />
      <path
        inkscape:connector-curvature="0"
        id="path3862"
        d="m 382.96875,114.3125 c -16.60588,0.008 -33.2775,0.65715 -42.4375,1.90625 -42.865,5.8453 -77.2905,16.38775 -114.5625,35.09375 -95.032,47.689 -165.1625,139.0975 -185.8125,242.1875 -5.6024,27.977 -6.5625,38.13675 -6.5625,70.34375 0,31.46 0.9603,42.024 6.0625,68 19.475,99.151 82.617,186.2975 171.875,237.1875 31.386,17.896 68.7465,31.64675 105.1875,38.71875 9.2868,1.8026 18.2695,3.11545 35.3125,5.09375 12.041,1.3976 60.67575,0.50015 74.71875,-1.375 76.361,-10.2 144.275,-42.985 199.125,-96.125 58.692,-56.86 94.9225,-129.96875 104.8125,-211.46875 2.1464,-17.697 2.46644,-59.055 0.5625,-75.5 -9.58,-82.69 -43.63225,-154.08375 -100.65625,-211.09375 -17.163,-17.17 -29.8295,-27.91875 -46.8125,-39.71875 -49.14,-34.138 -97.601,-52.89625 -158.75,-61.40625 -8.9165,-1.2409 -25.45662,-1.85175 -42.0625,-1.84375 z m -192.125,99.5 9.40625,9.59375 c 30.09038,30.80886 66.73833,44.52067 119.03125,44.53125 25.66412,0.005 48.32358,-2.44705 110.125,-12 49.16703,-7.59988 72.43987,-9.70823 97.625,-8.8125 33.90303,1.20622 56.75119,7.61511 79.375,22.28125 10.05096,6.51533 26.9362,23.78265 34.8125,35.59375 7.10357,10.65305 15.123,26.79252 20.40625,41.09375 l 3.4375,9.375 -5.625,9.84375 c -3.10377,5.42945 -11.61184,20.27279 -18.90625,32.96875 -7.29488,12.69596 -14.00599,24.38175 -14.90625,25.96875 -3.48476,6.14619 -24.00303,41.45857 -36.875,63.46875 -7.42492,12.69596 -14.86732,25.46552 -16.53125,28.375 -5.90603,10.32317 -40.5948,69.76655 -63.71875,109.1875 -8.61248,14.6821 -39.50483,67.84451 -42.75,73.5625 -1.35135,2.38049 -8.22461,14.30179 -15.25,26.46875 -7.0252,12.16695 -14.60272,25.34501 -16.84375,29.3125 -9.98172,17.67335 -12.86944,22.69393 -13.78125,23.75 -0.53618,0.62111 -3.47277,1.39453 -6.53125,1.71875 -3.05838,0.32424 -6.64626,0.69168 -7.96875,0.84375 -1.32249,0.15204 -6.47165,-0.0808 -11.4375,-0.53125 -4.96556,-0.45032 -9.60403,-1.13469 -10.3125,-1.53125 -1.34471,-0.75252 -0.66105,-2.03467 27.5,-50.6875 6.73626,-11.63798 21.88845,-37.82106 33.65625,-58.1875 11.76781,-20.36644 25.08284,-43.29827 29.59375,-50.96875 4.51062,-7.67048 9.51415,-16.34051 11.125,-19.25 1.61103,-2.9095 6.9507,-12.13028 11.875,-20.5 L 506.34375,564.0625 504.78125,561 c -0.85589,-1.68125 -3.0857,-5.19877 -4.96875,-7.84375 -20.19715,-28.36874 -47.36538,-42.01145 -90.875,-45.625 -16.77983,-1.39386 -33.93106,-1.28097 -64.65625,0.4375 -52.87,2.95701 -61.98165,3.30394 -82.3125,3.3125 -51.92647,0.0217 -88.30158,-6.87385 -122.9375,-23.3125 C 114.16353,476.16439 92.855328,460.06219 72.65625,437.75 l -6.09375,-6.71875 0.625,-6.75 c 0.865221,-9.41868 5.827438,-33.19857 9.71875,-46.53125 14.478202,-49.60178 38.54894,-91.48785 73.96875,-128.71875 9.31662,-9.79127 28.84388,-27.26615 36.75,-32.90625 l 3.21875,-2.3125 z M 63,449.9375 c 1.449975,-0.10991 4.880747,3.70201 11.75,10.625 38.30236,38.60149 81.98338,57.2187 146.4375,62.375 17.22899,1.37847 62.39008,0.62831 91.84375,-1.53125 29.6364,-2.17284 63.02169,-2.85845 76.15625,-1.5625 13.84436,1.36597 27.35439,4.6995 35.5,8.78125 9.51668,4.76898 9.30587,3.63014 2.625,16.21875 -9.99229,18.82754 -32.47288,59.83338 -59.9375,109.28125 -25.66124,46.19886 -49.87789,90.30798 -58.21875,106.0625 -2.31046,4.36424 -4.42387,7.87445 -4.71875,7.8125 -0.29486,-0.0618 -7.79591,-1.0045 -16.65625,-2.09375 -8.86072,-1.08915 -16.09375,-2.39169 -16.09375,-2.875 0,-0.48329 15.60028,-31.36379 34.6875,-68.65625 19.08722,-37.29149 34.49768,-68.03453 34.21875,-68.3125 C 339.72406,625.1928 328.37076,623.04458 316.375,621.5 301.82082,619.62591 286.13125,618.46793 251,616.625 206.78631,614.30558 187.12675,611.96484 166.03125,606.5 103.00832,590.17319 72.071713,547.96668 63.4375,466.5625 62.234435,455.21705 61.356695,450.06207 63,449.9375 z"
        style="fill: #ffffff"
      />
    </g>
  </g>
</svg>
