<?xml version="1.0" encoding="UTF-8" standalone="no"?>
<!-- Created with Inkscape (http://www.inkscape.org/) -->
<svg
  xmlns:inkscape="http://www.inkscape.org/namespaces/inkscape"
  xmlns:rdf="http://www.w3.org/1999/02/22-rdf-syntax-ns#"
  xmlns="http://www.w3.org/2000/svg"
  xmlns:xlink="http://www.w3.org/1999/xlink"
  xmlns:ns1="http://sozi.baierouge.fr"
  xmlns:cc="http://creativecommons.org/ns#"
  xmlns:dc="http://purl.org/dc/elements/1.1/"
  xmlns:sodipodi="http://sodipodi.sourceforge.net/DTD/sodipodi-0.dtd"
  id="svg2"
  sodipodi:docname="AntifaWiFi.svg"
  xml:space="preserve"
  inkscape:export-filename="/tmp/Antifalogo.png"
  viewBox="0 0 367.35 367.35"
  inkscape:export-xdpi="251.05"
  version="1.1"
  inkscape:export-ydpi="251.05"
  inkscape:version="0.48.3.1 r9886"
>
  <sodipodi:namedview
    id="namedview3921"
    bordercolor="#666666"
    inkscape:pageshadow="2"
    guidetolerance="10"
    pagecolor="#ffffff"
    gridtolerance="10"
    inkscape:window-maximized="1"
    inkscape:zoom="1.2848782"
    objecttolerance="10"
    borderopacity="1"
    inkscape:current-layer="g14"
    inkscape:cx="141.67667"
    inkscape:cy="202.20272"
    inkscape:window-y="-3"
    inkscape:window-x="0"
    inkscape:guide-bbox="true"
    inkscape:window-width="1366"
    showgrid="false"
    inkscape:pageopacity="0"
    inkscape:window-height="746"
    showguides="true"
  />
  <g id="g12" transform="matrix(1.25,0,0,-1.25,0,367.35)">
    <g id="g14" transform="scale(.12)">
      <path
        id="path20"
        style="
          block-progression: tb;
          text-indent: 0;
          color: #000000;
          text-transform: none;
          fill: #000000;
        "
        d="m1227 33c-658.39 0-1195 536.61-1195 1195 0 658.36 536.61 1195 1195 1195 658.36 0 1195-536.64 1195-1195 0-658.39-536.7-1195-1195-1195zm0 271.66c511.56 0 923.34 411.76 923.34 923.31 0 511.56-411.79 923.34-923.34 923.34-511.54 0-923.31-411.79-923.31-923.34s411.77-923.31 923.31-923.31z"
      />
      <path
        id="path2833"
        style="fill-rule: evenodd; fill: #ffffff"
        d="m294.25 1670.4-47.967 46.7 66.92-9.4867m29.296-4.1833 39.199-4.79 16.633 32.65-191.21 22.52-12.078-23.7 129.77-143.11 16.417 32.23-26.488 29.73"
      />
      <path
        id="path26"
        style="fill-rule: evenodd; fill: #ffffff"
        d="m2254.3 1656.1 27.29 12.14-37.02 83.13-160.72-71.55 37.01-83.13 27.29 12.14-23.06 51.8 43.48 19.36 22.21-49.88 27.28 12.15-22.2 49.88 35.38 15.75 23.06-51.79"
      />
      <path
        id="path2857"
        style="fill-rule: evenodd; fill: #ffffff"
        d="m516.8 2125.2 108.31-138.7 27.03 21.1-108.31 138.7-27.03-21.1z"
      />
      <path
        id="path2845"
        style="fill-rule: evenodd; fill: #ffffff"
        d="m432.56 1782.6-94.142 73.547 0.289 0.37 153.93-2.71 15.23 19.49-141.39 110.47-21.121-27.03 93.222-72.83-0.285-0.37-153.93 2.71-15.226-19.49 142.31-111.86 21.12 27.7z"
      />
      <path
        id="path2843"
        style="fill-rule: evenodd; fill: #ffffff"
        d="m2062.1 1715.8 149.21 93.227-18.18 29.09-58.78-36.73-33.63 53.83 58.77 36.72-18.17 29.09-149.2-93.23 18.17-29.09 66.69 41.67 33.34-53.37-66.39-42.12 18.167-29.087z"
      />
      <path
        id="path2841"
        style="fill-rule: evenodd; fill: #ffffff"
        d="m474.34 2049.7 25.512 24.63-20.75 21.49-75.696-73.1 20.75-21.48 25.512 24.63 101.46-105.07 24.672 23.83-101.46 105.07z"
      />
      <path
        id="path28"
        style="fill-rule: evenodd; fill: #ffffff"
        d="m2088.7 1972.3c-3.34 13.16-9.84 25.6-19.23 35.67-35.17 37.72-91.45 33.41-127.97-0.64-35.49-33.11-41.74-89.01-8-125.19 9.71-10.42 21.7-16.77 34.89-22.02l29.86 27.84c-14.54-0.48-30.2 5.02-40.22 15.77-21.8 23.38-13.5 57.92 8.17 78.13 22.19 20.69 57.26 27.55 79.7 3.49 10.02-10.75 14.77-26.11 12.76-41.06l30.04 28.01"
      />
      <path
        id="path2875"
        style="fill-rule: evenodd; fill: #ffffff"
        d="m663.56 2226.5-73.193-47.54 95.82-147.54 28.767 18.68-42.187 64.973 41.678 27.057-16.265 25.05-41.684-27.07-21.094 32.49 44.425 28.84-16.267 25.06z"
      />
      <path
        id="path2909"
        style="fill-rule: evenodd; fill: #ffffff"
        d="m1428.1 2176.8 30.553 173.26-33.77 5.96-30.55-173.26 33.767-5.96z"
      />
      <path
        id="path2903"
        style="fill-rule: evenodd; fill: #ffffff"
        d="m1652.7 2099.1 59.413 133.44 32.4-14.42 12.15 27.28-96.13 42.8-12.15-27.28 32.4-14.43-59.41-133.43 31.327-13.96z"
      />
      <path
        id="path2901"
        style="fill-rule: evenodd; fill: #ffffff"
        d="m1739.2 2050.9 87.967 152.36-29.7 17.15-87.973-152.36 29.707-17.147z"
      />
      <path
        id="path2899"
        style="fill-rule: evenodd; fill: #ffffff"
        d="m1161 2368.1c-12.61 5.03-26.49 7.08-40.16 5.41-51.18-6.29-80.78-54.35-74.69-103.91 5.91-48.17 47.47-86.09 96.58-80.06 14.12 1.73 26.32 7.7 38.32 15.28l-4.98 40.53c-8.16-12.05-21.81-21.48-36.4-23.27-31.73-3.9-54.79 23.12-58.41 52.53-3.69 30.11 11.37 62.52 44.03 66.53 14.58 1.79 29.8-3.39 40.72-13.81l-5.01 40.77z"
      />
      <path
        id="path32"
        style="fill-rule: evenodd; fill: #ffffff"
        d="m1263 2304 4.83 69.13-34.21 2.39-12.28-175.5 34.22-2.39 5.49 78.44 63.3-4.43-5.48-78.44 34.22-2.39 12.27 175.5-34.21 2.39-4.84-69.13-63.31 4.43"
      />
      <path
        id="path34"
        style="fill-rule: evenodd; fill: #ffffff"
        d="m1653 150.95 30.56 15.571-54.23 106.44 0.41 0.211 138.36-67.508 22.04 11.23-81.46 159.88-30.56-15.57 53.71-105.41-0.42-0.211-138.36 67.508-22.04-11.227 81.99-160.91"
      />
      <path
        id="path2830"
        style="fill-rule: evenodd; fill: #ffffff"
        d="m1488.5 97.949c50.02 11.547 75.25 60.949 63.92 110.06-11.08 47.972-55.57 82-105.59 70.453s-75.09-61.637-64.02-109.61c11.34-49.11 55.67-82.45 105.69-70.903zm-34.06 147.55c29.33 6.77 56.7-16.363 63.11-44.101 5.98-25.918-8.24-63.922-36.66-70.485-28.42-6.558-57.85 21.367-63.84 47.285-6.4 27.739 8.06 60.532 37.39 67.301z"
      />
      <path
        id="path2832"
        style="fill-rule: evenodd; fill: #ffffff"
        d="m1314 256.14-34.29-0.598 3.07-175.91 34.29 0.6016-3.07 175.91z"
      />
      <path
        id="path2834"
        style="fill-rule: evenodd; fill: #ffffff"
        d="m1181.7 229.28 35.27-3.707 3.12 29.703-104.65 11-3.13-29.707 35.28-3.707-15.27-145.26 34.11-3.586 15.27 145.27z"
      />
      <path
        id="path2836"
        style="fill-rule: evenodd; fill: #ffffff"
        d="m957.8 224.06-0.457 0.105 16.691 72.297-33.422 7.719-39.574-171.43 33.422-7.715 17.793 77.07 0.453-0.105 37-89.719 42.977-9.922-47.356 108.16 83.286 64.109-41.15 9.5-69.663-60.07z"
      />
      <path
        id="path2838"
        style="fill-rule: evenodd; fill: #ffffff"
        d="m794.62 212.41-2.035-39.437 33.719-14.313 9.137 192.32-24.489 10.39-133.7-139.44 33.289-14.129 27.809 28.5 56.273-23.891zm2.133 29.512-38.441 16.32 42.804 51.285 0.43-0.183-4.793-67.422z"
      />
      <g id="g4445" transform="matrix(1.0608 0 0 1.0608 -105.13 -68.042)">
        <path
          id="rect3674"
          style="
            stroke-linejoin: round;
            stroke: #000000;
            stroke-linecap: round;
            stroke-width: 0.3;
            fill: #ff0000;
          "
          d="m112.85 181.34 93.394-57.593 16.344 108.96-101.18-13.231z"
          sodipodi:nodetypes="ccccc"
          inkscape:connector-curvature="0"
          transform="matrix(6.6667 0 0 -6.6667 0 2449)"
        />
        <g id="layer1-6" transform="matrix(4.3335 0 0 -4.3335 3.5832 4491.2)">
          <path
            id="path2888"
            d="m214.34 906.3c-13.47-3.3288-18.736-10.682-23.831-33.279-4.9056-21.757-7.6136-29.233-13.484-37.231-4.7146-6.4225-10.83-9.2966-19.78-9.2966-11.122 0-16.917-4.2111-20.715-15.054-4.069-11.616-4.8278-32.526-1.5178-41.821 2.1337-5.992 7.6482-12.822 13.595-16.839 2.9749-2.0094 13.545-6.694 25.174-11.157 22.236-8.534 37.21-15.681 52.095-24.865 19.287-11.9 41.292-28.601 54.969-41.718 8.7283-8.3708 9.0989-8.9126 10.945-16.001 1.7877-6.8635 4.2372-11.389 8.2524-15.246 2.9642-2.8474 4.0376-3.2632 9.2849-3.5974 9.8038-0.62426 15.943 3.4574 24.465 16.265 12.188 18.318 24.481 53.523 30.071 86.12 8.3529 48.712 2.1163 96.605-13.425 103.1-5.972 2.4953-9.1324 1.5794-20.986-6.0816-3.1072-2.0083-8.5055-4.7428-11.996-6.0767-19.961-7.6275-66.793-15.383-93.041-15.408-9.7335-0.009-10.534 0.12957-11.888 2.0622-2.2909 3.2708-1.7919 10.571 1.3273 19.417 1.5283 4.3342 2.787 8.8452 2.7971 10.025 0.0235 2.7439 2.054 6.6676 4.6803 9.0444 3.339 3.0218 4.8956 6.8532 4.2286 10.409-0.52332 2.7895-0.0662 3.897 3.647 8.8367 4.5637 6.0711 5.1181 8.6811 2.9678 13.973-1.4042 3.4559-1.1642 4.839 1.4167 8.1648 2.4232 3.1227 2.1778 5.5758-0.66612 6.6571-3.2179 1.2234-12.854 1.0154-18.587-0.40137zm96.98-94.025c-18.655-37.286-29.59-94.79-24.128-126.88l0.60837-3.5746-7.3901 7.3901c-10.297 10.297-19.176 16.623-45.696 32.555-33.522 20.138-38.725 25.852-39.332 43.193-0.68921 19.666 6.9639 35.721 19.81 41.557 4.134 1.8782 7.135 2.2766 23.39 3.1046 10.256 0.52245 23.468 1.6265 29.36 2.4534 12.744 1.7885 32.237 6.7075 41.966 10.59 3.846 1.5347 7.2327 2.8149 7.526 2.8449 0.29325 0.03-2.4581-5.9243-6.1141-13.232zm6.5078-14.219c2.2188-10.762 2.8218-25.876 1.44-36.091-2.6343-19.474-11.415-38.573-21.148-45.996l-3.4051-2.5972 0.64541 5.9798c1.3421 12.434 5.4353 37.215 8.1491 49.335 3.2874 14.682 10.982 38.69 12.047 37.588 0.40335-0.41753 1.4254-4.1157 2.2712-8.2182zm116.28 32.4c4.6799-11.599 8.6059-26.788 10.569-40.89 2.3853-17.134 1.5142-49.591-1.7935-66.823-7.7083-40.161-24.841-71.108-47.596-85.978-3.9159-2.5588-6.6941-4.7942-6.1739-4.9676 1.4253-0.47511 10.769 3.2247 19.157 7.5855 26.43 13.74 43.764 36.426 52.492 68.699 2.2554 8.3391 2.3991 10.195 2.4566 31.701 0.0551 20.592-0.15494 23.854-2.1313 33.099-2.9835 13.957-7.7028 27.824-13.645 40.092-4.981 10.284-14.97 26.573-16.296 26.573-0.38917 0 0.94295-4.0908 2.9603-9.0906zm-27.603-12.587c14.424-35.723 12.513-84.754-4.7381-121.56-7.1509-15.255-15.757-25.907-26.915-33.313-2.9705-1.9717-5.228-3.7578-5.0167-3.9691 0.70687-0.70686 8.306 2.3966 16.81 6.8651 14.676 7.7119 27.257 21.185 35.1 37.591 6.0834 12.725 7.6857 20.314 8.2014 38.845 0.6696 24.062-2.8399 41.451-12.376 61.319-4.2862 8.9302-12.256 21.911-13.452 21.911-0.3954 0 0.67871-3.4614 2.3869-7.6921zm-277.64 5.8058c-18.84-3.1793-26.042-10.782-26.042-27.492 0-9.5952 1.0865-13.872 5.0009-19.683 2.6192-3.8884 4.6791-5.3761 15.605-11.27 12.837-6.9249 16.532-8.311 13.776-5.1685-4.829 5.5075-7.2276 14.713-7.2276 27.738 0 15.023 2.8712 24.047 10.357 32.551l3.7651 4.2774-5.4404-0.10967c-2.9922-0.0603-7.3994-0.44025-9.7938-0.84429zm-0.2748-9.0691c-4.0554-10.47-5.4732-17.974-5.5489-29.369-0.0775-11.652-0.92331-14.376-2.6597-8.5642-0.44967 1.505-0.85912 6.9321-0.90989 12.06-0.0807 8.1433 0.2876 10.475 2.9084 18.414 2.5041 7.5863 3.3185 9.0906 4.9214 9.0906 1.4484 0 1.7653-0.4012 1.2887-1.6316zm-12.814-8.8576c-2.5354-7.8297-2.7556-9.4969-2.3893-18.092 0.33548-7.8715 0.18217-9.3824-0.90951-8.9635-2.1448 0.82304-3.0362 4.5702-3.0128 12.664 0.017 5.8589 0.5354 8.8795 2.232 13.005 5.1212 12.453 7.9778 13.424 4.0796 1.3859zm264.69 4.6619c5.2148-12.804 7.0117-22.377 7.5125-40.025 0.36481-12.855 0.11963-18.601-1.114-26.106-1.945-11.834-6.7355-26.546-11.836-36.349-4.2436-8.1568-14.393-19.784-19.819-22.707-1.8446-0.9934-3.3539-2.1586-3.3539-2.5894 0-2.2336 15.784 5.5468 22.927 11.301 15.351 12.367 24.091 30.649 25.261 52.841 0.9291 17.617-2.3074 34.421-9.6079 49.882-4.26 9.0221-10.563 19.557-11.709 19.572-0.34868 0.005 0.43406-2.6141 1.7394-5.8192z"
            style="fill: #000000"
            inkscape:connector-curvature="0"
          />
        </g>
      </g>
    </g>
  </g>
  <path
    id="path2833-0"
    style="fill-rule: evenodd; fill: #ffffff"
    d="m118.31 42.933-1.1832-9.9719 6.9054 7.423m3.0202 3.2531 4.1173 4.2587 5.0211-2.2359-20.164-20.675-3.6452 1.6226 1.6187 28.933 4.9563-2.2074-0.28133-5.9661"
  />
  <path
    id="path3917"
    style="fill-rule: evenodd; fill: #ffffff"
    d="m142.22 16.201c-1.0437-0.01-2.0297 0.10075-2.875 0.34375-4.2726 1.2255-6.4248 5.5128-5.2188 9.7188 1.129 3.936 3.9758 4.903 7.625 5.3125 2.2072 0.2055 4.8409 0.25 5.5938 2.875 0.55965 1.95-0.2002 4.0148-2.2188 4.5938-2.12 0.6075-4.3934-0.617-5.625-2.375l-1.5 2.625-0.8125 1.4062c2.5887 2.424 5.7196 3.7222 9.2188 2.7188 2.5617-0.735 4.4012-2.208 5.4062-4.125 1.029-1.9635 1.2052-4.3695 0.46875-6.9375-2.4406-8.5125-11.994-3.853-13.219-8.125-0.47235-1.65 0.70025-3.2955 2.2812-3.75 1.6482-0.4725 3.0974-0.008 4.4062 1l1.3125-4.0938c-1.2748-0.79594-3.1043-1.1714-4.8438-1.1875z"
  />
  <path
    id="path3917-1"
    style="fill-rule: evenodd; fill: #ffffff"
    d="m238.99 20.178c-0.84924-0.60683-1.7205-1.0817-2.5522-1.3675-4.2028-1.4468-8.4248 0.8307-9.8494 4.9678-1.3327 3.8718 0.44454 6.2967 3.1989 8.7253 1.6902 1.4344 3.822 2.9814 2.9331 5.5635-0.66002 1.9184-2.4668 3.1738-4.4524 2.4903-2.085-0.71832-3.2449-3.0253-3.2455-5.1719l-2.7344 1.2899-1.4722 0.6859c0.73021 3.4704 2.5502 6.3297 5.9922 7.5147 2.52 0.86725 4.8717 0.71576 6.7945-0.27811 1.9691-1.0182 3.4935-2.888 4.3631-5.414 2.8834-8.3729-7.6145-10.035-6.1678-14.238 0.5595-1.6225 2.4638-2.2979 4.0196-1.7634 1.6211 0.55831 2.5418 1.77 3.0358 3.3465l3.4232-2.6006c-0.58772-1.3832-1.871-2.7401-3.2866-3.751z"
  />
  <path
    id="path2847-4"
    style="fill-rule: evenodd; fill: #ffffff"
    d="m283.86 44.716c-2.2261 0.10069-4.3909 1.2173-5.9062 3.1562-0.381 0.486-0.7035 0.965-0.9375 1.4375-1.3125 2.664-0.4155 5.1317 1.125 7.8437 1.131 1.9065 2.6488 4.0678 0.96875 6.2188-1.2495 1.6005-3.3768 2.2305-5.0312 0.9375-1.737-1.3575-2.074-3.9392-1.375-5.9688l-4.625 0.5c-0.441 3.5205 0.35075 6.8215 3.2188 9.0625 4.248 3.3195 9.1528 2.3828 12.406-1.7812 5.4525-6.978-3.9235-11.966-1.1875-15.469 1.056-1.3515 3.0462-1.3562 4.3438-0.34375 1.3515 1.056 1.8278 2.5048 1.7812 4.1562l4.125-1.3438c-0.087-1.227-0.6325-2.5825-1.375-3.8125-0.708-1.1685-1.597-2.2325-2.5-2.9375-1.5323-1.1977-3.2998-1.7346-5.0312-1.6562z"
  />
  <metadata>
    <rdf:RDF
      ><cc:Work
        ><dc:format>image/svg+xml</dc:format
        ><dc:type
          rdf:resource="http://purl.org/dc/dcmitype/StillImage"
        /><cc:license
          rdf:resource="http://creativecommons.org/licenses/publicdomain/"
        /><dc:publisher
          ><cc:Agent rdf:about="http://openclipart.org/"
            ><dc:title>Openclipart</dc:title></cc:Agent
          ></dc:publisher
        ></cc:Work
      ><cc:License rdf:about="http://creativecommons.org/licenses/publicdomain/"
        ><cc:permits
          rdf:resource="http://creativecommons.org/ns#Reproduction" /><cc:permits
          rdf:resource="http://creativecommons.org/ns#Distribution" /><cc:permits
          rdf:resource="http://creativecommons.org/ns#DerivativeWorks" /></cc:License
    ></rdf:RDF>
  </metadata>
</svg>
