<?xml version="1.0" encoding="UTF-8" standalone="no"?>
<!-- Created with Inkscape (http://www.inkscape.org/) -->
<svg
  xmlns:inkscape="http://www.inkscape.org/namespaces/inkscape"
  xmlns:rdf="http://www.w3.org/1999/02/22-rdf-syntax-ns#"
  xmlns="http://www.w3.org/2000/svg"
  xmlns:xlink="http://www.w3.org/1999/xlink"
  xmlns:ns1="http://sozi.baierouge.fr"
  xmlns:cc="http://creativecommons.org/ns#"
  xmlns:sodipodi="http://sodipodi.sourceforge.net/DTD/sodipodi-0.dtd"
  xmlns:dc="http://purl.org/dc/elements/1.1/"
  id="svg2"
  xml:space="preserve"
  viewBox="0 0 367.35 367.35"
  version="1.1"
  inkscape:version="0.91 r13725"
>
  <g id="g12" transform="matrix(1.25,0,0,-1.25,0,367.35)">
    <g id="g14" transform="scale(.12)">
      <g
        id="g3105-0"
        style="fill: #ff0000"
        transform="matrix(.95382 0 0 -.95382 429.99 1592.2)"
      >
        <title id="title3107-4">Layer 1</title>
        <g id="svg_1-8" style="fill: #ff0000">
          <g id="svg_2-1" style="fill: #ff0000">
            <path
              id="svg_3-0"
              style="fill-rule: evenodd; fill: #ff0000"
              d="m1399.7 216.96c-11.986 24.413-59.791 13.008-84.719 24.48-1.0611-0.032 0.446-0.974 0.719-1.2 0.305-0.655 0.9649-0.95701 1.4399-1.44 1.0071-0.91299 2.1691-1.672 3.12-2.64 2.312-1.528 4.6011-3.08 6.9611-4.56 4.951-2.728 10.135-5.224 15.6-7.44 11.236-4.043 22.893-7.667 37.199-8.64 0.389 0.068 0.4141-0.22699 0.7201-0.23999 7.036-0.15603 13.743 0.017 18.96 1.68z"
            />
            <path
              id="svg_4-7"
              style="fill-rule: evenodd; fill: #ff0000"
              d="m1338.7 265.68c-13.083 7.62-37.048 3.816-53.04 1.44-16.945-2.077-38.676-4.791-56.158-1.2-0.979-0.23099 0.691-1.61 0.959-2.16 0.435-0.926 1.044-1.675 1.68-2.4 1.031-1.689 2.324-3.117 3.6-4.56 2.527-2.915 5.431-5.449 8.4-7.92 6.5671-4.313 13.826-7.934 24.24-8.4 0.3889 0.067 0.414-0.227 0.72-0.24 31.057 0.62401 49.344 14.015 69.599 25.44z"
            />
            <path
              id="svg_5-3"
              style="fill-rule: evenodd; fill: #ff0000"
              d="m1015.9 399.84c1.465 0.45599 2.786 1.055 3.601 2.16 2.586 3.655 1.628 10.852 2.399 16.32-21.491 36.907-45.763 71.039-72.479 102.72-13.559 15.64-27.4 31-42 45.6-14.602 14.603-30.254 28.139-45.36 42.24-5.587 9.292-3.532 26.228-11.28 33.36-3.633 3.552-12.366 3.355-18 1.68 38.986-72.617 113.93-109.27 133.92-200.88 16.217-14.104 33.65-26.991 48.481-42.48 0.133-0.34601 0.374-0.58499 0.719-0.72z"
            />
            <path
              id="svg_6-6"
              style="fill-rule: evenodd; fill: #ff0000"
              d="m1166.6 502.56c0.621 0.40701-0.465 1.116-0.24 1.92-1.039-0.33902 0.1-1.318 0.24-1.92z"
            />
            <path
              id="svg_7-3"
              style="fill-rule: evenodd; fill: #ff0000"
              d="m728.88 607.44c0.20398-0.044 0.22699 0.093 0.24 0.23999-12.542 34.178-28.782 64.659-46.08 94.08-8.688 14.672-17.854 28.866-27.36 42.72-4.771 6.908-9.78 13.58-14.64 20.4-2.667 3.173-5.189 6.491-7.68 9.84-1.416 1.464-2.693 3.067-3.84 4.8-0.966 0.47498-1.161 1.72-2.16 2.16-0.017 0.70404-0.54902 0.89203-0.95997 1.2-0.096 0.27399-0.716 1.588-0.72003 0.47998 16.261-34.458 31.026-70.416 54.72-97.44-0.492-1.908-0.87805-3.922-2.88-4.32-4.473 0.49701-6.914 4.146-9.12 6.96-2.294 2.926-4.689 6.161-6 9.84-0.92504-11.826 5.098-20.808 10.32-28.08 16.422-22.938 39.414-39.306 55.92-62.16-0.068-0.388 0.22699-0.41296 0.23999-0.71997z"
            />
            <path
              id="svg_8-9"
              style="fill-rule: evenodd; fill: #ff0000"
              d="m924.24 759.6c0.20398-0.044 0.22699 0.094 0.24103 0.23999 0.075 1.045 0.27496 1.963 0.47894 2.88 0.367 16.287-2.625 29.216-5.521 42.24-3.463 12.377-6.638 25.041-13.68 33.84-8.089-10.196-6.306-31.812-0.23999-42.96 4.946-13.054 12.162-23.838 18.479-35.52-0.066-0.38703 0.229-0.41303 0.242-0.72003z"
            />
            <path
              id="svg_9-5"
              style="fill-rule: evenodd; fill: #ff0000"
              d="m1083.4 820.56c0.3399 0.36102 0.8869 1.035 0.479 1.44-0.419-0.21997-0.5299-0.75-0.479-1.44z"
            />
            <path
              id="svg_10-4"
              style="fill-rule: evenodd; fill: #ff0000"
              d="m1430.2 70.8h0.24c33.084 31.877 54.424 75.494 66.961 127.92 11.732-0.66701 19.316-5.483 22.799-14.4 2.242-9.792 1.922-21.995 1.9201-34.08 0-6.323-0.573-11.481-1.6801-16.8-1.115-5.367-1.863-10.499-2.88-15.6-1.696-10.304-4.6219-20.658-7.681-28.8 28.896-0.496 48.2 8.601 72.96 12.24 7.4699 14.451 12.753 31.088 16.32 49.44 3.583 17.612 4.871 41.157 1.9201 60.48 1.536 1.985 3.755 3.285 6.7199 3.84 11.959-0.78399 27.359-6.632 36 1.92 9.465 22.856 25.555 40.365 24.24 73.2 34.928-7.553 49.531-36.708 85.441-42.48-0.3421 30.807 16.588 46.688 17.52 77.28v6.48c-1.0141 13.547-5.354 23.767-14.16 29.52-6.062 8.418-16.047 12.912-26.641 16.8-22.162 6.878-48.844 9.236-77.039 10.08h-1.9199c-2.688-0.193-3.4751-2.286-5.041-3.6-1.5451-1.255-3.121-2.479-4.5611-3.84-3.296-2.304-6.396-4.802-10.079-6.72-6.9849-4.295-14.819-7.74-23.521-10.32-17.006-5.553-37.332-7.787-58.799-8.88-43.254-1.787-89.798-0.28302-121.44-13.68-0.834-0.685-2.037-1.002-3.1191-1.44-0.535-0.75-1.109 0.47201-1.68 0.48001-41.133 26.868-120.99 15.013-141.6 62.4-0.551 0.655-1.4 2.032-0.241 2.4 2.485 0.71499 1.8371 4.563 2.401 7.2v9.6c-0.5739 5.746-1.5 11.14-3.1209 15.84-3.3771 9.263-8.3501 16.931-15.36 22.56-13.11 11.594-32.591 19.161-57.12 17.76-38.018 35.343-60.561 86.154-71.52 148.56-5.964 30.757-7.6861 65.754-7.6811 102.48-0.4639 16.812-6.5379 29.884-10.8 43.68-4.955 13.364-10.586 26.054-16.32 38.64-24.287 49.074-54.468 92.247-87.839 132.24-34.721 38.64-69.737 76.979-104.64 115.44-69.693 77.03-139.66 153.77-209.28 230.88-17.69 19.029-34.792 38.647-52.56 57.601-4.471 4.729-7.573 10.826-12.24 15.359-4.128 4.9921-8.768 9.4721-13.2 14.16-9.029 9.2911-18.229 18.411-27.6 27.36-32.598 31.642-65.311 63.172-97.68 95.04-4.988 4.1319-9.562 8.677-17.04 10.319h-85.92c-88.251-11.827-159.06-41.096-213.84-86.399-27.21-22.791-50.564-49.435-69.6-80.4-9.38-15.58-17.868-32.052-24.96-49.92-6.719-18.24-14.049-35.871-16.08-58.8v-12c-0.086-9.162 3.602-16.066 6.72-22.8 9.15-19.759 19.732-39.04 30.24-57.36 14.222-24.737 29.641-48.279 46.8-70.08 8.355-11.165 17.621-21.419 26.88-31.68 10.073-9.3671 17.334-21.546 26.4-31.92 16.723-22.157 34.192-43.568 50.88-65.76 68.475-87.196 136.44-174.93 204.72-262.32 34.059-43.783 68.276-87.399 102.24-131.28 8.67-10.85 17.167-21.874 25.68-32.88 4.848-4.912 7.47-12.05 12.24-17.04 4.098-5.583 9.321-10.039 14.4-14.64 21.21-17.669 46.284-31.476 72.96-43.68 26.591-12.369 55.28-22.641 84.48-32.4 7.131-2.629 16.682-2.838 24.48-4.8 8.336-1.343 15.771-3.588 23.76-5.28 15.147-4.293 29.982-8.898 44.16-14.16 56.261-21.581 104.8-50.875 141.36-92.16 2.263-0.91901 0.3119-3.5 0.24-5.52-0.5491-2.012-0.7041-4.417-0.7211-6.96-0.616-4.589-0.071-9.953 0.241-14.4 1.229-8.931 3.8131-16.505 7.4381-23.04 7.565-12.756 18.846-21.795 33.36-27.6 6.9311-3.23 15.193-5.127 23.52-6.96 8.2569-1.059 19.145-2.938 27.361-1.68 7.843-2.316 14.773-5.545 21.359-9.12 5.917-4.243 11.887-8.433 20.641-9.84 16.342-4.86 37.13-2.904 55.439-1.2 18.512 1.808 37.291 3.349 56.16 4.8 37.288 3.271 74.82 6.301 113.28 8.4 0.7729-0.053 1.016 0.424 1.9199 0.24 3.863-0.137 4.729-3.272 7.441-4.56 1.82-2.1 3.922-3.917 5.7601-6 3.557-4.363 7.02-8.82 9.8399-13.92 5.9711-9.869 10.484-21.196 14.64-32.88 8.1029-23.66 14.399-49.123 24.724-70.559zm-700.84 792.48c22.234 1.206 41.996 4.885 64.32 6 23.228 1.851 45.611-1.037 63.6-6 14.614-24.024 2.674-74.605 36.48-79.439-7.053 11.907-13.68 24.24-14.16 42.72 0.62103 18.419 8.477 29.604 20.64 36.48 81.177-28.419 117.9-101.3 149.04-179.76 15.275-39.524 29.284-80.316 46.559-117.84 8.424-19.017 18.043-36.837 28.801-53.52 5.3769-8.303 11.266-16.095 17.279-23.76 3.3701-3.51 6.1991-7.561 9.8401-10.8 2.125-2.996 5.122-5.118 7.4409-7.92 0.4511-0.42801 1.109-0.64899 1.4391-1.2 0.3419-0.057 0.4039-0.39499 0.721-0.47998 0.268-0.499 0.258-0.508-0.241-0.24002-27.149 13.012-39.384 40.936-54 66.48-3.78-6.852-1.876-18.37 1.6799-24 3.312-6.689 7.796-12.204 12.481-17.52 9.121-10.878 20.348-19.651 28.318-31.68-10.977-4.863-21.455-10.224-31.438-16.08-4.675-3.247-9.5591-6.281-14.161-9.6-2.201-1.719-4.397-3.442-6.719-5.04-2.183-1.529-4.191-4.407-6.7211-4.8-35.775 9.185-31.97 57.951-68.881 66-3.419-22.842 10.18-34.518 21.602-44.88 11.857-10.782 25.299-19.98 36-31.92-13.841-14-26.162-29.52-37.201-46.32-34.522 13.319-50.109 45.57-87.36 56.16 10.903-14.376 25.296-25.266 39.841-36 7.138-5.501 14.275-11.005 21.119-16.8 3.235-3.086 6.334-6.307 9.602-9.36 1.297-1.903 3.067-3.332 4.318-5.28 1.0179-1.701 4.0229-3.438 3.12-5.52-1.959-2.648-7.448-2.182-11.279-1.68-3.554 1.167-6.694 2.746-9.601 4.56-5.537 3.822-10.296 8.423-15.358 12.72-9.979 8.821-18.952 18.649-35.521 20.88 13.236-17.164 38.215-22.584 48.479-42.72-15.463 0.53601-21.292 11.988-30.479 18-2.934-5.107 0.94696-10.968 3.6-14.16 3.145-3.576 6.904-6.535 10.801-9.36 8.034-5.405 17.375-9.504 28.079-12.24-3.913-9.046-7.416-18.504-10.32-28.56-36.741 39.34-84.536 69.703-140.4 90.72-13.891 5.39-28.329 10.231-43.68 14.16-14.755 4.588-31.288 7.345-47.76 10.08-29.161 9.479-57.448 19.833-84.24 31.68-26.276 12.285-51.598 25.521-72.72 42.96-5.256 4.344-10.094 9.106-14.64 14.16-4.317 5.363-7.497 11.864-12 17.04-8.362 10.999-16.858 21.862-25.44 32.64-33.722 43.559-67.659 86.9-101.52 130.32-67.532 86.878-135.4 173.4-202.8 260.4-17.194 21.366-33.676 43.443-50.88 64.8-8.336 10.944-16.587 21.973-25.44 32.4-9.63 9.729-18.507 20.212-27.36 30.72-33.786 43.495-62.709 91.85-86.16 145.68-3.779 23.229 5.72 41.607 10.56 60 6.464 17.855 14.114 34.526 22.56 50.4 17.749 30.89 38.797 58.482 64.8 81.12 3.55-3.4101 12.902-1.0181 17.28-3.6011 7.603-4.7959 9.472-15.328 19.68-17.52-3.395-30.845-31.781-36.699-36.48-66.24v-0.7201c42.528-82.586 124.61-125.63 169.92-205.44 23.6-38.957 52.106-73.015 78.48-109.2 13.378-17.9 26.131-36.429 37.92-55.92 8.813-14.706 16.885-30.155 24.24-46.319 1.754-5.77 5.716-10.6 6-17.04-4.6-4.279-13.422-0.014-18.72 0.95996-5.701 2.139-11.417 4.263-17.04 6.479-100.81 118.88-192.17 247.38-311.28 347.98 3.595 16.371-3.799 28.839-6.24 42.24-9.313-4.8469-14.582-13.738-18.24-24.24-2.881-10.964-6.304-22.648-5.76-36.24 2.242-26.158 17.477-39.322 18-67.199 132.19-170.41 268.27-338.33 390.24-518.18 5.756 30.38 21.232 53.411 18.24 90.96 40.78-14.59 69.47-43.33 95.76-73.2 4.429-5.011 8.678-10.202 13.2-15.12 2.014-2.706 4.312-5.127 6.48-7.68 0.98999-1.33 2.287-2.353 3.12-3.84 0.70801-0.492 1.333-1.067 1.68-1.92 0.34503-0.33698 2.132-1.379 0.96002-1.68-11.997-3.714-19.347-12.928-24.96-23.04-5.74-10.342-9.437-23.023-11.76-36.48-4.022-30.812 3.162-60.394 25.2-68.16v36.24c19.203 4.738 37.582-1.193 49.68-8.64 12.785-7.871 22.212-19.695 26.4-35.28 2.917-11.714 0.41303-26.255-2.64-35.28 53.405 3.585 94.511-10.986 130.56-27.12 36.363-16.357 68.927-37.793 100.8-57.84-7.104 14.415-20.438 22.601-33.599 30.96-13.442 8.158-28.028 15.172-42.24 22.56-14.512 7.088-28.847 14.353-42 22.8-6.781 4.019-11.103 10.497-16.8 15.6-5.137 5.663-10.25 11.35-15.6 16.8-20.326 22.875-40.208 46.192-61.44 68.16-10.353 11.248-21.47 21.729-32.64 32.16-11.449 10.151-23.789 19.411-36 28.8-17.721 89.796-116.01 99.031-146.16 176.4 2.104 2.056 4.93 3.39 9.12 3.36 10.038-1.242 15.99-6.57 22.56-11.28 2.99-2.69 6.008-5.353 8.88-8.16 2.862-2.504 5.481-6.511 8.4-8.16 1.452 2.868 3.446 5.194 3.12 9.84-0.23902 1.681-0.76898 3.072-1.44 4.32-10.341 15.739-34.772 17.387-38.64 39.6v0.47998c18.623 19.778 45.289 31.511 77.76 37.439 16.365 2.669 38.115 2.389 52.08-2.16 14.885-4.075 26.693-12.506 34.8-22.56 2.567 10.763-3.855 16.38-6 24 40.5-16.381 62.032-51.728 91.2-79.44-2.739-14.923 4.153-25.955 9.84-34.8 6.45-8.991 13.622-17.258 21.36-24.96 7.343-8.032 14.993-15.799 21.84-24.24 6.82-8.4091 13.797-17.593 14.64-31.68 5.684-1.856 10.948 1.898 14.64 4.32 4.263 2.618 7.461 6.299 11.04 9.6 5.813 7.867 12.801 14.559 12.48 28.56-1.638 7.324-7.567 11.63-14.88 12.48-7.655-2.184-4.443-15.237-5.52-24-19.741 8.66-35.636 21.164-49.44 35.76-6.953 7.287-13.279 15.201-19.2 23.52-3.006 4.114-5.771 8.468-8.64 12.72-1.345 2.175-2.692 4.348-4.08 6.48-0.50696 1.253-1.413 2.107-1.92 3.36-0.36096 0.89502-2.179 2.705-1.44 3.1201 146.4-52.24 221.7-176.88 310.3-286.08-26.261 58.062-62.421 106.22-100.8 152.16-39.023 44.979-81.088 88.19-124.8 127.68 4.728-19.112 22.417-26.542 30-42-62.112 43.249-141.89 68.832-176.16 139.92zm651.64-658.08c-26.131 5.397-59.904 2.282-85.68-1.2-27.574-3.306-53.937-7.825-82.562-10.08-29.567-2.35-61.271-0.716-79.92 10.8-19.803 11.076-30.249 31.511-31.68 60.96 1.1571 1.402 2.3601 2.761 4.8001 2.88 7.0329-1.207 9.2039-7.276 12.961-11.76 3.835-4.404 7.219-9.26 12.239-12.48 1.516-0.96401 3.167-1.793 5.0401-2.4 1.9959-0.672 5.218-1.033 7.68-0.48-8.818 13.421-18.553 25.925-18.24 48.48 10.344-4.857 11.058-21.423 18.24-30.24 7.0979 7.13 8.621 25.283 1.9199 34.08-4.812 10.228-13.335 16.745-19.439 25.68 1.0539 1.986 2.4749 3.605 3.8409 5.28 2.8501 1.647 7.2981 3.651 11.759 2.16 12.219-4.261 13.961-19 26.881-22.56 6.2941 0.98498 8.396 6.164 11.76 10.08 2.7681-0.99398 5.271-3.528 8.88-2.88-2.0699 7.053-8.3969 11.921-12 18.24-4.046 6.194-8.896 11.583-9.3599 21.36 29.102-11.777 55.809-25.952 86.4-36.24 15.356-5.123 31.598-9.362 51.119-10.32 20.94-0.45801 37.455 3.506 51.361 10.08-15.822 4.898-25.18 16.261-36.48 25.68-10.239 9.257-29.311 15.25-48.721 10.8 5.1431-13.098 26.715-9.766 36.48-18.24-6.4021-4.008-15.133-7.278-25.2-7.68-10.114-0.40402-19.581 3.083-26.88 6-7.3459 3.614-14.23 7.69-20.639 12.24-3.135 2.307-6.3501 4.531-9.3611 6.96-2.979 2.54-6.6909 4.347-9.12 7.44 2.4371 6.364 11.372 6.228 13.44 12.96-0.811 3.03-4.016 3.665-6.959 4.56 10.287 5.794 26.223 9.683 42 6.96 14.369-2.67 24.984-9.096 36-15.12 10.897-6.062 21.657-12.261 35.039-15.84 12.771-4.172 31.926-3.69 45.119-0.23999 32.574-16.388 31.926-65.994 61.44-85.44 52.662-1.14 80.606 22.434 110.64 43.92 15.113 10.647 30.979 20.542 50.641 26.64 18.908 5.98 47.932 6.846 69.6 2.64-15.7-50.02-31.5-100.02-86.4-110.88-18.263-4.235-42.079-1.993-59.76 1.2 6.928-15.692 33.041-11.854 54.721-12.24 3.1291-23.03 1.6701-50.967-3.8409-70.32-6.14-19.779-14.341-37.499-38.64-39.12-8.398 5.921-7.2011 22.719-7.439 36-0.394 14.247-2.342 26.938-3.8401 40.08-3.4149 12.106-7.7989 23.242-19.201 27.36-33.292-7.347-25.02-56.26-48.959-72.96-3.8301 3.37-7.9491 6.451-11.76 9.84-4.213 2.668-7.7991 7.241-12.721 8.4 4.7831-9.777 12.584-16.537 18.721-24.96 4.798-15.955-8.576-19.538-12.24-28.32-1.4291-3.421-1.6271-8.919-0.24-13.44-0.014-0.146-0.035-0.284-0.2401-0.24-35.492 23.548-28.299 89.782-61.2 115.92zm-312.48 17.76c-0.308 0.013-0.3331 0.308-0.721 0.24-10.464 0.65599-18.54 3.701-27.36 6-10.797 11.21-19.068 28.219-16.08 50.88 2.778 20.103 10.66 35.1 18.72 49.92 8.11 14.77 17.584 28.176 25.921 42.72 8.4631 14.416 19.242 26.517 31.68 36.96 25.892 19.869 54.205 37.313 90.24 47.04 17.222 5.314 44.714 5.126 57.839-3.6 7.1469-4.292 13.306-9.575 17.761-16.56 2.484-3.195 4.526-6.833 6.239-10.8 1.702-4.059 4.177-7.344 3.6009-13.68-52.9-9.49-97-27.74-131-56.16-16.908-14.294-31.374-31.026-41.521-52.08-5.349-10.251-9.291-21.909-12-34.8-2.615-13.066-3.3421-28.019-5.2791-41.76-4.292-3.151-10.275-4.607-18.001-4.32zm651.6 92.88c-0.299-10.139 2.2929-17.388 5.041-24.48 1.8349-7.162 7.6799-13.758 5.52-22.56-1.572-1.948-4.193-2.846-7.6801-2.88-18.744 9.657-24.441 32.359-48.721 36.48 2.8419 15.158 10.355 25.644 26.881 27.12 8.447 0.36801 15.088-1.072 21.6-2.64-1.1359-3.425-2.2979-6.822-2.6409-11.04zm27.361-18.72c-0.8669 16.705 3.188 38.589-6 48-19.273 9.308-49.012 13.565-77.041 9.6-26.828-3.012-49.791-9.888-73.439-16.08-23.326-6.514-46.562-13.119-72-17.52-24.045-4.72-57.867-5.958-82.08-0.47999 3.914 5.846 11.186 10.413 17.76 14.4 7.379 3.58 15.346 6.573 24.479 8.4 17.964 3.957 39.833 4.007 61.92 3.84 21.878 0.042 44.46-0.62 63.12 2.64 9.588 1.372 18.006 3.914 25.92 6.96 3.532 1.907 7.48 3.399 10.561 5.76 3.816 1.703 6.045 4.994 9.8401 6.72 46.07 0.15 92.443 0.60401 108.24-29.52 4.6779-12.232 0.4179-29.01-3.1211-39.6-1.9979-1.92-4.137-3.703-7.9199-3.84-0.2801 0.04-0.2612 0.38001-0.2391 0.72zm-629.76 135.84c-2.789-1.961-10.016-6.925-13.198-6.48 0.077-0.011 0.16 0.008 0.238 0 7.3509 5.85 15.962 11.718 24.241 15.84-3.0621-2.895-6.701-6.141-11.281-9.36zm-357.14 27.6c-16.727 1.511-28.916 11.139-25.2 30.72 5.347 2.973 11.471 5.169 19.92 5.04 17.543-1.816 26.012-12.708 28.8-29.28-5.82-4.18-13.23-6.77-23.52-6.48zm426.48 12.72c-55.029 21.53-68.931 86.27-98.159 134.4-4.106 80.057-15.54 152.78-38.641 213.84-5.829 15.21-12.533 29.547-19.68 43.44-7.474 13.566-18.248 23.832-29.279 33.84-11.058 9.983-22.631 19.45-32.881 30.24-9.548 11.252-20.489 22.39-19.681 43.2 2.486 7.121 13.129 9.539 22.32 6.96 4.572-3.668 8.021-8.459 12-12.721 4.004-4.236 7.971-8.51 11.76-12.96 8.122-8.439 15.573-17.547 23.04-26.64 14.854-18.267 28.846-37.396 42-57.36 25.783-40.38 49.463-82.856 62.16-136.32-1.639-56.221 4.448-106.73 16.801-149.76 6.3851-21.456 14.254-41.426 24.239-59.28 4.896-9.025 10.397-17.443 16.321-25.44 3.009-3.95 6.051-7.868 9.358-11.52 1.474-1.966 3.386-3.495 4.802-5.52 0.979-0.779 1.859-1.66 2.6391-2.64 0.8129-0.806 2.5219-1.549 1.4389-2.88-1.838-2.363-7.772-3.045-10.558-2.879zm-686.12 267.36c-0.307 0.013-0.332 0.30798-0.72 0.23999-13.327 0.513-25.105 2.575-35.52 6-5.576 1.304-10.097 3.663-15.12 5.52-2.081 1.359-4.627 2.253-6.72 3.6-1.89 1.325-5.327 2.333-6 4.08 12.409 60.052 56.831 89.472 111.36 107.52 54.909 18.174 121.5 24.715 180.96 38.16 36.536-0.033 75.686 0.046 110.64 0 5.401-1.318 7.81-5.63 13.44-6.72 0.50098-0.37903 1.594-0.16705 2.16-0.48004 3.427-0.146 5.801 0.75903 8.64 1.2 63.69-2.633 136.01 3.369 157.2-41.76 0.418-0.22101 0.529-0.75 0.479-1.44-2.672-9.728-6.078-18.721-12.479-24.72-4.444-6.866-19.54-8.861-27.361-3.6-16.582 8.217-26.35 23.249-33.358 41.039-82.402 0.85803-148.98 20.535-233.28 18-11.004-3.956-5.472-24.448-20.64-24.239-5.946 1.733-9.816 5.543-15.6 7.439-5.711 1.969-11.493 3.867-19.2 3.84-14.845 0.52496-26.391-4.328-37.44-8.399-21.093-8.3069-44.944-19.301-75.84-14.88-9.089-17.71-20.118-33.482-28.08-52.32-3.851-9.309-7.7-19.765-6.48-33.36 1.059-5.661 3.009-10.431 5.76-14.4 1.59-1.771 2.895-3.826 4.8-5.28 0.81799-0.862 1.823-1.538 2.64-2.4 0.50397-0.29602 0.93598-0.664 1.44-0.96002 0.0489-0.39899 1.875-0.87097 0.71997-0.96002-8.087-0.95301-17.389-0.69098-26.401-0.71997zm20.88 178.32c-1.355 6.245-6.597 8.603-9.84 12.96-4.94 9.779-12.693 16.747-18.96 25.2-6.619 8.101-13.246 16.193-19.92 24.239-13.303 16.218-26.639 32.401-39.84 48.721-26.229 32.729-52.145 65.775-75.6 101.28-47.14 70.455-128.21 108.27-158.4 194.88 78.001-46.88 139.01-110.75 192.24-182.4 26.956-35.444 51.645-73.156 76.08-111.12 12.136-19.064 24.213-38.187 36.24-57.36 5.956-9.644 12.214-18.985 18-28.8 3.382-4.458 6-9.68 9.36-14.16 1.331-2.589 2.947-4.893 4.56-7.199 0.56-1.361 1.534-2.307 2.16-3.601 0.39203-1.016 2.479-2.735 1.68-3.359h-17.28c-0.30206 0.097-0.49005 0.30798-0.48004 0.71899zm-225.6 535.44c-6.539-29.78-29.355-43.285-66.48-42.479 7.36 27.999 31.92 40.879 66.48 42.479zm12.48 0.24c-1.203 12.106 2.174 21.648 13.92 21.601 6.421-0.299 11.632-1.809 16.56-3.601 3.262-18.28-14.397-19.833-30.48-18z"
            />
            <path
              id="svg_11-3"
              style="fill-rule: evenodd; fill: #ff0000"
              d="m421.2 723.36c0.56699 0.067-0.27499 0.64099-0.23999 0.96002-0.73602-0.23603 0.27597-0.64002 0.23999-0.96002z"
            />
            <path
              id="svg_12-9"
              style="fill-rule: evenodd; fill: #ff0000"
              d="m412.8 733.92c0.134 0.85999-0.78299 2.732-2.16 2.88 0.62101-1.059 1.493-1.867 2.16-2.88z"
            />
            <path
              id="svg_13-8"
              style="fill-rule: evenodd; fill: #ff0000"
              d="m1072.8 838.8c0.5279-0.219-0.9271 1.375-0.96 2.16-0.2621 0.49304-1.962 2.337-0.959 1.2 0.4349-1.325 1.2321-2.287 1.9189-3.36z"
            />
          </g>
        </g>
      </g>
      <g id="g3105" transform="matrix(.95382 0 0 -.95382 145.39 1915.5)">
        <title id="title3107">Layer 1</title>
        <g id="svg_1">
          <g id="svg_2">
            <path
              id="svg_3"
              style="fill-rule: evenodd"
              d="m1399.7 216.96c-11.986 24.413-59.791 13.008-84.719 24.48-1.0611-0.032 0.446-0.974 0.719-1.2 0.305-0.655 0.9649-0.95701 1.4399-1.44 1.0071-0.91299 2.1691-1.672 3.12-2.64 2.312-1.528 4.6011-3.08 6.9611-4.56 4.951-2.728 10.135-5.224 15.6-7.44 11.236-4.043 22.893-7.667 37.199-8.64 0.389 0.068 0.4141-0.22699 0.7201-0.23999 7.036-0.15603 13.743 0.017 18.96 1.68z"
            />
            <path
              id="svg_4"
              style="fill-rule: evenodd"
              d="m1338.7 265.68c-13.083 7.62-37.048 3.816-53.04 1.44-16.945-2.077-38.676-4.791-56.158-1.2-0.979-0.23099 0.691-1.61 0.959-2.16 0.435-0.926 1.044-1.675 1.68-2.4 1.031-1.689 2.324-3.117 3.6-4.56 2.527-2.915 5.431-5.449 8.4-7.92 6.5671-4.313 13.826-7.934 24.24-8.4 0.3889 0.067 0.414-0.227 0.72-0.24 31.057 0.62401 49.344 14.015 69.599 25.44z"
            />
            <path
              id="svg_5"
              style="fill-rule: evenodd"
              d="m1015.9 399.84c1.465 0.45599 2.786 1.055 3.601 2.16 2.586 3.655 1.628 10.852 2.399 16.32-21.491 36.907-45.763 71.039-72.479 102.72-13.559 15.64-27.4 31-42 45.6-14.602 14.603-30.254 28.139-45.36 42.24-5.587 9.292-3.532 26.228-11.28 33.36-3.633 3.552-12.366 3.355-18 1.68 38.986-72.617 113.93-109.27 133.92-200.88 16.217-14.104 33.65-26.991 48.481-42.48 0.133-0.34601 0.374-0.58499 0.719-0.72z"
            />
            <path
              id="svg_6"
              style="fill-rule: evenodd"
              d="m1166.6 502.56c0.621 0.40701-0.465 1.116-0.24 1.92-1.039-0.33902 0.1-1.318 0.24-1.92z"
            />
            <path
              id="svg_7"
              style="fill-rule: evenodd"
              d="m728.88 607.44c0.20398-0.044 0.22699 0.093 0.24 0.23999-12.542 34.178-28.782 64.659-46.08 94.08-8.688 14.672-17.854 28.866-27.36 42.72-4.771 6.908-9.78 13.58-14.64 20.4-2.667 3.173-5.189 6.491-7.68 9.84-1.416 1.464-2.693 3.067-3.84 4.8-0.966 0.47498-1.161 1.72-2.16 2.16-0.017 0.70404-0.54902 0.89203-0.95997 1.2-0.096 0.27399-0.716 1.588-0.72003 0.47998 16.261-34.458 31.026-70.416 54.72-97.44-0.492-1.908-0.87805-3.922-2.88-4.32-4.473 0.49701-6.914 4.146-9.12 6.96-2.294 2.926-4.689 6.161-6 9.84-0.92504-11.826 5.098-20.808 10.32-28.08 16.422-22.938 39.414-39.306 55.92-62.16-0.068-0.388 0.22699-0.41296 0.23999-0.71997z"
            />
            <path
              id="svg_8"
              style="fill-rule: evenodd"
              d="m924.24 759.6c0.20398-0.044 0.22699 0.094 0.24103 0.23999 0.075 1.045 0.27496 1.963 0.47894 2.88 0.367 16.287-2.625 29.216-5.521 42.24-3.463 12.377-6.638 25.041-13.68 33.84-8.089-10.196-6.306-31.812-0.23999-42.96 4.946-13.054 12.162-23.838 18.479-35.52-0.066-0.38703 0.229-0.41303 0.242-0.72003z"
            />
            <path
              id="svg_9"
              style="fill-rule: evenodd"
              d="m1083.4 820.56c0.3399 0.36102 0.8869 1.035 0.479 1.44-0.419-0.21997-0.5299-0.75-0.479-1.44z"
            />
            <path
              id="svg_10"
              style="fill-rule: evenodd"
              d="m1430.2 70.8h0.24c33.084 31.877 54.424 75.494 66.961 127.92 11.732-0.66701 19.316-5.483 22.799-14.4 2.242-9.792 1.922-21.995 1.9201-34.08 0-6.323-0.573-11.481-1.6801-16.8-1.115-5.367-1.863-10.499-2.88-15.6-1.696-10.304-4.6219-20.658-7.681-28.8 28.896-0.496 48.2 8.601 72.96 12.24 7.4699 14.451 12.753 31.088 16.32 49.44 3.583 17.612 4.871 41.157 1.9201 60.48 1.536 1.985 3.755 3.285 6.7199 3.84 11.959-0.78399 27.359-6.632 36 1.92 9.465 22.856 25.555 40.365 24.24 73.2 34.928-7.553 49.531-36.708 85.441-42.48-0.3421 30.807 16.588 46.688 17.52 77.28v6.48c-1.0141 13.547-5.354 23.767-14.16 29.52-6.062 8.418-16.047 12.912-26.641 16.8-22.162 6.878-48.844 9.236-77.039 10.08h-1.9199c-2.688-0.193-3.4751-2.286-5.041-3.6-1.5451-1.255-3.121-2.479-4.5611-3.84-3.296-2.304-6.396-4.802-10.079-6.72-6.9849-4.295-14.819-7.74-23.521-10.32-17.006-5.553-37.332-7.787-58.799-8.88-43.254-1.787-89.798-0.28302-121.44-13.68-0.834-0.685-2.037-1.002-3.1191-1.44-0.535-0.75-1.109 0.47201-1.68 0.48001-41.133 26.868-120.99 15.013-141.6 62.4-0.551 0.655-1.4 2.032-0.241 2.4 2.485 0.71499 1.8371 4.563 2.401 7.2v9.6c-0.5739 5.746-1.5 11.14-3.1209 15.84-3.3771 9.263-8.3501 16.931-15.36 22.56-13.11 11.594-32.591 19.161-57.12 17.76-38.018 35.343-60.561 86.154-71.52 148.56-5.964 30.757-7.6861 65.754-7.6811 102.48-0.4639 16.812-6.5379 29.884-10.8 43.68-4.955 13.364-10.586 26.054-16.32 38.64-24.287 49.074-54.468 92.247-87.839 132.24-34.721 38.64-69.737 76.979-104.64 115.44-69.693 77.03-139.66 153.77-209.28 230.88-17.69 19.029-34.792 38.647-52.56 57.601-4.471 4.729-7.573 10.826-12.24 15.359-4.128 4.9921-8.768 9.4721-13.2 14.16-9.029 9.2911-18.229 18.411-27.6 27.36-32.598 31.642-65.311 63.172-97.68 95.04-4.988 4.1319-9.562 8.677-17.04 10.319h-85.92c-88.251-11.827-159.06-41.096-213.84-86.399-27.21-22.791-50.564-49.435-69.6-80.4-9.38-15.58-17.868-32.052-24.96-49.92-6.719-18.24-14.049-35.871-16.08-58.8v-12c-0.086-9.162 3.602-16.066 6.72-22.8 9.15-19.759 19.732-39.04 30.24-57.36 14.222-24.737 29.641-48.279 46.8-70.08 8.355-11.165 17.621-21.419 26.88-31.68 10.073-9.3671 17.334-21.546 26.4-31.92 16.723-22.157 34.192-43.568 50.88-65.76 68.475-87.196 136.44-174.93 204.72-262.32 34.059-43.783 68.276-87.399 102.24-131.28 8.67-10.85 17.167-21.874 25.68-32.88 4.848-4.912 7.47-12.05 12.24-17.04 4.098-5.583 9.321-10.039 14.4-14.64 21.21-17.669 46.284-31.476 72.96-43.68 26.591-12.369 55.28-22.641 84.48-32.4 7.131-2.629 16.682-2.838 24.48-4.8 8.336-1.343 15.771-3.588 23.76-5.28 15.147-4.293 29.982-8.898 44.16-14.16 56.261-21.581 104.8-50.875 141.36-92.16 2.263-0.91901 0.3119-3.5 0.24-5.52-0.5491-2.012-0.7041-4.417-0.7211-6.96-0.616-4.589-0.071-9.953 0.241-14.4 1.229-8.931 3.8131-16.505 7.4381-23.04 7.565-12.756 18.846-21.795 33.36-27.6 6.9311-3.23 15.193-5.127 23.52-6.96 8.2569-1.059 19.145-2.938 27.361-1.68 7.843-2.316 14.773-5.545 21.359-9.12 5.917-4.243 11.887-8.433 20.641-9.84 16.342-4.86 37.13-2.904 55.439-1.2 18.512 1.808 37.291 3.349 56.16 4.8 37.288 3.271 74.82 6.301 113.28 8.4 0.7729-0.053 1.016 0.424 1.9199 0.24 3.863-0.137 4.729-3.272 7.441-4.56 1.82-2.1 3.922-3.917 5.7601-6 3.557-4.363 7.02-8.82 9.8399-13.92 5.9711-9.869 10.484-21.196 14.64-32.88 8.1029-23.66 14.399-49.123 24.724-70.559zm-700.84 792.48c22.234 1.206 41.996 4.885 64.32 6 23.228 1.851 45.611-1.037 63.6-6 14.614-24.024 2.674-74.605 36.48-79.439-7.053 11.907-13.68 24.24-14.16 42.72 0.62103 18.419 8.477 29.604 20.64 36.48 81.177-28.419 117.9-101.3 149.04-179.76 15.275-39.524 29.284-80.316 46.559-117.84 8.424-19.017 18.043-36.837 28.801-53.52 5.3769-8.303 11.266-16.095 17.279-23.76 3.3701-3.51 6.1991-7.561 9.8401-10.8 2.125-2.996 5.122-5.118 7.4409-7.92 0.4511-0.42801 1.109-0.64899 1.4391-1.2 0.3419-0.057 0.4039-0.39499 0.721-0.47998 0.268-0.499 0.258-0.508-0.241-0.24002-27.149 13.012-39.384 40.936-54 66.48-3.78-6.852-1.876-18.37 1.6799-24 3.312-6.689 7.796-12.204 12.481-17.52 9.121-10.878 20.348-19.651 28.318-31.68-10.977-4.863-21.455-10.224-31.438-16.08-4.675-3.247-9.5591-6.281-14.161-9.6-2.201-1.719-4.397-3.442-6.719-5.04-2.183-1.529-4.191-4.407-6.7211-4.8-35.775 9.185-31.97 57.951-68.881 66-3.419-22.842 10.18-34.518 21.602-44.88 11.857-10.782 25.299-19.98 36-31.92-13.841-14-26.162-29.52-37.201-46.32-34.522 13.319-50.109 45.57-87.36 56.16 10.903-14.376 25.296-25.266 39.841-36 7.138-5.501 14.275-11.005 21.119-16.8 3.235-3.086 6.334-6.307 9.602-9.36 1.297-1.903 3.067-3.332 4.318-5.28 1.0179-1.701 4.0229-3.438 3.12-5.52-1.959-2.648-7.448-2.182-11.279-1.68-3.554 1.167-6.694 2.746-9.601 4.56-5.537 3.822-10.296 8.423-15.358 12.72-9.979 8.821-18.952 18.649-35.521 20.88 13.236-17.164 38.215-22.584 48.479-42.72-15.463 0.53601-21.292 11.988-30.479 18-2.934-5.107 0.94696-10.968 3.6-14.16 3.145-3.576 6.904-6.535 10.801-9.36 8.034-5.405 17.375-9.504 28.079-12.24-3.913-9.046-7.416-18.504-10.32-28.56-36.741 39.34-84.536 69.703-140.4 90.72-13.891 5.39-28.329 10.231-43.68 14.16-14.755 4.588-31.288 7.345-47.76 10.08-29.161 9.479-57.448 19.833-84.24 31.68-26.276 12.285-51.598 25.521-72.72 42.96-5.256 4.344-10.094 9.106-14.64 14.16-4.317 5.363-7.497 11.864-12 17.04-8.362 10.999-16.858 21.862-25.44 32.64-33.722 43.559-67.659 86.9-101.52 130.32-67.532 86.878-135.4 173.4-202.8 260.4-17.194 21.366-33.676 43.443-50.88 64.8-8.336 10.944-16.587 21.973-25.44 32.4-9.63 9.729-18.507 20.212-27.36 30.72-33.786 43.495-62.709 91.85-86.16 145.68-3.779 23.229 5.72 41.607 10.56 60 6.464 17.855 14.114 34.526 22.56 50.4 17.749 30.89 38.797 58.482 64.8 81.12 3.55-3.4101 12.902-1.0181 17.28-3.6011 7.603-4.7959 9.472-15.328 19.68-17.52-3.395-30.845-31.781-36.699-36.48-66.24v-0.7201c42.528-82.586 124.61-125.63 169.92-205.44 23.6-38.957 52.106-73.015 78.48-109.2 13.378-17.9 26.131-36.429 37.92-55.92 8.813-14.706 16.885-30.155 24.24-46.319 1.754-5.77 5.716-10.6 6-17.04-4.6-4.279-13.422-0.014-18.72 0.95996-5.701 2.139-11.417 4.263-17.04 6.479-100.81 118.88-192.17 247.38-311.28 347.98 3.595 16.371-3.799 28.839-6.24 42.24-9.313-4.8469-14.582-13.738-18.24-24.24-2.881-10.964-6.304-22.648-5.76-36.24 2.242-26.158 17.477-39.322 18-67.199 132.19-170.41 268.27-338.33 390.24-518.18 5.756 30.38 21.232 53.411 18.24 90.96 40.78-14.59 69.47-43.33 95.76-73.2 4.429-5.011 8.678-10.202 13.2-15.12 2.014-2.706 4.312-5.127 6.48-7.68 0.98999-1.33 2.287-2.353 3.12-3.84 0.70801-0.492 1.333-1.067 1.68-1.92 0.34503-0.33698 2.132-1.379 0.96002-1.68-11.997-3.714-19.347-12.928-24.96-23.04-5.74-10.342-9.437-23.023-11.76-36.48-4.022-30.812 3.162-60.394 25.2-68.16v36.24c19.203 4.738 37.582-1.193 49.68-8.64 12.785-7.871 22.212-19.695 26.4-35.28 2.917-11.714 0.41303-26.255-2.64-35.28 53.405 3.585 94.511-10.986 130.56-27.12 36.363-16.357 68.927-37.793 100.8-57.84-7.104 14.415-20.438 22.601-33.599 30.96-13.442 8.158-28.028 15.172-42.24 22.56-14.512 7.088-28.847 14.353-42 22.8-6.781 4.019-11.103 10.497-16.8 15.6-5.137 5.663-10.25 11.35-15.6 16.8-20.326 22.875-40.208 46.192-61.44 68.16-10.353 11.248-21.47 21.729-32.64 32.16-11.449 10.151-23.789 19.411-36 28.8-17.721 89.796-116.01 99.031-146.16 176.4 2.104 2.056 4.93 3.39 9.12 3.36 10.038-1.242 15.99-6.57 22.56-11.28 2.99-2.69 6.008-5.353 8.88-8.16 2.862-2.504 5.481-6.511 8.4-8.16 1.452 2.868 3.446 5.194 3.12 9.84-0.23902 1.681-0.76898 3.072-1.44 4.32-10.341 15.739-34.772 17.387-38.64 39.6v0.47998c18.623 19.778 45.289 31.511 77.76 37.439 16.365 2.669 38.115 2.389 52.08-2.16 14.885-4.075 26.693-12.506 34.8-22.56 2.567 10.763-3.855 16.38-6 24 40.5-16.381 62.032-51.728 91.2-79.44-2.739-14.923 4.153-25.955 9.84-34.8 6.45-8.991 13.622-17.258 21.36-24.96 7.343-8.032 14.993-15.799 21.84-24.24 6.82-8.4091 13.797-17.593 14.64-31.68 5.684-1.856 10.948 1.898 14.64 4.32 4.263 2.618 7.461 6.299 11.04 9.6 5.813 7.867 12.801 14.559 12.48 28.56-1.638 7.324-7.567 11.63-14.88 12.48-7.655-2.184-4.443-15.237-5.52-24-19.741 8.66-35.636 21.164-49.44 35.76-6.953 7.287-13.279 15.201-19.2 23.52-3.006 4.114-5.771 8.468-8.64 12.72-1.345 2.175-2.692 4.348-4.08 6.48-0.50696 1.253-1.413 2.107-1.92 3.36-0.36096 0.89502-2.179 2.705-1.44 3.1201 146.4-52.24 221.7-176.88 310.3-286.08-26.261 58.062-62.421 106.22-100.8 152.16-39.023 44.979-81.088 88.19-124.8 127.68 4.728-19.112 22.417-26.542 30-42-62.112 43.249-141.89 68.832-176.16 139.92zm651.64-658.08c-26.131 5.397-59.904 2.282-85.68-1.2-27.574-3.306-53.937-7.825-82.562-10.08-29.567-2.35-61.271-0.716-79.92 10.8-19.803 11.076-30.249 31.511-31.68 60.96 1.1571 1.402 2.3601 2.761 4.8001 2.88 7.0329-1.207 9.2039-7.276 12.961-11.76 3.835-4.404 7.219-9.26 12.239-12.48 1.516-0.96401 3.167-1.793 5.0401-2.4 1.9959-0.672 5.218-1.033 7.68-0.48-8.818 13.421-18.553 25.925-18.24 48.48 10.344-4.857 11.058-21.423 18.24-30.24 7.0979 7.13 8.621 25.283 1.9199 34.08-4.812 10.228-13.335 16.745-19.439 25.68 1.0539 1.986 2.4749 3.605 3.8409 5.28 2.8501 1.647 7.2981 3.651 11.759 2.16 12.219-4.261 13.961-19 26.881-22.56 6.2941 0.98498 8.396 6.164 11.76 10.08 2.7681-0.99398 5.271-3.528 8.88-2.88-2.0699 7.053-8.3969 11.921-12 18.24-4.046 6.194-8.896 11.583-9.3599 21.36 29.102-11.777 55.809-25.952 86.4-36.24 15.356-5.123 31.598-9.362 51.119-10.32 20.94-0.45801 37.455 3.506 51.361 10.08-15.822 4.898-25.18 16.261-36.48 25.68-10.239 9.257-29.311 15.25-48.721 10.8 5.1431-13.098 26.715-9.766 36.48-18.24-6.4021-4.008-15.133-7.278-25.2-7.68-10.114-0.40402-19.581 3.083-26.88 6-7.3459 3.614-14.23 7.69-20.639 12.24-3.135 2.307-6.3501 4.531-9.3611 6.96-2.979 2.54-6.6909 4.347-9.12 7.44 2.4371 6.364 11.372 6.228 13.44 12.96-0.811 3.03-4.016 3.665-6.959 4.56 10.287 5.794 26.223 9.683 42 6.96 14.369-2.67 24.984-9.096 36-15.12 10.897-6.062 21.657-12.261 35.039-15.84 12.771-4.172 31.926-3.69 45.119-0.23999 32.574-16.388 31.926-65.994 61.44-85.44 52.662-1.14 80.606 22.434 110.64 43.92 15.113 10.647 30.979 20.542 50.641 26.64 18.908 5.98 47.932 6.846 69.6 2.64-15.7-50.02-31.5-100.02-86.4-110.88-18.263-4.235-42.079-1.993-59.76 1.2 6.928-15.692 33.041-11.854 54.721-12.24 3.1291-23.03 1.6701-50.967-3.8409-70.32-6.14-19.779-14.341-37.499-38.64-39.12-8.398 5.921-7.2011 22.719-7.439 36-0.394 14.247-2.342 26.938-3.8401 40.08-3.4149 12.106-7.7989 23.242-19.201 27.36-33.292-7.347-25.02-56.26-48.959-72.96-3.8301 3.37-7.9491 6.451-11.76 9.84-4.213 2.668-7.7991 7.241-12.721 8.4 4.7831-9.777 12.584-16.537 18.721-24.96 4.798-15.955-8.576-19.538-12.24-28.32-1.4291-3.421-1.6271-8.919-0.24-13.44-0.014-0.146-0.035-0.284-0.2401-0.24-35.492 23.548-28.299 89.782-61.2 115.92zm-312.48 17.76c-0.308 0.013-0.3331 0.308-0.721 0.24-10.464 0.65599-18.54 3.701-27.36 6-10.797 11.21-19.068 28.219-16.08 50.88 2.778 20.103 10.66 35.1 18.72 49.92 8.11 14.77 17.584 28.176 25.921 42.72 8.4631 14.416 19.242 26.517 31.68 36.96 25.892 19.869 54.205 37.313 90.24 47.04 17.222 5.314 44.714 5.126 57.839-3.6 7.1469-4.292 13.306-9.575 17.761-16.56 2.484-3.195 4.526-6.833 6.239-10.8 1.702-4.059 4.177-7.344 3.6009-13.68-52.9-9.49-97-27.74-131-56.16-16.908-14.294-31.374-31.026-41.521-52.08-5.349-10.251-9.291-21.909-12-34.8-2.615-13.066-3.3421-28.019-5.2791-41.76-4.292-3.151-10.275-4.607-18.001-4.32zm651.6 92.88c-0.299-10.139 2.2929-17.388 5.041-24.48 1.8349-7.162 7.6799-13.758 5.52-22.56-1.572-1.948-4.193-2.846-7.6801-2.88-18.744 9.657-24.441 32.359-48.721 36.48 2.8419 15.158 10.355 25.644 26.881 27.12 8.447 0.36801 15.088-1.072 21.6-2.64-1.1359-3.425-2.2979-6.822-2.6409-11.04zm27.361-18.72c-0.8669 16.705 3.188 38.589-6 48-19.273 9.308-49.012 13.565-77.041 9.6-26.828-3.012-49.791-9.888-73.439-16.08-23.326-6.514-46.562-13.119-72-17.52-24.045-4.72-57.867-5.958-82.08-0.47999 3.914 5.846 11.186 10.413 17.76 14.4 7.379 3.58 15.346 6.573 24.479 8.4 17.964 3.957 39.833 4.007 61.92 3.84 21.878 0.042 44.46-0.62 63.12 2.64 9.588 1.372 18.006 3.914 25.92 6.96 3.532 1.907 7.48 3.399 10.561 5.76 3.816 1.703 6.045 4.994 9.8401 6.72 46.07 0.15 92.443 0.60401 108.24-29.52 4.6779-12.232 0.4179-29.01-3.1211-39.6-1.9979-1.92-4.137-3.703-7.9199-3.84-0.2801 0.04-0.2612 0.38001-0.2391 0.72zm-629.76 135.84c-2.789-1.961-10.016-6.925-13.198-6.48 0.077-0.011 0.16 0.008 0.238 0 7.3509 5.85 15.962 11.718 24.241 15.84-3.0621-2.895-6.701-6.141-11.281-9.36zm-357.14 27.6c-16.727 1.511-28.916 11.139-25.2 30.72 5.347 2.973 11.471 5.169 19.92 5.04 17.543-1.816 26.012-12.708 28.8-29.28-5.82-4.18-13.23-6.77-23.52-6.48zm426.48 12.72c-55.029 21.53-68.931 86.27-98.159 134.4-4.106 80.057-15.54 152.78-38.641 213.84-5.829 15.21-12.533 29.547-19.68 43.44-7.474 13.566-18.248 23.832-29.279 33.84-11.058 9.983-22.631 19.45-32.881 30.24-9.548 11.252-20.489 22.39-19.681 43.2 2.486 7.121 13.129 9.539 22.32 6.96 4.572-3.668 8.021-8.459 12-12.721 4.004-4.236 7.971-8.51 11.76-12.96 8.122-8.439 15.573-17.547 23.04-26.64 14.854-18.267 28.846-37.396 42-57.36 25.783-40.38 49.463-82.856 62.16-136.32-1.639-56.221 4.448-106.73 16.801-149.76 6.3851-21.456 14.254-41.426 24.239-59.28 4.896-9.025 10.397-17.443 16.321-25.44 3.009-3.95 6.051-7.868 9.358-11.52 1.474-1.966 3.386-3.495 4.802-5.52 0.979-0.779 1.859-1.66 2.6391-2.64 0.8129-0.806 2.5219-1.549 1.4389-2.88-1.838-2.363-7.772-3.045-10.558-2.879zm-686.12 267.36c-0.307 0.013-0.332 0.30798-0.72 0.23999-13.327 0.513-25.105 2.575-35.52 6-5.576 1.304-10.097 3.663-15.12 5.52-2.081 1.359-4.627 2.253-6.72 3.6-1.89 1.325-5.327 2.333-6 4.08 12.409 60.052 56.831 89.472 111.36 107.52 54.909 18.174 121.5 24.715 180.96 38.16 36.536-0.033 75.686 0.046 110.64 0 5.401-1.318 7.81-5.63 13.44-6.72 0.50098-0.37903 1.594-0.16705 2.16-0.48004 3.427-0.146 5.801 0.75903 8.64 1.2 63.69-2.633 136.01 3.369 157.2-41.76 0.418-0.22101 0.529-0.75 0.479-1.44-2.672-9.728-6.078-18.721-12.479-24.72-4.444-6.866-19.54-8.861-27.361-3.6-16.582 8.217-26.35 23.249-33.358 41.039-82.402 0.85803-148.98 20.535-233.28 18-11.004-3.956-5.472-24.448-20.64-24.239-5.946 1.733-9.816 5.543-15.6 7.439-5.711 1.969-11.493 3.867-19.2 3.84-14.845 0.52496-26.391-4.328-37.44-8.399-21.093-8.3069-44.944-19.301-75.84-14.88-9.089-17.71-20.118-33.482-28.08-52.32-3.851-9.309-7.7-19.765-6.48-33.36 1.059-5.661 3.009-10.431 5.76-14.4 1.59-1.771 2.895-3.826 4.8-5.28 0.81799-0.862 1.823-1.538 2.64-2.4 0.50397-0.29602 0.93598-0.664 1.44-0.96002 0.0489-0.39899 1.875-0.87097 0.71997-0.96002-8.087-0.95301-17.389-0.69098-26.401-0.71997zm20.88 178.32c-1.355 6.245-6.597 8.603-9.84 12.96-4.94 9.779-12.693 16.747-18.96 25.2-6.619 8.101-13.246 16.193-19.92 24.239-13.303 16.218-26.639 32.401-39.84 48.721-26.229 32.729-52.145 65.775-75.6 101.28-47.14 70.455-128.21 108.27-158.4 194.88 78.001-46.88 139.01-110.75 192.24-182.4 26.956-35.444 51.645-73.156 76.08-111.12 12.136-19.064 24.213-38.187 36.24-57.36 5.956-9.644 12.214-18.985 18-28.8 3.382-4.458 6-9.68 9.36-14.16 1.331-2.589 2.947-4.893 4.56-7.199 0.56-1.361 1.534-2.307 2.16-3.601 0.39203-1.016 2.479-2.735 1.68-3.359h-17.28c-0.30206 0.097-0.49005 0.30798-0.48004 0.71899zm-225.6 535.44c-6.539-29.78-29.355-43.285-66.48-42.479 7.36 27.999 31.92 40.879 66.48 42.479zm12.48 0.24c-1.203 12.106 2.174 21.648 13.92 21.601 6.421-0.299 11.632-1.809 16.56-3.601 3.262-18.28-14.397-19.833-30.48-18z"
            />
            <path
              id="svg_11"
              style="fill-rule: evenodd"
              d="m421.2 723.36c0.56699 0.067-0.27499 0.64099-0.23999 0.96002-0.73602-0.23603 0.27597-0.64002 0.23999-0.96002z"
            />
            <path
              id="svg_12"
              style="fill-rule: evenodd"
              d="m412.8 733.92c0.134 0.85999-0.78299 2.732-2.16 2.88 0.62101-1.059 1.493-1.867 2.16-2.88z"
            />
            <path
              id="svg_13"
              style="fill-rule: evenodd"
              d="m1072.8 838.8c0.5279-0.219-0.9271 1.375-0.96 2.16-0.2621 0.49304-1.962 2.337-0.959 1.2 0.4349-1.325 1.2321-2.287 1.9189-3.36z"
            />
          </g>
        </g>
      </g>
      <path
        id="path20"
        style="
          block-progression: tb;
          text-indent: 0;
          color: #000000;
          text-transform: none;
          fill: #000000;
        "
        d="m1227 33c-658.39 0-1195 536.61-1195 1195 0 658.36 536.61 1195 1195 1195 658.36 0 1195-536.64 1195-1195 0-658.39-536.7-1195-1195-1195zm0 271.66c511.56 0 923.34 411.76 923.34 923.31 0 511.56-411.79 923.34-923.34 923.34-511.54 0-923.31-411.79-923.31-923.34s411.77-923.31 923.31-923.31z"
      />
      <path
        id="path2833"
        style="fill-rule: evenodd; fill: #ffffff"
        d="m294.25 1670.4-47.967 46.7 66.92-9.4867m29.296-4.1833 39.199-4.79 16.633 32.65-191.21 22.52-12.078-23.7 129.77-143.11 16.417 32.23-26.488 29.73"
      />
      <path
        id="path26"
        style="fill-rule: evenodd; fill: #ffffff"
        d="m2254.3 1656.1 27.29 12.14-37.02 83.13-160.72-71.55 37.01-83.13 27.29 12.14-23.06 51.8 43.48 19.36 22.21-49.88 27.28 12.15-22.2 49.88 35.38 15.75 23.06-51.79"
      />
      <path
        id="path2857"
        style="fill-rule: evenodd; fill: #ffffff"
        d="m516.8 2125.2 108.31-138.7 27.03 21.1-108.31 138.7-27.03-21.1z"
      />
      <path
        id="path2845"
        style="fill-rule: evenodd; fill: #ffffff"
        d="m432.56 1782.6-94.142 73.547 0.289 0.37 153.93-2.71 15.23 19.49-141.39 110.47-21.121-27.03 93.222-72.83-0.285-0.37-153.93 2.71-15.226-19.49 142.31-111.86 21.12 27.7z"
      />
      <path
        id="path2843"
        style="fill-rule: evenodd; fill: #ffffff"
        d="m2062.1 1715.8 149.21 93.227-18.18 29.09-58.78-36.73-33.63 53.83 58.77 36.72-18.17 29.09-149.2-93.23 18.17-29.09 66.69 41.67 33.34-53.37-66.39-42.12 18.167-29.087z"
      />
      <path
        id="path2841"
        style="fill-rule: evenodd; fill: #ffffff"
        d="m474.34 2049.7 25.512 24.63-20.75 21.49-75.696-73.1 20.75-21.48 25.512 24.63 101.46-105.07 24.672 23.83-101.46 105.07z"
      />
      <path
        id="path28"
        style="fill-rule: evenodd; fill: #ffffff"
        d="m2088.7 1972.3c-3.34 13.16-9.84 25.6-19.23 35.67-35.17 37.72-91.45 33.41-127.97-0.64-35.49-33.11-41.74-89.01-8-125.19 9.71-10.42 21.7-16.77 34.89-22.02l29.86 27.84c-14.54-0.48-30.2 5.02-40.22 15.77-21.8 23.38-13.5 57.92 8.17 78.13 22.19 20.69 57.26 27.55 79.7 3.49 10.02-10.75 14.77-26.11 12.76-41.06l30.04 28.01"
      />
      <path
        id="path2875"
        style="fill-rule: evenodd; fill: #ffffff"
        d="m663.56 2226.5-73.193-47.54 95.82-147.54 28.767 18.68-42.187 64.973 41.678 27.057-16.265 25.05-41.684-27.07-21.094 32.49 44.425 28.84-16.267 25.06z"
      />
      <path
        id="path2909"
        style="fill-rule: evenodd; fill: #ffffff"
        d="m1428.1 2176.8 30.553 173.26-33.77 5.96-30.55-173.26 33.767-5.96z"
      />
      <path
        id="path2903"
        style="fill-rule: evenodd; fill: #ffffff"
        d="m1652.7 2099.1 59.413 133.44 32.4-14.42 12.15 27.28-96.13 42.8-12.15-27.28 32.4-14.43-59.41-133.43 31.327-13.96z"
      />
      <path
        id="path2901"
        style="fill-rule: evenodd; fill: #ffffff"
        d="m1739.2 2050.9 87.967 152.36-29.7 17.15-87.973-152.36 29.707-17.147z"
      />
      <path
        id="path2899"
        style="fill-rule: evenodd; fill: #ffffff"
        d="m1161 2368.1c-12.61 5.03-26.49 7.08-40.16 5.41-51.18-6.29-80.78-54.35-74.69-103.91 5.91-48.17 47.47-86.09 96.58-80.06 14.12 1.73 26.32 7.7 38.32 15.28l-4.98 40.53c-8.16-12.05-21.81-21.48-36.4-23.27-31.73-3.9-54.79 23.12-58.41 52.53-3.69 30.11 11.37 62.52 44.03 66.53 14.58 1.79 29.8-3.39 40.72-13.81l-5.01 40.77z"
      />
      <path
        id="path32"
        style="fill-rule: evenodd; fill: #ffffff"
        d="m1263 2304 4.83 69.13-34.21 2.39-12.28-175.5 34.22-2.39 5.49 78.44 63.3-4.43-5.48-78.44 34.22-2.39 12.27 175.5-34.21 2.39-4.84-69.13-63.31 4.43"
      />
      <path
        id="path34"
        style="fill-rule: evenodd; fill: #ffffff"
        d="m1653 150.95 30.56 15.571-54.23 106.44 0.41 0.211 138.36-67.508 22.04 11.23-81.46 159.88-30.56-15.57 53.71-105.41-0.42-0.211-138.36 67.508-22.04-11.227 81.99-160.91"
      />
      <path
        id="path2830"
        style="fill-rule: evenodd; fill: #ffffff"
        d="m1488.5 97.949c50.02 11.547 75.25 60.949 63.92 110.06-11.08 47.972-55.57 82-105.59 70.453s-75.09-61.637-64.02-109.61c11.34-49.11 55.67-82.45 105.69-70.903zm-34.06 147.55c29.33 6.77 56.7-16.363 63.11-44.101 5.98-25.918-8.24-63.922-36.66-70.485-28.42-6.558-57.85 21.367-63.84 47.285-6.4 27.739 8.06 60.532 37.39 67.301z"
      />
      <path
        id="path2832"
        style="fill-rule: evenodd; fill: #ffffff"
        d="m1314 256.14-34.29-0.598 3.07-175.91 34.29 0.6016-3.07 175.91z"
      />
      <path
        id="path2834"
        style="fill-rule: evenodd; fill: #ffffff"
        d="m1181.7 229.28 35.27-3.707 3.12 29.703-104.65 11-3.13-29.707 35.28-3.707-15.27-145.26 34.11-3.586 15.27 145.27z"
      />
      <path
        id="path2836"
        style="fill-rule: evenodd; fill: #ffffff"
        d="m957.8 224.06-0.457 0.105 16.691 72.297-33.422 7.719-39.574-171.43 33.422-7.715 17.793 77.07 0.453-0.105 37-89.719 42.977-9.922-47.356 108.16 83.286 64.109-41.15 9.5-69.663-60.07z"
      />
      <path
        id="path2838"
        style="fill-rule: evenodd; fill: #ffffff"
        d="m794.62 212.41-2.035-39.437 33.719-14.313 9.137 192.32-24.489 10.39-133.7-139.44 33.289-14.129 27.809 28.5 56.273-23.891zm2.133 29.512-38.441 16.32 42.804 51.285 0.43-0.183-4.793-67.422z"
      />
    </g>
  </g>
  <path
    id="path2833-0"
    style="fill-rule: evenodd; fill: #ffffff"
    d="m118.31 42.933-1.1832-9.9719 6.9054 7.423m3.0202 3.2531 4.1173 4.2587 5.0211-2.2359-20.164-20.675-3.6452 1.6226 1.6187 28.933 4.9563-2.2074-0.28133-5.9661"
  />
  <path
    id="path3917"
    style="fill-rule: evenodd; fill: #ffffff"
    d="m142.22 16.201c-1.0437-0.01-2.0297 0.10075-2.875 0.34375-4.2726 1.2255-6.4248 5.5128-5.2188 9.7188 1.129 3.936 3.9758 4.903 7.625 5.3125 2.2072 0.2055 4.8409 0.25 5.5938 2.875 0.55965 1.95-0.2002 4.0148-2.2188 4.5938-2.12 0.6075-4.3934-0.617-5.625-2.375l-1.5 2.625-0.8125 1.4062c2.5887 2.424 5.7196 3.7222 9.2188 2.7188 2.5617-0.735 4.4012-2.208 5.4062-4.125 1.029-1.9635 1.2052-4.3695 0.46875-6.9375-2.4406-8.5125-11.994-3.853-13.219-8.125-0.47235-1.65 0.70025-3.2955 2.2812-3.75 1.6482-0.4725 3.0974-0.008 4.4062 1l1.3125-4.0938c-1.2748-0.79594-3.1043-1.1714-4.8438-1.1875z"
  />
  <path
    id="path3917-1"
    style="fill-rule: evenodd; fill: #ffffff"
    d="m238.99 20.178c-0.84924-0.60683-1.7205-1.0817-2.5522-1.3675-4.2028-1.4468-8.4248 0.8307-9.8494 4.9678-1.3327 3.8718 0.44454 6.2967 3.1989 8.7253 1.6902 1.4344 3.822 2.9814 2.9331 5.5635-0.66002 1.9184-2.4668 3.1738-4.4524 2.4903-2.085-0.71832-3.2449-3.0253-3.2455-5.1719l-2.7344 1.2899-1.4722 0.6859c0.73021 3.4704 2.5502 6.3297 5.9922 7.5147 2.52 0.86725 4.8717 0.71576 6.7945-0.27811 1.9691-1.0182 3.4935-2.888 4.3631-5.414 2.8834-8.3729-7.6145-10.035-6.1678-14.238 0.5595-1.6225 2.4638-2.2979 4.0196-1.7634 1.6211 0.55831 2.5418 1.77 3.0358 3.3465l3.4232-2.6006c-0.58772-1.3832-1.871-2.7401-3.2866-3.751z"
  />
  <path
    id="path2847-4"
    style="fill-rule: evenodd; fill: #ffffff"
    d="m283.86 44.716c-2.2261 0.10069-4.3909 1.2173-5.9062 3.1562-0.381 0.486-0.7035 0.965-0.9375 1.4375-1.3125 2.664-0.4155 5.1317 1.125 7.8437 1.131 1.9065 2.6488 4.0678 0.96875 6.2188-1.2495 1.6005-3.3768 2.2305-5.0312 0.9375-1.737-1.3575-2.074-3.9392-1.375-5.9688l-4.625 0.5c-0.441 3.5205 0.35075 6.8215 3.2188 9.0625 4.248 3.3195 9.1528 2.3828 12.406-1.7812 5.4525-6.978-3.9235-11.966-1.1875-15.469 1.056-1.3515 3.0462-1.3562 4.3438-0.34375 1.3515 1.056 1.8278 2.5048 1.7812 4.1562l4.125-1.3438c-0.087-1.227-0.6325-2.5825-1.375-3.8125-0.708-1.1685-1.597-2.2325-2.5-2.9375-1.5323-1.1977-3.2998-1.7346-5.0312-1.6562z"
  />
  <metadata>
    <rdf:RDF
      ><cc:Work
        ><dc:format>image/svg+xml</dc:format
        ><dc:type
          rdf:resource="http://purl.org/dc/dcmitype/StillImage"
        /><cc:license
          rdf:resource="http://creativecommons.org/licenses/publicdomain/"
        /><dc:publisher
          ><cc:Agent rdf:about="http://openclipart.org/"
            ><dc:title>Openclipart</dc:title></cc:Agent
          ></dc:publisher
        ></cc:Work
      ><cc:License rdf:about="http://creativecommons.org/licenses/publicdomain/"
        ><cc:permits
          rdf:resource="http://creativecommons.org/ns#Reproduction" /><cc:permits
          rdf:resource="http://creativecommons.org/ns#Distribution" /><cc:permits
          rdf:resource="http://creativecommons.org/ns#DerivativeWorks" /></cc:License
    ></rdf:RDF>
  </metadata>
</svg>
