<svg
  xmlns="http://www.w3.org/2000/svg"
  xmlns:xlink="http://www.w3.org/1999/xlink"
  version="1.1"
  x="0px"
  y="0px"
  viewBox="0 0 101 126.25"
  style="enable-background: new 0 0 101 101"
  xml:space="preserve"
>
  <path
    d="M70.577,27.528l2.262-2.301c1.068-1.087,1.329-2.667,0.797-3.999l0.155-0.185c0.097-0.115,0.137-0.27,0.108-0.418  c-0.009-0.043-0.911-4.336-6.083-4.336c-0.573,0-1.185,0.054-1.818,0.159c-1.494,0.249-2.64,0.971-3.405,2.146  c-1.805,2.768-0.963,7.352-0.454,9.354c-0.53,0.615-1.007,1.608-1.434,2.826c-0.498,0.522-0.888,1.087-1.119,1.549  c-0.571,1.142-2.307,5.229-2.604,5.932l-2.815,2.665c-0.437-0.355-0.978-0.591-1.503-0.708l0.007-0.008  c0.182-0.202,0.167-0.514-0.032-0.699l-3.016-2.805c1.077-5.764,1.2-9.871,1.201-9.932c0.003-0.14-0.052-0.274-0.151-0.371  s-0.228-0.15-0.375-0.141l-0.902,0.048l-0.17-2.161c0.294,0.073,0.594,0.124,0.904,0.124c1.007,0,1.951-0.396,2.657-1.113  l2.262-2.301c1.44-1.466,1.42-3.83-0.045-5.271c-1.421-1.395-3.875-1.374-5.269,0.046l-2.262,2.301  c-0.414,0.421-0.7,0.927-0.875,1.473l-4.63,1.811c-0.003,0.001-0.005,0.004-0.008,0.005c-1.086,0.329-2.473,1.227-3.679,3.519  c-0.877,1.667-2.634,5.323-3.986,8.189c-2.676,5.676-2.869,6.085-2.631,6.366c0.511,1.039,1.131,1.921,1.809,2.696  c-0.636,0.732-1.894,2.613-1.894,6.069v14.133l-4.471,19.104c-0.031,0.134-0.006,0.273,0.068,0.388s0.193,0.193,0.327,0.218  l0.094,0.017c-0.124,0.505-0.446,1.897-0.441,2.748l0.011,1.278c0.003,0.274,0.227,0.494,0.5,0.494c0.001,0,0.001,0,0.002,0  l10.456-0.054c0.276-0.001,0.499-0.226,0.498-0.502l0-0.143c-0.002-0.277-0.043-0.499-0.101-0.7l8.3,0.834  c0.017,0.002,0.034,0.003,0.05,0.003c0.254,0,0.471-0.192,0.497-0.45l0.014-0.141c0.153-1.52-0.792-1.874-1.417-2.109  c-0.14-0.053-0.28-0.104-0.438-0.186c-0.539-0.239-1.057-0.438-1.534-0.621c-0.8-0.307-1.493-0.582-1.915-0.917  c0.134-0.088,0.226-0.235,0.229-0.405c0.002-0.125,0.234-12.603,1.617-21.675c0.908-5.957,1.61-10.493,1.923-12.505  c1.079-0.016,1.145-0.121,1.28-0.401c0.425-1.279,0.8-2.541,1.133-3.772c0.537,0.428,0.888,0.707,0.902,0.719  c0.092,0.073,0.202,0.109,0.312,0.109c0.063,0,0.125-0.015,0.184-0.039c0.15,0.222,0.337,0.421,0.556,0.596  c-0.501,0.394-0.87,0.912-0.843,1.585c0.03,0.75,0.348,1.367,0.919,1.786c0.466,0.341,1.066,0.52,1.703,0.52  c0.311,0,0.63-0.043,0.947-0.129c0.965-0.263,1.473-1.074,1.737-1.718c0.031,0.006,0.06,0.022,0.091,0.022  c0.093,0,0.186-0.025,0.27-0.079c0.117-0.075,1.76-1.131,3.331-2.177c-0.161,2.231-0.165,3.979-0.001,4.646  c-0.76,3.18-0.086,5.17,0.366,6.49c0.175,0.513,0.313,0.918,0.313,1.225l0.001,1.408c-1.138,4.006-2.596,9.464-3.128,12.881  c-0.86,5.53-0.807,10.211-0.796,10.817c-0.149,0.627-0.392,1.755-0.392,2.485l0.004,1.279c0.002,0.274,0.225,0.496,0.5,0.496h1.604  l0.001,0.368c0.002,0.274,0.225,0.496,0.5,0.496h10.456c0.276,0,0.5-0.224,0.5-0.5v-0.142c0-1.677-1.176-2.138-1.878-2.412  l-0.197-0.077c-0.735-0.243-1.407-0.351-2.013-0.444c-0.032-0.011-0.059-0.015-0.093-0.029c-0.265-0.087-0.522-0.165-0.774-0.237  h0.103c0.237,0,0.442-0.167,0.49-0.399l3.179-15.526l2.315-15.155c0.487-0.089,0.86-0.218,0.94-0.41  c0.003-0.008,0.006-0.015,0.009-0.022c1.377-3.001,1.012-12.359,0.012-16.139c-0.74-2.794-2.01-5.284-2.602-6.361  c0.044,0.002,0.087,0.013,0.131,0.013C68.926,28.643,69.87,28.247,70.577,27.528z M66.607,28.573  c0.019,0.031,1.889,3.174,2.815,6.674c0.925,3.494,1.308,12.329,0.121,15.291c-0.431,0.075-1.532,0.211-2.938,0.211  c-2.07,0-5.738-0.317-7.281-2.468c-0.106-0.456-0.061-2.506,0.157-5.137c0.707-0.482,1.306-0.905,1.603-1.15  c0.82-0.675,1.782-2.316,2.802-4.055c0.382-0.652,0.772-1.316,1.162-1.944c0.974-1.566,1.908-3.365,1.452-4.833  c-0.232-0.746-0.796-1.32-1.676-1.705c-0.351-0.153-0.72-0.231-1.098-0.231c-0.528,0-1.034,0.158-1.508,0.399  c0.252-0.487,0.52-0.884,0.807-1.162c0.097-0.094,0.152-0.224,0.152-0.359c0-0.069-0.009-0.104-0.045-0.246  c-0.456-1.785-1.339-6.207,0.297-8.717c0.615-0.943,1.508-1.501,2.731-1.705c0.58-0.097,1.137-0.146,1.654-0.146  c3.743,0,4.805,2.528,5.043,3.309l-6.206,7.396C66.516,28.158,66.498,28.391,66.607,28.573z M57.839,85.484l-0.002-0.776  c0-0.566,0.184-1.462,0.322-2.064h3.089l0.42,0.436c0.538,0.535,1.332,0.656,2.251,0.796c0.6,0.091,1.28,0.194,1.959,0.417  l0.176,0.069c0.662,0.26,1.104,0.468,1.215,1.123H57.839z M55.733,84.62l-0.002-0.775c0-0.525,0.158-1.335,0.292-1.933h0.979  l-0.021,0.171c-0.018,0.142,0.027,0.284,0.122,0.392c0.016,0.018,0.039,0.027,0.058,0.043c-0.139,0.618-0.305,1.482-0.32,2.103  H55.733z M50.88,46.648c-0.322-0.236-0.494-0.579-0.511-1.02c-0.016-0.391,0.364-0.735,0.852-1.01  c0.227,0.076,0.464,0.137,0.715,0.169c0.161,0.02,0.319,0.03,0.474,0.03c0.37,0,0.707-0.075,1.021-0.184l0.473,0.666  c-0.103,0.405-0.427,1.363-1.228,1.581C52.012,47.062,51.324,46.972,50.88,46.648z M50.387,42.755l1.513-1.69  c0.06,0.034,0.127,0.058,0.201,0.065c0.783,0.07,1.545,0.491,1.813,1.002c0.162,0.308,0.138,0.638-0.071,1.008  c-0.282,0.5-0.981,0.75-1.781,0.656C51.452,43.719,50.693,43.398,50.387,42.755z M32.577,62.251v-14.19  c0-3.01,1.049-4.678,1.583-5.332c2.996,2.901,6.96,3.795,9.514,4.051c-0.821,2.964-4.827,17.423-5.824,20.744  c-0.983,3.277-4.288,12.346-5.023,14.354l-4.628-0.86l4.365-18.651C32.572,62.327,32.577,62.289,32.577,62.251z M54.301,16.297  c1.072,1.054,1.087,2.784,0.033,3.856l-2.262,2.301c-1.021,1.039-2.816,1.054-3.855,0.032c-0.519-0.51-0.808-1.192-0.814-1.92  c-0.006-0.729,0.271-1.415,0.782-1.935l2.262-2.301c0.517-0.525,1.207-0.815,1.945-0.815C53.109,15.516,53.788,15.793,54.301,16.297  z M47.515,23.199c0.18,0.177,0.376,0.332,0.583,0.467l0.103,0.226l0.194,2.466l-0.831,0.044c-0.376-1.178-1.54-4.427-3.095-5.093  l1.935-0.757c0,0.007-0.002,0.014-0.002,0.021C46.41,21.57,46.806,22.502,47.515,23.199z M35.448,81.865  c0.006,0.141,0.071,0.271,0.179,0.362c0.091,0.075,0.204,0.116,0.321,0.116c0.022,0,0.045-0.002,0.068-0.005l0.203-0.028  c-0.058,0.251-0.106,0.495-0.127,0.705l-0.048,0.493c-0.382-0.113-0.754-0.216-1.101-0.309c-0.539-0.143-1.029-0.278-1.437-0.433  c0.042-0.046,0.092-0.086,0.115-0.148c0.017-0.047,0.745-2.031,1.664-4.585L35.448,81.865z M41.315,80.606l-4.892,0.668  l-0.246-5.739c1.049-2.949,2.132-6.067,2.629-7.726c0.941-3.134,4.549-16.139,5.654-20.13c0.098-0.353,0.174-0.629,0.229-0.828  c0.049,0.002,0.099,0.005,0.145,0.007c-0.008,0.052-0.016,0.1-0.024,0.155c-0.333,2.142-1.012,6.534-1.877,12.213  C41.688,67.41,41.37,78.322,41.315,80.606z M41.848,36.367c-1.509-1.15-2.211-2.871-2.211-5.415c0-0.293-0.008-0.614-0.018-0.953  c-0.044-1.694-0.1-3.803,0.845-4.773c0.362-0.372,0.857-0.553,1.514-0.553c0.106,0,0.216,0.005,0.332,0.015  c2.331,0.196,2.449,6.337,2.307,8.473c-0.01,0.15,0.048,0.297,0.159,0.399l6.822,6.345l-2.182,2.438  C48.055,41.258,43.328,37.495,41.848,36.367z M54.898,44.971l-0.59-0.83c0.16-0.148,0.297-0.318,0.405-0.509  c0.471-0.834,0.316-1.513,0.096-1.943l2.935-2.779c0.05-0.048,0.09-0.104,0.117-0.168c0.02-0.048,2.021-4.775,2.619-5.971  c0.444-0.888,1.852-2.546,3.247-2.546c0.239,0,0.474,0.05,0.697,0.147c0.611,0.268,0.978,0.622,1.122,1.086  c0.338,1.089-0.542,2.714-1.346,4.009c-0.394,0.634-0.789,1.307-1.175,1.966c-0.93,1.586-1.892,3.227-2.575,3.789  C59.614,41.911,56.096,44.196,54.898,44.971z M72.125,24.526l-2.261,2.301c-0.422,0.429-0.978,0.674-1.557,0.752l4.554-5.427  C73.003,22.988,72.763,23.877,72.125,24.526z"
  />
</svg>
