<?xml version="1.0" encoding="UTF-8" standalone="no"?>
<!-- Created with Inkscape (http://www.inkscape.org/) -->
<svg
  xmlns:inkscape="http://www.inkscape.org/namespaces/inkscape"
  xmlns:rdf="http://www.w3.org/1999/02/22-rdf-syntax-ns#"
  xmlns="http://www.w3.org/2000/svg"
  xmlns:cc="http://creativecommons.org/ns#"
  xmlns:dc="http://purl.org/dc/elements/1.1/"
  xmlns:sodipodi="http://sodipodi.sourceforge.net/DTD/sodipodi-0.dtd"
  xmlns:svg="http://www.w3.org/2000/svg"
  xmlns:ns1="http://sozi.baierouge.fr"
  xmlns:xlink="http://www.w3.org/1999/xlink"
  id="svg9708"
  sodipodi:docname="Neues Dokument 17"
  viewBox="0 0 719 952.35"
  version="1.1"
  inkscape:version="0.47 r22583"
>
  <sodipodi:namedview
    id="base"
    bordercolor="#666666"
    inkscape:pageshadow="2"
    inkscape:window-y="40"
    pagecolor="#ffffff"
    inkscape:window-height="675"
    inkscape:window-maximized="1"
    inkscape:zoom="0.35"
    inkscape:window-x="-4"
    showgrid="false"
    borderopacity="1.0"
    inkscape:current-layer="layer1"
    inkscape:cx="825.5"
    inkscape:cy="431.41907"
    inkscape:window-width="1024"
    inkscape:pageopacity="0.0"
    inkscape:document-units="px"
  />
  <g
    id="layer1"
    inkscape:label="Ebene 1"
    inkscape:groupmode="layer"
    transform="translate(475.5 -11.428)"
  >
    <path
      id="path9732"
      style="fill: #000000"
      d="m231.99 25.723c-0.40013-0.21162-23.644 3.2409-51.652 7.6691-28.009 4.4282-68.167 10.751-89.24 14.035-21.073 3.2838-38.632 6.2334-39.012 6.5778-0.38065 0.34445-1.3851 5.1967-2.2431 10.791-4.1165 26.84-6.4642 42.285-8.2147 53.835-1.0512 6.9355-3.0415 19.812-4.3953 28.615-5.0821 33.045-7.2447 47.684-7.2447 48.894 0 0.68607 3.0555 2.4451 6.79 3.9103s6.79 2.9477 6.79 3.3041c0 0.76569-5.9386 21.377-11.549 40.103-2.1876 7.3013-3.9709 13.74-3.9709 14.307 0 3.0011 2.6074-0.2645 9.7909-12.307 10.231-17.152 10.043-16.974 12.822-13.489l2.1825 2.7584 7.0022-14.217 7.0022-14.217v-37.557-37.557l39.527-3.6072c98.546-9.034 124-11.453 125.13-11.852 0.94621-0.33364 1.2125-10.214 1.2125-45.014 0-24.526-0.32738-44.772-0.7275-44.984zm-185.33 7.032c-0.39593-0.03236-0.99331 0.25224-1.7884 0.42438-1.5233 0.32977-12.708 2.3248-24.856 4.4256-12.148 2.1009-22.515 4.0722-23.037 4.3953-0.58616 0.36227-0.92063 11.455-0.90937 28.918 0.014463 22.463 0.39955 31.319 1.9097 42.862 1.6538 12.641 1.8939 20.5 1.9097 59.897l0.030312 45.347h-8.5784c-4.7126 0-8.798 0.24982-9.0937 0.54562-0.2958 0.29579 0.78515 3.2422 2.3947 6.5475 1.6095 3.3053 5.4085 11.24 8.4572 17.642l5.5472 11.64 7.6691 3.1222c4.218 1.7103 8.1946 3.1289 8.8512 3.1525 0.8576 0.0308 1.0611-1.2677 0.66687-4.5772-0.30186-2.5341-0.70838-5.1324-0.90937-5.7897-0.31398-1.0267 3.5451-27.739 11.094-76.418 1.0756-6.9355 3.0616-19.812 4.3953-28.615 1.3337-8.8027 3.5162-23.207 4.85-32.01 1.3337-8.8027 3.5408-23.425 4.9106-32.495 1.3698-9.0695 3.3547-22.164 4.4256-29.1 2.6121-16.916 3.249-19.818 2.0612-19.915zm-113.43 39.558c-1.532 0.22276-13.73 2.1324-42.68 6.6991l-9.9425 1.5762v90.968c0 59.485 0.33871 91.059 0.97 91.271 1.4912 0.49945 65.618-0.28591 64.353-0.78812-0.61337-0.24367-4.3236-0.96881-8.245-1.6369-6.2107-1.0581-7.0718-1.4763-6.79-3.1222 0.17797-1.0392 0.60907-2.1977 0.97-2.5766 0.36092-0.37884 10.245 1.0498 21.977 3.1525 14.135 2.5335 24.263 3.8073 29.979 3.8194l8.6087 0.0303-0.57594-5.6078c-0.6222-5.9529-1.6055-8.4349-11.67-29.555l-6.3656-13.337h-5.5169-5.4866l-5.7897 6.305c-3.1776 3.4678-6.2916 6.3118-6.9112 6.305-0.61962-0.007-2.537-2.5967-4.2741-5.7594-2.8954-5.2716-3.4606-5.7868-6.79-6.0625l-3.6375-0.30313-0.2425-70.81c-0.227-66.867-0.335-70.8-1.942-70.567zm146.8 124.92c-0.96164 0.29219-4.0412 6.2354-13.186 24.644-7.469 15.035-13.58 27.747-13.58 28.251 0 0.50376 0.15154 0.90938 0.33344 0.90938 1.0871 0 76.22-48.412 75.599-48.712-0.41804-0.20235-10.921 0.0376-23.341 0.51532-12.419 0.47771-23.223 0.60431-24.007 0.30312-0.93944-0.3605-1.4247-1.922-1.4247-4.5772 0-0.90533-0.07352-1.4312-0.39406-1.3338zm152.2 16.46-16.975 0.27281c-9.3362 0.14431-35.526 0.71671-58.2 1.2731l-41.225 1.0003-4.365 2.7281c-2.4008 1.5011-18.045 11.386-34.768 21.946-29.115 18.386-30.313 19.239-28.039 20.431 1.3059 0.68425 4.9468 1.6828 8.0934 2.2128 3.1467 0.52997 12.277 2.1005 20.279 3.4859 16.333 2.8277 40.379 6.862 50.046 8.3966 3.5214 0.55897 6.9608 1.3391 7.6387 1.7581 0.91569 0.56593-0.22531 3.3571-4.4559 10.822-3.1324 5.5268-5.8402 10.345-6.0019 10.7-0.16167 0.35511 4.97 0.95012 11.397 1.3338l11.701 0.69718 0.2425 88.361 0.2425 88.331 39.77 6.9719c21.873 3.8311 40.969 7.0034 42.437 7.0628l2.6675 0.12125-0.2425-138.95-0.2425-138.95zm-474.66 9.0937c-1.1306-0.0823-5.1071 0.99314-9.6394 2.6372-5.1798 1.8789-14.883 5.2936-21.552 7.6084-36.461 12.656-127.66 45.361-128.31 46.014-0.65228 0.65229-3.697 13.804-10.033 43.286-0.80264 3.7345-3.8661 17.702-6.79 31.04-7.2101 32.889-7.51 34.412-6.9719 34.95 0.43573 0.43571 24.617-7.546 70.628-23.31 10.403-3.5644 19.606-6.68 20.461-6.9416 1.1477-0.35114 2.0786 0.88179 3.5769 4.6984 2.5669 6.5389 20.294 61.394 21.097 65.293 0.32989 1.6005 1.0208 3.783 1.5156 4.85 1.398 3.0146 26.099 83.059 26.099 84.572 0 1.564 0.0285 1.565 10.185 3.7284 4.268 0.90915 9.9425 2.21 12.61 2.8797 2.6675 0.66971 6.647 1.2661 8.8512 1.3338 3.8502 0.11816 4.3559-0.23787 12.822-9.0937 4.8471-5.0702 8.6476-9.7625 8.4269-10.427-0.83559-2.5172-18.942-66.775-22.34-79.297-1.9544-7.2022-8.0779-29.245-13.61-48.985-5.5324-19.739-10.175-36.711-10.337-37.709-0.25376-1.5673 4.1074-3.3277 32.192-12.913 17.872-6.0999 32.856-11.426 33.283-11.852 0.42748-0.42573-1.6082-7.4866-4.5166-15.702-2.9084-8.2152-5.9466-16.908-6.7597-19.309-3.4784-10.271-20.083-56.453-20.582-57.26-0.0376-0.0608-0.14161-0.0791-0.30312-0.0909zm266.81 13.34c-0.42346-0.2617-1.5438 4.8962-2.4856 11.458-0.94185 6.5619-1.976 12.867-2.2734 14.004-0.65753 2.5144 1.7099 2.837 4.0012 0.54562 1.2214-1.2214 1.5156-3.905 1.5156-13.519 0-6.5992-0.33435-12.227-0.75781-12.489zm20.279 15.399-6.3656 6.2747c-3.4988 3.4523-6.3656 6.5499-6.3656 6.8809s4.1467 3.5252 9.215 7.0931c5.0682 3.5679 9.2169 6.7996 9.215 7.1841-0.0018 0.38446-2.4026 1.9951-5.335 3.5769s-5.335 3.1677-5.335 3.5466c0 0.37889 4.5196 11.333 10.033 24.311 5.5138 12.977 11.297 26.754 12.852 30.616 1.555 3.8613 3.1464 7.0257 3.5466 7.0325 0.40012 0.007 0.7275-8.5244 0.7275-18.945v-18.945l-8.1844-14.247c-4.4998-7.842-8.0166-14.445-7.8206-14.641 0.19597-0.19596 5.6345 3.4147 12.095 8.0025 7.8217 5.5547 12.641 8.3359 14.398 8.3359 1.4519 0 4.7965 1.4576 7.4569 3.2434 4.6535 3.1238 5.3102 3.2699 16.975 3.88l12.125 0.63656 6.0625-10.822c3.3405-5.9519 5.9238-10.991 5.7291-11.185-0.53531-0.53531-13.187-2.8607-38.467-7.0931-24.928-4.1736-48.501-9.5728-48.5-11.125 0.000418-0.54194 1.3395-3.8376 2.9706-7.3053l2.9706-6.305zm-196.06 2.425c-6.8264 0-9.4751 26.506-3.2737 32.707 3.2291 3.2291 5.3209 2.5142 7.8509-2.6372 1.1791-2.4008 2.531-4.8399 3.0312-5.4259 0.57058-0.66836 8.4709-1.3091 21.158-1.7278 11.125-0.36713 23.492-0.8627 27.493-1.0912 4.0012-0.22855 14.259-0.66294 22.795-0.97 8.536-0.30708 19.23-0.77354 23.765-1.0306 12.232-0.69348 55.896-2.3531 62.322-2.3644 6.2731-0.011 6.8479-0.88852 2.91-4.4559l-2.6675-2.3947-53.35 0.57594c-29.342 0.32001-58.588 0.74494-64.99 0.97s-17.391 0.41467-24.402 0.42437l-12.731 0.0303-0.7275 2.6675-0.7275 2.6675-0.78812-2.91c-0.43119-1.6005-1.0289-4.5101-1.3338-6.4566-0.66726-4.2602-3.8694-8.5784-6.3353-8.5784zm179.75 16.005-3.5769 7.6387c-1.9699 4.208-3.4574 8.034-3.3041 8.4875 0.15336 0.45347 1.5354 0.17175 3.0919-0.63656 1.5564-0.80833 3.1858-1.3606 3.6072-1.2125 0.42134 0.14807-5.7519 9.7848-13.732 21.401l-14.52 21.097v24.189c0 13.294-0.32737 24.335-0.7275 24.553-0.71234 0.38755-8.9394-0.42643-56.017-5.6078-49.84-5.4853-57.319-6.259-59.897-6.2747l-2.6675-0.0303v33.95c0 23.93 0.31304 33.95 1.0609 33.95 0.5836 0 28.847 4.8109 62.807 10.7 33.961 5.8893 70.476 12.223 81.146 14.065 10.67 1.8416 23.765 4.1671 29.1 5.1834s10.136 1.7584 10.67 1.6369c0.57785-0.13157 1.1661-7.0614 1.455-17.127 0.44338-15.446 0.60273-16.614 1.8187-13.732 0.7316 1.7339 1.7137 3.1525 2.1825 3.1525 0.46877 0 0.85069-11.458 0.84875-25.462v-25.462l-16.551-39.285c-9.1-21.6-17.415-41.56-18.495-44.37-1.0801-2.8072-2.3496-4.8673-2.8191-4.5772-0.46927 0.29017-0.6916 1.0477-0.485 1.6975 0.2066 0.64978 0.63594 4.2377 0.93969 7.9722s2.0735 23.821 3.9406 44.62c3.374 37.585 4.1181 52.397 2.425 48.5-0.46351-1.067-1.7758-13.071-2.91-26.675s-3.1092-36.886-4.3953-51.743-2.6035-30.133-2.91-33.95c-0.30646-3.8171-0.90829-9.1257-1.3337-11.792l-0.75781-4.85zm-10.155 4.6075c-0.2436-0.0642-1.1188 0.35368-2.3037 1.1216-10.153 6.58-10.14 6.5783-10.185 9.6697l-0.060625 3.0312-1.1519-2.6372-1.1822-2.6675-20.703 12.125c-11.394 6.6599-21.106 12.095-21.582 12.095-0.47632 0-0.87906 0.38162-0.87906 0.84875 0 0.46712 6.0019 1.231 13.337 1.6975l13.337 0.84875 0.27281 15.459c0.14739 8.4953 0.62314 15.043 1.0609 14.55 0.68297-0.76877 6.6881-9.5141 23.613-34.344 1.9834-2.9096 3.4439-5.4074 3.2737-5.5775-0.17013-0.17013-3.2596 1.0124-6.8809 2.6372s-6.8071 2.7413-7.0628 2.4856c-0.25569-0.25569 3.3807-7.1487 8.0631-15.308 4.6824-8.1591 8.7659-15.259 9.0634-15.793 0.07439-0.13338 0.05089-0.22108-0.03031-0.2425zm-49.197 1.6975-5.6381 6.4869c-3.1021 3.5742-7.4985 8.5261-9.7606 11.003-2.2621 2.4773-3.806 4.8027-3.4556 5.1531 0.35041 0.35042 4.8188 0.63657 9.9425 0.63657h9.3059l15.217-8.9119c12.561-7.3583 15.04-9.1763 14.338-10.488-1.1273-2.1063-11.042-3.88-21.643-3.88h-8.3056zm-4.2741 0.42437-11.246 0.27281c-6.1972 0.15027-16.078 0.51232-21.946 0.78813-5.8685 0.27581-19.727 0.74946-30.797 1.0609l-20.127 0.54563v5.1531 5.1228l14.792 0.66687c8.1359 0.35785 21.776 0.9751 30.312 1.3944 8.536 0.41927 17.778 0.83009 20.522 0.90938l4.9712 0.15156 6.7597-8.0328 6.7597-8.0328zm52.471 7.7297c-0.29671-0.0269-0.97567 0.54563-1.7581 1.5459-1.0433 1.3338-1.8852 2.8615-1.8794 3.395 0.0059 0.5335 0.86044-0.0743 1.9097-1.3337 1.0492-1.2595 1.8912-2.7872 1.8794-3.395-0.003-0.15194-0.05266-0.20325-0.15156-0.21219zm46.893 10.791c-0.18612 0.17913 3.0876 6.3598 7.275 13.732l7.6084 13.398 0.30312-5.5775 0.27281-5.5775h3.9709 3.9709l-11.549-8.154c-6.3408-4.4833-11.666-7.9998-11.852-7.8206zm-267.18 203.2c-1.9955 0.0135-20.348 13.586-28.191 20.855l-8.7603 8.1237 5.0622 0.66687c3.2228 0.42753 7.2713 1.9875 11.094 4.2741 7.7743 4.6497 11.701 11.428 14.004 24.25 0.86454 4.8115 1.87 8.7603 2.2431 8.7603 1.0108 0 6.0418-4.0478 7.9116-6.3656 0.89879-1.1142 4.6877-4.3414 8.4269-7.1841 3.9854-3.0298 8.7581-7.8992 11.549-11.761 4.5194-6.2537 4.8226-6.9826 5.4562-14.58l0.66687-8.0328-7.0931-6.5172c-5.3213-4.923-8.863-7.2806-14.338-9.5181-4.0012-1.6353-7.6081-2.9735-8.0328-2.9706zm-99.334 28.13-9.124 4.9409c-5.0149 2.7098-9.6428 5.4379-10.276 6.0625-0.63312 0.62456-4.1622 6.673-7.8509 13.459-6.1238 11.265-10.632 17.347-21.916 29.585-5.2288 5.6707-5.8391 6.6913-8.2753 13.853-2.8557 8.3946-3.9155 23.284-3.9406 55.775-0.0199 25.762 0.0323 26.273 2.3644 31.282 1.304 2.8009 2.0523 5.0925 1.6672 5.0925-0.38511 0-2.3825-1.1276-4.4256-2.5159-2.3496-1.5968-4.0542-2.1902-4.6378-1.6066-0.5075 0.50749-5.806 7.2004-11.792 14.883l-10.882 13.974-26.19 19.612c-14.395 10.785-30.836 22.789-36.557 26.675l-10.397 7.0628-0.0303 90.907-0.0303 90.877 4.1831-4.5469c49.347-53.933 75.987-80.933 120.95-122.52 7.7334-7.1538 17.294-16.12 21.249-19.915l7.184-6.8809-4.4256-2.6069c-3.0054-1.7613-6.0266-4.9021-9.4272-9.8212-2.7525-3.9817-5.258-7.2447-5.5775-7.2447s-4.7649 2.7019-9.8819 6.0019c-14.427 9.3042-28.077 18.133-35.344 22.856-3.6437 2.3681-6.7655 4.1167-6.9719 3.9103-0.40777-0.40777 55.342-52.54 56.533-52.865 0.39925-0.10877 2.2552 2.9026 4.1225 6.6687 2.7083 5.4624 5.4317 8.773 13.428 16.429 5.5134 5.2788 10.594 9.6091 11.307 9.6091 0.71253 0 6.232-1.0603 12.277-2.3644 6.0446-1.3041 15.783-3.3461 21.613-4.5166 9.7884-1.9654 11.149-2.5249 17.854-7.3356 5.2941-3.7986 10.991-9.5755 21.037-21.34 13.106-15.348 13.739-16.287 13.065-19.279-0.39006-1.7294-0.97803-3.5657-1.3034-4.0922-0.32539-0.52651-4.1956-1.2641-8.6087-1.6369s-8.9686-0.88224-10.094-1.1519c-1.1255-0.26965-4.2844-3.4481-7.0325-7.0628l-5.0016-6.5778-3.2737-24.159c-2.266-16.663-4.5346-28.967-7.3356-39.649-3.7458-14.284-4.4405-15.937-8.6694-21.34-6.4186-8.2-9.7909-16.305-9.7909-23.462 0-4.9515-0.39716-6.1839-2.9706-9.3059-1.6351-1.9837-2.7185-4.0533-2.3947-4.5772 0.32379-0.5239 2.3431-1.4798 4.4862-2.1219 2.1432-0.64211 5.8886-2.9043 8.3056-5.0319 3.166-2.7868 4.5828-3.5109 5.1228-2.6372 0.41225 0.66704 1.5178 5.4145 2.425 10.579 1.6251 9.2516 1.7273 9.5132 7.5175 16.187 11.836 13.642 12.868 14.513 21.522 18.369 8.0616 3.5921 8.5165 3.696 12.367 2.425 2.1958-0.72467 5.0059-2.1177 6.2444-3.0919 2.0932-1.6465 2.2172-2.2762 1.6975-8.7906-0.30753-3.8544-2.4616-13.686-4.7894-21.855-4.637-16.273-5.4149-25.081-2.91-33.404 1.3206-4.3881 1.2908-4.5119-2.3341-11.064-3.3243-6.0089-4.2848-6.974-10.306-10.185-5.8211-3.1041-9.1105-3.973-26.645-7.0325-16.545-2.8868-22.345-3.4859-33.556-3.4859h-13.55zm133.65 19.309-8.5178 6.6081c-4.6968 3.6402-12.979 9.7633-18.4 13.61-8.5044 6.0358-10.074 7.5846-11.519 11.367-2.1561 5.6458-1.479 10.858 2.8191 21.401 2.9674 7.2786 3.213 8.6813 2.7584 15.035-0.28311 3.9567-0.12558 6.8472 0.36375 6.6384 0.47682-0.2034 10.624-6.8665 22.522-14.823 18.517-12.382 22.267-15.316 26.099-20.37 2.4622-3.2472 5.6633-7.4387 7.1234-9.3059s3.0677-5.4264 3.5769-7.9116c0.92443-4.5121 0.92257-4.5278-4.3347-11.155-5.8441-7.367-5.6955-7.2891-15.49-9.5181l-7.0022-1.5762zm14.156 60.049-9.3059 4.5772c-5.1455 2.5204-16.683 9.831-25.796 16.369-9.0695 6.5068-20.695 14.17-25.826 17.036l-9.3362 5.2138-0.66688 10.518-0.66687 10.549 5.5169 5.0622c3.0318 2.7885 6.8823 5.8344 8.5481 6.7597 1.6658 0.92527 3.694 1.5131 4.5166 1.3338 0.82252-0.1794 13.263-8.175 27.645-17.763 14.382-9.5881 29.318-19.29 33.192-21.582 7.6054-4.5004 7.5389-4.3754 8.5178-14.853 0.5886-6.3003 0.48875-6.753-2.9403-12.398-2.8007-4.6105-4.6234-6.3778-8.4875-8.3359l-4.9106-2.4856zm14.368 57.291-9.7 0.60625-9.7 0.63656-27.008 17.975c-14.848 9.882-27.724 18.057-28.615 18.187-0.96494 0.14162-1.5872 1.0885-1.5459 2.3341 0.38723 11.681-0.52648 10.051 9.8819 17.521 5.2016 3.733 10.03 6.7933 10.731 6.8203 2.9021 0.11189 22.009-8.5672 35.708-16.217 12.544-7.0048 15.84-9.3471 22.704-16.247l8.0328-8.0934-2.8797-6.1231c-1.5852-3.3712-3.9434-8.6591-5.244-11.761l-2.3644-5.6381zm-21.219 54.866c-0.29563 0.0188-0.62999 0.14087-0.93968 0.39407-0.61938 0.50639-5.6851 2.9624-11.246 5.4562-5.5608 2.4938-12.052 6.1455-14.429 8.0934-3.6258 2.9711-5.1087 3.547-9.2756 3.6678-3.8248 0.11093-5.5141-0.32266-7.3053-1.9097-2.8461-2.5217-4.2269-7.6122 10.882 39.649 6.6517 20.806 12.766 40.264 13.61 43.226 2.545 8.9231 8.6196 15.203 17.308 17.915 2.2994 0.71772 5.1549 1.3284 6.3353 1.3641 3.4534 0.10442 12.1-3.528 15.944-6.6991 6.973-5.7516 10.223-17.734 7.1234-26.22-2.0267-5.5497-8.8297-26.667-15.641-48.5-7.7356-24.796-11.1-35.21-11.67-36.132-0.13887-0.22469-0.40155-0.32192-0.69719-0.30313zm-210.13 230.5-3.1525 0.57593c-0.5827 0.10706-1.168 0.23541-1.7278 0.39407h4.8803v-0.97zm79.055 0.2425v0.7275h3.1828l-3.1828-0.7275zm-155.23 0.42437c-0.27226 0.0199-0.58895 0.0496-0.93969 0.0909-0.4208 0.0497-0.83407 0.13024-1.2428 0.21219h3.6678c-0.31406-0.28181-0.75558-0.35634-1.4853-0.30313zm151.32 0c-0.27421 0.0183-0.58517 0.0516-0.93969 0.0909-0.41761 0.0463-0.84846 0.118-1.2731 0.21219h3.7284c-0.31102-0.3058-0.78063-0.35231-1.5156-0.30313zm-33.435 0.18188-4.0012 0.12125h4.0012v-0.12125zm-111.49 0.0606c-0.54273 0-0.97171 0.0231-1.3338 0.0606h2.3947c-0.35918-0.0372-0.70725-0.0606-1.0609-0.0606zm17.399 0v0.0606h13.58v-0.0606h-6.79-6.79zm25.068 0c-0.64264 0.007-1.1866 0.0358-1.6672 0.0606h7.9722c-0.94412-0.0561-2.2465-0.0606-4.0922-0.0606-0.83446 0-1.5702-0.007-2.2128 0zm28.009 0v0.0606h3.6678c-0.29329-0.036-0.5711-0.0602-0.84875-0.0606h-2.8191zm41.983 0v0.0606h13.58v-0.0606h-6.79-6.79zm54.32 0v0.0606h6.79v-0.0606h-3.395-3.395zm8.73 0v0.0606h12.61v-0.0606h-6.305-6.305zm14.55 0v0.0606h6.79v-0.0606h-3.395-3.395zm10.67 0v0.0606h10.67v-0.0606h-5.335-5.335z"
    />
  </g>
  <metadata>
    <rdf:RDF>
      <cc:Work>
        <dc:format>image/svg+xml</dc:format>
        <dc:type rdf:resource="http://purl.org/dc/dcmitype/StillImage" />
        <cc:license
          rdf:resource="http://creativecommons.org/licenses/publicdomain/"
        />
        <dc:publisher>
          <cc:Agent rdf:about="http://openclipart.org/">
            <dc:title>Openclipart</dc:title>
          </cc:Agent>
        </dc:publisher>
        <dc:title>destroy fascism (stencil)</dc:title>
        <dc:date>2011-08-14T19:59:44</dc:date>
        <dc:description />
        <dc:source
          >https://openclipart.org/detail/155395/destroy-fascism-stencil-by-worker</dc:source
        >
        <dc:creator>
          <cc:Agent>
            <dc:title>worker</dc:title>
          </cc:Agent>
        </dc:creator>
        <dc:subject>
          <rdf:Bag>
            <rdf:li>action</rdf:li>
            <rdf:li>antifa</rdf:li>
            <rdf:li>antifascist</rdf:li>
            <rdf:li>destroy</rdf:li>
            <rdf:li>fascism</rdf:li>
            <rdf:li>hammer</rdf:li>
            <rdf:li>stencil</rdf:li>
            <rdf:li>worldnews</rdf:li>
            <rdf:li>worldnews2014</rdf:li>
          </rdf:Bag>
        </dc:subject>
      </cc:Work>
      <cc:License rdf:about="http://creativecommons.org/licenses/publicdomain/">
        <cc:permits rdf:resource="http://creativecommons.org/ns#Reproduction" />
        <cc:permits rdf:resource="http://creativecommons.org/ns#Distribution" />
        <cc:permits
          rdf:resource="http://creativecommons.org/ns#DerivativeWorks"
        />
      </cc:License>
    </rdf:RDF>
  </metadata>
</svg>
