<?xml version="1.0" encoding="UTF-8" standalone="no"?>
<!-- Created with Inkscape (http://www.inkscape.org/) -->
<svg
  xmlns:inkscape="http://www.inkscape.org/namespaces/inkscape"
  xmlns:rdf="http://www.w3.org/1999/02/22-rdf-syntax-ns#"
  xmlns="http://www.w3.org/2000/svg"
  xmlns:xlink="http://www.w3.org/1999/xlink"
  xmlns:ns1="http://sozi.baierouge.fr"
  xmlns:cc="http://creativecommons.org/ns#"
  xmlns:dc="http://purl.org/dc/elements/1.1/"
  xmlns:sodipodi="http://sodipodi.sourceforge.net/DTD/sodipodi-0.dtd"
  id="svg3022"
  sodipodi:docname="New document 4"
  viewBox="0 0 1025.7 1026.6"
  version="1.1"
  inkscape:version="0.48.4 r9939"
>
  <sodipodi:namedview
    id="base"
    bordercolor="#666666"
    inkscape:pageshadow="2"
    inkscape:window-y="26"
    fit-margin-left="0"
    pagecolor="#ffffff"
    fit-margin-top="0"
    inkscape:window-maximized="1"
    inkscape:zoom="0.35"
    inkscape:window-x="0"
    inkscape:window-height="748"
    showgrid="false"
    borderopacity="1.0"
    inkscape:current-layer="layer1"
    inkscape:cx="469.99915"
    inkscape:cy="287.59123"
    fit-margin-right="0"
    fit-margin-bottom="0"
    inkscape:window-width="1280"
    inkscape:pageopacity="0.0"
    inkscape:document-units="px"
  />
  <g
    id="layer1"
    inkscape:label="Layer 1"
    inkscape:groupmode="layer"
    transform="translate(94.999 40.045)"
  >
    <path
      id="path3457"
      style="fill: #aa0000"
      inkscape:connector-curvature="0"
      d="m414.19-17.188c-52.7-0.052-101.94 8.1623-154.59 25.718-46.98 15.665-89.4 37.53-128.45 66.223-19.99 14.684-39.738 31.767-58.187 50.177-18.449 18.408-35.6 38.136-50.335 58.098-41.266 55.902-69.854 120.07-84.565 189.73-23.745 112.44-5.7547 233.06 49.985 335.03 12.174 22.272 27.767 45.572 45.801 68.472l10.386 13.203 24.424 24.932 24.436 24.932 10.979 9.02c42.705 35.152 79.994 57.927 127.5 77.842 15.257 6.3959 41.206 15.456 57.094 19.926 15.925 4.4806 48.231 11.249 63.055 13.216 74.862 9.9321 148.76 2.9503 220.65-20.857 52.213-17.291 95.84-39.885 137.89-71.422 21.372-16.03 29.947-23.487 52.415-45.571l21.341-20.978 9.3585-11.233c36.786-44.129 60.988-85.018 80.974-136.81 16.523-42.817 27.002-87.065 31.618-133.53 1.779-17.908 2.4366-53.585 1.3542-73.079-5.2567-94.657-39.769-190.52-94.891-263.57-6.5551-8.6881-10.312-13.376-23.795-29.611-1.3188-1.588-12.176-12.69-24.122-24.666l-21.71-21.77-12.6-10.354c-45.83-37.597-92.31-63.932-147.43-83.55-53.3-18.969-102.95-28.205-157.99-29.393-3.5463-0.07654-7.0663-0.11745-10.58-0.12091zm4.01 108.48c22.304-0.03618 44.387 1.8096 66.416 5.5498 42.635 7.2385 77.607 19.387 116.99 40.638l10.024 5.4168 19.309 13.034c20.339 13.734 27.364 19.126 42.911 32.96 30.587 27.217 54.599 57.03 75.884 94.214 29.307 51.198 46.084 106.52 50.093 165.21 0.79388 11.622 0.62837 37.351-0.32646 50.202-0.95266 12.822-3.8516 34.033-6.372 46.672-7.8481 39.352-19.459 71.342-39.683 109.39l-5.1992 9.7817-4.8002 7.0854c-3.2116 5.3652-6.5536 10.636-10.036 15.791-3.876 5.7381-7.9038 11.355-12.079 16.855l-3.579 5.2838-8.4758 9.9752c-14.69 17.314-30.066 32.828-45.184 45.571-69.218 58.343-158.5 90.759-248.02 90.042-55.47-0.44-108.89-12.34-157.95-35.19-35.05-16.32-70.87-40.12-99.48-66.09-27.95-25.37-51.21-54.36-70.44-87.81-22.992-39.97-37.273-78.61-45.124-122.12-5.341-29.6-7.241-57.79-5.755-87.04 0.03954-1.1202 0.08288-2.2424 0.13302-3.3613 3.2763-73.12 28.356-145.4 70.273-202.51 7.4374-10.134 13.396-17.698 20.095-25.282 2.6076-3.1301 4.7125-5.5683 7.424-8.633 4.4287-5.0058 9.0312-9.8959 13.808-14.679 46.176-46.232 107.96-81.647 172.71-98.567 14.714-3.8447 42.059-8.8628 56.006-10.277 13.572-1.3766 27.038-2.0822 40.421-2.1038z"
    />
    <g id="g3694" transform="matrix(1.2044 0 0 1.2044 -92.105 -113.11)">
      <g
        id="layer1-1"
        inkscape:label="Layer 1"
        transform="matrix(0 .48084 -.48084 0 529.93 369.45)"
      >
        <path
          id="path3711-1"
          style="fill: #000000"
          transform="translate(-419.73 -412.87)"
          inkscape:connector-curvature="0"
          d="m874.22 56.781-5.125 12.938c-95.67 217.73-168.41 457.45-267.44 670.06-82.7-160.22-166.43-327.59-249.16-491l-6.28-12.4-9.22 10.4c-57.698 65.088-49.347 145.72-24.25 207.75l0.125 0.3125 0.125 0.28125 125.81 259.72 2.5938 5.3438 60.406 135.5 6.7188 13.875 26.625 54.969c-29.012 76.818-42.856 140.27-53.438 183.87-5.382 22.18-10.045 39.314-14.875 49.719-2.415 5.2028-4.8537 8.5886-6.75 10.281-1.8963 1.6926-2.906 2.0449-5 2-5.467-0.1173-8.2252-1.1728-11.719-3.0937-3.4936-1.9212-7.6428-5.1299-13.719-8.5625-12.152-6.8645-31-13.1-68.125-11.938-75.261 2.3561-130.82 77.478-127.91 150.69-0.01 0.229 0 0.4583 0 0.6875-1.6456 72.679 51.886 148.45 129.53 151.16v0.031c0.13525 0.012 0.27103-0.012 0.40625 0 0.0628 0.01 0.12472 0.026 0.1875 0.031 4.6553 0.4066 9.3078 0.5934 13.969 0.5 72.246-1.4421 136.4-61.052 143.16-133.47 0.0245-0.2625 0.071-0.5188 0.0937-0.7813 14.556-86.07 6.0914-186.41 91.969-298.03l0.90625-1.1562 4.5 4.875c95.923 103.68 96.256 204.67 118.75 289.22h0.0313c12.853 69.109 77.994 121.39 147.44 120.25 7.0704-0.1162 14.111-0.8692 21.094-2.125 0.0726-0.013 0.14615-0.018 0.21875-0.031 0.1276-0.016 0.24757-0.044 0.375-0.062 77.077-9.731 123.54-90.081 115.31-162.31-0.011-0.2299-0.051-0.4577-0.063-0.6874-3.7326-73.181-65.965-142.88-141.12-138.41-37.076 2.2067-55.279 10.131-66.75 18.062-5.7354 3.9662-9.5745 7.5235-12.875 9.75-3.3005 2.227-5.971 3.5439-11.406 4.1562-2.1011 0.2367-3.1173-0.043-5.1875-1.5937-2.0702-1.5515-4.8435-4.7824-7.75-9.8437-5.813-10.123-12.086-27.042-19.562-49-14.7-43.2-34.62-106.07-71.4-181.04l18.5-49 4.8438-12.875 46.688-134.16 2.3438-6.2188 167.38-444.25 0.0937-0.3125 0.0937-0.3125c19.31-63.87 22.38-144.58-41.04-204.22l-10.125-9.5312zm-264.1 841.63c12.607 0.0832 22.995 9.9484 23.562 22.75 0.58556 13.222-9.435 24.196-22.656 24.781-13.22 0.58576-24.291-9.4672-24.875-22.656-0.58429-13.188 9.5491-24.259 22.75-24.844 0.41238-0.0182 0.79914-0.034 1.2188-0.0313zm261.22 293.75c27.104-0.025 54.903 11.729 73.312 37.438 14.546 20.314 19.277 49.647 13.375 75.625-5.9019 25.978-21.653 47.906-47.281 56.375l-0.34375 0.125-0.34375 0.1562c-8.8355 3.7181-17.636 5.4983-26.281 5.6875-26.467 0.5788-52.353-14-70-36.031-17.647-22.032-26.548-50.914-20.5-77.594l0.0625-0.2813 0.0313-0.2812c6.5033-39.568 40.827-61.184 77.969-61.219zm-488.75 18.156c0.79721-0.018 1.7411-0.01 2.8125 0 33.826 0.2709 64.972 18.615 74.219 54.281l0.0625 0.2812 0.0937 0.25c8.5965 26.5 1.9532 56.68-14.219 80.406s-41.364 40.343-68.438 41.094c-7.7602 0.2156-15.802-0.8106-23.875-3.375l-0.34375-0.125-0.375-0.063c-26.289-6.1112-43.953-26.559-52.188-51.906-8.2345-25.347-6.1752-54.984 6.4688-76.531 17.227-29.358 46.796-43.656 75.781-44.312z"
        />
      </g>
      <g id="g3690" transform="matrix(-1.5628 0 0 1.5628 1450.5 -579.88)">
        <path
          id="path3-2"
          style="fill: #000000"
          transform="translate(-94.999 -40.045)"
          inkscape:connector-curvature="0"
          d="m561.25 651.69c-0.43967 0.002-0.85438 0.049-1.25 0.0937-29.5 3.333-48.178 8.9892-49.344 9.1562s-2.5722 0.48925-2.6562 2.1562c-0.0535 1.0617 0.0604 5.8339 0.0625 9.5-0.85231-0.061-18.761-1.3203-19.656-0.75-0.917 0.583-1.6562 2.9375-1.6562 2.9375s-0.51075-0.26075-1.0938 1.4062c-0.583 1.667-2.4795 10.906-0.5625 11.906s2.75 0.84375 2.75 0.84375 3.4795-13 3.0625-13.25-1.667-0.98925-3-1.1562c-1.333-0.167 0.4375-1.9278 0.9375-2.0938s3.5-0.0937 3.5-0.0937-0.1875 2.583 1.5625 3.25c1.6747 0.63831 12.787 1.8903 13.781 2-0.87972 3.0835-4.0687 15.902-4.4062 32.219-0.375 18.125-0.125 30.125 0.375 30.25s6 1.625 7.5 3.5 1.5 4.875 1.5 4.875l-7.625-1.625s-1.418 0.389-1.25 0.875c1.125 3.25 0.625 6.25 1.125 6.625 0.86 0.646 23.25 7.25 43.125 11 9.756 1.841 18.625 4.375 28.25 1.75 7.4188-2.0233 31.407-9.7346 42.25-13.406 1.4943 1.8848 3.395 2.9688 5.5312 2.9688h8.2812v-0.0313c3.411-0.30638 6.5158-3.36 8.1562-7.9375l3.3438 0.9375s0.0937-1.9072 0.0937-4.5312l0.71875 0.375 49.75-16.219c0.50004 2.0789 1.2619 3.4375 2.1562 3.4375h5.3125c1.6137 0 2.846-1.8321 3.5312-4.5625 0.85439 0.16427 1.7305 0.32223 1.8125 0.28125 0.13967-0.0693 0.13891-1.8308 0.15625-2.6875l0.1875 0.15625s2.666-1.4062 3.75-1.6562 3.3545-0.7705 3.6875-0.9375 7.5625-4.7392 7.8125-5.1562-0.59375-40.489-0.84375-41.156h0.0313c-0.25-0.667 0.75-1.1778-2.75-1.5938s-145.61-22.152-146.09-22.312c-2.749-0.916-5-0.4375-5-0.4375s-3.8285-0.91812-6.9062-0.90625zm1.625 4.5938c0.11637 0.0133 0.27173 0.0715 0.40625 0.15625 0.13026 0.082 0.24558 0.19818 0.375 0.34375-0.12551-0.14107-0.248-0.26274-0.375-0.34375-0.13802-0.088-0.28648-0.1426-0.40625-0.15625zm-0.40625 0.28125c-0.0146 0.0398-0.0242 0.0757-0.0313 0.125 0 0-0.0417 1.2916-0.0313 2.625-0.0156-1.3334 0-2.625 0-2.625 0.007-0.0496 0.0465-0.0833 0.0625-0.125zm1.5938 0.8125c0.10911 0.21999 0.21298 0.50237 0.28125 0.78125-0.0678-0.28971-0.16923-0.55518-0.28125-0.78125zm0.125 3.5c-0.1352 0.36776-0.31689 0.62468-0.5 0.84375 0.1732-0.21268 0.37-0.49773 0.5-0.84375zm-0.75 1.125c-0.18094 0.15091-0.35195 0.22213-0.5 0.25 0.14293-0.0333 0.32898-0.10615 0.5-0.25zm-70.094 10.531 10.5 0.5 0.25 3.4062c0.001 0-8.7598-0.40625-9.8438-1.6562-1.083-1.25-0.90625-2.25-0.90625-2.25zm68.281 0.1875c-0.0958 1.6288-0.8829 7.3628-2.0312 22.375-1.25 16.333-1.4278 30.166-1.5938 35-0.005 0.14033-0.023 0.2715-0.0313 0.40625-3.746-0.318-17.2-1.4645-29.812-2.8125-14.833-1.584-22.25-2.25-22.25-2.25s-0.167-8.3232 0.25-21.906 4.0938-24.177 4.8438-25.094 9.1562-1.333 22.906-2.75c11.695-1.2053 24.234-2.5814 27.719-2.9688zm2.8125 0.15625 6.9062 0.15625l0.16 3.96c-0.0435 0.0655-0.082 0.15625-0.0937 0.25-0.0249 0.19764 0.032 0.32989 0.125 0.4375l1.9687 52.594s-1.667 0.1455-4.5 0.3125c-2.206 0.13-5.9288 0.2615-7.4688 0.3125-0.11956-0.51389-0.2072-1.0523-0.21875-1.5625-0.083-3.667-0.0625-5.8955 0.4375-25.062 0.48414-18.559 2.4115-29.72 2.6875-31.406zm11.219 0.5625 33.625 1.75s1.995 40 1.625 40.125c-0.375 0.125-16.167 1.8028-17.25 2.2188s-6.5625 10.062-7.0625 10.312-9.1875 1.4375-9.1875 1.4375l-1-32.125c2.1913 0.0264 5.1824 0.009 5.625-0.0313 0.688-0.062 1.5-0.5 1.625-2.375s0.5625-13.438 0.4375-15.188 0.0635-2.7495-3.0625-2.9375c-1.9797-0.11906-3.8741-0.11456-5.2812-0.0937l-0.0937-3.0938zm40.625 2.25s104.56 7.438 104.81 7.5 0.34125 16.125 0.28125 16.5h-0.0313c-0.063 0.375-2.625 2.9375-9.625 4.4375-3.03 0.65-93.062 10.438-93.562 10.062-0.5-0.375-1.875-38.5-1.875-38.5zm19.91 46.06c-0.38178 0.002-0.76683 0.0267-1.125 0.0625 0.36311-0.036 0.73765-0.0611 1.125-0.0625zm-4.9688 1.25c-0.27644 0.15423-0.55693 0.32268-0.8125 0.5s-0.48323 0.36459-0.71875 0.5625c0.23378-0.19602 0.46525-0.38672 0.71875-0.5625 0.26153-0.18135 0.52912-0.34285 0.8125-0.5zm-2.3438 1.7812c-0.17229 0.17749-0.33974 0.37496-0.5 0.5625 0.16185-0.189 0.3259-0.38375 0.5-0.5625zm-57.719 23.312c0.25 0.17-0.16 2.91-0.16 3.16s-4.2705 5.25-5.1875 5.75-4.5722 0.3545-6.6562 0.1875-11.583-1.3438-11.75-1.5938-0.583-1.1562-0.5-1.4062 4.1778-4.9375 5.3438-5.1875 12.25 0.1778 14.5 0.0937c2.25-0.084 4.4062-1 4.4062-1z"
        />
        <path
          id="path27"
          d="m466.67 632.66c-3.465 0.385-16.038 1.7608-27.75 2.9688-13.75 1.417-22.156 1.833-22.906 2.75s-4.4268 11.511-4.8438 25.094-0.25 21.906-0.25 21.906 7.417 0.666 22.25 2.25c12.612 1.348 26.066 2.4945 29.812 2.8125 0.009-0.139 0.0263-0.26325 0.0313-0.40625 0.167-4.834 0.34375-18.667 1.5938-35 1.111-14.518 1.9235-20.521 2.0625-22.375zm2.7812 0.15625c-0.376 2.276-2.2205 13.494-2.6875 31.406-0.5 19.167-0.48925 21.396-0.40625 25.062 0.012 0.518 0.0655 1.0415 0.1875 1.5625 1.54-0.052 5.2628-0.1825 7.4688-0.3125 2.835-0.168 4.5-0.3125 4.5-0.3125l-2.1562-57.25-6.9062-0.15625zm11.219 0.5625 1.75 55.844s8.6875-1.1875 9.1875-1.4375 5.9795-9.8965 7.0625-10.312c1.083-0.416 16.875-2.0938 17.25-2.2188s-1.625-40.125-1.625-40.125l-33.625-1.75zm40.625 2.25s1.375 38.125 1.875 38.5 90.526-9.4115 93.562-10.062c7-1.5 9.563-4.0625 9.625-4.4375 0.063-0.375 0-16.438-0.25-16.5s-104.81-7.5-104.81-7.5zm-111.28 64.906 0.0313 6.2188 7.625 1.625s-0.1555-3.7852-1.8125-5.1562c-2.417-2-5.8438-2.6875-5.8438-2.6875zm66.156 7.5s-2.1562 0.916-4.4062 1-13.333-0.3125-14.5-0.0625-5.2608 4.9062-5.3438 5.1562 0.333 1.1562 0.5 1.4062 9.667 1.4268 11.75 1.5938 5.7705 0.34375 6.6875-0.15625 5.1562-5.5 5.1562-5.75 0.40625-3.0215 0.15625-3.1875z"
          style="fill: #ffffff"
          inkscape:connector-curvature="0"
        />
      </g>
    </g>
    <path
      id="path3707-1"
      style="fill: #aa0000"
      inkscape:connector-curvature="0"
      d="m613.37 97.817c-0.7001-0.50747-1.6708-0.35261-2.1783 0.34749l-484.75 668.77c-0.50747 0.70008-0.35263 1.6708 0.34745 2.1782l90.555 65.639c0.70008 0.50747 1.6708 0.35259 2.1783-0.34749l484.76-668.77c0.50746-0.7001 0.3526-1.6708-0.3475-2.1783l-90.555-65.639z"
    />
  </g>
  <metadata>
    <rdf:RDF>
      <cc:Work>
        <dc:format>image/svg+xml</dc:format>
        <dc:type rdf:resource="http://purl.org/dc/dcmitype/StillImage" />
        <cc:license
          rdf:resource="http://creativecommons.org/licenses/publicdomain/"
        />
        <dc:publisher>
          <cc:Agent rdf:about="http://openclipart.org/">
            <dc:title>Openclipart</dc:title>
          </cc:Agent>
        </dc:publisher>
      </cc:Work>
      <cc:License rdf:about="http://creativecommons.org/licenses/publicdomain/">
        <cc:permits rdf:resource="http://creativecommons.org/ns#Reproduction" />
        <cc:permits rdf:resource="http://creativecommons.org/ns#Distribution" />
        <cc:permits
          rdf:resource="http://creativecommons.org/ns#DerivativeWorks"
        />
      </cc:License>
    </rdf:RDF>
  </metadata>
</svg>
