<svg
  xmlns:x="http://ns.adobe.com/Extensibility/1.0/"
  xmlns:i="http://ns.adobe.com/AdobeIllustrator/10.0/"
  xmlns:graph="http://ns.adobe.com/Graphs/1.0/"
  xmlns="http://www.w3.org/2000/svg"
  xmlns:xlink="http://www.w3.org/1999/xlink"
  version="1.1"
  x="0px"
  y="0px"
  viewBox="0 0 100 125"
  style="enable-background: new 0 0 100 100"
  xml:space="preserve"
>
  <switch>
    <foreignObject
      requiredExtensions="http://ns.adobe.com/AdobeIllustrator/10.0/"
      x="0"
      y="0"
      width="1"
      height="1"
    />
    <g i:extraneous="self">
      <path
        d="M66.1999969,51.4000015H55.5c-1.2000008,0-2.2000008-1-2.2000008-2.2000008V47.5h0.4000015v1.7000008    C53.7000008,50.2000008,54.5,51,55.5,51h10.6999969C67.1999969,51,68,50.2000008,68,49.2000008v-1.5999985h0.4000015v1.5999985    C68.4000015,50.4000015,67.4000015,51.4000015,66.1999969,51.4000015z M68.8000031,46.2000008    c0-1.4000015-1.0999985-2.5999985-2.5999985-2.5999985H55.5c-1.4000015,0-2.5999985,1.0999985-2.5999985,2.5999985V47.5H54    v-1.2999992c0-0.7999992,0.5999985-1.4000015,1.4000015-1.4000015h10.6999969    c0.8000031,0,1.4000015,0.5999985,1.4000015,1.4000015v1.4000015h1.0999985v-1.4000015H68.8000031z M49.9000015,45    c0-0.5999985-0.2999992-1.0999985-0.5999985-1.5999985c-0.5-0.5-1.0999985-0.7999992-1.7999992-0.7999992l-10.7000008-0.5    c-1.4000015-0.0999985-2.5999985,1-2.7000008,2.4000015L34,45.7999992h0.5999985h-0.2000008l-0.0999985,1.5999985    c-0.0999985,1.2000008,0.9000015,2.2999992,2.0999985,2.2999992l10.7000008,0.5h0.0999985    c1.2000008,0,2.0999985-0.9000015,2.2000008-2.0999985L49.4999962,46.5h0.4000015v-0.7999992    c1.0999985-0.2999992,2.7999992-0.0999985,3.2999992,0.0999985l0.4000015-0.7000008    C53,44.9000015,51.2000008,44.7000008,49.9000015,45z M49.0999985,46.5999985L49,48.2000008    c0,1-0.9000015,1.7000008-1.9000015,1.7000008l-10.7000008-0.5c-1,0-1.7999992-0.9000015-1.7000008-1.9000015l0.0999985-1.5999985    h0.4000015l0.0999985-1.2999992c0-0.7999992,0.7000008-1.4000015,1.5-1.4000015l10.7000008,0.5    c0.4000015,0,0.7000008,0.2000008,1,0.5s0.4000015,0.7000008,0.4000015,1l-0.2000008,1.4000015h0.5999985L49.0999985,46.5999985z"
      />
      <path
        d="M81.8000031,42.7999992c0.4000015-1.0999985,0.8000031-3.4000015,1.3000031-9L84.75,34.625L82.3000031,29L84,29.8999996    l-2-4.5l2.3000031,1C83,22.6000004,81.9000015,19.7999992,79.9000015,16.2999992    c-3.0999985-5.1999998-8.3000031-8.1000004-14.1999969-9.3000002C62.1000061,6.2999992,50.9000053,5.599999,50.9000053,5.599999    L52,6.9000001l-6.7999992,0.9000001L47,9.6999998l-6.2999992,1.6999998L43,12.7999992L37.4000015,16l1.9000015,1.2000008    c0,0-1.5999985,3.2000008-2,4.2000008c-2.5999985,6.2999992-2.7999992,12.5-2.2999992,19.2000008    c0,0.2999992,0.2000008,1.2000008,0.5999985,1.0999985c0.0999985,0,0.2000008-0.0999985,0.2999992-0.0999985    c0,0.2999992,0,0.9000015,0,0.9000015s0.2999992,7.2999992,0.4000015,10.3999977c0,3.2000008,0.0999985,5.7000008,0.2999992,7.5    c0.7999992,5.3000031,1.5,8.8000031,5.2999992,13.1999969C44,76,47.7000008,77.5,51.7000008,77.5l0,0    c1.7999992,0,3.5-0.3000031,5-0.9000015c5.7000008-2.1999969,10.4999962-6,13.3999977-10.5999985    C71,64.5999985,71.9000015,62.5999985,72.6999969,60.7999992C72.7999954,60.5,73,60.2000008,73.0999985,59.8999977    c0.3000031,0.0999985,0.5999985,0.2000008,1,0.2000008c2.5999985,0,5.6999969-3.2999992,6.3000031-4.2000008    c1.0999985-1.5999985,3.5999985-5.7999992,3.4000015-9C83.5999985,45.0999985,82.9000015,43.7000008,81.8000031,42.7999992z     M72.5999985,58.0999985C72.5,58,72.4000015,57.8999977,72.4000015,57.7999992C71.4000015,60,70.0999985,63,68.9000015,65    c-2.6999969,4.6999969-7.5999985,8.3000031-12.7000008,10.0999985c-4.2000008,1.5-10.3999977,0.6999969-13.3999977-2.6999969    c-2.4000015-2.6999969-3.5-5-4.2000008-7.9000015c-0.2999992-1.4000015-0.5999985-2.9000015-0.7999992-4.5999985    c-0.5-3.2999992-0.0999985-10.0999985-0.7000008-17.5999985c0-0.2999992,0-0.7999992,0-1.5c0.4000015-1,0.2000008-5,1-6.5999985    c1-2,1.9000015-3.2000008,3.4000015-4.6000004c0.7999992-0.7000008,3.9000015-3.2999992,3.9000015-3.2999992l-1.2000008,3.2999992    l8.0999985-3.3999996l-2.9000015,2.7000008l7.9000015-1.6000004l-2.2000008,2l7.7999992-1l-0.6999969,2.2999992    l4.5999985-0.8999996l-1.0999985,1.7000008l4.9000015-0.3999996l-1.9000015,2.0000019l3.4000015-0.9000015l0.4000015,5.4000015    l1.0999985,0.5c0,0,0.4000015,5.9000015,0.5,7.7000008c0,0.5999985,0.0999985,4,0.0999985,4l1.0999985-1    c0,0,2.8000031-4.7999992,2.1999969-4.0999985c-0.5,0.5999985,1.5-2,3.3000031-0.9000015    c0.8000031,0.5999985,1.4000015,1.7000008,1.5,3.0999985C82.5,49.4000053,80.5,53.0000076,79.1000061,55.0000076    c-0.8000031,1.2000008-4,4.2000008-5.9000015,3.5C72.9000015,58.4000015,72.6999969,58.2999992,72.5999985,58.0999985z     M34,44.7000008l-0.0999985-1.4000015l2-0.7000008L36,44.1999969L34,44.7000008z M42.2000008,40.7000008    c1.2000008,0,2.4000015,0,3.5999985,0.2999992C46,41.0999985,48.3999977,41.9000015,48.3999977,41.9000015    S48.4999962,41,48.5999985,40.5c0-0.0999985,0-0.2000008,0-0.2000008c0-0.0999985-0.0999985-0.2000008-0.2000008-0.2999992    c-0.5999985-0.4000015-1.4000015-0.5999985-2.0999985-0.7000008c-1.0999985,0-2.0999985-0.2000008-3.2000008-0.0999985    c-1,0.0999985-2,0.2999992-3,0.5999985C39.6999969,39.8999977,38.2999992,40,38.1999969,40.5    c0,0.2999992,0.2000008,0.4000015,0.5999985,0.5C39.7000008,41.0999985,41.7999992,40.7000008,42.2000008,40.7000008z     M64.3000031,41.2000008c-1-0.2999992-2.0999985-0.5-3.0999985-0.5999985c-0.5-0.0999985-1-0.0999985-1.4000015-0.2000008    C59.4000015,40.3000031,58.9000015,40.1000023,58.5000038,40c-0.7000008-0.0999985-1.7000008,0-2.4000015,0.2999992    c-0.0999985,0-0.2000008,0.0999985-0.2999992,0.2000008c0,0.0999985,0,0.0999985-0.0999985,0.2000008    c0,0.2000008-0.2000008,0.7999992,0,1s0.9000015,0.0999985,1.0999985,0.0999985c0.7999992,0,1.5999985,0,2.4000015,0    C60.9000053,42,62.7000046,42.2000008,64.4000015,42.5c0.3000031,0.0999985,3.4000015,0.5999985,3.4000015,0.5999985    C67.7000046,42.6999969,67.5,42.2999992,67.1000061,42c-0.4000015-0.2999992-0.6999969-0.2999992-1.0999985-0.4000015    C65.4000015,41.5999985,64.8000031,41.4000015,64.3000031,41.2000008z M77.8000031,43.7000008l-0.5-1.5l-9.4000015,3.0999985    l0.5,1.5L77.8000031,43.7000008z M40.5999985,46.2000008c0.7999992,0.7000008,1.2000008,1.4000015,2.2999992,1.5    c0.9000015,0.2000008,2,0.0999985,2.9000015-0.4000015c0.2999992-0.0999985-0.5-0.4000015-0.7000008-0.2999992    c-0.5999985,0.2999992-1.2999992,0.4000015-2,0.2999992C42.3999977,47.2000008,42,46.5999985,41.5,46.0999985    C41.2000008,46,40.2999992,46,40.5999985,46.2000008L40.5999985,46.2000008z M56.5,49.0999985    c1.9000015,1.2999992,4.7000008,1.2999992,6.5999985,0.2000008c0.5999985-0.4000015-0.6999969-0.5-1-0.2999992    c-1.4000015,0.7999992-3.2000008,0.5-4.5-0.4000015C57.2999992,48.4000015,56,48.7999992,56.5,49.0999985L56.5,49.0999985z     M47.5,45.7999992c-0.7000008-1.0999985-1.2999992-1.9000015-2.5-2.2000008    C44.5999985,43.5,43.7000008,43.3999977,43.5,43.3999977c-1.2999992,0-2.5999985,0.2999992-3.7000008,1.0999985    c-0.5999985,0.4000015,1.2000008,0.7999992,1.5999985,0.5c0.4000015-0.2999992,0.7999992-0.5,1.2999992-0.7000008    c-0.0999985,0.2000008-0.0999985,0.2999992-0.0999985,0.5c0,0.7999992,0.7000008,1.5,1.5,1.5    c0.5999985,0,1.0999985-0.4000015,1.4000015-0.9000015c0.0999985,0.0999985,0.0999985,0.2000008,0.2000008,0.4000015    C46,46.2999992,47.7000008,46.2000008,47.5,45.7999992z M44.7000008,45.2999992c-0.2999992,0-0.5-0.2000008-0.5-0.5    s0.2000008-0.5,0.5-0.5s0.5,0.2000008,0.5,0.5C45.2000008,45,45,45.2999992,44.7000008,45.2999992z M64.5999985,47.2000008    c-0.6999969-0.5-1.1999969-1.0999985-1.9000015-1.5c-0.5999985-0.2999992-1.2000008-0.4000015-1.9000015-0.5    C58.9999962,45,57.3999939,45.4000015,55.6999969,45.9000015l0,0C55.5999985,45.9000015,55.4999962,46,55.3999977,46    c-1.0999985,0.2999992,0.4000015,0.7999992,0.9000015,0.5999985C56.3999977,46.5999985,56.5,46.5,56.5999985,46.5l0,0    c0.7999992-0.2000008,1.5999985-0.5,2.5-0.5999985c-0.2999992,0.2999992-0.5,0.7000008-0.5,1.0999985    c0,0.7999992,0.7000008,1.5,1.5,1.5s1.5-0.7000008,1.5-1.5c0-0.2000008,0-0.4000015-0.0999985-0.5999985    C62,46.7000008,62.4000015,47.2000008,62.9000015,47.5S65.0999985,47.5999985,64.5999985,47.2000008z M60.4000015,47.0999985    c-0.2999992,0-0.5-0.2000008-0.5-0.5s0.2000008-0.5,0.5-0.5s0.5,0.2000008,0.5,0.5S60.7000008,47.0999985,60.4000015,47.0999985z     M53.2999992,54.2000008C53.5999985,55,53.5,55.7999992,53.5,56.6000023c0,0.2000008,0,0.2999992-0.0999985,0.5    c-0.0999985,0.5-0.5,0.7000008-0.9000015,0.5999985C52.2000008,57.6000023,52.2999992,57.5,51.5999985,57.6000023    c-0.5,0-0.7999992,0.2000008-1.2000008,0.4000015c-0.7000008,0.4000015-2,1.2000008-2.7999992,0.5    C47.5,58.4000053,47.3999977,58.3000031,47.3999977,58.2000046c-0.2999992-0.4000015-0.7000008-0.7000008-1.2000008-1    c-0.4000015-0.2999992-0.5-0.5-0.7000008-1c0-0.0999985,0-0.2999992,0-0.4000015c0-1,0.4000015-1.5999985,0.7999992-2.4000015    c0.0999985-0.2000008-0.0999985-0.2000008-0.4000015,0.0999985c-0.7999992,0.7999992-1.0999985,1.4000015-1.0999985,2.5    c0,0.2000008,0.2000008,0.5999985,0.2000008,0.7999992c0,0.0999985,0.0999985,0.2999992,0.2000008,0.4000015    c0.2999992,0.4000015,0.5,0.5,0.7999992,0.7000008c0.4000015,0.2999992,1,0.7999992,1.5,1.0999985    c0.5,0.4000015,1.0999985,0.4000015,1.7000008,0.0999985c0.5-0.2999992,1-0.7000008,1.5-0.7999992    c0.4000015-0.0999985,0.7999992,0,1.2000008,0s1.0999985,0,1.4000015-0.2000008    c0.4000015-0.2000008,0.7999992-1,0.9000015-1.4000015c0.0999985-0.2000008,0.0999985-0.4000015,0.0999985-0.7999992    c0-0.7000008-0.2000008-1.2000008-0.7000008-1.7000008C53.5,54.2999992,53.4000015,54.2000008,53.2999992,54.2000008z     M79,46.8240089c0.5,0.6587601,0.8000031,1.3998604,0.8000031,2.2233086c0,0.7411003-0.0999985,1.9762726-1,2.3879967    c-0.1999969,0.0823402,0.4000015,0.1646881,0.5999985,0.1646881c0.8000031-0.32938,1-1.4822044,1.0999985-2.1409607    c0.0999985-0.9057884-0.3000031-1.8115807-0.9000015-2.552681C79.5,46.6593208,78.9000015,46.7416687,79,46.8240089L79,46.8240089    z M75.692215,51.2000008c0.2759705,1.0999985,0.4139481,2.2000008-0.2069778,3    c-0.2069778,0.2000008,0.6209259,0.9000015,0.8968964,0.5999985c0.7589111-0.9000015,0.6209335-2.2000008,0.2759705-3.4000015    C76.5201187,51,75.5542297,50.7999992,75.692215,51.2000008L75.692215,51.2000008z M95,94.75L5.8000002,94.9000015    L5.6999998,78.1999969l22.3999977-9l-2.2999992,19.5999985L41.2000008,83L45,92.1999969l10.5-10h0.2000008l17.1000023,6.0999985    l1-18.2000046L92,77.5L95,94.75z M71.0999985,86.0999985L72,69.6999969V69.5L67.5999985,68L56.2000008,80.6999969h0.0999985    L71.0999985,86.0999985z M27.7999992,86.0999985L40.5,81.2999954l0,0l-2.2999992-5.5l-2.5-6.0999985L39,68.3999939    l-1.2000008-3.0999985L33,67.0999985l0,0l-3.3999996,1.1999969L27.7999992,86.0999985z M70.5999985,61.4000015    L70.5999985,61.4000015C70.5999985,61.5,70.5,61.5,70.5,61.6000023C70.5,61.5,70.5999985,61.5,70.5999985,61.4000015z M69,64.5    L69,64.5c0-0.0999985,0.0999985-0.0999985,0.0999985-0.1999969C69.0999985,64.3000031,69,64.4000015,69,64.5z"
      />
      <path
        d="M43.4953995,62.1273117c0.6621971-0.0704308,1.2865753,0.0038338,1.9409409,0.0483971    c1.5375748,0.1047173,3.053196,0.6576233,4.5749207,0.6576233h-0.0346947l2.1168022,0.0686111l1.769783,0.1611481    c0,0,1.2750511,0.2005882,2.4464684,0.3470154c0.41642,0.0520515,1.658596,0.2594299,1.658596,0.2594299    s-0.0860863,0.2420845-0.5232849,0.3028908c-2.420723,0.3366776-5.077919,0.2773666-7.503067,0.1317139    c-2.1559258-0.1294899-4.0947952-0.83284-5.9786682-1.6423836C43.8246918,62.4229851,43.4953995,62.1273117,43.4953995,62.1273117    z"
      />
      <g>
        <path
          d="M51.7209167,65.4341354c0.0192261-0.1660843,0.1331062-0.2638245,0.3023949-0.2544403     c0.1856613,0.0092697,0.2702637,0.1310349,0.2840652,0.3107681c-0.0375595,0.1761246-0.1409531,0.2859344-0.3246574,0.2667236     C51.8002663,65.7380676,51.7017975,65.6165848,51.7209167,65.4341354z"
        />
        <path
          d="M50.581131,66.8356018c0.1837044,0.0192032,0.2870979-0.0906067,0.3246574-0.2667236     c-0.0138016-0.1797333-0.0984039-0.3014984-0.2840652-0.3107758c-0.1692886-0.0093765-0.2831688,0.0883636-0.3023987,0.2544403     C50.300209,66.6949997,50.398674,66.8164825,50.581131,66.8356018z"
        />
        <path
          d="M49.4631767,65.5768051c0.1837044,0.0192108,0.2870979-0.0905991,0.3246574-0.2667236     c-0.0138016-0.1797333-0.0984039-0.3014984-0.2840652-0.3107681c-0.1692886-0.0093842-0.2831688,0.088356-0.3023987,0.2544403     C49.1822548,65.436203,49.2807198,65.5576859,49.4631767,65.5768051z"
        />
        <path
          d="M49.2868576,67.8986053c0.1837082,0.0192032,0.2871017-0.0905991,0.3246613-0.2667236     c-0.0138054-0.1797333-0.0984039-0.3014984-0.2840652-0.3107681c-0.1692886-0.0093842-0.2831688,0.088356-0.3023987,0.2544403     C49.0059395,67.7580032,49.1044044,67.8794861,49.2868576,67.8986053z"
        />
        <path
          d="M48.0775604,66.6333923c0.1837082,0.0192032,0.2871017-0.0905991,0.3246613-0.2667236     c-0.0138054-0.1797333-0.0984039-0.3014984-0.2840652-0.3107681c-0.1692886-0.0093842-0.2831688,0.088356-0.3023987,0.2544403     C47.7966423,66.4927902,47.8951073,66.6142731,48.0775604,66.6333923z"
        />
        <path
          d="M46.9719162,65.4049683c0.1837044,0.0192108,0.2870979-0.0905991,0.3246574-0.2667236     c-0.0138016-0.1797333-0.0984039-0.3014908-0.2840652-0.3107681c-0.1692886-0.0093842-0.2831688,0.088356-0.3023987,0.2544403     C46.6909943,65.2643661,46.7894592,65.385849,46.9719162,65.4049683z"
        />
        <path
          d="M39.9117279,67.1298141c0.1621208,0.0010834,0.2620926-0.0944138,0.2620926-0.2565308     c0.0010834-0.16436-0.1043777-0.244339-0.2620926-0.263176c-0.15765,0.0266342-0.257618,0.1121674-0.2509766,0.2765274     C39.6674614,67.034317,39.7618065,67.1275787,39.9117279,67.1298141z"
        />
        <path
          d="M40.7867279,66.21315c0.1621208,0.0010834,0.2620926-0.0944138,0.2620926-0.2565384     c0.0010834-0.1643524-0.1043777-0.2443314-0.2620926-0.263176c-0.15765,0.0266418-0.257618,0.112175-0.2509766,0.276535     C40.5424614,66.1176529,40.6368065,66.2109146,40.7867279,66.21315z"
        />
        <path
          d="M40.9577942,67.6572571c-0.1621246,0.0022354-0.2565346,0.1021347-0.2542992,0.2642593     c0.0033226,0.1499252,0.0977325,0.243248,0.2465019,0.2488098c0.16436,0.0066376,0.2487411-0.0944138,0.2742958-0.2521286     C41.2032127,67.7605438,41.1232376,67.6550217,40.9577942,67.6572571z"
        />
        <path
          d="M41.9960632,68.6988449c-0.1499214,0.0022354-0.2443352,0.0954971-0.2509766,0.2454224     c-0.0066414,0.1632767,0.0944138,0.2465057,0.2520599,0.2732086c0.158802-0.0199966,0.2631798-0.0988846,0.2620926-0.263176     C42.2581558,68.7921753,42.1571007,68.6966782,41.9960632,68.6988449z"
        />
        <path
          d="M43.0531769,70.2523575c0.148838-0.0021667,0.2432518-0.0965805,0.2487411-0.2453537     c0.0067101-0.16436-0.0954971-0.2487411-0.2520638-0.274292c-0.1587982,0.0199966-0.2642593,0.101059-0.2620239,0.2654114     C42.7900009,70.1602478,42.8922081,70.2557449,43.0531769,70.2523575z"
        />
        <path
          d="M42.0071793,70.7743073c-0.158802,0.019989-0.263176,0.1010513-0.2610092,0.2642593     c0.0022392,0.1621246,0.1022072,0.2576218,0.2643318,0.2542953c0.1499214-0.0021667,0.2431831-0.0965805,0.2487373-0.2454147     C42.2658844,70.8842392,42.1648293,70.7998581,42.0071793,70.7743073z"
        />
        <path
          d="M43.0432129,71.8214569c-0.1621208,0.0022354-0.2587013,0.1021347-0.2553825,0.2642593     c0.0033226,0.1499176,0.0976677,0.2420959,0.2454185,0.2487411c0.1642914,0.0067062,0.2487411-0.0943451,0.2742271-0.2520599     C43.286396,71.9235916,43.2064209,71.8192139,43.0432129,71.8214569z"
        />
        <path
          d="M45.2405319,70.1378174c0.1499252-0.001091,0.2443352-0.0943451,0.2521324-0.243187     c0.0088768-0.163208-0.0921783-0.2487411-0.2487411-0.2765274c-0.158802,0.0189056-0.264328,0.0977325-0.264328,0.2620926     C44.9795952,70.0423126,45.0795631,70.1389694,45.2405319,70.1378174z"
        />
        <path
          d="M44.451004,70.9284973c0.005558-0.1499252-0.0854683-0.2476578-0.2309837-0.2620926     c-0.163208-0.0155182-0.2686653,0.0777359-0.2831039,0.2365417c-0.0144348,0.163208,0.0877037,0.2509766,0.2420311,0.2820206     C44.3389015,71.1705246,44.4443626,71.0917053,44.451004,70.9284973z"
        />
        <path
          d="M46.2799568,70.6653214c-0.1621208,0.0010834-0.2609406,0.0988159-0.25877,0.2597885     c0.0022354,0.1643524,0.1077652,0.2443314,0.268734,0.2598572c0.1543961-0.0299606,0.2542992-0.1154938,0.2443352-0.2797852     C46.5253754,70.757431,46.4309616,70.6641693,46.2799568,70.6653214z"
        />
        <path
          d="M48.3598213,71.1861191c0.1587982-0.0222321,0.2609406-0.1043777,0.2587013-0.2687378     c-0.0010834-0.1499252-0.0943451-0.244339-0.2431831-0.2509766c-0.1621208-0.0077972-0.2642593,0.0876999-0.2698174,0.2487411     C48.0999641,71.0795059,48.2032547,71.1628036,48.3598213,71.1861191z"
        />
        <path
          d="M50.1898575,70.9162292c-0.005558,0.1510773,0.0854683,0.2487411,0.2320671,0.2620926     c0.1621208,0.0155182,0.2676506-0.0777435,0.2809334-0.2376251c0.0056267-0.0641861-0.019043-0.1071548-0.0451393-0.1487732     c-0.1311455-0.0114517-0.263649-0.0344315-0.39534-0.0496063C50.2202225,70.7838593,50.1925011,70.8390961,50.1898575,70.9162292     z"
        />
        <path
          d="M52.2741928,70.909584c-0.0077934,0.1654434,0.0932617,0.2498245,0.2520638,0.275383     c0.1587982-0.0188446,0.263176-0.0999069,0.2609406-0.264267c-0.0003395-0.0540161-0.026432-0.0880432-0.0473099-0.1260605     c-0.1428032,0.010025-0.2853394,0.0201263-0.4295006,0.0252075     C52.2979851,70.8498764,52.2758904,70.8721085,52.2741928,70.909584z"
        />
        <path
          d="M54.6238747,71.1783218c0.1499252-0.0022354,0.2431831-0.0965805,0.2487411-0.2454224     c0.0066414-0.1632004-0.0943451-0.2476501-0.2520599-0.27314c-0.158802,0.0199966-0.263176,0.101059-0.2609406,0.264267     C54.3618507,71.0861435,54.4617538,71.1816406,54.6238747,71.1783218z"
        />
        <path
          d="M45.5015411,71.9511795c-0.0277863-0.1365738-0.1022072-0.2475891-0.268734-0.2454224     c-0.1621208,0.0033875-0.257618,0.1032944-0.2542992,0.265419c0.0033226,0.1488342,0.0965843,0.2420959,0.2454185,0.2476501     C45.3882179,72.2243881,45.4726677,72.1233292,45.5015411,71.9511795z"
        />
        <path
          d="M47.578083,71.9656143c0-0.1621246-0.0988846-0.2587051-0.2610092-0.2587051     c-0.1498528,0-0.2442665,0.0932617-0.2531433,0.2421036c-0.0100327,0.1632004,0.0910225,0.2475891,0.2609406,0.2797775     C47.4647598,72.2043915,47.578083,72.1310577,47.578083,71.9656143z"
        />
        <path
          d="M49.660183,71.9812012c0.0132828-0.163269-0.0888557-0.2498932-0.2431831-0.2798462     c-0.1610374,0.0155182-0.2654114,0.0943451-0.269886,0.2587051c-0.004406,0.1488342,0.0855331,0.2454147,0.2332191,0.2587662     C49.5424538,72.2332687,49.6479149,72.140007,49.660183,71.9812012z"
        />
        <path
          d="M51.7456055,71.9589767c-0.001152-0.1499252-0.0944138-0.244339-0.2420998-0.2520676     c-0.1621208-0.0077896-0.2654152,0.0866241-0.2720566,0.2487411c-0.0044708,0.163208,0.0988197,0.2465057,0.2553825,0.2709045     C51.6456337,72.2043915,51.7466888,72.1221771,51.7456055,71.9589767z"
        />
        <path
          d="M53.8365822,71.9612122c-0.0233154-0.1577225-0.1066132-0.2587738-0.2720566-0.255455     c-0.148838,0.0044785-0.2431831,0.0977325-0.2487373,0.2465744c-0.0044746,0.1621246,0.0910225,0.263176,0.2542953,0.2664948     C53.7332916,72.2221527,53.8155022,72.1188583,53.8365822,71.9612122z"
        />
        <path
          d="M55.9209175,71.9678497c-0.0211449-0.1587982-0.1010551-0.263176-0.264328-0.2609406     c-0.1621208,0.0022354-0.2587051,0.1021423-0.2553825,0.264267c0.0033226,0.1499176,0.0977325,0.2420959,0.2454185,0.2487335     C55.8109856,72.2265549,55.8953667,72.1255646,55.9209175,71.9678497z"
        />
        <path
          d="M44.176712,72.7474213c-0.147686,0.008873-0.2409477,0.1032181-0.2397957,0.2542953     c0.0010834,0.1621246,0.0988197,0.2609406,0.2609406,0.2587051c0.163208-0.0010834,0.2431831-0.1076965,0.2587051-0.2687378     C44.4266052,72.8373566,44.3399849,72.7373886,44.176712,72.7474213z"
        />
        <path
          d="M46.2888374,72.7474213c-0.1621246-0.0044785-0.2631798,0.0899353-0.2676506,0.2520599     c-0.0033226,0.16436,0.099968,0.2465057,0.25877,0.2675781c0.15765-0.0233078,0.2587051-0.1076965,0.2542992-0.2708969     C46.5297813,72.8462372,46.4376068,72.7518234,46.2888374,72.7474213z"
        />
        <path
          d="M48.6196747,73.0083618c0.0033226-0.16436-0.1021385-0.2454224-0.2598534-0.2665024     c-0.1577187,0.0233154-0.2587738,0.1076965-0.2542992,0.2709045c0.0044746,0.1499252,0.0977325,0.243187,0.2454185,0.2487411     C48.5141487,73.265976,48.6152039,73.1704788,48.6196747,73.0083618z"
        />
        <path
          d="M50.7040138,73.0028c-0.0022392-0.162117-0.1032944-0.2587662-0.2654152-0.2553787     c-0.148838,0.0021667-0.2420998,0.0965805-0.2487411,0.2453461c-0.0066414,0.16436,0.0954971,0.2487411,0.2520638,0.274292     C50.6007195,73.2470703,50.7061806,73.166008,50.7040138,73.0028z"
        />
        <path
          d="M52.7938385,72.991684c-0.0288734-0.1543274-0.11549-0.2542953-0.278698-0.2442627     c-0.148838,0.008873-0.2420998,0.1032181-0.2409477,0.2542953c0.0010872,0.1621246,0.0988197,0.2609406,0.2620277,0.2587051     C52.6994934,73.2593384,52.7793999,73.1527252,52.7938385,72.991684z"
        />
        <path
          d="M54.8814964,72.9861298c-0.032196-0.1343307-0.1066132-0.2454224-0.274292-0.2387085     c-0.1487694,0.0054855-0.2431831,0.0976639-0.2475891,0.2453461c-0.005558,0.1632767,0.0899391,0.2631836,0.2520599,0.2676544     C54.7760353,73.2648926,54.858181,73.1604538,54.8814964,72.9861298z"
        />
        <path
          d="M59.9084244,65.8348083c0.1621208,0.001152,0.2620239-0.0943451,0.263176-0.2565384     c0.0010834-0.1642914-0.105526-0.2442627-0.263176-0.2620239c-0.1565628,0.0266418-0.257618,0.1110229-0.2498932,0.2753754     c0.0014229,0.0315857,0.0212822,0.0488739,0.0302277,0.0751038c0.050293,0.0477753,0.101532,0.0969849,0.1499901,0.1422577     C59.8634872,65.8158951,59.8792114,65.8346024,59.9084244,65.8348083z"
        />
        <path
          d="M59.8387489,65.8089828c-0.0484581-0.0452728-0.0996971-0.0944824-0.1499901-0.1422577     C59.7137032,65.7399902,59.7636528,65.7878418,59.8387489,65.8089828z"
        />
        <path
          d="M61.992691,65.833725c0.1632767,0.0055542,0.2465744-0.0977325,0.2687378-0.255455     c-0.0221634-0.1576462-0.1043777-0.2586975-0.2687378-0.2564621c-0.1498528,0.0022354-0.2453499,0.0943451-0.2509079,0.2431793     C61.7350731,65.7271118,61.8294868,65.8281631,61.992691,65.833725z"
        />
        <path
          d="M64.0881424,65.3218079c-0.1510048-0.0044785-0.247654,0.0854645-0.2598534,0.2320633     c-0.015522,0.1621246,0.0777397,0.2665024,0.2376213,0.2798538c0.16436,0.0132828,0.2521362-0.0888596,0.2809372-0.243187     C64.3324127,65.4305878,64.2525024,65.3273621,64.0881424,65.3218079z"
        />
        <path
          d="M66.1702423,65.8348083c0.163208,0,0.244339-0.1054611,0.2609406-0.2654114     c-0.0288696-0.1554184-0.1143341-0.2553864-0.2786942-0.2465057c-0.1476898,0.0077972-0.2409515,0.1021423-0.2421036,0.2520599     C65.9115372,65.7370758,66.0092087,65.8348083,66.1702423,65.8348083z"
        />
        <path
          d="M68.2423782,65.3228912c-0.1499176,0.0044708-0.2443314,0.0977325-0.2476501,0.2476578     c-0.002243,0.162117,0.0944061,0.2620239,0.2553787,0.2642593c0.1632767,0.0022354,0.2454224-0.1021423,0.2654114-0.2598572     C68.4899673,65.417305,68.4055862,65.3173294,68.2423782,65.3228912z"
        />
        <path
          d="M61.2198334,66.6321335c-0.0144348-0.1587982-0.0932579-0.264328-0.257618-0.2698212     c-0.1499214-0.0044708-0.247654,0.0854645-0.2609406,0.2320709c-0.0005417,0.0054855,0.0038643,0.0079269,0.0035934,0.0132828     c0.0975304,0.09272,0.1799469,0.1772385,0.2556534,0.2595825C61.1064453,66.8669815,61.1905556,66.7762909,61.2198334,66.6321335     z"
        />
        <path
          d="M60.9378166,66.8742294c0.009758,0.0008163,0.0134888-0.0069809,0.0227051-0.0069809     c-0.0757065-0.0823441-0.158123-0.1668625-0.2556534-0.2595825     C60.6969376,66.7605667,60.7843704,66.8623734,60.9378166,66.8742294z"
        />
        <path
          d="M63.0409927,66.3633957c-0.1621208,0.0010834-0.257618,0.1021423-0.2553825,0.264267     c0.0021706,0.1488342,0.0965843,0.2420959,0.2453537,0.2487335c0.1632729,0.0067139,0.2487411-0.0943451,0.275444-0.2509079     C63.2852631,66.4677734,63.2053528,66.3611603,63.0409927,66.3633957z"
        />
        <path
          d="M65.1197739,66.8763962c0.1621246,0.001152,0.2620239-0.0943451,0.2620239-0.2564621     c0.001152-0.16436-0.1043777-0.244339-0.2620239-0.263176c-0.1577148,0.0266342-0.2576218,0.1120987-0.2509766,0.2764587     C64.8754349,66.780899,64.9698486,66.8742294,65.1197739,66.8763962z"
        />
        <path
          d="M67.2151566,66.3633957c-0.1621246,0-0.2609406,0.0965805-0.2598572,0.2587051     c0,0.1632767,0.1066132,0.243248,0.265419,0.2598572c0.1554794-0.0277176,0.2565308-0.1143417,0.2476501-0.2776108     C67.4583435,66.4566574,67.3650818,66.3633957,67.2151566,66.3633957z"
        />
        <path
          d="M61.9994011,67.4049911c-0.1632729,0.001152-0.2598534,0.1010513-0.2565346,0.263176     c0.0022392,0.1499252,0.0954971,0.2431793,0.2442703,0.2498932c0.1643562,0.0066376,0.2487373-0.0944138,0.275444-0.2509766     C62.2425842,67.5093689,62.1626091,67.4039078,61.9994011,67.4049911z"
        />
        <path
          d="M64.3402023,67.6670837c0.0055618-0.1632767-0.0988159-0.2465057-0.2565308-0.2698898     c-0.1587334,0.0222321-0.2587051,0.1055298-0.2564659,0.2687378c0.0022354,0.1499176,0.0954971,0.2454147,0.2420311,0.2509766     C64.2325058,67.9235458,64.3346481,67.8280487,64.3402023,67.6670837z"
        />
        <path
          d="M66.1657715,67.4039078c-0.1621246,0.0022354-0.2564697,0.1021347-0.2542343,0.2642593     c0.0033264,0.1499252,0.0976715,0.2431793,0.2465057,0.2487411c0.16436,0.0067062,0.2487411-0.0943451,0.274292-0.2520599     C66.4111938,67.5071259,66.3312836,67.4016724,66.1657715,67.4039078z"
        />
        <path
          d="M60.9622154,68.4444122c-0.1499214-0.0055542-0.247654,0.0854645-0.2609406,0.2320709     c-0.0155869,0.162117,0.0777397,0.2675781,0.2365417,0.2798462c0.1642914,0.0144348,0.2509079-0.0888519,0.2820168-0.2420959     C61.2053986,68.5543442,61.1265755,68.4499054,60.9622154,68.4444122z"
        />
        <path
          d="M63.0287933,68.4444122c-0.1488342,0.0066452-0.2420959,0.101059-0.2443352,0.2509079     c-0.0022354,0.1621246,0.0944138,0.2610092,0.2565346,0.2620926c0.163208,0,0.2454224-0.1043701,0.2631798-0.263176     C63.2775345,68.537674,63.1920013,68.437706,63.0287933,68.4444122z"
        />
        <path
          d="M65.1308899,68.4444122c-0.1621246,0-0.2620926,0.0965805-0.2610092,0.2587051     c0.001152,0.163208,0.1077652,0.2431793,0.2665634,0.2598572c0.1554108-0.0288773,0.2553864-0.1132584,0.2465057-0.2776184     C65.3729172,68.5387573,65.2796555,68.4444122,65.1308899,68.4444122z"
        />
        <path
          d="M57.5742645,69.7413864c-0.0000687,0.1621246,0.0999031,0.2587738,0.2609406,0.2576218     c0.1499214-0.0010834,0.2442665-0.0943451,0.2520599-0.243187c0.0065727-0.1214523-0.0606613-0.1880798-0.1533775-0.2317276     c-0.1072922,0.0430374-0.2145805,0.0864182-0.3244476,0.1274185     C57.5977821,69.6816788,57.5742645,69.7015991,57.5742645,69.7413864z"
        />
        <path
          d="M57.6094398,69.6515121c0.1098671-0.0410004,0.2171555-0.0843811,0.3244476-0.1274185     c-0.0318565-0.0149765-0.0553055-0.0376816-0.0953636-0.0447998     C57.7181511,69.4935989,57.6458359,69.5571671,57.6094398,69.6515121z"
        />
        <path
          d="M59.911747,69.4860077c-0.1499252,0-0.2443352,0.0932617-0.2532158,0.2420959     c-0.009964,0.163208,0.0910912,0.2486725,0.2609406,0.2797852c0.1399574-0.0244064,0.253212-0.0977402,0.253212-0.2631836     C60.1726837,69.5825882,60.0738678,69.4860077,59.911747,69.4860077z"
        />
        <path
          d="M62.0004883,69.4860077c-0.1621246,0-0.2587051,0.0998993-0.2576218,0.2620239     c0.0010872,0.1499176,0.0932617,0.2431793,0.2431831,0.2509766c0.16436,0.0088806,0.2487411-0.0921783,0.2765312-0.2475891     C62.2436714,69.5914688,62.1648445,69.4860077,62.0004883,69.4860077z"
        />
        <path
          d="M64.0992584,69.4860077c-0.1621208-0.0077972-0.2654114,0.0876999-0.2720528,0.2487411     c-0.005558,0.1632004,0.0977325,0.2464981,0.2542992,0.2709656c0.1587982-0.0211411,0.2609406-0.1044388,0.2598495-0.2676468     C64.3402023,69.5881424,64.2469482,69.4937286,64.0992584,69.4860077z"
        />
        <path
          d="M57.0456734,70.7896881c0.005558-0.1499176-0.0855331-0.2476578-0.2309837-0.2620926     c-0.1632729-0.0155182-0.268734,0.0777435-0.2831726,0.2365417c-0.0144348,0.163208,0.0877037,0.2509766,0.2420998,0.2820206     C56.9335022,71.031723,57.0389633,70.9528961,57.0456734,70.7896881z"
        />
        <path
          d="M58.8745575,70.5265121c-0.1621208,0.0010834-0.2609406,0.0988159-0.2587013,0.2597885     c0.0021667,0.16436,0.1076965,0.244339,0.268734,0.2598572c0.1543274-0.0299606,0.2542992-0.1154938,0.2442665-0.2797852     C59.1199799,70.6186218,59.0255661,70.5253601,58.8745575,70.5265121z"
        />
        <path
          d="M60.9700089,70.5275955c-0.1621208-0.0077896-0.264328,0.0877075-0.269886,0.2487411     c-0.005558,0.16436,0.0977364,0.2476578,0.2542992,0.2709732c0.158802-0.0222321,0.2610092-0.1043777,0.25877-0.2687378     C61.2120399,70.6286545,61.118782,70.5342407,60.9700089,70.5275955z"
        />
        <path
          d="M63.0554314,70.5209579c-0.1621208,0.0144348-0.2654152,0.0932617-0.2709732,0.2564621     c-0.0055542,0.1510773,0.085537,0.2487411,0.2320709,0.2620926c0.1621895,0.0155258,0.2676468-0.0777359,0.281002-0.2376251     C63.3119659,70.6375275,63.2097588,70.5519943,63.0554314,70.5209579z"
        />
        <path
          d="M58.0961418,71.8123703c-0.0277863-0.1365662-0.1021385-0.2475891-0.268734-0.2454147     c-0.1621208,0.0033875-0.257618,0.1032867-0.2542953,0.2654114c0.0033188,0.1488342,0.0966492,0.2420959,0.2454185,0.2476578     C57.9828873,72.0855789,58.0672722,71.9845276,58.0961418,71.8123703z"
        />
        <path
          d="M59.911747,71.5681076c-0.1499252,0-0.2443352,0.0932617-0.2532158,0.2420959     c-0.009964,0.163208,0.0910912,0.2475891,0.2609406,0.2797852c0.1399574-0.0244064,0.253212-0.0977402,0.253212-0.2631836     C60.1726837,71.6646881,60.0738678,71.5681076,59.911747,71.5681076z"
        />
        <path
          d="M62.0116043,71.5625458c-0.1610374,0.0155258-0.2654152,0.0943451-0.2698212,0.2587051     c-0.0044746,0.1488342,0.0854683,0.2454224,0.2331505,0.2587738c0.0636444,0.0056915,0.1100044-0.0172882,0.1539917-0.0422974     c0.016468-0.0087433,0.0321922-0.0174179,0.0487976-0.0262299c0.0415459-0.0412064,0.0714378-0.0960388,0.0770607-0.1690979     C62.2681389,71.6791229,62.1659317,71.5925064,62.0116043,71.5625458z"
        />
        <path
          d="M62.1777229,72.0114975c-0.0166054,0.008812-0.0323296,0.0174866-0.0487976,0.0262299     C62.1453934,72.0283737,62.1644402,72.0247192,62.1777229,72.0114975z"
        />
        <path
          d="M56.7713814,72.6086121c-0.147686,0.0088806-0.2409477,0.1032257-0.2398643,0.2542953     c0.0010872,0.1621246,0.0988197,0.2609406,0.2609406,0.2587051c0.1632767-0.0010834,0.2431831-0.1076965,0.2587738-0.2687302     C57.0212059,72.698555,56.9345856,72.5985794,56.7713814,72.6086121z"
        />
        <path
          d="M58.8834381,72.6086121c-0.1621208-0.0044708-0.263176,0.0899429-0.2675819,0.2520599     c-0.0033226,0.16436,0.0999031,0.2465057,0.2587013,0.2675858c0.1577187-0.0233154,0.2587738-0.1076965,0.2542992-0.2709045     C59.124382,72.707428,59.0322762,72.6130219,58.8834381,72.6086121z"
        />
        <path
          d="M60.7001228,72.8739548c0.0004768,0.0151825,0.0117264,0.0222321,0.0139618,0.0361938     c0.0209427-0.0160599,0.0472412-0.0330048,0.0666924-0.0488663c0.0813332-0.0660782,0.1901817-0.1372452,0.294899-0.2075958     c-0.0378227-0.0196609-0.0710335-0.0439224-0.121254-0.0506287     C60.796772,72.6263733,60.6957169,72.7107544,60.7001228,72.8739548z"
        />
        <path
          d="M45.3264084,73.7812195c-0.1398926,0.0233154-0.2509117,0.0932617-0.2553825,0.2598495     c-0.0044746,0.1499252,0.0855331,0.2465057,0.2320671,0.2598572c0.1632729,0.0155258,0.268734-0.0766525,0.2809334-0.2365417     C45.5984612,73.9011841,45.4952393,73.8134079,45.3264084,73.7812195z"
        />
        <path
          d="M47.4063377,73.7834549c-0.1566315,0.0266342-0.257618,0.1110153-0.2498932,0.2753754     c0.0066414,0.1488342,0.0999718,0.2420959,0.2498932,0.2431793c0.1621208,0.001152,0.2620239-0.0943451,0.263176-0.2565308     C47.6705971,73.8811874,47.5639877,73.8012085,47.4063377,73.7834549z"
        />
        <path
          d="M49.4906044,73.7890091c-0.1498528,0.0022354-0.2454185,0.0943451-0.2509079,0.243187     c-0.0067101,0.162117,0.0877037,0.263176,0.2509079,0.2687302c0.1632767,0.0055618,0.2465744-0.0977325,0.2687378-0.2554474     C49.7371788,73.8878326,49.6549644,73.7867737,49.4906044,73.7890091z"
        />
        <path
          d="M51.5860596,73.7890091c-0.1510086-0.0044708-0.2476578,0.0854721-0.2598572,0.2320709     c-0.015522,0.162117,0.0777397,0.2664948,0.2376251,0.2798462c0.1643562,0.0132828,0.2520599-0.0888519,0.2809334-0.2431793     C51.8303261,73.897789,51.7504158,73.7945709,51.5860596,73.7890091z"
        />
        <path
          d="M53.6503983,73.7900925c-0.1476822,0.0077972-0.2409439,0.1021423-0.2420959,0.2520676     c0.0010834,0.162117,0.0988159,0.2598495,0.2598534,0.2598495c0.163208,0,0.2442703-0.1054535,0.2609406-0.2654114     C53.9002266,73.8811874,53.8147583,73.7812195,53.6503983,73.7900925z"
        />
        <path
          d="M55.7402267,73.7900925c-0.1498566,0.0044785-0.2442665,0.0977402-0.2475891,0.2476578     c-0.0022354,0.1621246,0.0943451,0.2620239,0.2553825,0.2642593c0.1632729,0.002243,0.2454185-0.1021347,0.2654152-0.2598495     C55.9878807,73.8845062,55.9034996,73.7845383,55.7402267,73.7900925z"
        />
        <path
          d="M48.4601288,74.8295212c-0.1499214-0.0044785-0.247654,0.0854645-0.2609406,0.2320633     c-0.0155869,0.1621246,0.0777397,0.2675858,0.2365417,0.2798538c0.1642914,0.0132828,0.2509079-0.0888596,0.2820168-0.2421036     C48.7033119,74.9405365,48.6244888,74.8350067,48.4601288,74.8295212z"
        />
        <path
          d="M50.5389099,74.8306046c-0.1621246,0.0010834-0.2576218,0.1021347-0.2553825,0.2642593     c0.0021667,0.1488419,0.0965805,0.2420959,0.2453499,0.2487411c0.1632729,0.0067062,0.2487411-0.0943451,0.275444-0.2509079     C50.7831764,74.9349823,50.7032661,74.8283691,50.5389099,74.8306046z"
        />
        <path
          d="M52.6176872,74.8239594c-0.1577187,0.0266418-0.257618,0.1121063-0.2509766,0.2764664     c0.0066414,0.1476822,0.1010551,0.2410126,0.2509766,0.2431793c0.1621208,0.001152,0.2620239-0.0943451,0.2620239-0.2564697     C52.8808632,74.9227829,52.7753334,74.842804,52.6176872,74.8239594z"
        />
        <path
          d="M54.7130699,74.8306046c-0.1621208,0-0.2609406,0.0965805-0.2598534,0.2587051     c0,0.163269,0.1066093,0.243248,0.2654114,0.2598495c0.1554794-0.0277176,0.2565346-0.1143341,0.2476578-0.2776108     C54.9562531,74.9238663,54.8629913,74.8306046,54.7130699,74.8306046z"
        />
        <path
          d="M57.9210777,73.6424103c-0.1399612,0.0233154-0.2509766,0.0932617-0.2554512,0.2598572     c-0.004406,0.1499176,0.0855331,0.2465057,0.2321358,0.2598572c0.1632042,0.0155182,0.268734-0.0766602,0.2809334-0.2365417     C58.1931305,73.7623749,58.0898399,73.6746063,57.9210777,73.6424103z"
        />
        <path
          d="M37.8058395,58.6548157c0.1632042,0.0066452,0.2487411-0.0944099,0.2753754-0.2509766     c-0.02108-0.1576462-0.1010551-0.2642593-0.2654152-0.2620239c-0.122673,0.0008125-0.1902466,0.072113-0.2231865,0.1705246     c0.0026436,0.0657463,0.0064392,0.1355553,0.0098267,0.20401C37.6409378,58.5931396,37.7032242,58.6502075,37.8058395,58.6548157     z"
        />
        <path
          d="M38.8441086,59.6953239c0.163208,0.0066414,0.2654152-0.0888557,0.2709045-0.2498932     c0.005558-0.1632042-0.0988197-0.2465019-0.2564659-0.2698174c-0.158802,0.0222321-0.2587738,0.1055298-0.2565346,0.268734     C38.604248,59.5942688,38.6975098,59.6897659,38.8441086,59.6953239z"
        />
        <path
          d="M43.011631,59.6953239c0.1643562,0.0088806,0.2498245-0.0921745,0.278698-0.2465019     c-0.0027809-0.0249443-0.0178261-0.0380898-0.0237236-0.0601883c-0.1522942,0.0544281-0.2989616,0.1137314-0.4341774,0.184082     c-0.0042038,0.0022392-0.0077248,0.0040016-0.0119286,0.0061684     C42.8612328,59.6429329,42.920742,59.6898346,43.011631,59.6953239z"
        />
        <path
          d="M39.6447563,60.4815331c0.0010834,0.163208,0.1076965,0.2431831,0.2664986,0.2598572     c0.0873642-0.0161972,0.1497154-0.0557785,0.1924858-0.1114235c-0.0153885-0.0225029-0.0253487-0.0389061-0.0409393-0.0617447     c-0.0702171-0.1025467-0.1447716-0.2134285-0.218647-0.3234329     C39.7256126,60.2701378,39.6438065,60.3454399,39.6447563,60.4815331z"
        />
        <path
          d="M41.9799995,60.7424736c0.158802-0.0199928,0.2631798-0.0988159,0.2620926-0.263176     c-0.001152-0.1621208-0.1021385-0.257618-0.263176-0.2553825c-0.1499214,0.0021706-0.2443352,0.0954971-0.2509766,0.2453499     C41.7212982,60.6325417,41.8223534,60.7158394,41.9799995,60.7424736z"
        />
        <path
          d="M38.8740654,61.2643547c-0.1621208-0.0077248-0.2654114,0.0877724-0.2720528,0.2487411     c-0.005558,0.1632729,0.0977325,0.2465706,0.2542953,0.2709694c0.158802-0.0210762,0.2609406-0.1043739,0.2598572-0.2675819     C39.1150131,61.3665619,39.0217514,61.2721481,38.8740654,61.2643547z"
        />
        <path
          d="M40.9472885,61.7774239c0.1632729-0.001152,0.2431831-0.1076965,0.25877-0.2676506     c-0.0300255-0.1554108-0.11549-0.2553825-0.27985-0.2454185c-0.148838,0.0100327-0.2409439,0.1043777-0.2409439,0.2542992     C40.6874313,61.6807747,40.7862511,61.7785072,40.9472885,61.7774239z"
        />
        <path
          d="M39.8956642,62.8245735c0.158802-0.0189095,0.263176-0.0999718,0.2610092-0.2642593     c-0.001152-0.1621895-0.1010551-0.2576866-0.2620926-0.2554512c-0.1510086,0.0022354-0.2442665,0.0966492-0.2509766,0.2443352     C39.6358757,62.7146416,39.7369308,62.7990227,39.8956642,62.8245735z"
        />
        <path
          d="M41.729023,62.563633c0.0022392,0.1621246,0.1022072,0.2576218,0.2643318,0.2542992     c0.1499214-0.0022354,0.2431793-0.0966492,0.2487373-0.2454185c0.0066452-0.1632767-0.0944099-0.2476578-0.2520599-0.2732086     C41.8312302,62.3192978,41.7268562,62.4003601,41.729023,62.563633z"
        />
        <path
          d="M38.872982,63.3464546c-0.1621208-0.0077248-0.2654114,0.0866203-0.2720566,0.2487411     c-0.0044708,0.1632729,0.0988197,0.2465706,0.2553825,0.2709694c0.158802-0.0222282,0.2598572-0.1043739,0.2587738-0.2675819     C39.1139297,63.4486618,39.020668,63.354248,38.872982,63.3464546z"
        />
        <path
          d="M40.9394951,63.8583717c0.1632729,0.0033875,0.2454185-0.0999031,0.2665634-0.257618     c-0.0233841-0.15765-0.1066132-0.2587051-0.2721214-0.2553825c-0.1487694,0.0044708-0.2431831,0.0977325-0.2487411,0.2465019     C40.6807899,63.753994,40.7762871,63.8550491,40.9394951,63.8583717z"
        />
        <path
          d="M39.9056969,64.900032c0.1632042-0.001152,0.2431831-0.1077652,0.257618-0.2687378     c-0.0288734-0.1543961-0.11549-0.2542953-0.278698-0.2443314c-0.148838,0.0088806-0.2420998,0.1032944-0.2410126,0.2542953     C39.6447563,64.8033829,39.7424202,64.9021988,39.9056969,64.900032z"
        />
        <path
          d="M44.9624443,59.3175392c-0.0022354,0.1621895,0.0932617,0.2620926,0.2553825,0.263176     c0.16436,0,0.2454224-0.1054611,0.2631798-0.2642632c-0.0186386-0.1087799-0.0788269-0.173912-0.1615791-0.2107849     c-0.0382957-0.000473-0.0759811-0.0035934-0.1142731-0.0035934c-0.0330086,0-0.061203,0.0035248-0.0937347,0.0038643     C45.0260201,59.143486,44.9632607,59.2084846,44.9624443,59.3175392z"
        />
        <path
          d="M51.4574852,59.5807152c0.163208,0.0067101,0.2654152-0.0887871,0.2709732-0.2498245     c0.0055542-0.163208-0.0988884-0.2465057-0.2565384-0.2698212c-0.1587982,0.0221634-0.25877,0.1054611-0.2565346,0.268734     C51.2176247,59.4797287,51.3108826,59.5752258,51.4574852,59.5807152z"
        />
        <path
          d="M53.5462265,59.5807838c0.16436,0.0066414,0.2487411-0.0944138,0.274292-0.2521324     c-0.0210762-0.1576462-0.1010551-0.263176-0.2664986-0.2609406c-0.1621208,0.0022392-0.2565346,0.1021423-0.2542953,0.2642632     C53.3030434,59.4818954,53.3974571,59.5752258,53.5462265,59.5807838z"
        />
        <path
          d="M55.6250076,59.5807152c0.0964432,0.0052185,0.1589355-0.0349731,0.2055664-0.0940742     c-0.1461945-0.0471039-0.2921181-0.091362-0.4378395-0.1352158     C55.4042587,59.4851494,55.4880981,59.5724449,55.6250076,59.5807152z"
        />
        <path
          d="M55.3927345,59.3514252c0.1457214,0.0438538,0.2916451,0.0881119,0.4378395,0.1352158     c0.0217552-0.0275841,0.03619-0.0632362,0.0485954-0.1011925c-0.1550064-0.0499496-0.3098068-0.0967827-0.4643402-0.1432114     c-0.0093536,0.0294151-0.0307693,0.0492058-0.0307693,0.085331C55.3840599,59.3376007,55.391922,59.341938,55.3927345,59.3514252     z"
        />
        <path
          d="M44.1695938,60.6212234c0.163208,0.005558,0.2475891-0.0976677,0.2698212-0.2553825     c-0.0233154-0.1577187-0.1054611-0.2598572-0.2698212-0.2565346c-0.1499214,0.0022354-0.2443352,0.0954971-0.2509766,0.2431793     C43.9130592,60.5146103,44.007473,60.6156654,44.1695938,60.6212234z"
        />
        <path
          d="M46.2416649,60.6201363c0.1632729,0.0144386,0.2498894-0.0876999,0.2809334-0.2409439     c-0.0132866-0.1599541-0.0921097-0.2654152-0.2553825-0.2709732c-0.1510086-0.005558-0.2475891,0.0843849-0.2620239,0.2309837     C45.9896011,60.5013237,46.0817795,60.6067848,46.2416649,60.6201363z"
        />
        <path
          d="M48.3260002,60.6201363c0.1643562,0.0144386,0.2509766-0.0888557,0.2820854-0.2420959     c-0.0144348-0.1598854-0.0933266-0.2642632-0.257618-0.2698212c-0.1499214-0.005558-0.2476578,0.0854683-0.2610092,0.2320671     C48.0739365,60.5024109,48.1671982,60.6079369,48.3260002,60.6201363z"
        />
        <path
          d="M50.4291763,60.6212234c0.1632767,0,0.2454224-0.1043777,0.2631798-0.2631798     c-0.026638-0.1565628-0.1121025-0.2564659-0.2753792-0.2498245c-0.1487694,0.0066452-0.2420959,0.1010551-0.2442665,0.2509766     C50.170475,60.5213203,50.2670555,60.6201363,50.4291763,60.6212234z"
        />
        <path
          d="M52.5246277,60.6267815c0.1554794-0.0288734,0.2553825-0.1132584,0.2465057-0.2776146     c-0.009964-0.146534-0.1032257-0.2409477-0.2520638-0.2409477c-0.1621208,0-0.2620888,0.0965843-0.2609367,0.2587051     C52.2592163,60.5301971,52.3658295,60.6101074,52.5246277,60.6267815z"
        />
        <path
          d="M54.5933762,60.6279335c0.158802-0.0199966,0.263176-0.0988884,0.2620926-0.2631798     c-0.0010834-0.1621208-0.1021385-0.257618-0.263176-0.2554474c-0.1499214,0.0022354-0.2442665,0.0954971-0.2509766,0.2454185     C54.3346748,60.5179977,54.43573,60.6012268,54.5933762,60.6279335z"
        />
        <path
          d="M45.2233849,61.6628151c0.1499252-0.0010872,0.2443352-0.0943451,0.2520638-0.2431831     c0.0088768-0.163208-0.0921097-0.2487411-0.2487411-0.2764626c-0.158802,0.0188446-0.2642632,0.0977364-0.2642632,0.2620239     C44.9624443,61.567318,45.0624161,61.6639671,45.2233849,61.6628151z"
        />
        <path
          d="M47.307724,61.6717606c0.1398888-0.0244675,0.253212-0.0977325,0.253212-0.263176     c0-0.1621208-0.0988846-0.2587738-0.2610092-0.2587738c-0.1499214,0-0.2442665,0.0932617-0.2531433,0.2420998     C47.0367508,61.5551186,47.1378059,61.6406517,47.307724,61.6717606z"
        />
        <path
          d="M49.3743019,61.6628151c0.1642914,0.0089455,0.2487411-0.0921097,0.2764587-0.2475891     c-0.0188408-0.1598854-0.0977325-0.2654152-0.2620239-0.2654152c-0.1621208,0-0.25877,0.0999718-0.257618,0.2620926     C49.1322021,61.5618286,49.2243805,61.6550865,49.3743019,61.6628151z"
        />
        <path
          d="M51.4696846,61.6695251c0.158802-0.0211487,0.2609406-0.1043777,0.2598572-0.2676506     c-0.0010834-0.1499214-0.0944138-0.2442665-0.2420998-0.2520638c-0.1621208-0.0077934-0.2653465,0.0877037-0.2720566,0.2487411     C51.2098312,61.5618286,51.3131218,61.6450577,51.4696846,61.6695251z"
        />
        <path
          d="M53.5606651,61.6628151c0.1632729-0.0010872,0.2431793-0.1076965,0.25877-0.2675819     c-0.0300255-0.1554794-0.11549-0.2553825-0.27985-0.2454224c-0.1487694,0.0100327-0.2409477,0.1043777-0.2409477,0.2542992     C53.300808,61.5662308,53.3996925,61.6639671,53.5606651,61.6628151z"
        />
        <path
          d="M55.6494713,61.6628151c0.1487732-0.0021706,0.2431831-0.0965843,0.2487411-0.2453537     c0.0066414-0.1643562-0.0954971-0.2487411-0.2521286-0.274292c-0.1587334,0.0199966-0.2642593,0.1010551-0.2620239,0.2654152     C55.3862953,61.5707054,55.4884338,61.6662025,55.6494713,61.6628151z"
        />
        <path
          d="M44.2028732,62.1914062c-0.163208-0.015522-0.268734,0.0777397-0.2831726,0.2365379     c-0.0018959,0.0212822,0.0130806,0.0309067,0.015049,0.0496826c0.1503258-0.0436478,0.304451-0.0837746,0.4690132-0.1171188     C44.3731956,62.2702293,44.3111801,62.2021828,44.2028732,62.1914062z"
        />
        <path
          d="M56.7641945,60.4824142c0.1632767,0.005558,0.2476578-0.0976639,0.2698898-0.2553825     c-0.0233841-0.1577148-0.1055298-0.2598534-0.2698898-0.2565346c-0.1499214,0.0022392-0.2442665,0.0954971-0.2509766,0.2431831     C56.5077286,60.3758011,56.6020737,60.4768562,56.7641945,60.4824142z"
        />
        <path
          d="M57.8180542,61.5240059c0.1498566-0.0010834,0.2442703-0.0943451,0.2520638-0.2431793     c0.0088768-0.163208-0.0921783-0.2487411-0.2487411-0.2764626c-0.158802,0.0188408-0.264328,0.0977325-0.264328,0.2620239     C57.5570488,61.4285088,57.6570168,61.5251579,57.8180542,61.5240059z"
        />
        <path
          d="M59.9023247,61.5329552c0.0496788-0.0086784,0.0881081-0.0330086,0.1272163-0.0559158     c-0.1297913-0.0899391-0.2513161-0.1707306-0.376091-0.2528763c-0.0018311,0.0113869-0.011322,0.0167427-0.0120659,0.0289421     C59.6314201,61.4163094,59.7324753,61.5018463,59.9023247,61.5329552z"
        />
        <path
          d="M60.029541,61.4770393c0.0332794-0.0195198,0.0547638-0.0483932,0.0751648-0.0807915     c-0.140976-0.0980721-0.2732086-0.1863861-0.408287-0.2752419c-0.019928,0.0297546-0.0363274,0.0624924-0.0429688,0.103157     C59.7782249,61.3063087,59.8997498,61.3871002,60.029541,61.4770393z"
        />
        <path
          d="M56.51437,62.2891388c-0.0144348,0.1632729,0.0877037,0.2509766,0.2420998,0.2820854     c0.1598854-0.0144348,0.2653465-0.0933266,0.2720566-0.2565346c0.005558-0.1499214-0.085537-0.247654-0.2309837-0.2620926     C56.6342697,62.037075,56.5288086,62.1303368,56.51437,62.2891388z"
        />
        <path
          d="M58.8674431,62.5712242c0.1543274-0.0300255,0.2542305-0.11549,0.2442665-0.27985     c-0.0088806-0.147686-0.1032906-0.2409439-0.2542992-0.2398605c-0.1621208,0.0010834-0.2609406,0.0988197-0.2587013,0.2598572     C58.6008759,62.4757271,58.7064056,62.5556374,58.8674431,62.5712242z"
        />
        <path
          d="M60.6829758,62.3013382c-0.005558,0.16436,0.0977325,0.2476578,0.2542992,0.2709694     c0.1398888-0.0195847,0.223053-0.096241,0.2423706-0.2241364c-0.108242-0.0895309-0.2175636-0.1770325-0.3282433-0.2635155     C60.7568512,62.1169853,60.6871109,62.1825256,60.6829758,62.3013382z"
        />
        <path
          d="M59.9023247,63.6150551c0.1399574-0.0244675,0.253212-0.0977364,0.253212-0.2631798     c0-0.1621208-0.0988159-0.25877-0.2609406-0.25877c-0.1499214,0-0.2443352,0.0932617-0.253212,0.2420998     C59.6314201,63.4984093,59.7324753,63.5827904,59.9023247,63.6150551z"
        />
        <path
          d="M61.7246361,63.3463173c-0.0044746,0.1487732,0.0854645,0.2453537,0.2331505,0.2587051     c0.1621246,0.0144348,0.2676506-0.0788231,0.27985-0.2376251c0.000679-0.0086746-0.0063019-0.0119286-0.0062332-0.0201988     c-0.0762482-0.0846519-0.140976-0.1691017-0.2241402-0.2534142c-0.0052185-0.001152-0.0074539-0.0052185-0.0128098-0.006237     C61.833416,63.103138,61.7290421,63.1819611,61.7246361,63.3463173z"
        />
        <path
          d="M68.2240829,63.6061058c0.16436,0.0067101,0.2487411-0.0943451,0.274292-0.2520599     c-0.02108-0.158802-0.101059-0.263176-0.264267-0.2609406c-0.162117,0.0022354-0.2587662,0.1021385-0.2554474,0.2642632     C67.9819794,63.5072899,68.0763931,63.5994644,68.2240829,63.6061058z"
        />
        <path
          d="M58.8574104,64.6533279c0.1577187-0.0233154,0.2587738-0.1077652,0.2542992-0.2709732     c-0.0044746-0.1499252-0.0965805-0.244339-0.2454185-0.2487411c-0.1621246-0.0044708-0.2631798,0.0899353-0.2675819,0.2520599     C58.5953178,64.5500336,58.6986122,64.6321793,58.8574104,64.6533279z"
        />
        <path
          d="M60.9283943,64.6477661c0.1632767,0.0044098,0.2643318-0.0910873,0.268734-0.253212     c0.0033226-0.16436-0.1021385-0.2454224-0.2598534-0.2665024c-0.15765,0.0233154-0.2587051,0.1077042-0.2542992,0.2709732     C60.6874504,64.5489502,60.7807083,64.6422119,60.9283943,64.6477661z"
        />
        <path
          d="M62.7673111,64.3790359c-0.0066414,0.1643524,0.0954971,0.2487335,0.2520638,0.274292     c0.0686569-0.0086823,0.1211853-0.0346375,0.1655083-0.0677795c-0.0830917-0.0654068-0.1615791-0.1388779-0.2330818-0.223999     l-0.0081329-0.0130157c-0.0223656-0.0495453-0.0658798-0.1017303-0.09272-0.1519547     C62.8024902,64.2392731,62.7708359,64.2993927,62.7673111,64.3790359z"
        />
        <path
          d="M67.1891327,64.6466141c0.16436,0.0044708,0.2465057-0.0998993,0.2698822-0.274292     c-0.0322571-0.1343307-0.1066132-0.2453537-0.274292-0.2387085c-0.1488342,0.0055542-0.2431793,0.0977325-0.2476501,0.2454224     C66.9315109,64.5422363,67.0270081,64.6422119,67.1891327,64.6466141z"
        />
        <path
          d="M70.5298462,60.8753853c-0.1588058,0.0189095-0.264328,0.0977325-0.264328,0.2620926     c0,0.1621208,0.099968,0.2587013,0.2609329,0.257618c0.0658798-0.000473,0.1156998-0.0252113,0.1575165-0.0581512     c0.0302963-0.0652695,0.0626907-0.1340637,0.0910263-0.1958771C70.777565,60.9868088,70.6819382,60.902359,70.5298462,60.8753853     z"
        />
        <path
          d="M69.5059433,61.923687c-0.163208-0.0155907-0.2686691,0.0777397-0.2831039,0.2364731     c-0.0144348,0.1632729,0.0876999,0.2509766,0.2420273,0.2820854c0.1599579-0.0144348,0.265419-0.0932617,0.2720566-0.2565346     C69.742485,62.0357895,69.6514587,61.9381218,69.5059433,61.923687z"
        />
        <path
          d="M69.2228394,64.258934c0.0000687,0.0107727,0.0083389,0.0151825,0.009285,0.0253448     c0.0397873-0.0776062,0.0808563-0.1560898,0.1201706-0.2332153C69.2771301,64.0920639,69.222023,64.1553726,69.2228394,64.258934     z"
        />
        <path
          d="M69.4626999,64.004631c-0.0464249,0.0027847-0.0759811,0.0276566-0.110405,0.0464325     c-0.0393143,0.0771255-0.0803833,0.1556091-0.1201706,0.2332153c0.0050812,0.0568008,0.0224991,0.1043777,0.0518494,0.1411819     c0.0713654-0.1373825,0.142128-0.2740936,0.2120743-0.4101868C69.4828949,64.0145264,69.4769974,64.0037537,69.4626999,64.004631     z"
        />
      </g>
    </g>
  </switch>
</svg>
