<svg
  xmlns="http://www.w3.org/2000/svg"
  xmlns:xlink="http://www.w3.org/1999/xlink"
  version="1.1"
  x="0px"
  y="0px"
  viewBox="0 0 90 112.5"
  style="enable-background: new 0 0 90 90"
  xml:space="preserve"
>
  <style type="text/css">
    .st0 {
      fill: none;
    }
  </style>
  <path
    class="st0"
    d="M46.1,23.8H46H44h-0.2v0c-0.4,0-0.8,0-1.2,0c0,0,0,0,0,0c0.4,0,0.8,0,1.2,0v0h0.2h1.9L46.1,23.8L46.1,23.8  c0.4,0,0.8,0,1.2,0.1c0,0,0,0,0,0C46.9,23.8,46.5,23.8,46.1,23.8L46.1,23.8z"
  />
  <path
    class="st0"
    d="M44.7,31.6c-0.7,0.7-1.5,1.2-2.5,1.4c-4.2,0.8-7.8,3.4-9.9,6.9c-0.1,0.2,0.1,0.3,0.2,0.3  c0.8-0.3,1.7-0.5,2.7-0.5h1.5c0.5,0,1,0.4,1,0.9c0,0.6-0.4,1.1-1,1.1h-1.5c-2.2,0-4.2,1.4-4.9,3.4c-0.1,0.4-0.1,0.8-0.2,1.2  c1.3-1.3,3.1-2.1,5.1-2.1c4,0,7.1,3.3,7.1,7.3v4c0,1.1,0.7,2.1,1.7,2.4c0.5,0.2,1.1,0.2,1.7,0l0,0c1-0.4,1.7-1.3,1.7-2.4v-6h0  c0.1-3.9,3.3-7.1,7.2-7.1c1.8,0,3.5,0.7,4.8,1.8c-0.2-0.8-0.4-1.5-0.7-2.2c-0.9-1.2-2.4-2-4.1-2h-2.9c-0.5,0-1-0.4-1-0.9  c0-0.6,0.4-1.1,1-1.1h3c0.5,0,0.9,0,1.4,0.1c0.2,0,0.3-0.2,0.2-0.3c-2.1-2.5-5.1-4.2-8.4-4.9c-1-0.2-1.9-0.7-2.5-1.4  C45.2,31.5,44.9,31.5,44.7,31.6z"
  />
  <path
    class="st0"
    d="M58.6,37.6c-0.7-1.5-1.7-2.9-2.9-4.1c-2.6-2.6-5.9-4-9.5-4.2c0.3,0.9,1.1,1.5,2,1.7  C52.5,31.9,56.2,34.3,58.6,37.6z"
  />
  <path
    class="st0"
    d="M36.2,24.6c0.2-0.2,0.3-0.5,0.2-0.8c-0.1-0.3-0.1-0.5-0.1-0.8c0-1.3,0.7-2.4,1.8-2.9c0.2-0.1,0.4-0.3,0.4-0.5  c0.5-1.3,1.7-2.2,3.1-2.2c0.3,0,0.7,0.1,1,0.2c0.1,0,0.3,0,0.4-0.1c0.6-0.4,1.3-0.7,2-0.7c0.7,0,1.4,0.2,2,0.7  c0.1,0.1,0.2,0.1,0.4,0.1c0.3-0.1,0.7-0.2,1-0.2c1.4,0,2.7,0.9,3.1,2.2c0.1,0.2,0.2,0.4,0.4,0.5c1.1,0.6,1.8,1.7,1.8,2.9  c0,0.3,0,0.6-0.1,0.8c-0.1,0.3,0,0.6,0.2,0.8c0.2,0.3,0.4,0.6,0.6,0.9c0,0.1,0.1,0.1,0.1,0.1c0.8,0.4,1.6,0.8,2.3,1.2  c0.1,0.1,0.2,0,0.2-0.1c-0.2-0.5-0.6-0.9-1-1.1c-0.4-0.2-0.7-0.6-0.8-1.1c-0.1-0.4,0-0.9,0.2-1.3c0.3-0.4,0.4-0.9,0.4-1.4  c0-2-1.3-2.4-2.1-2.5c-0.6-0.1-0.9-0.6-0.9-1c0-1.4-1.1-2.5-2.5-2.5c-0.3,0-0.5,0-0.8,0.1c-1,0.3-2,0.1-2.8-0.5  c-0.4-0.3-1-0.5-1.5-0.5c-0.6,0-1.1,0.2-1.5,0.5c-0.8,0.6-1.9,0.8-2.8,0.5c-0.2-0.1-0.5-0.1-0.8-0.1c-1.4,0-2.5,1.1-2.5,2.5  c0,0.5-0.4,0.9-0.9,1l0,0c-1.3,0.2-2.2,1.3-2.2,2.5c0,0.5,0.1,0.9,0.4,1.4c0.2,0.4,0.3,0.8,0.2,1.3c-0.1,0.4-0.4,0.8-0.8,1.1  c-0.4,0.3-0.8,0.7-1,1.1c0,0.1,0.1,0.2,0.2,0.1c0.7-0.4,1.5-0.8,2.3-1.2c0.1,0,0.1-0.1,0.2-0.2C35.8,25.1,36,24.8,36.2,24.6z"
  />
  <path
    class="st0"
    d="M51.7,22.9c0-0.7-0.5-1.2-1.1-1.3c-0.5-0.1-0.9-0.5-0.9-1l0,0c0-0.7-0.6-1.3-1.3-1.3c-0.1,0-0.3,0-0.4,0.1  c-0.7,0.2-1.6,0.1-2.2-0.4c-0.2-0.2-0.5-0.3-0.8-0.3c-0.3,0-0.6,0.1-0.8,0.3c-0.6,0.5-1.4,0.6-2.2,0.4c-0.1,0-0.3-0.1-0.4-0.1  c-0.7,0-1.3,0.6-1.3,1.3c0,0.5-0.4,0.9-0.9,1l0,0c-0.6,0.1-1.1,0.6-1.1,1.3c0,0.2,0.1,0.5,0.2,0.7c0.1,0.2,0.2,0.4,0.2,0.6  c0,0.1,0.2,0.2,0.3,0.2c0.4-0.1,0.8-0.2,1.2-0.3c0,0,0,0,0,0c0-0.7,0.3-1.3,0.9-1.7c0.2-0.1,0.3-0.3,0.4-0.5  c0.4-0.7,1.1-1.1,1.9-1.1c0,0,0.1,0,0.1,0c0.2,0,0.5,0,0.7-0.1c0.3-0.1,0.5-0.2,0.8-0.2c0.3,0,0.6,0.1,0.8,0.2  c0.2,0.1,0.4,0.1,0.7,0.1c0,0,0.1,0,0.1,0c0.8,0,1.5,0.5,1.9,1.1c0.1,0.2,0.2,0.3,0.4,0.5c0.5,0.4,0.9,1,0.9,1.7c0,0,0,0,0,0  c0.4,0.1,0.8,0.2,1.2,0.3c0.1,0,0.2,0,0.2-0.2c0-0.2,0.1-0.4,0.2-0.6C51.6,23.4,51.7,23.2,51.7,22.9z"
  />
  <path
    class="st0"
    d="M41.8,31c0.9-0.2,1.7-0.8,2-1.7c-0.1,0-0.1,0-0.2,0c-0.1,0-0.1,0-0.2,0c-0.1,0-0.1,0-0.2,0c-0.1,0-0.1,0-0.2,0  c-0.1,0-0.1,0-0.2,0c0,0-0.1,0-0.1,0c-0.1,0-0.1,0-0.2,0c0,0-0.1,0-0.1,0c-0.1,0-0.2,0-0.3,0c0,0,0,0,0,0c-0.1,0-0.2,0-0.3,0.1  c0,0-0.1,0-0.1,0c-0.1,0-0.1,0-0.2,0c0,0-0.1,0-0.1,0c-0.1,0-0.1,0-0.2,0c0,0-0.1,0-0.1,0c-0.1,0-0.1,0-0.2,0c0,0-0.1,0-0.1,0  c-0.1,0-0.1,0-0.2,0c0,0-0.1,0-0.1,0c-0.1,0-0.1,0-0.2,0.1c-0.1,0-0.1,0-0.2,0c-0.1,0-0.1,0-0.2,0.1c-0.1,0-0.1,0-0.2,0.1  c-0.1,0-0.1,0-0.2,0.1c-0.1,0-0.1,0-0.2,0.1c-0.1,0-0.1,0-0.2,0.1c-0.1,0-0.1,0-0.2,0.1c-0.1,0-0.1,0-0.2,0.1c-0.1,0-0.1,0-0.2,0.1  c-0.1,0-0.1,0-0.2,0.1c0,0-0.1,0-0.1,0.1c-0.1,0-0.1,0-0.2,0.1c0,0-0.1,0-0.1,0.1c-0.1,0-0.1,0.1-0.2,0.1c0,0-0.1,0-0.1,0.1  c-0.1,0-0.1,0.1-0.2,0.1c0,0-0.1,0.1-0.1,0.1c-0.1,0-0.1,0.1-0.2,0.1c0,0-0.1,0.1-0.1,0.1c-0.1,0-0.1,0.1-0.2,0.1  c0,0-0.1,0.1-0.1,0.1c0,0-0.1,0.1-0.1,0.1c0,0-0.1,0.1-0.1,0.1c0,0-0.1,0.1-0.1,0.1c0,0-0.1,0.1-0.1,0.1c0,0-0.1,0.1-0.1,0.1  c0,0-0.1,0.1-0.1,0.1c0,0-0.1,0.1-0.1,0.1c0,0-0.1,0.1-0.1,0.1c0,0-0.1,0.1-0.1,0.1c0,0-0.1,0.1-0.1,0.1c0,0-0.1,0.1-0.1,0.1  c0,0-0.1,0.1-0.1,0.1c0,0-0.1,0.1-0.1,0.1c0,0-0.1,0.1-0.1,0.1c0,0-0.1,0.1-0.1,0.1c0,0-0.1,0.1-0.1,0.1c0,0-0.1,0.1-0.1,0.1  c0,0-0.1,0.1-0.1,0.1c0,0-0.1,0.1-0.1,0.1c0,0-0.1,0.1-0.1,0.1c0,0,0,0,0,0c-0.1,0.1-0.3,0.3-0.4,0.4c0,0,0,0-0.1,0.1  c-0.1,0.1-0.2,0.3-0.3,0.4c0,0,0,0-0.1,0.1c-0.1,0.1-0.2,0.3-0.3,0.4c0,0,0,0-0.1,0.1c-0.1,0.1-0.2,0.3-0.3,0.4c0,0,0,0,0,0  c-0.1,0.1-0.2,0.3-0.3,0.4c0,0,0,0,0,0c-0.1,0.1-0.2,0.3-0.3,0.4c0,0,0,0,0,0.1c-0.1,0.1-0.2,0.3-0.3,0.4c0,0,0,0,0,0.1  c-0.1,0.2-0.2,0.3-0.2,0.5c0,0,0,0,0,0c-0.1,0.2-0.2,0.3-0.2,0.5c0,0,0,0,0,0c0,0,0,0,0,0C33.7,34.4,37.4,31.9,41.8,31z"
  />
  <path
    class="st0"
    d="M61.9,43.5v4c2.7-4.9,2.1-11-1.7-15.3c-3.5-4-8.6-6.4-13.9-6.5c-0.2,0-0.3,0.1-0.3,0.3V27  c0,0.2,0.2,0.3,0.3,0.4C55.1,27.7,62,34.8,61.9,43.5L61.9,43.5L61.9,43.5z"
  />
  <path
    class="st0"
    d="M33.1,31.8c0.1-0.1,0.2-0.2,0.3-0.3c1.1-1,2.2-1.8,3.5-2.4c2-1,4.3-1.7,6.6-1.8c0.2,0,0.3-0.2,0.3-0.4v-0.9  c0-0.2-0.1-0.3-0.3-0.3c-5.3,0.1-10.3,2.5-13.9,6.5c-3.8,4.3-4.3,10.4-1.6,15.3v-4v0c0,0,0,0,0,0v-1.2h0  C28.4,38.2,30.3,34.5,33.1,31.8z"
  />
  <path
    class="st0"
    d="M59.9,49.2c-0.2-1.9-1.3-3.5-3-4.3c0.1,0.3,0.2,0.7,0.2,1.1c-0.1,1.2-1.1,2.1-2.3,2.1c-1.3,0-2.4-1-2.4-2.4  c0-0.3,0.1-0.6,0.2-0.9c-1.8,0.8-3,2.6-3,4.7v5.8c0,1.9-1.2,3.7-3,4.3l-0.1,0c-0.5,0.2-1,0.3-1.5,0.3c-0.5,0-1-0.1-1.5-0.3  c-1.8-0.7-3-2.4-3-4.3v-4.1c0-2.1-1.2-3.9-3-4.7c0.1,0.3,0.2,0.7,0.2,1.1C37.5,49,36.5,50,35.4,50c-1.3,0-2.4-1-2.4-2.4  c0-0.3,0.1-0.6,0.2-0.9c-1.8,0.8-3,2.6-3,4.7v1.9l0,0v5.7c2.1,1.2,4.7,0.7,6.3-1.1c0.3-0.4,0.9-0.4,1.3-0.2l0,0  c0.5,0.3,0.6,1.1,0.2,1.5c-1.4,1.5-3.3,2.3-5.3,2.3c-0.8,0-1.6-0.1-2.4-0.4c0.5,3.8,2.6,7.1,5.8,9.3l5.2,3.4c2.3,1.5,5.3,1.5,7.5,0  l5.2-3.4c2.5-1.7,4.4-4.1,5.3-6.9c-0.4,0.1-0.8,0.1-1.2,0.1c-2.4,0-4.6-1.2-6-3.2c-0.3-0.5-0.1-1.2,0.4-1.5l0,0  c0.4-0.2,1-0.1,1.2,0.3c1.3,1.9,3.8,2.8,6.1,2c0.1-0.6,0.1-1.3,0.1-1.9v-6.2l0,0V49.2z M45,67.4c-1.6,0-3.1-0.6-4.3-1.8l1.4-1.4  c0.8,0.8,1.8,1.2,2.8,1.2c1.1,0,2.1-0.4,2.8-1.2l1.4,1.4C48.1,66.8,46.6,67.4,45,67.4z"
  />
  <path
    d="M45,65.4c-0.8,0-1.6-0.2-2.2-0.7c-0.4-0.3-0.9-0.2-1.3,0.1l0,0c-0.4,0.4-0.4,1.2,0.1,1.5c1,0.7,2.1,1,3.3,1  c1.2,0,2.4-0.4,3.3-1c0.5-0.3,0.6-1.1,0.1-1.5l0,0c-0.3-0.3-0.9-0.4-1.3-0.1C46.6,65.2,45.8,65.4,45,65.4z"
  />
  <path
    d="M61.8,30.9c-0.6-0.7-1.2-1.3-1.9-1.9c-0.4-0.4-0.7-1-0.7-1.6c0-0.1,0-0.1,0-0.2c-0.1-1.2-0.7-2.4-1.7-3.1  c-0.2-0.1-0.2-0.4-0.1-0.5c0.2-0.6,0.4-1.2,0.4-1.8c0-2.4-1.3-3.7-2.7-4.2c-0.2-0.1-0.4-0.3-0.5-0.5c-0.5-1.9-2.3-3.3-4.4-3.3  c-0.5,0-0.9,0.1-1.4,0.2c-0.3,0.1-0.7,0-1-0.2C47,13.2,46,12.9,45,12.9c-1,0-1.9,0.3-2.7,0.9c-0.3,0.2-0.7,0.3-1,0.2  c-0.4-0.1-0.9-0.2-1.4-0.2c-2.1,0-3.9,1.5-4.4,3.5c0,0.2-0.2,0.3-0.3,0.4c-1.7,0.7-2.9,2.3-2.9,4.2c0,0.6,0.1,1.2,0.4,1.8  c0.1,0.2,0,0.5-0.2,0.6c-0.9,0.8-1.5,1.9-1.6,3.1c0,0,0,0.1,0,0.2c0,0.6-0.3,1.2-0.7,1.6c-0.7,0.6-1.3,1.2-1.9,1.9  c-5,5.6-5.1,13.9-0.5,19.8c0.2,0.2,0.3,0.6,0.3,0.9v7.9c0,5.1,2.6,9.9,6.9,12.7l5.2,3.4c1.5,1,3.2,1.5,4.9,1.5  c1.7,0,3.4-0.5,4.9-1.5l5.2-3.4c4.3-2.8,6.9-7.6,6.9-12.7v-7.7c0-0.5,0.2-1,0.4-1.3C66.9,44.7,66.7,36.5,61.8,30.9z M33.1,26.6  c0.2-0.5,0.6-0.8,1-1.1c0.4-0.2,0.7-0.6,0.8-1.1c0.1-0.4,0-0.9-0.2-1.3c-0.3-0.4-0.4-0.9-0.4-1.4c0-1.3,0.9-2.4,2.2-2.5l0,0  c0.5-0.1,0.9-0.5,0.9-1c0-1.4,1.1-2.5,2.5-2.5c0.3,0,0.5,0,0.8,0.1c1,0.3,2,0.1,2.8-0.5c0.4-0.3,1-0.5,1.5-0.5  c0.6,0,1.1,0.2,1.5,0.5c0.8,0.6,1.9,0.8,2.8,0.5c0.2-0.1,0.5-0.1,0.8-0.1c1.4,0,2.5,1.1,2.5,2.5c0,0.5,0.3,0.9,0.9,1  c0.8,0.1,2.1,0.5,2.1,2.5c0,0.5-0.1,0.9-0.4,1.4c-0.2,0.4-0.3,0.8-0.2,1.3c0.1,0.4,0.4,0.8,0.8,1.1c0.5,0.3,0.8,0.7,1,1.1  c0,0.1-0.1,0.2-0.2,0.1c-0.7-0.4-1.5-0.9-2.3-1.2c-0.1,0-0.1-0.1-0.1-0.1c-0.1-0.3-0.3-0.6-0.6-0.9c-0.2-0.2-0.3-0.5-0.2-0.8  c0.1-0.3,0.1-0.5,0.1-0.8c0-1.3-0.7-2.4-1.8-2.9c-0.2-0.1-0.4-0.3-0.4-0.5c-0.5-1.3-1.7-2.2-3.1-2.2c-0.3,0-0.7,0.1-1,0.2  c-0.1,0-0.3,0-0.4-0.1c-0.6-0.4-1.3-0.7-2-0.7c-0.7,0-1.4,0.2-2,0.7c-0.1,0.1-0.2,0.1-0.4,0.1c-0.3-0.1-0.7-0.2-1-0.2  c-1.4,0-2.7,0.9-3.1,2.2c-0.1,0.2-0.2,0.4-0.4,0.5c-1.1,0.6-1.8,1.7-1.8,2.9c0,0.3,0,0.6,0.1,0.8c0.1,0.3,0,0.6-0.2,0.8  c-0.2,0.3-0.4,0.5-0.5,0.9c0,0.1-0.1,0.1-0.2,0.2c-0.8,0.3-1.5,0.7-2.3,1.2C33.1,26.8,33,26.7,33.1,26.6z M46.6,23.8  c-0.1,0-0.1,0-0.2,0c-0.1,0-0.3,0-0.4,0v0h-0.2h-1.9h-0.2v0c-0.2,0-0.3,0-0.5,0c-0.2,0-0.3,0-0.5,0c0,0-0.1,0-0.1,0c0,0,0-0.1,0-0.1  c0.1-0.1,0.1-0.2,0.2-0.3c0.1-0.1,0.1-0.3,0.1-0.5c0-0.1,0.1-0.1,0.1-0.1c0,0,0,0,0,0c0.1,0,0.2,0,0.3,0.1c0.2,0,0.3,0,0.5,0  c0.2,0,0.5-0.1,0.7-0.3c0,0,0.1-0.1,0.1-0.1c0,0,0.1,0,0.2,0c0.4,0.3,1,0.4,1.5,0.3c0,0,0,0,0,0c0.1,0,0.1,0.1,0.1,0.1v0  c0,0.1,0,0.3,0.1,0.4c0.1,0.1,0.1,0.2,0.3,0.3c0,0,0,0,0,0.1c0,0-0.1,0-0.1,0c0,0-0.1,0-0.1,0c0,0-0.1,0-0.1,0  C46.8,23.8,46.7,23.8,46.6,23.8C46.6,23.8,46.6,23.8,46.6,23.8z M47.9,33c3.4,0.7,6.3,2.4,8.4,4.9c0.1,0.1,0,0.3-0.2,0.3  c-0.4-0.1-0.9-0.1-1.4-0.1h-2.9c-0.5,0-1,0.4-1,0.9c-0.1,0.6,0.4,1.2,1,1.2h3c0.2,0,0.4,0,0.6,0c1.9,0.2,3.5,1.6,4,3.5l0,0.1  c0.1,0.2-0.2,0.3-0.3,0.2c-1.2-0.9-2.7-1.4-4.3-1.4c-3.9,0-7.1,3.2-7.2,7.1h0v6c0,1.1-0.7,2.1-1.7,2.4l0,0c-0.5,0.2-1.2,0.2-1.7,0  c-1-0.4-1.7-1.3-1.7-2.4v-4c0-3.8-2.9-7-6.7-7.3c-2-0.1-3.8,0.5-5.1,1.7c-0.1,0.1-0.4,0-0.3-0.2l0,0c0.1-0.5,0.2-1,0.5-1.5  c0.9-1.6,2.6-2.6,4.5-2.6h1.5c0.5,0,1-0.4,1-0.9c0.1-0.6-0.4-1.2-1-1.2h-1.5c-1,0-1.9,0.2-2.7,0.5c-0.2,0.1-0.3-0.1-0.2-0.3  c2.1-3.5,5.7-6.1,9.9-6.9c1-0.2,1.9-0.7,2.5-1.4c0.2-0.2,0.4-0.2,0.6,0C46,32.3,46.9,32.8,47.9,33z M46.2,29.3  c3.6,0.1,7,1.6,9.5,4.2c0.9,0.9,1.6,1.8,2.2,2.9c0.1,0.1-0.1,0.3-0.2,0.2c-2.4-2.8-5.7-4.8-9.5-5.5C47.3,30.8,46.5,30.2,46.2,29.3z   M31.9,36.6c0-0.1,0.1-0.2,0.1-0.2c0,0,0,0,0-0.1c0.1-0.1,0.2-0.3,0.3-0.4c0,0,0.3-0.5,0.3-0.5c0.1-0.1,0.2-0.3,0.3-0.4  c0,0,0,0,0.1-0.1c0.1-0.1,0.2-0.3,0.3-0.4c0,0,0,0,0.1-0.1c0.1-0.1,0.2-0.3,0.3-0.4c0.1-0.1,0.4-0.4,0.4-0.5c0,0,0.1-0.1,0.1-0.1  c0,0,0.1-0.1,0.1-0.1c0,0,0.1-0.1,0.1-0.1c0,0,0.1-0.1,0.1-0.1c0,0,0.1-0.1,0.1-0.1c0,0,0.1-0.1,0.1-0.1c0,0,0.1-0.1,0.1-0.1  c0,0,0.1-0.1,0.1-0.1c0,0,0.1-0.1,0.1-0.1c0,0,0.1-0.1,0.1-0.1c0,0,0.1-0.1,0.1-0.1c0,0,0.1-0.1,0.1-0.1c0,0,0.1-0.1,0.1-0.1  c0,0,0.1-0.1,0.1-0.1c0,0,0.1-0.1,0.1-0.1c0,0,0.1-0.1,0.1-0.1c0,0,0.1-0.1,0.1-0.1c0,0,0.1-0.1,0.1-0.1c0,0,0.1-0.1,0.1-0.1  c0,0,0.1-0.1,0.1-0.1c0,0,0.1-0.1,0.1-0.1c0.1,0,0.1-0.1,0.2-0.1c0,0,0.1-0.1,0.1-0.1c0.1,0,0.1-0.1,0.2-0.1c0,0,0.1-0.1,0.1-0.1  c0.1,0,0.1-0.1,0.2-0.1c0,0,0.1,0,0.1-0.1c0.1,0,0.1-0.1,0.2-0.1c0,0,0.1,0,0.1-0.1c0.1,0,0.1,0,0.2-0.1c0,0,0.1,0,0.1-0.1  c0.1,0,0.1,0,0.2-0.1c0.1,0,0.1,0,0.2-0.1c0.1,0,0.1,0,0.2-0.1c0.1,0,0.1,0,0.2-0.1c0.1,0,0.1,0,0.2-0.1c0.1,0,0.1,0,0.2-0.1  c0.1,0,0.1,0,0.2-0.1c0.1,0,0.1,0,0.2-0.1c0.1,0,0.1,0,0.2-0.1c0.1,0,0.1,0,0.2,0c0.1,0,0.1,0,0.2-0.1c0,0,0.1,0,0.1,0  c0.1,0,0.1,0,0.2,0c0,0,0.1,0,0.1,0c0.1,0,0.1,0,0.2,0c0,0,0.1,0,0.1,0c0.1,0,0.1,0,0.2,0c0,0,0.1,0,0.1,0c0.1,0,0.1,0,0.2,0  c0,0,0.1,0,0.1,0c0.1,0,0.2,0,0.3-0.1c0,0,0,0,0,0c0.1,0,0.2,0,0.3,0c0,0,0.1,0,0.1,0c0.1,0,0.1,0,0.2,0c0,0,0.1,0,0.1,0  c0.1,0,0.1,0,0.2,0c0.1,0,0.1,0,0.2,0c0.1,0,0.1,0,0.2,0c0.1,0,0.1,0,0.2,0c0,0,0,0.1,0.1,0.1c-0.4,0.8-1.1,1.4-2,1.6  c-3.8,0.7-7.2,2.8-9.6,5.6c0,0-0.1,0.1-0.1,0.1c0,0-0.1,0.1-0.2,0C31.9,36.7,31.9,36.6,31.9,36.6z M46.7,20.8c0,0-0.1,0-0.1,0  c-0.2,0-0.5,0-0.7-0.1c-0.3-0.1-0.5-0.2-0.8-0.2c-0.3,0-0.6,0.1-0.8,0.2c-0.2,0.1-0.4,0.1-0.7,0.1c0,0-0.1,0-0.1,0  c-0.8,0-1.5,0.5-1.9,1.1c-0.1,0.2-0.2,0.3-0.4,0.5c-0.5,0.4-0.9,1-0.9,1.7c0,0,0,0,0,0c-0.4,0.1-0.8,0.2-1.2,0.3  c-0.1,0-0.3-0.1-0.3-0.2c0-0.2-0.1-0.4-0.2-0.6c-0.1-0.2-0.2-0.5-0.2-0.7c0-0.7,0.5-1.2,1.1-1.3l0,0c0.5-0.1,0.9-0.5,0.9-1  c0-0.7,0.6-1.3,1.3-1.3c0.1,0,0.3,0,0.4,0.1c0.7,0.2,1.6,0.1,2.2-0.4c0.2-0.2,0.5-0.3,0.8-0.3c0.3,0,0.6,0.1,0.8,0.3  c0.6,0.5,1.4,0.6,2.2,0.4c0.1,0,0.3-0.1,0.4-0.1c0.7,0,1.3,0.6,1.3,1.3l0,0c0,0.5,0.4,0.9,0.9,1c0.7,0.1,1.1,0.6,1.1,1.3  c0,0.2-0.1,0.5-0.2,0.7c-0.1,0.2-0.2,0.4-0.2,0.6c0,0.1-0.1,0.2-0.2,0.2c-0.3-0.1-0.6-0.1-0.8-0.2c-0.1,0-0.2,0-0.3-0.1  c-0.1,0-0.1-0.1-0.1-0.1c0-0.1,0-0.3-0.1-0.4c-0.1-0.5-0.4-0.9-0.8-1.2c-0.2-0.1-0.3-0.3-0.4-0.5C48.2,21.3,47.5,20.8,46.7,20.8z   M42.7,23.8C42.7,23.8,42.7,23.8,42.7,23.8C42.7,23.8,42.7,23.8,42.7,23.8L42.7,23.8z M28.1,46.8c0,0.2-0.3,0.3-0.3,0.1  c-2.3-4.7-1.6-10.5,2-14.6c3.5-4,8.6-6.4,13.9-6.5c0.2,0,0.3,0.1,0.3,0.3V27c0,0.2-0.2,0.3-0.3,0.4c-2.4,0.1-4.6,0.7-6.6,1.8  c-1.3,0.7-2.5,1.5-3.5,2.4c-0.1,0.1-0.2,0.2-0.3,0.3c-2.8,2.7-4.7,6.4-5,10.6L28.1,46.8z M59.9,59.5c0,0.4,0,0.9-0.1,1.3  c0,0.4-0.3,0.6-0.6,0.7c-2.1,0.5-4.3-0.4-5.5-2.2c-0.3-0.4-0.8-0.5-1.2-0.3l0,0c-0.6,0.3-0.8,1-0.4,1.5c1.4,2,3.6,3.2,6,3.2  c0.2,0,0.4,0,0.7,0c0.3,0,0.4,0.2,0.4,0.5c-1,2.6-2.7,4.8-5.1,6.4L48.8,74c-2.3,1.5-5.3,1.5-7.5,0L36,70.6c-3.1-2-5.1-5.2-5.7-8.7  c0-0.2,0.2-0.5,0.4-0.4c0.6,0.2,1.2,0.2,1.8,0.2c2,0,3.9-0.8,5.3-2.3c0.4-0.5,0.3-1.2-0.2-1.5l0,0c-0.4-0.3-1-0.2-1.3,0.2  c-1.5,1.6-3.8,2.1-5.8,1.3c-0.3-0.1-0.5-0.4-0.5-0.8v-5.2l0,0v-1.9c0-1.9,1-3.5,2.5-4.4c0.2-0.1,0.4,0,0.4,0.2c0,0.2,0,0.4,0,0.6  C33,49,34,50,35.2,50c1.3,0,2.4-1,2.4-2.4c0-0.1,0-0.2,0-0.3c0-0.2,0.2-0.4,0.4-0.2c1.5,0.9,2.5,2.5,2.5,4.4v4.1  c0,1.9,1.2,3.6,3,4.3c0.5,0.2,1,0.3,1.5,0.3c0.5,0,1-0.1,1.5-0.3l0.1,0c1.8-0.6,3-2.4,3-4.3v-5.8c0-1.9,1-3.5,2.5-4.4  c0.2-0.1,0.4,0,0.4,0.2c0,0.2,0,0.4,0,0.6c0.1,1.2,1.1,2.1,2.3,2.1c1.3,0,2.4-1,2.4-2.4c0-0.1,0-0.2,0-0.3c0-0.2,0.2-0.4,0.4-0.2  c1.4,0.8,2.3,2.3,2.5,4l0,4.1V59.5z M61.9,47v-3.4c0.1,0,0,0,0,0c0-8.7-6.9-15.9-15.5-16.2c-0.2,0-0.3-0.2-0.3-0.4v-0.9  c0-0.2,0.1-0.3,0.3-0.3c5.3,0.1,10.3,2.5,13.9,6.5c3.7,4.1,4.3,10,1.9,14.8C62.1,47.2,61.9,47.1,61.9,47z"
  />
</svg>
