<svg xmlns="http://www.w3.org/2000/svg" viewBox="0 0 100 125" x="0px" y="0px">
  <g data-name="Frederick Douglass">
    <path
      data-name="frederick douglass"
      d="M66.11256,50.87l-1.1875.916a2.4824,2.4824,0,0,0-1.79724-.98328,1.84435,1.84435,0,1,1-3.56811.65381c0-.02606.00659-.05029.00769-.07611a9.05854,9.05854,0,0,0-1.5398.764l-.80469-1.26563a10.449,10.449,0,0,1,2.64356-1.208,8.40124,8.40124,0,0,1,2.14648-.38086,4.98157,4.98157,0,0,1,3.04883.61718A4.0808,4.0808,0,0,1,66.11256,50.87ZM38.91823,49.28994a4.97722,4.97722,0,0,0-3.04883.61816,4.05957,4.05957,0,0,0-1.05078.96192l1.1875.916a2.5718,2.5718,0,0,1,.66406-.60937,2.6013,2.6013,0,0,1,1.1333-.37421,1.84435,1.84435,0,1,0,3.568.65411c0-.02606-.00659-.05029-.00769-.07611a9.05854,9.05854,0,0,1,1.5398.764l.80468-1.26563a10.44881,10.44881,0,0,0-2.64355-1.208A8.40124,8.40124,0,0,0,38.91823,49.28994ZM67.32008,45.7333a3.99052,3.99052,0,0,0-2.32959-.42871,81.53529,81.53529,0,0,0-8.95215,1.78515l.48535,1.93945A76.14262,76.14262,0,0,1,65.158,47.29677a2.0277,2.0277,0,0,1,1.1875.18262,2.089,2.089,0,0,1,.854,1.0918l1.86718-.7168A4.00035,4.00035,0,0,0,67.32008,45.7333ZM35.77272,47.29677c2.57129.2168,9.20654,1.61231,9.50976,1.68555l.48731-1.94043c-.25635-.06445-7.05567-1.50488-9.82959-1.7373a3.73023,3.73023,0,0,0-4.07569,2.5498l1.86719.7168a2.09175,2.09175,0,0,1,.853-1.0918A2.02326,2.02326,0,0,1,35.77272,47.29677Zm17.68017,16.21a2.65478,2.65478,0,0,0-.99218.63575,3.45169,3.45169,0,0,1-.96534.66113,1.94386,1.94386,0,0,1-1.03125.28613,3.06,3.06,0,0,1-1.102-.39844,5.54925,5.54925,0,0,1-1.01416-.66406A2.51817,2.51817,0,0,0,47.406,63.496a3.43037,3.43037,0,0,0-2.82227.67578l.8291,1.25a2.18832,2.18832,0,0,1,1.58252-.48242,1.10033,1.10033,0,0,1,.41748.26074,7.06276,7.06276,0,0,0,1.25538.82129,3.88663,3.88663,0,0,0,1.75488.56836c.02978.001.05957.001.08887.001a3.67669,3.67669,0,0,0,1.61718-.42774,4.90788,4.90788,0,0,0,1.33985-.91015,1.25928,1.25928,0,0,1,.46045-.32422,2.19857,2.19857,0,0,1,1.624.44726l.79394-1.27343A3.41039,3.41039,0,0,0,53.45289,63.50673Zm.15577,7.292a8.67556,8.67556,0,0,0-1.93409.94531l-.39453.22558c-.41406.23829-.44433.25-.55029.26368a2.9705,2.9705,0,0,1-1.12305-.2959,6.15144,6.15144,0,0,1-1.00635-.51953,3.46176,3.46176,0,0,0-.70751-.36328,4.08025,4.08025,0,0,0-3.26075.44335l.68213,1.33594a2.69642,2.69642,0,0,1,2.07178-.36719,2.13449,2.13449,0,0,1,.42236.22461,7.59783,7.59783,0,0,0,1.22412.63184,4.31352,4.31352,0,0,0,1.62207.416,2.03391,2.03391,0,0,0,.27149-.01856,2.69317,2.69317,0,0,0,1.10351-.45215l.38623-.2207a10.18866,10.18866,0,0,1,1.53809-.79,2.28158,2.28158,0,0,1,1.59814.38477l.74708-1.30079A3.6858,3.6858,0,0,0,53.60866,70.79873Zm36.71093-10.121c-.68585,1.52344-3.23108,7.20124-9.30816,8.85413a14.19477,14.19477,0,0,1-10.25214-1.39069,41.92331,41.92331,0,0,1-2.533,5.24543,27.52674,27.52674,0,0,1-3.62939,4.917,24.97142,24.97142,0,0,1-2.42841,2.25293V92.5a7.18605,7.18605,0,0,1-1.8233-1.19531,8.23867,8.23867,0,0,1-2.1706-3.24536,2.85464,2.85464,0,0,1-2.18682,3.35284,2.77788,2.77788,0,0,1-2.67743-3.12238c.25274,2.10132-1.24573,3.84162-2.82953,3.83228v.00354c-.00513.00012-.01013-.00183-.01526-.00177s-.01013.00189-.01526.00177v-.00354c-1.5838.00934-3.08228-1.731-2.82953-3.83228a2.77788,2.77788,0,0,1-2.67743,3.12238,2.85465,2.85465,0,0,1-2.18683-3.35284,8.23862,8.23862,0,0,1-2.17059,3.24536A7.18605,7.18605,0,0,1,38.76265,92.5V80.42031a25.01112,25.01112,0,0,1-2.2619-2.1167,27.58887,27.58887,0,0,1-3.6294-4.917,43.94435,43.94435,0,0,1-2.50525-5.248,12.1742,12.1742,0,0,1-7.26446,2.097c-4.39051-.21337-7.23407-2.94976-8.59729-4.26165a18.54123,18.54123,0,0,1-4.43366-7.05475A27.93933,27.93933,0,0,1,8.93422,42.88527a31.38619,31.38619,0,0,1,4.8233-11.06518c.04736-.07245.11182-.17084.19312-.29254a31.363,31.363,0,0,1,7.4674-8.21912,21.12654,21.12654,0,0,1,5.34571-3.09027,19.23068,19.23068,0,0,0,3.95172-1.75629,16.33831,16.33831,0,0,0,2.19537-1.61c.51727-.45062,1.0116-.98407,2.00171-2.04944.34839-.37488.5235-.56989.63458-.69031a22.78542,22.78542,0,0,1,6.93506-4.608c.05493-.02466.31274-.13831.55438-.24231A24.15282,24.15282,0,0,1,54.088,7.54818a32.30917,32.30917,0,0,1,16.82068,5.79419,37.387,37.387,0,0,1,8.85413,8.51355,50.63322,50.63322,0,0,1,8.7406,17.36767C91.266,48.07491,93.20149,54.276,90.31959,60.67775ZM57.36616,72.28042a2.54194,2.54194,0,0,0-2.41351-2.65332H45.97853A2.54194,2.54194,0,0,0,43.565,72.28042v.84539a2.542,2.542,0,0,0,2.41351,2.65338c.15979,0,.2796.01172.40191,0,1.90558-.18206,2.86713-1.0473,4.06989-1.20611v-.006l.01526.003.01526-.003v.006c1.20276.15881,2.1643,1.02405,4.06988,1.20611.12232.01172.24213,0,.40192,0a2.542,2.542,0,0,0,2.41351-2.65338ZM76.14186,58.1802A10.22134,10.22134,0,0,0,74.98927,53.46a10.98685,10.98685,0,0,1-3.6076-3.25982,13.68168,13.68168,0,0,1-2.03052-5.50794c-.6109-3.01013-.20722-3.96667-1.0777-7.29211A8.7097,8.7097,0,0,0,67.276,34.761a8.09109,8.09109,0,0,0-4.2044-3.15961c-4.9513-1.89673-10.44306-.71289-16.99427-1.48743-8.02691-.9491-10.582-3.89252-13.03094-2.05755-2.51135,1.88165-2.80225,6.75683-2.976,9.66912-.13587,2.27631.15393,2.46173-.09626,5.16645-.25213,2.72607-.49859,5.35754-2.0971,7.69586a10.00676,10.00676,0,0,1-2.84076,2.7384,16.70667,16.70667,0,0,0-.17121,5.28058c.24,1.84869.45887,4.03357,1.822,4.40234a3.30669,3.30669,0,0,0,2.20581-.3551l.01105.03082.677-.28845q.68043,1.59669,1.27686,3.03711a61.74255,61.74255,0,0,0,3.29785,7.17774,26.05813,26.05813,0,0,0,3.437,4.66308c.37616.39942.768.78241,1.17011,1.15357v-3.421c0-4.23078,3.11969-7.6604,6.968-7.6604h9.47c3.84827,0,6.968,3.42962,6.968,7.6604v3.56671c.46008-.41681.90967-.84583,1.33661-1.29926a26.02106,26.02106,0,0,0,3.437-4.66308,65.08506,65.08506,0,0,0,4.37891-10.05567l.84308.30847.00006-.00006c.13427.04395.26617.09479.39776.14563l.16828.06159-.00061.00171a2.03143,2.03143,0,0,0,1.50128.11706C76.08156,62.519,76.13649,59.01705,76.14186,58.1802Zm-48.08692-.80433-1.15625-.95507a3.16778,3.16778,0,0,0-.73291,2.19238,3.30863,3.30863,0,0,0,.81836,1.9541l1.12891-.98828a1.79675,1.79675,0,0,1-.4502-1.05371A1.67189,1.67189,0,0,1,28.05494,57.37587Zm44.82129,0a1.6718,1.6718,0,0,1,.39209,1.14942,1.79669,1.79669,0,0,1-.45019,1.05371l1.1289.98828a3.30851,3.30851,0,0,0,.81836-1.9541,3.16768,3.16768,0,0,0-.73291-2.19238Zm-22.38964-6.5664a4.30639,4.30639,0,0,1,2.331.72461l.83789-1.24414a5.89148,5.89148,0,0,0-3.22656-.98047,5.8224,5.8224,0,0,0-3.15332.98047l.83789,1.24414A4.34565,4.34565,0,0,1,50.48659,50.80947Z"
    />
  </g>
</svg>
