<?xml version="1.0" encoding="UTF-8" standalone="no"?>
<svg xmlns="http://www.w3.org/2000/svg" width="900" height="600">
  <rect width="900" height="600" />
  <polygon points="0,600 900,0 0,0" fill="#00dd00" />
</svg>
