<svg
  xmlns="http://www.w3.org/2000/svg"
  xmlns:xlink="http://www.w3.org/1999/xlink"
  version="1.1"
  x="0px"
  y="0px"
  viewBox="0 0 101 126.25"
  style="enable-background: new 0 0 101 101"
  xml:space="preserve"
>
  <path
    d="M72.83,65.066c-0.469,0-1.06,0.177-1.647,0.474c-0.051-0.057-0.11-0.108-0.185-0.138c-0.058-0.023-0.219-0.087-0.451-0.179  c0.763-0.191,1.405-0.376,1.868-0.549c1.733-0.65,2.667-1.944,2.627-3.642c-0.042-1.825-1.27-3.811-2.627-4.25  c-0.115-0.037-0.253-0.07-0.406-0.1c0.662-0.652,1.062-1.468,1.066-2.717c0.009-2.675-3.403-11.783-4.098-13.359  c-0.549-1.246-3.08-2.258-4.914-2.844c0.052-0.151,0.107-0.301,0.141-0.46l0.613-2.877c0.003-0.001,0.008,0,0.011-0.001  c0.451-0.118,0.704-0.649,0.696-1.456c-0.013-1.255-0.746-3.55-3.413-4.19c-0.369-0.088-0.735-0.133-1.089-0.133  c-2.205,0-3.498,1.692-3.914,2.692c-0.155,0.371-0.198,0.661-0.153,0.893l-0.719,3.376c-0.153,0.721-0.088,1.432,0.123,2.087  c-1.544,0.663-4.364,1.887-5.01,2.258c-1.199,0.687-3.16,6.764-3.761,9.142c-0.285-0.765-0.61-1.387-0.926-1.706  c-0.513-0.516-1.401-0.699-2.189-0.751c0.095-0.296,0.167-0.601,0.184-0.925c0.015-0.292,0.028-0.821,0.04-1.352  c0.013-0.527,0.025-1.056,0.041-1.345c0.052-0.983-0.281-1.927-0.939-2.66c-0.658-0.733-1.562-1.165-2.544-1.218  c-2.053-0.102-3.769,1.462-3.877,3.484c-0.016,0.295-0.028,0.836-0.041,1.375c-0.012,0.52-0.024,1.038-0.04,1.322  c-0.025,0.463,0.043,0.916,0.184,1.344c-1.072,0.261-2.156,0.722-3.15,1.247l-7.926,1.834c-0.269,0.062-0.437,0.331-0.375,0.6  l0.908,3.924c-0.254,0.269-0.453,0.646-0.564,1.103c-0.197,0.814-0.063,1.806,0.68,2.188c0.23,0.118,0.461,0.176,0.689,0.186  l0.799,3.456c-0.706,0.269-1.138,0.797-1.322,1.332c-0.298,0.868-0.059,1.833,0.569,2.628c-0.943,0.942-1.827,2.212-1.83,3.001  c-0.004,1.316,0.85,2.785,2.082,2.789c0,0,0.001,0,0.002,0c0.724,0,1.853-1.096,2.726-2.082c0.027,0.127,0.1,0.239,0.208,0.311  c0.083,0.056,0.18,0.084,0.278,0.084c0.035,0,0.07-0.003,0.104-0.011c0.18-0.038,2.032-0.436,4.297-1.009  c3.41,0.817,6.788,1.467,7.042,1.515c0.032,0.006,0.063,0.009,0.094,0.009c0.035,0,0.067-0.011,0.1-0.018  c0.035,0.023,0.06,0.052,0.096,0.074c0.644,0.406,1.388,0.62,1.79,0.621c0.001,0,0.001,0,0.002,0c0.548,0,0.852-0.593,1.017-1.984  c0.015-0.129,0.033-0.315,0.049-0.52c0.731,0.99,1.766,1.915,2.418,1.918c0,0,0.001,0,0.002,0c0.465,0,0.895-0.334,1.209-0.94  c0.065-0.126,0.124-0.262,0.177-0.405c0.094,0.11,0.214,0.192,0.363,0.192c0.022,0,0.045-0.001,0.068-0.004  c0.222-0.03,1.94-0.266,4.344-0.62c6.675,1.878,15.038,3.763,15.584,3.886c0.036,0.008,0.073,0.012,0.109,0.012  c0.102,0,0.203-0.031,0.288-0.091c0.079-0.055,0.13-0.135,0.166-0.223c0.524,0.361,1.049,0.608,1.392,0.677  c0.032,0.006,0.098,0.013,0.131,0.013c0.438,0,0.786-0.37,1.161-1.238c0.533-1.23,1.497-4.72,0.614-5.66  C73.701,65.279,73.384,65.066,72.83,65.066z M48.263,68.858c-0.446-0.087-1.974-1.622-2.256-2.668c-0.037-0.137-0.059-0.313,0-0.36  c0.231-0.183,0.491-0.316,0.756-0.401c0.457,0.266,1.145,0.563,2.01,0.883c0.204,0.556,0.143,1.318-0.074,1.89  C48.531,68.643,48.335,68.832,48.263,68.858z M28.163,62.856c0.108-0.314,0.323-0.543,0.626-0.682  c0.041,0.08,0.095,0.153,0.173,0.201c0.08,0.05,0.172,0.076,0.265,0.076c0.038,0,0.076-0.004,0.113-0.013l1.265-0.293  c0.836,0.159,2,0.45,3.286,0.799c-1.925,0.567-3.433,1.036-3.575,1.081c-0.007,0.002-0.012,0.007-0.019,0.01  c-0.19-0.055-0.4-0.096-0.646-0.097c0,0-0.001,0-0.001,0c-0.274,0-0.677,0.219-1.115,0.558  C28.116,63.935,28.006,63.315,28.163,62.856z M27.344,55.604c0.107-0.443,0.354-0.791,0.561-0.791c0.06,0,0.177,0.019,0.282,0.142  c0.093,0.108,0.204,0.329,0.202,0.761c-0.002,0.571-0.264,1.036-0.585,1.036c-0.088,0-0.187-0.028-0.295-0.084  C27.301,56.561,27.227,56.084,27.344,55.604z M29.389,55.719c0.002-0.593-0.147-1.069-0.443-1.415  c-0.266-0.311-0.645-0.489-1.042-0.491c-0.015,0-0.03,0.004-0.045,0.005l-0.744-3.214l11.166-2.584  c0.008,0.008,0.017,0.015,0.025,0.023l1.188,5.133c-0.58,0.362-0.952,1.222-0.953,2.017c-0.002,1.135,0.727,1.873,1.858,1.892  l0.388,1.677l-11.185,2.588l-0.91-3.931C29.115,57.062,29.386,56.447,29.389,55.719z M41.054,40.131l0.146,0.004  c0.716,0.038,1.375,0.353,1.854,0.887c0.479,0.534,0.723,1.222,0.684,1.938c-0.016,0.295-0.028,0.836-0.041,1.375  c-0.012,0.52-0.024,1.038-0.04,1.322c-0.076,1.426-1.252,2.543-2.678,2.543h0l-0.146-0.004c-0.717-0.038-1.376-0.353-1.855-0.886  c-0.479-0.534-0.722-1.222-0.684-1.939c0.015-0.292,0.028-0.821,0.04-1.352c0.013-0.527,0.025-1.056,0.041-1.345  C38.451,41.248,39.628,40.131,41.054,40.131z M48.522,49.469c0.831-3.377,2.696-8.23,3.323-8.652  c0.555-0.318,3.082-1.423,4.924-2.214c0.565,0.906,1.477,1.594,2.601,1.834c0.28,0.06,0.567,0.09,0.852,0.09  c1.395,0,2.66-0.73,3.398-1.851c1.927,0.613,4.084,1.523,4.441,2.334c0.806,1.829,4.021,10.615,4.013,12.953  c-0.004,1.273-0.503,1.924-1.473,2.569c-0.767-0.045-1.658-0.056-2.574-0.047c-0.084-0.177-0.176-0.354-0.292-0.523  c-0.227-0.33-0.49-0.585-0.767-0.777l0.233-1.902c0.034-0.274-0.161-0.524-0.435-0.557l-0.708-0.087  c-0.358-1.845-2.422-3.775-3.102-4.367c0.002-0.025,0.01-0.048,0.011-0.073c0.012-0.224,0.021-0.63,0.031-1.038  c0.009-0.404,0.019-0.809,0.031-1.031c0.086-1.62-1.162-3.009-2.782-3.096l-0.159-0.004c-1.563,0-2.854,1.224-2.937,2.787  c-0.012,0.226-0.021,0.637-0.031,1.049c-0.006,0.24-0.011,0.474-0.017,0.675c-1.543,0.613-3.111,2.953-3.503,3.569l-1.807-0.222  c-0.134-0.016-0.264,0.021-0.369,0.102c-0.104,0.082-0.172,0.202-0.188,0.333l-0.217,1.769c-0.67-0.092-1.354-0.018-1.856,0.269  c-0.325,0.186-0.579,0.503-0.768,0.877c0.123-0.881,0.001-2.084-0.258-3.255c0.019-0.075,0.039-0.153,0.058-0.227  C48.308,50.318,48.42,49.885,48.522,49.469z M57.214,35.813l0.644-3.025c0.342-0.034,0.73-0.189,1.211-0.387  c0.207-0.085,0.427-0.177,0.655-0.261c0.881,0.711,2.858,1.753,4.099,2.145l-0.598,2.808c-0.345,1.622-2.009,2.718-3.646,2.366  C57.922,39.106,56.861,37.47,57.214,35.813z M60.19,31.219c-0.095-0.096-0.224-0.147-0.354-0.147c-0.052,0-0.105,0.008-0.157,0.025  c-0.346,0.114-0.683,0.252-0.991,0.38c-0.225,0.093-0.467,0.193-0.664,0.257c0.123-0.297,0.37-0.727,0.769-1.129  c0.435-0.438,1.174-0.96,2.229-0.96c0.275,0,0.563,0.036,0.855,0.106c1.466,0.352,2.119,1.309,2.408,2.05  c0.286,0.733,0.262,1.379,0.191,1.639C63.651,33.299,60.913,31.946,60.19,31.219z M64.596,33.947v-0.495  c0.001,0,0.003-0.001,0.005-0.001L64.596,33.947L64.596,33.947z M48.024,55.965c0.007,0.233,0.03,0.46,0.084,0.665  c0.062,0.233,0.158,0.435,0.274,0.614c-0.067-0.011-0.14-0.025-0.195-0.031c-0.155-0.017-0.305-0.017-0.454-0.008  C47.85,56.71,47.947,56.298,48.024,55.965z M49.771,57c-0.145,0-0.531-0.002-0.696-0.625c-0.214-0.81,0.148-1.895,0.584-2.145  c0.228-0.13,0.526-0.2,0.862-0.2c0.636,0,1.307,0.245,1.67,0.609c0.154,0.155,0.232,0.311,0.232,0.464  C52.421,55.999,51.29,57,49.781,57v0.5L49.771,57z M66.148,53.657l-0.142,1.157c-0.413-0.037-0.82,0.072-1.171,0.358  c-0.732,0.595-1.24,1.402-1.431,2.272c-0.192,0.874-0.033,1.706,0.436,2.282c0.308,0.379,0.801,0.588,1.389,0.588  c0.033,0,0.069-0.007,0.103-0.008l-0.573,4.677l-13.981-1.714l0.691-5.639c1.135-0.502,1.951-1.462,1.955-2.523  c0.001-0.422-0.18-0.828-0.524-1.173c-0.238-0.239-0.556-0.43-0.907-0.576l0.173-1.414L66.148,53.657z M61.997,47.138  c-0.009,0.396-0.018,0.791-0.03,1.008c-0.055,1.032-0.906,1.839-1.938,1.839l-0.106-0.003c-0.518-0.027-0.995-0.255-1.341-0.641  c-0.347-0.386-0.522-0.884-0.495-1.402c0.012-0.226,0.021-0.637,0.031-1.049c0.009-0.4,0.019-0.8,0.03-1.019  c0.055-1.032,0.906-1.84,1.938-1.84l0.105,0.003c1.069,0.057,1.893,0.974,1.836,2.043C62.017,46.305,62.007,46.723,61.997,47.138z   M66.912,56.53c0.36,0.522,0.526,1.149,0.396,1.491c-0.282,0.741-1.33,1.295-2.078,1.295c-0.199,0-0.467-0.038-0.614-0.219  c-0.275-0.338-0.361-0.862-0.235-1.437c0.143-0.65,0.528-1.257,1.085-1.711c0.133-0.109,0.267-0.162,0.407-0.162  C66.199,55.787,66.597,56.072,66.912,56.53z M40.442,56.588l-0.006-0.499c-0.222-0.001-0.897-0.003-0.896-0.894  c0.001-0.667,0.389-1.198,0.539-1.198c0.976,0.003,1.42,0.609,1.419,1.171c0,0.425-0.278,0.92-1.056,0.92V56.588L40.442,56.588z   M31.038,64.849c1.719-0.529,8.202-2.5,10.876-2.964c1.294-0.223,2.309,0.1,2.546,0.785c0.188,0.542-0.14,1.229-0.854,1.792  c-1.563,1.232-8.732,2.994-11.955,3.703L31.038,64.849z M42.25,66.252c-0.336,0.447-0.57,0.957-0.572,1.505  c-0.001,0.285,0.078,0.557,0.192,0.82c-0.95-0.191-2.469-0.504-4.141-0.879C39.343,67.252,40.977,66.752,42.25,66.252z   M70.738,70.534l0.48-3.868c0.565-0.366,1.174-0.6,1.612-0.6c0.175,0,0.275,0.04,0.306,0.072c0.406,0.553-0.454,4.447-1.112,5.185  C71.737,71.222,71.221,70.948,70.738,70.534z"
  />
</svg>
