<?xml version="1.0" encoding="UTF-8" standalone="no"?>
<!-- Created with Inkscape (http://www.inkscape.org/) -->
<svg
  xmlns:inkscape="http://www.inkscape.org/namespaces/inkscape"
  xmlns:rdf="http://www.w3.org/1999/02/22-rdf-syntax-ns#"
  xmlns="http://www.w3.org/2000/svg"
  xmlns:cc="http://creativecommons.org/ns#"
  xmlns:dc="http://purl.org/dc/elements/1.1/"
  xmlns:sodipodi="http://sodipodi.sourceforge.net/DTD/sodipodi-0.dtd"
  xmlns:svg="http://www.w3.org/2000/svg"
  xmlns:ns1="http://sozi.baierouge.fr"
  xmlns:xlink="http://www.w3.org/1999/xlink"
  id="svg10360"
  sodipodi:docname="Neues Dokument 22"
  viewBox="0 0 304.59 498.97"
  version="1.1"
  inkscape:version="0.47 r22583"
>
  <sodipodi:namedview
    id="base"
    bordercolor="#666666"
    inkscape:pageshadow="2"
    inkscape:window-y="40"
    pagecolor="#ffffff"
    inkscape:window-height="675"
    inkscape:window-maximized="1"
    inkscape:zoom="0.84774848"
    inkscape:window-x="-4"
    showgrid="false"
    borderopacity="1.0"
    inkscape:current-layer="layer1"
    inkscape:cx="152.29665"
    inkscape:cy="249.48438"
    inkscape:window-width="1024"
    inkscape:pageopacity="0.0"
    inkscape:document-units="px"
  />
  <g
    id="layer1"
    inkscape:label="Ebene 1"
    inkscape:groupmode="layer"
    transform="translate(-210.74 -226.59)"
  >
    <path
      id="rect10401"
      style="fill: #000000"
      d="m298.63 232.39c-0.35201 0-0.96005 0.15548-1.3736 0.36629-0.41352 0.21083-1.0291 0.39681-1.343 0.39681-0.74223 0-2.4549 0.28834-4.6091 0.79362-1.9257 0.45171-5.2582 1.6871-9.0045 3.3271-1.3704 0.59988-3.2346 1.4323-4.1512 1.8314-0.9166 0.39914-2.8098 1.369-4.2123 2.1672-2.494 1.4195-3.6419 2.1788-7.631 5.0975-1.0806 0.79059-2.2729 1.6402-2.6556 1.8925-2.138 1.4096-8.5603 6.5691-12.332 9.9203-2.4805 2.2041-7.9194 7.7208-10.317 10.439-0.89248 1.0119-2.1022 2.1354-2.7166 2.5335-1.0771 0.69793-1.4107 1.1007-4.2733 5.1891-1.7906 2.5572-3.0159 4.4563-3.9376 6.0742-0.57045 1.0014-1.2358 2.0646-1.4652 2.3809-1.1725 1.6165-1.5176 3.0295-0.88519 3.6018 0.32104 0.29054 1.8259 1.2813 3.846 2.5335 0.50178 0.31104 1.1878 0.78818 1.5567 1.0683 0.36895 0.28016 2.2233 1.6486 4.1207 3.0524s3.9251 2.9712 4.487 3.4797c0.5619 0.50855 1.0754 0.91572 1.1599 0.91572 0.17631 0 3.8463 3.2051 9.9813 8.7298 2.3411 2.1082 4.5294 4.0403 4.8533 4.3039 0.32391 0.26353 1.6779 1.5821 3.0219 2.8998 1.3439 1.3176 2.5173 2.4586 2.625 2.564 0.7149 0.69957 3.2759 3.5095 5.4332 5.9522 1.3965 1.5812 3.1005 3.4287 3.785 4.0902 0.68443 0.66152 1.4683 1.5128 1.7399 1.923 0.27156 0.41021 1.2512 1.5497 2.1672 2.5335 3.8608 4.1466 7.238 8.1164 8.8519 10.378 0.3149 0.44126 0.94395 1.3226 1.4041 1.9535 1.0087 1.3831 1.6449 2.6083 1.9535 3.7544 0.12637 0.46924 0.50913 1.4176 0.85467 2.1062 1.0434 2.0792 1.1168 3.0072 0.21367 3.4187-0.26175 0.11927-0.63141 0.47672-0.82414 0.79362-0.92151 1.5153-5.7433 4.3134-8.3941 4.8838-0.8433 0.18147-2.248 0.50503-3.144 0.73258-1.5296 0.38846-2.0762 0.42715-9.0045 0.42733-6.6527 0.00018-7.4466 0.0348-7.9972 0.33576-0.3359 0.18361-0.6616 0.43461-0.73258 0.54943-0.0709 0.11482-0.0745 0.84885 0 1.6483 0.13413 1.4313 0.15758 1.482 1.1294 2.4419 1.4776 1.4594 3.5944 2.3927 7.5089 3.3576l3.2355 0.79362 3.5713-0.0915c3.504-0.0984 3.6425-0.0966 5.6774-0.79362 1.1424-0.39129 2.1492-0.79909 2.2588-0.88519 0.10951-0.0861 0.90414-0.41318 1.7704-0.73257 0.86624-0.31939 2.6081-1.1241 3.846-1.8009 3.1012-1.6956 4.7899-2.0269 6.1353-1.1599 0.54101 0.34863 1.3981 2.1325 1.862 3.846 0.29703 1.0974 0.32247 1.426 0.12209 2.5945-0.12667 0.73865-0.51459 2.0052-0.85467 2.8082-0.5877 1.3877-0.60049 1.5686-0.57995 3.7544 0.014 1.4836 0.12731 2.7254 0.33576 3.5102 0.59806 2.2522 0.31909 5.3795-0.67152 7.3562-0.5279 1.0535-0.46155 1.657 0.27471 2.3503 0.72312 0.681 2.8942 1.4407 4.0597 1.4346 0.62014-0.003 0.92014-0.14376 1.7093-0.85467 1.2858-1.1582 2.6527-2.0199 4.7617-3.0524 1.7329-0.84839 2.3192-0.99332 2.7777-0.70205 0.33949 0.21571 0.78402 1.6133 1.0989 3.4187 0.32138 1.8431 0.11699 2.7544-0.88519 4.3344-0.32562 0.5133-0.55094 1.1185-0.51891 1.343 0.0545 0.3823 0.19231 0.40658 2.0451 0.45786 2.315 0.0641 2.4442 0.0154 4.7922-2.0756 2.8748-2.5602 5.9471-8.0346 7.051-12.576 0.15511-0.63809-0.32637-0.73504-1.5567-0.27472-1.7793 0.66573-2.3346 0.44813-1.7399-0.70204 0.39446-0.76279 1.3081-1.2947 2.8082-1.6483 1.7452-0.41136 2.8139-0.37431 4.5786 0.18314 1.6001 0.50549 2.008 0.86787 1.8925 1.6788-0.0507 0.3554-0.23439 0.45123-1.1599 0.57996-0.84437 0.11743-1.2384 0.0752-1.6788-0.15262-0.82276-0.42547-1.4931-0.36368-1.8314 0.15262-0.15806 0.24121-0.4218 1.0964-0.57996 1.923-0.37607 1.9656-0.77775 3.032-2.2893 5.9522-1.4562 2.8133-2.9328 5.0068-4.3039 6.349-0.99323 0.97232-1.2257 1.6741-0.73258 2.1672 0.29263 0.29259 1.2441 0.29005 2.0756 0 0.95411-0.3326 2.6576-1.7289 3.3882-2.7472 0.35235-0.49107 1.1321-1.4213 1.7093-2.0756 1.0705-1.2134 2.2428-3.262 2.6556-4.6396 0.55075-1.838 1.3756-0.35539 1.1904 2.1367-0.35095 4.7241-5.8313 13.103-9.9508 15.231-0.7254 0.37473-1.3125 0.99178-1.3125 1.3736 0 0.65653 1.1509 2.3587 2.1672 3.2355 0.56933 0.49119 1.4267 1.0056 1.984 1.1904 1.4934 0.49546 1.6146 1.2266 0.42733 2.4724-1.9075 2.0017-4.7105 7.171-4.9143 9.0656-0.0682 0.6335 0.0771 1.12 0.79362 2.5945 0.96764 1.9913 1.046 2.3498 0.57996 3.3271-0.24102 0.50538-0.58795 0.77115-1.4041 1.1294-2.474 1.0859-3.5499 1.0655-6.6237-0.0611-3.8053-1.3947-7.6652-2.2819-9.7982-2.2893-0.78572-0.003-1.1308 0.11473-1.9841 0.67153-0.57622 0.37601-1.4098 0.85265-1.8314 1.0683-1.343 0.6869-1.9654 1.4729-1.4346 1.8009 0.10831 0.0669 0.60105-0.0934 1.0989-0.33576 1.841-0.89646 4.6794-0.37064 4.8228 0.88519l0.061 0.54943-1.0378-0.18314c-1.5388-0.25064-3.0711-0.19583-3.6323 0.12209-0.27573 0.15622-0.95863 0.55276-1.5262 0.85467-1.3112 0.69747-1.6574 0.98272-2.1061 1.862-0.73748 1.445-0.24764 1.8583 1.1294 0.94624 1.7943-1.1885 3.803-1.4471 4.6702-0.57996 0.72564 0.72563 0.41474 1.0268-1.221 1.1599-1.6187 0.13172-3.01 0.68808-4.1818 1.6788-0.52934 0.44759-0.61088 0.60519-0.42734 0.79362 0.18547 0.19037 0.44372 0.17364 1.2515-0.0915 1.9922-0.65413 3.7441-0.56214 6.8984 0.36629 1.1904 0.35037 5.5533 0.74014 6.5626 0.57995 2.9114-0.46203 4.5867-1.4498 7.7836-4.5481 2.5292-2.4511 4.0969-3.7778 4.4565-3.785 0.11722-0.003 0.43852-0.1907 0.70205-0.39682 0.57666-0.45106 0.85675-0.44272 2.4724-0.0915 3.5171 0.76439 4.614 0.83999 5.4638 0.39681 0.7504-0.39137 1.1695-0.35665 1.6483 0.1221 0.32483 0.32483 0.38817 0.54158 0.30524 1.1599-0.11955 0.89136-0.35201 1.089-1.282 1.0989-0.36894 0.004-1.0127 0.17462-1.4346 0.36629-1.2455 0.56584-4.0842 2.3779-6.2574 3.9986-2.7505 2.0513-3.1649 2.4029-8.6077 7.2342-2.8434 2.5239-9.3504 9.075-11.111 11.172-1.3688 1.6304-3.7163 4.9847-3.907 5.5859-0.0653 0.20594-0.36983 0.455-0.67153 0.57995-0.90192 0.37359-2.193 2.2294-4.0902 5.7995-2.3122 4.3511-4.661 10.35-4.5175 11.599 0.0697 0.60695-0.16054 0.59277 3.205 0.24419 3.0443-0.31532 3.97-0.11562 5.7995 1.3125 2.3584 1.8409 5.5551 4.6345 7.7225 6.7458 2.205 2.1478 2.24 2.2214 1.9535 3.785l-0.15262 0.79362 0.88519 0.54943c0.49884 0.29492 1.6786 1.0075 2.5945 1.5872 0.91587 0.57979 2.1433 1.3036 2.7472 1.6178 0.91417 0.47565 1.1385 0.68983 1.282 1.2515 0.4105 1.6065 0.57563 3.3704 0.45786 4.6702l-0.12209 1.3736 0.85466 0.73258c1.0834 0.92731 1.2765 1.3375 1.282 2.503 0.006 1.2939-0.39159 2.7231-1.1599 4.1207-0.66051 1.2015-1.1564 1.5567-2.2588 1.5567-0.61813 0-0.93771 0.32198-1.6178 1.6788-0.43492 0.86775-0.6813 1.0828-1.5262 1.4651-1.6812 0.76081-3.6281 1.0683-7.0815 1.0683-3.3637 0-3.446 0.0214-3.6934 1.0073-0.1641 0.65383-1.0093 1.1722-2.3809 1.4651-0.57977 0.12385-1.5052 0.35121-2.0756 0.51891-0.87041 0.2559-1.5328 0.28497-4.1207 0.15262-1.696-0.0867-3.8741-0.14556-4.8228-0.1221-0.9487 0.0235-2.3839-0.0414-3.1745-0.15262-0.79059-0.11114-2.0398-0.29484-2.7777-0.39681-1.8364-0.25366-12.589 0.35095-16.849 0.94624-1.3617 0.19025-2.5809 0.3578-5.1585 0.641-2.265 0.24883-1.987 0.00043-5.4943 4.6702-0.57977 0.77191-1.5652 2.0548-2.1977 2.8692-0.63248 0.81449-1.5462 2.0125-2.0451 2.6556-1.7251 2.2237-2.8653 3.858-3.3271 4.7617-0.32184 0.62978-0.70538 1.019-1.221 1.282-0.57033 0.29098-1.0695 0.8722-2.1672 2.5335-1.3051 1.9751-2.0003 3.2157-4.9144 8.8214-2.3471 4.5151-6.0434 12.981-7.0205 16.056-0.1842 0.57981-0.48996 1.3709-0.67152 1.7399-0.18154 0.36892-0.38964 1.0207-0.45786 1.4652-0.0682 0.44442-0.42705 1.4861-0.79362 2.3198-0.36654 0.83367-0.76761 1.9974-0.88519 2.564-0.1176 0.56663-0.39944 1.3792-0.641 1.8009-0.24156 0.42167-0.5736 1.1823-0.73258 1.7093-0.15897 0.52706-0.59204 1.8152-0.97676 2.8692-0.78058 2.1388-1.7999 6.0237-2.503 9.554-0.25586 1.2847-0.72371 3.4136-1.0378 4.7312-0.3141 1.3176-0.75497 3.5912-0.97676 5.067s-0.52064 3.4772-0.67153 4.426c-0.15087 0.94873-0.37781 2.6559-0.48838 3.8155-0.25744 2.6997-1.0489 8.4684-1.7704 12.942-0.2125 1.3177-0.43765 3.4746-0.5189 4.7922-0.0813 1.3177-0.25238 3.4357-0.39681 4.7007-0.33702 2.9517-0.33743 20.771 0 24.724 0.12575 1.4758 0.29098 3.7104 0.39681 4.9754 0.36369 4.3468 1.0855 9.52 1.8314 13.217 0.25501 1.2638 0.45786 2.51 0.45786 2.7472 0 0.82185 1.1431 4.0088 1.5872 4.426 0.49393 0.46406 2.6296 1.2231 4.6396 1.6483 5.6466 1.1946 8.3604 1.4817 17.246 1.923 7.1222 0.35369 10.277 0.2693 11.538-0.30524 0.64668-0.29459 0.92512-0.31954 1.4041-0.15262 0.51033 0.17797 0.74581 0.56643 1.8009 2.7472 0.67108 1.387 1.4531 3.1171 1.7399 3.8765 0.2867 0.75934 0.68114 1.6025 0.88519 1.862 0.4196 0.53341 1.1156 1.8425 5.3112 10.103 3.3177 6.5324 4.2837 8.3427 5.0364 9.4624 0.28347 0.42167 0.69376 1.204 0.91572 1.7093 0.22196 0.50528 0.61362 1.1891 0.85467 1.5262 0.62451 0.87323 1.6277 2.5443 2.1977 3.6629 0.14319 0.28089 0.44322 0.79683 0.70205 1.2515h122.34c-0.15758-0.83441-0.32317-1.7245-0.42734-2.4724-0.16882-1.2123-0.46432-2.9375-0.67152-3.8155-0.20719-0.87801-0.39681-1.816-0.39681-2.0756 0-0.25973-0.11614-1.141-0.27472-1.9535-0.42388-2.1718-0.61358-3.3275-0.94624-5.6774-0.16415-1.1596-0.42169-2.975-0.57995-4.0292-0.15828-1.0541-0.3812-2.5282-0.48838-3.2661-0.10715-0.73794-0.32915-2.0648-0.48838-2.9608-0.36013-2.0264-0.83487-6.4228-1.0378-9.5845-0.0846-1.3176-0.22825-2.9629-0.30524-3.6629-0.12632-1.1483-0.11221-1.277 0.21367-1.3736 0.19864-0.0586 1.4212-0.17718 2.6861-0.24419 3.7821-0.19994 10.103-1.1938 14.835-2.3503 0.7906-0.1933 2.645-0.63714 4.1207-0.97676 2.9949-0.68911 5.0724-1.292 5.4332-1.5872 0.32999-0.27008 0.29577-1.1388-0.0611-1.6483-1.9254-2.749-10.073-19.234-10.073-20.39 0-0.0947-0.27514-0.92573-0.641-1.862-0.36586-0.93632-1.0144-3.0325-1.4346-4.6702-0.42026-1.6376-1.0832-3.7802-1.4652-4.7617-0.38192-0.98146-0.84378-2.4116-1.0378-3.1745-0.19403-0.76295-0.60209-1.874-0.88519-2.4724-0.37479-0.79225-0.56178-1.5883-0.67153-2.8692-0.0829-0.96768-0.27115-2.0135-0.42733-2.3198-0.15619-0.30631-0.46528-1.4572-0.70205-2.564-0.23678-1.1069-0.68963-2.5812-1.0073-3.2661-0.39918-0.86062-0.61927-1.611-0.67152-2.4724-0.084-1.385-0.44643-3.3313-1.0989-5.6469-0.28511-1.0118-0.4833-2.2988-0.54943-3.785l-0.0915-2.2588h0.51891c0.67607 0 0.7578-0.10315 1.6178-2.1977 0.38951-0.94873 0.91189-2.183 1.1599-2.7166 0.53059-1.1416 0.82082-3.4594 0.54943-4.5786-0.10224-0.42157-0.50487-1.8307-0.88519-3.144-0.38033-1.3133-0.70205-2.8109-0.70205-3.3271 0-1.199 0.47923-3.0754 1.0378-4.0597 1.5655-2.7587 2.5198-4.261 3.2355-5.1585 0.45039-0.56476 1.3599-1.8166 2.0451-2.7472 0.68518-0.93066 1.8913-2.2945 2.6556-3.0524 1.302-1.2912 1.3767-1.4499 1.3736-2.2282-0.002-0.45683-0.14413-1.4292-0.30524-2.1672-0.16109-0.73785-0.39717-2.0259-0.54943-2.8692-0.15224-0.84324-0.54993-2.4339-0.85466-3.5408-0.96304-3.4979-1.2334-6.0733-0.67153-6.2574 0.41429-0.13577 1.3745 1.7695 1.8925 3.7544 0.64252 2.4623 2.3141 7.3707 2.7777 8.1499 0.18812 0.31628 0.41298 0.80481 0.48839 1.0683 0.25941 0.90663 1.7103 4.0994 2.0146 4.4565 0.5774 0.67749 3.4384 0.10901 7.0815-1.4041 0.57977-0.24087 1.2585-0.49058 1.4957-0.57996 0.57364-0.21616 0.55964-0.81179-0.0611-1.8925-0.27243-0.47431-0.70283-1.3821-0.94624-2.0146-1.4695-3.8183-2.0357-5.5152-2.3198-6.8374-0.31319-1.4574-0.32272-1.5198 0.0915-2.8082 0.2326-0.72329 0.52142-1.4126 0.61048-1.5567 0.34915-0.56496 0.7078-0.0105 1.0378 1.5567 0.38394 1.8237 1.6434 6.1478 2.3198 7.9973 1.296 3.5434 2.2757 5.8837 2.5945 6.2269 0.19591 0.21088 0.57046 1.0408 0.85467 1.8314 1.036 2.8819 2.2444 5.1414 6.9594 13.125 1.7123 2.8993 1.8899 3.1745 2.2588 3.1745 0.7371 0 3.2571-2.2971 6.9594-6.349 2.1557-2.3593 4.4571-4.8008 5.0975-5.4332 0.64037-0.63245 1.6696-1.7651 2.2893-2.503 1.2858-1.5311 4.3204-4.9518 6.99-7.8446 1.9845-2.1504 8.0923-8.0725 12.087-11.721 1.3705-1.2516 2.9031-2.7387 3.4492-3.3576 13.316-19.414 50.819-28.194 35.774-53.417-14.374-24.098-32.641-44.219-36.873-54.18-0.26221-0.49426-0.42734-0.84955-0.42734-0.94624 0-0.25061-2.9255-5.3733-3.5713-6.2574-0.34654-0.47437-0.9569-1.5376-1.3736-2.3809-0.41667-0.84329-1.1202-2.189-1.5567-2.9913l-0.79362-1.4652-0.0916-5.8301c-0.0932-6.4298-0.29364-8.3985-1.1599-10.622-0.7352-1.8873-1.6412-3.0786-2.6861-3.5408-0.98024-0.43361-3.2989-0.76101-5.6469-0.7631-1.4524-0.003-1.7373-0.0587-2.3198-0.48838-0.36173-0.26687-1.02-0.58226-1.4957-0.73257-0.4757-0.15035-1.8318-0.63946-2.9913-1.0683-1.1595-0.42891-3.6265-1.2961-5.4943-1.923-1.8678-0.62697-4.3273-1.5164-5.4638-1.9841-4.2589-1.7523-7.5315-3.0653-10.134-4.0597-5.1718-1.9761-7.3914-2.9264-9.615-4.1512-1.2333-0.67936-2.6525-1.4332-3.144-1.6483-1.3156-0.5758-3.4077-2.2273-4.2428-3.3576-0.86308-1.1681-0.86811-1.8243-0.0305-3.4797 0.46439-0.91786 0.49174-1.1473 0.36629-2.2282-0.16465-1.4186-0.86096-3.535-1.5262-4.6702-0.56823-0.96963-1.2403-1.4507-4.2123-2.9303-1.3259-0.6601-2.4262-1.4334-3.4492-2.4419-0.47848-0.47171-0.96353-0.85467-1.0683-0.85467-0.24808 0-0.24809-1.0982 0-1.2515 0.10461-0.0647 0.72633-0.201 1.3736-0.30523 1.8993-0.30589 4.5014-2.3816 5.4332-4.3344 0.4988-1.0454 0.52705-1.2694 0.54943-4.0292 0.0206-2.5362-0.0147-2.9444-0.30524-3.2355-0.46387-0.46466-0.68855-0.21491-1.0989 1.3736-0.44666 1.7293-0.97955 2.7984-2.0451 3.9376-0.87711 0.9377-2.0207 1.4834-2.625 1.2515-0.47796-0.18341-0.35379-0.63751 0.24419-0.8852 0.79021-0.32732 1.7852-1.4534 2.4724-2.7777 0.56252-1.0839 0.61009-1.2682 0.61048-3.266 0.00029-1.6028-0.0856-2.2216-0.30524-2.503-0.3446-0.44137-0.16563-0.60346-2.0756 2.2588-3.0139 4.5165-3.5808 4.9556-5.708 4.3649-1.0897-0.30264-0.94726-0.73753 0.5189-1.4957 1.573-0.81335 2.5654-1.9389 3.1134-3.5102 0.84965-2.4364 1.28-6.0906 0.76309-6.41-0.13212-0.0817-0.30924 0.008-0.42733 0.21367-0.74032 1.2936-3.3369 2.9608-4.6091 2.9608-2.1733 0-6.3009-1.6572-8.5162-3.4187-1.6686-1.3268-7.6071-7.4214-8.8824-9.1266-1.3597-1.8181-3.059-4.8817-5.2806-9.4929-0.73641-1.5285-1.6767-3.2673-2.1062-3.8765-0.42946-0.60924-0.93271-1.388-1.0989-1.7093-0.16613-0.32128-0.59818-0.9726-0.97676-1.4651-0.37859-0.49255-0.93907-1.4515-1.2515-2.1367-1.166-2.5574-4.3986-6.2853-6.6542-7.6615-0.57976-0.35375-1.3158-0.79876-1.6178-1.0073-0.34765-0.24004-1.2154-0.4825-2.3503-0.641-0.98595-0.13771-1.8753-0.29908-1.984-0.36629-0.62054-0.38352 0.0467-1.9138 2.0146-4.7007 2.9313-4.1513 3.1295-4.7664 4.3344-11.996 0.35355-2.1214 0.31859-7.0884-0.061-8.7909-0.17648-0.79132-0.2683-1.8156-0.21367-2.4724 0.085-1.022 0.0674-1.1624-0.42733-1.6788-0.64027-0.66836-2.2955-1.3125-3.3271-1.3125-1.1325 0-1.878 0.93525-2.7777 3.5408-0.39986 1.1581-0.87106 2.4865-1.0683 2.9608-0.19727 0.47434-0.41929 1.0795-0.48838 1.343-0.18916 0.72166-1.4133 3.352-2.0146 4.3649-0.29176 0.49157-0.87998 1.5209-1.3125 2.2588-0.82963 1.4152-2.7132 3.3801-3.907 4.0902-0.74025 0.44033-3.865 0.89801-4.5786 0.67152-0.19441-0.0617-0.70835-0.55334-1.1294-1.0989-0.42103-0.54551-1.3354-1.7377-2.0451-2.6556-0.70963-0.91787-1.5424-2.0505-1.8314-2.503-0.28904-0.4525-0.99865-1.4682-1.5872-2.2588-0.86093-1.1564-3.5595-5.0843-6.3184-9.2182-0.21082-0.31587-0.66753-0.93218-1.0073-1.3736-0.33975-0.4414-0.84841-1.2433-1.1294-1.7704-0.28098-0.52706-0.94686-1.5514-1.4957-2.2893-1.5897-2.1374-2.4581-3.5243-3.3882-5.3722-0.4775-0.9487-1.4455-2.7253-2.1367-3.9376-2.5138-4.4086-2.7992-4.8998-3.6323-6.5016-0.46607-0.89601-1.0784-2.0074-1.3736-2.4724-0.29516-0.46503-0.7363-1.4116-0.97676-2.1062-0.24045-0.6945-1.1898-2.8338-2.1062-4.7312-0.91635-1.8974-1.977-4.2487-2.3503-5.2501-0.37335-1.0014-0.74265-1.9092-0.82415-2.0146-0.27953-0.36155-2.2616-5.5787-2.564-6.7458-0.16631-0.64175-0.47135-1.5888-0.70205-2.1062-1.9975-4.4792-4.2123-10.447-4.2123-11.416 0-0.20145-0.12199-0.64174-0.27471-1.0073-0.23829-0.57031-0.3665-0.67153-0.91572-0.67153zm-8.3025 9.9813c0.44661 0.0973 10.836 13.502 10.836 13.98 0 0.29959-0.0808 0.38194-0.39681 0.33577-0.2766-0.0404-1.1578-1.0048-2.5945-2.8387-1.9908-2.541-2.7471-3.2725-2.7471-2.6861 0 0.12019 0.22902 0.53751 0.5189 0.91572 0.28989 0.37821 0.70489 0.97133 0.91572 1.3125 0.74683 1.2087 2.2389 3.3426 2.4114 3.4492 0.0962 0.0595 0.18315 0.36151 0.18315 0.67153 0 1.0764-0.62394 0.62943-3.1745-2.2282-2.2242-2.4921-2.9608-3.1289-2.9608-2.5945 0 0.0951 1.0224 1.4957 2.2893 3.1134 2.3831 3.0431 2.6877 3.6704 1.7399 3.7544-0.41873 0.0371-1.163-0.81891-5.769-6.7458-2.9326-3.7736-5.279-7.0049-5.3112-7.2647-0.0405-0.32677 0.0898-0.54192 0.42733-0.76309 0.53147-0.34824 1.3955-0.41552 1.4957-0.1221 0.14211 0.41632 4.6471 5.3417 4.8838 5.3417 0.1403 0 0.24419-0.0525 0.24419-0.1221 0-0.16501-3.1109-4.7444-3.8155-5.6164-0.53527-0.66242-0.50718-1.4053 0.061-1.7093 0.24967-0.13362 0.59436-0.21989 0.7631-0.18314zm-6.6542 4.8228c0.24979 0.0143 0.52592 0.14849 1.0683 0.39681 0.57241 0.26206 1.456 0.86631 1.9535 1.343 0.72859 0.69811 0.90497 0.96724 0.85467 1.4041-0.0444 0.38578-0.21701 0.57518-0.57996 0.70205-0.42527 0.14865-0.61427 0.0977-1.1294-0.33576-1.2476-1.0498-2.0606-0.13558-0.97676 1.0989 0.54457 0.62025 0.68472 0.64846 1.984 0.73257 1.6162 0.10462 2.7527 0.56591 3.9681 1.5872 1.613 1.3554 3.5729 4.2833 4.0292 6.0132 0.33009 1.2515-0.0241 2.2958-0.88519 2.6556-0.96829 0.40458-1.8041 0.17536-3.205-0.88519-2.0022-1.5157-2.6347-2.5848-1.984-3.2355 0.40228-0.40229 1.0084-0.24667 1.8314 0.45786 1.0134 0.86741 1.622 0.84456 1.7093-0.0611 0.0493-0.51154-0.0782-0.77083-0.7631-1.4957-0.80526-0.8523-0.86313-0.87445-2.3198-1.0378-2.3036-0.25834-3.6482-0.96692-5.067-2.6861-1.6873-2.0447-2.5445-4.2954-2.1062-5.5554 0.1722-0.49492 0.42091-0.7164 0.94624-0.91572 0.16318-0.0619 0.30846-0.12613 0.42734-0.15261 0.0892-0.0198 0.16092-0.0353 0.24419-0.0305zm-3.9986 3.4187c0.43141 0.0126 10.848 13.368 10.928 14.01 0.0621 0.50122-0.62751 1.0078-1.1904 0.88519-0.47696-0.10387-10.836-13.499-10.836-14.01 0-0.23857 0.1569-0.54076 0.36629-0.67153 0.2094-0.13077 0.54668-0.2191 0.73257-0.21366zm-5.0059 3.846c0.17999 0.0347 2.1203 2.3358 4.3039 5.128 2.6721 3.417 4.1175 5.1156 4.3954 5.1585 0.24684 0.0382 0.68985-0.1657 1.1294-0.51891 0.40443-0.32502 0.92354-0.61048 1.1294-0.61048 0.44729 0 2.5704 2.704 2.4724 3.144-0.10498 0.47132-3.2524 2.841-3.6934 2.7777-0.49337-0.0708-11.025-13.521-11.019-14.072 0.002-0.21082 0.2252-0.54094 0.48838-0.73257 0.26317-0.19163 0.61362-0.30938 0.79362-0.27472zm-4.6396 3.5713c0.79063 0.0817 2.2137 1.5269 7.4478 6.6237 2.9342 2.8572 5.3979 5.215 5.4943 5.2501 0.30349 0.11067 0.21287 0.92071-0.15262 1.2515-0.5904 0.5343-1.4076 0.41645-2.1367-0.33576-0.78275-0.80759-1.3367-0.86316-2.2282-0.18315-0.7939 0.60555-0.83404 1.0896-0.18314 2.2282 0.61911 1.083 0.60673 1.3647-0.0915 1.862-1.0662 0.75917-0.56239 1.4805-6.1658-8.5162-3.2186-5.742-3.6018-6.495-3.6018-6.8679 0-0.16484 0.28847-0.52473 0.641-0.79362 0.39996-0.30506 0.61738-0.55608 0.97676-0.5189zm-5.128 4.0597c0.49943 0 10.989 13.401 10.989 14.041 0 0.47835-0.9089 1.282-1.4346 1.282-0.36993 0-10.914-13.472-10.989-14.041-0.0388-0.29357 0.1243-0.56293 0.51891-0.85467 0.31672-0.23415 0.71692-0.42733 0.91572-0.42733zm8.3025 1.6178c-0.26846 0.16592-0.31709 0.0686 0.67152 1.7704 0.48233 0.83029 0.95611 1.6428 1.0378 1.8009 0.34245 0.66264 1.8101 0.31187 1.6788-0.39681-0.0828-0.44701-3.1502-3.3216-3.3882-3.1745zm-12.271 1.7704c0.22837-0.0104 0.44855 0.0272 0.70205 0.0915 1.3946 0.35401 3.4606 2.4317 4.5175 4.5175 0.26465 0.52227 0.59619 1.4764 0.73258 2.1367 0.21655 1.0485 0.34681 1.2422 0.85467 1.4651 1.5101 0.66275 5.4638 3.9756 5.4638 4.5786 0 0.49599-0.9524 1.2515-1.5567 1.2515-0.23025 0-1.156-0.6236-2.1367-1.4651-2.5196-2.1622-3.0385-2.5335-3.5408-2.5335-0.89069 0-0.65184 0.53047 1.282 2.9913 1.062 1.3514 1.923 2.647 1.923 2.8692 0 0.2223-0.16478 0.55021-0.36629 0.73257-0.8578 0.7763-1.0526 0.56967-6.6237-6.5626-2.9021-3.7154-5.2806-6.9127-5.2806-7.1121 0-0.21784 0.53439-0.81177 1.343-1.4652 1.3136-1.0613 2.001-1.4646 2.6861-1.4957zm36.629 0.641c0.37805 0.008 2.6893 2.8789 13.003 16.025 8.7617 11.168 12.577 16.15 12.606 16.513 0.0376 0.46305-0.40731 0.8602-3.8765 3.6323-2.6509 2.1183-4.0236 3.1197-4.3344 3.1134-0.37373-0.008-2.735-2.9371-13.003-16.025-8.7458-11.147-12.576-16.151-12.606-16.513-0.0383-0.46325 0.37753-0.85902 3.846-3.6323 2.6664-2.132 4.0499-3.1198 4.3649-3.1134zm-35.53 3.0524c-0.59351 0-1.2939 0.47103-1.282 0.85467 0.004 0.11542 0.44575 0.7696 0.97676 1.4346 0.53101 0.66502 1.0845 1.2484 1.2515 1.3125 0.43731 0.1678 1.0073-0.62808 1.0073-1.4041 0-0.91149-1.1304-2.1977-1.9535-2.1977zm-6.9289 0.57995c0.48414-0.00086 2.3809 2.2857 2.3809 2.8692 0 0.21745-0.43928 0.68496-1.0683 1.1599-0.57977 0.43773-1.0378 0.946-1.0378 1.1294 0 0.44167 1.0975 1.7399 1.4651 1.7399 0.15906 0 0.64862-0.30258 1.0989-0.67153 1.1213-0.91885 1.5895-0.85408 2.4724 0.30524 0.98371 1.2916 0.94018 1.6946-0.24419 2.564-0.52706 0.38689-0.97677 0.82776-0.97677 0.97676 0 0.39719 1.7578 2.5945 2.0756 2.5945 0.14921 0 0.75713-0.41084 1.3736-0.88519 0.61644-0.47436 1.2506-0.85467 1.4041-0.85467 0.3843 0 2.2588 2.4547 2.2588 2.9608 0 0.50922-3.3311 3.1734-3.9681 3.1745-0.32954 0.00057-1.6246-1.4989-5.769-6.8068-2.9294-3.7519-5.3422-6.9678-5.3722-7.1426-0.0355-0.20632 0.5536-0.80734 1.7093-1.7093 0.97872-0.76385 1.9702-1.4037 2.1977-1.4041zm-6.0742 4.9144c0.31292 0.013 0.65214 0.14772 1.0989 0.36628 1.7176 0.84034 4.243 3.8702 5.2196 6.2879 0.54526 1.35 0.47396 2.2418-0.24419 2.9913-0.26747 0.27919-0.48838 0.5673-0.48838 0.641 0 0.0738 0.79949 1.1919 1.8009 2.4724s1.8314 2.495 1.8314 2.6861c0 0.40788-0.63491 0.78765-1.1599 0.70205-0.51826-0.0845-10.908-13.444-10.897-14.01 0.005-0.28482 0.30418-0.68857 0.91572-1.1599 0.92007-0.70914 1.4015-0.99835 1.923-0.97676zm-4.7007 3.3576c0.0707-0.0135 0.15596-0.0127 0.21366 0 0.39909 0.0876 11.019 13.768 11.019 14.194 0 0.3892-0.92283 0.7095-1.1294 0.39681-0.76383-1.1563-4.5766-5.7995-4.7617-5.7995-0.40631 0-0.27408 0.28962 0.79362 1.862 0.56235 0.82811 1.4701 2.1608 2.0146 2.9608 1.0389 1.5264 1.2826 2.4724 0.641 2.4724-0.20354 0-1.3794-1.1427-2.8387-2.7777-1.3642-1.5285-2.6038-2.7777-2.7472-2.7777-0.41819 0-0.15907 0.37917 1.9535 3.0829 2.6526 3.3948 2.8295 3.8155 1.7704 3.8155-0.34957 0-1.4972-1.395-5.6774-6.7458-2.8883-3.6969-5.2798-6.9074-5.3112-7.1426-0.0314-0.23539 0.1073-0.58396 0.30524-0.7631 0.35934-0.32519 1.5872-0.43803 1.5872-0.15262 0 0.083 0.38449 0.59191 0.88519 1.1294 0.5007 0.53748 1.5662 1.7171 2.3503 2.625 0.78417 0.90792 1.5406 1.6483 1.6788 1.6483 0.30197 0 0.32048-0.4923 0.0305-0.67153-0.18495-0.1143-1.3678-1.8488-2.3503-3.4187-0.20509-0.32764-0.65895-1.002-1.0073-1.4652-0.34834-0.46316-0.641-1.0103-0.641-1.2515 0-0.42608 0.72566-1.1269 1.221-1.221zm6.1658 0.15262c-1.0058 0-0.90315 0.50741 0.39681 2.1367 1.0708 1.342 1.6271 1.6294 1.7704 0.88519 0.11989-0.62256-0.14417-1.195-0.94624-2.1061-0.49833-0.56613-0.9482-0.91572-1.221-0.91572zm31.165 0.39681c0.37806 0.008 2.6893 2.8789 13.003 16.025 8.7617 11.168 12.577 16.15 12.606 16.513 0.0376 0.46305-0.40731 0.86019-3.8765 3.6323-2.6509 2.1183-4.0236 3.1197-4.3344 3.1134-0.37373-0.008-2.7655-2.9371-13.034-16.025-8.7458-11.147-12.546-16.151-12.576-16.513-0.0383-0.46325 0.37754-0.85901 3.846-3.6323 2.6664-2.132 4.0499-3.1198 4.3649-3.1134zm-43.374 3.9986c0.53159-0.18281 1.4413 0.92948 5.9827 6.7458 4.3458 5.5658 5.2501 6.8248 5.2501 7.3257 0 0.51541-0.0559 0.61048-0.45785 0.61048-0.39273 0-1.3702-1.1457-5.7995-6.8068-4.885-6.2435-5.5986-7.313-5.1891-7.7225 0.0691-0.0691 0.13773-0.1265 0.21367-0.15262zm28.235 8.272c0.37807 0.008 2.6893 2.8789 13.003 16.025 8.7617 11.168 12.577 16.15 12.606 16.513 0.0376 0.46306-0.40731 0.86021-3.8765 3.6323-2.6509 2.1183-4.0236 3.1198-4.3344 3.1134-0.37374-0.008-2.7655-2.9371-13.034-16.025-8.7458-11.147-12.546-16.151-12.576-16.513-0.0383-0.46325 0.37753-0.859 3.846-3.6323 2.6664-2.132 4.0499-3.1198 4.3649-3.1134zm62.635 13.217c0.21026-0.0286 0.39681 0.0292 0.39681 0.18315 0 0.10321-0.25754 1.1124-0.57995 2.2282-0.72845 2.521-0.71656 3.0921 0.18314 3.6629 2.59 1.6431 3.6106 2.4617 3.3576 2.7166-0.10541 0.1062-1.3158 0.30461-2.6861 0.42733-1.3704 0.12272-2.5306 0.23594-2.5945 0.27472-0.0639 0.0388-0.44826 1.221-0.85467 2.5945s-0.85693 2.4724-0.97676 2.4724c-0.24083 0-0.53765-0.68663-1.3125-2.8998-0.75299-2.1506-0.75257-2.15-3.846-2.0451-2.3788 0.0807-2.5945 0.065-2.5945-0.24419 0-0.18528 0.37615-0.63384 0.82415-1.0073 0.448-0.37344 1.2924-1.0448 1.862-1.4957 1.3212-1.0458 1.5086-1.383 1.1904-1.8925-0.30877-0.4944-1.3736-3.7883-1.3736-4.2428 0-0.50367 0.28691-0.42119 1.4957 0.39681 2.3158 1.5672 2.6766 1.7399 3.144 1.7399 0.46502 0 3.2125-1.8335 3.785-2.5335 0.14172-0.17329 0.3697-0.30711 0.57995-0.33577zm-14.957 12.667c0.12689 0.0131 0.21433 0.13866 0.21366 0.33576 0 0.18447-0.26496 1.2824-0.57995 2.4419-0.31501 1.1595-0.57934 2.2551-0.57995 2.4419 0 0.19965 0.38052 0.55675 0.91571 0.88519 0.50071 0.3073 1.2183 0.79377 1.5872 1.0683 0.36895 0.27457 0.90055 0.67113 1.1904 0.88519 0.86865 0.64144 0.68413 0.87756-0.7631 1.0073-0.71153 0.0638-1.9322 0.19834-2.7166 0.27471l-1.4346 0.1221-0.18314 0.67152c-0.52553 2.1067-1.3385 4.426-1.5567 4.426-0.1359 0-0.34091-0.29842-0.45786-0.64101-0.11693-0.34259-0.43392-1.263-0.70205-2.0451-0.26813-0.78215-0.67698-1.6058-0.91571-1.862-0.42494-0.45591-0.47467-0.46778-2.9608-0.39681-2.9535 0.0843-3.1189-0.0507-1.7093-1.3125 0.45659-0.40872 1.3255-1.1025 1.923-1.5567 0.87848-0.66775 1.0683-0.95741 1.0683-1.4041 0-0.30383-0.0855-0.58063-0.18315-0.641-0.173-0.10692-1.343-3.703-1.343-4.1207 0-0.38286 0.42787-0.20623 1.8009 0.70205 2.4602 1.6275 2.721 1.7704 2.9608 1.7704 0.26087 0 1.9466-1.2167 3.266-2.3503 0.57127-0.49085 0.94842-0.72388 1.1599-0.70205zm-14.835 12.24c0.36126 0 0.37742 0.68346 0.0305 1.7704-0.14418 0.45168-0.42421 1.4159-0.61048 2.1367-0.33368 1.2912-0.32316 1.3251 0.0611 1.7093 0.21449 0.21448 0.67108 0.56932 1.0378 0.79362 1.5935 0.97457 3.2013 2.155 3.205 2.3503 0.004 0.21661-1.6872 0.42009-3.6323 0.45786-1.2987 0.0252-1.9405 0.21038-2.1367 0.57995-0.0826 0.15573-0.41415 1.2568-0.7631 2.4419-0.4914 1.6688-0.71984 2.1355-0.97676 2.1367-0.20361 0.00086-0.37898-0.19546-0.45786-0.5189-0.26276-1.0774-1.265-3.4291-1.6483-3.846-0.37308-0.4058-0.5575-0.42733-2.9608-0.42733-2.7828 0-2.978-0.0689-2.1367-0.97677 0.24013-0.25909 0.95772-0.82282 1.5872-1.2515 2.1304-1.4507 2.1177-1.3855 0.97677-4.6091-0.38077-1.0758-0.67153-2.0266-0.67153-2.1367 0-0.30556 0.67021-0.24101 0.94624 0.0915 0.13441 0.16196 0.79701 0.60311 1.4652 0.97677 0.66814 0.37364 1.2792 0.75129 1.343 0.85466 0.0639 0.10337 0.31336 0.26493 0.57995 0.36629 0.40244 0.15301 0.64981 0.0936 1.4652-0.42733 0.54011-0.34505 1.4295-1.056 1.984-1.5567 0.55452-0.50071 1.1555-0.91572 1.3125-0.91572zm17.124 23.015c0.37448-0.0181 0.39681 0.0752 0.39681 0.36629 0 0.78938-0.54665 1.5302-1.4346 1.923-1.0268 0.45423-1.1482 1.0105-0.36629 1.7399 1.5184 1.4163 2.0331 4.324 1.2515 7.1731-0.61226 2.2317-1.8087 4.4201-3.0524 5.5859-1.3336 1.25-1.2252 1.486 0.61048 1.3125 2.3535-0.22237 2.9539-0.59926 4.2733-2.6251 0.95659-1.4687 1.6796-2.0757 2.0451-1.7093 0.50483 0.50612-2.86 5.8044-4.0902 6.4405-0.32931 0.17028-1.1624 0.43998-1.8314 0.57996-1.1169 0.23368-1.3519 0.21198-2.9913-0.18315-2.2543-0.5433-3.8191-1.2457-4.8228-2.1672-1.5909-1.4606-2.0316-1.633-3.9071-1.4957-0.91863 0.0672-1.7563 0.0522-1.862-0.0305-0.23531-0.18416-1.6772-2.0583-2.0756-2.7166-0.41703-0.68894-0.48727-1.3463-0.27471-2.1672 0.16204-0.62584 0.24072-0.73257 0.73257-0.73257 0.43528 0 0.6336 0.14879 0.88519 0.61048 1.5194 2.7883 3.74 3.0428 5.6164 0.641 0.87959-1.1259 2.9889-4.5447 3.7239-6.0132 0.6171-1.233 1.4543-2.5443 2.7166-4.2123 1.0234-1.3522 2.2691-2.0577 3.9376-2.2588 0.21055-0.0254 0.39408-0.055 0.51891-0.061zm-23.229 131.53c-0.14717-0.009-0.30435 0.004-0.5189 0.0305-0.47435 0.0587-1.879 0.17388-3.144 0.27472-2.6062 0.20769-3.725 0.35968-5.3722 0.641-1.5786 0.26957-1.6595 0.29618-1.5872 0.67153 0.0441 0.22848 0.50022 0.44732 1.4957 0.73257 2.1478 0.61545 6.5946 2.2484 8.333 3.0524 1.4823 0.6855 2.9749 1.2847 4.9754 2.0146 0.52706 0.19231 1.1919 0.4833 1.4957 0.641 0.82068 0.42608 2.9529 0.95601 3.2966 0.82415 0.16479-0.0633 0.27471-0.26839 0.27471-0.45786 0-0.36894-3.8594-4.2738-4.9754-5.0364-0.36894-0.25212-1.3933-1.1288-2.2893-1.9535-1.2158-1.119-1.5426-1.4076-1.984-1.4346zm-17.887 2.3503c-0.81223 0.0243-1.5963 0.12063-2.3809 0.27471-1.2931 0.25396-4.2066 0.72572-6.6847 1.0683-1.2122 0.16758-3.0277 0.42755-4.0292 0.57995-1.0014 0.15243-2.3589 0.32898-2.9913 0.39681-1.9785 0.21222-2.9974 0.945-3.7239 2.6556-0.22331 0.52573-0.64733 1.4737-0.94624 2.1062-2.3055 4.8782-6.4628 16.385-7.6615 21.184-0.22382 0.896-0.72792 2.6442-1.0989 3.9071-0.37092 1.2629-0.9397 3.3032-1.2515 4.5175-0.31181 1.2143-0.87611 3.4469-1.282 4.9754-0.75174 2.8309-0.99489 4.841-0.57995 5.0975 0.13413 0.0829 0.37113-0.0323 0.54943-0.30524 0.16541-0.25324 0.94925-1.3324 1.7399-2.3809 0.79059-1.0485 1.7157-2.2958 2.0756-2.7777 1.8634-2.4955 4.3402-5.4232 5.0975-6.0437 0.47051-0.38556 0.85466-0.83247 0.85466-0.97677 0-0.14432-0.25672-1.1855-0.57995-2.3198-1.034-3.6284-0.93919-7.631 0.18314-7.631 0.40969 0 0.52045 0.1984 0.97677 1.6483 0.57883 1.8391 1.2587 3.2272 2.3198 4.7922 1.1291 1.6653 1.4079 1.7668 3.8155 1.6178 1.1169-0.0692 4.5907-0.18745 7.7531-0.27471 4.1417-0.11427 6.282-0.23896 7.631-0.48838l1.8925-0.36629 1.7399 0.61048c4.0013 1.3507 6.5977 1.7614 11.294 1.7704 3.7679 0.007 5.2786-0.55448 5.128-1.862-0.0587-0.50964-0.25328-0.60095-3.144-1.7093-3.328-1.276-4.286-1.7044-7.4173-3.205-1.9654-0.94189-2.411-1.292-1.8009-1.5262 0.31009-0.119 2.814 0.51525 5.4027 1.3736 0.9487 0.31455 2.9974 0.93244 4.5786 1.3736 1.5812 0.44113 4.1732 1.1679 5.7385 1.6483 2.8384 0.87105 2.8427 0.90015 5.0059 0.79362 3.1372-0.1545 4.1098-0.70912 4.2733-2.4114 0.0608-0.63265-0.005-0.98402-0.18314-1.1294-0.29606-0.24052-4.3073-1.809-7.7225-3.0219-1.2649-0.44925-3.1174-1.1438-4.0902-1.5262-0.97278-0.38232-1.8423-0.70205-1.9535-0.70205-0.43121 0-2.2312-1.0075-2.8692-1.6178-0.36894-0.35291-1.0088-0.78158-1.4041-0.94624-0.82645-0.34431-0.93891-0.77186-0.24419-0.94624 0.34135-0.0857 1.3077 0.20194 3.3271 1.0378 5.0154 2.076 6.947 2.8187 11.782 4.487 4.1524 1.4327 4.8981 1.6483 6.0437 1.6483 1.8292 0 2.0084-0.22095 2.1062-2.6556 0.0579-1.4432 0.0272-1.9315-0.18314-2.1062-0.14934-0.12393-1.4136-0.60224-2.7777-1.0683s-3.3802-1.2008-4.487-1.6483-2.6586-1.0537-3.4492-1.343c-0.7906-0.2894-2.0786-0.79473-2.8692-1.1294-0.79059-0.33465-1.8538-0.77271-2.3809-0.97677-0.52706-0.20405-2.3814-1.1028-4.1207-1.984-2.7901-1.4137-3.182-1.6575-3.2355-2.1062-0.10197-0.85491-0.13291-0.87169 7.051 2.0451 5.1857 2.1055 14.115 5.0521 14.529 4.7922 0.40378-0.25298 0.53461-1.6189 0.24419-2.5945-0.11536-0.38753-0.47837-0.92516-0.79362-1.1904-0.82733-0.69618-6.3202-3.434-8.272-4.1207-0.91463-0.3218-2.0556-0.783-2.564-1.0378-0.50842-0.25481-1.2914-0.5666-1.7093-0.70205-0.41793-0.13544-2.5444-1.1511-4.7617-2.2282-4.3776-2.1265-6.3155-2.8686-10.287-4.0902-2.5058-0.77081-4.5304-1.1946-6.3795-1.2515-0.27736-0.009-0.5534-0.008-0.82415 0zm146.79 9.6761c0.44633-0.0442 0.87477 0.13801 1.221 0.54943 0.26136 0.31062 0.60926 0.61303 0.79362 0.67153 0.18437 0.0585 0.82886 0.77444 1.4041 1.5872 0.57524 0.81275 1.4402 1.9108 1.923 2.4419 0.48278 0.53107 0.97969 1.1506 1.1294 1.3736 0.14968 0.22297 0.87988 0.93658 1.6178 1.5872 0.73789 0.65066 1.5742 1.4146 1.862 1.6788 0.28779 0.26413 0.93183 0.78328 1.4346 1.1599 0.50278 0.37659 1.3654 1.0845 1.8925 1.5872 0.52706 0.50273 1.1714 1.0247 1.4346 1.1599 0.66037 0.33901 4.6991 3.5146 5.6774 4.4565 0.44041 0.42397 1.4953 1.1181 2.3198 1.5567 1.9234 1.0233 1.9806 1.3393 0.54943 2.2893-1.9413 1.2885-2.5945 2.4491-2.5945 4.4565 0 1.306 0.14382 1.7888 0.79362 2.503 0.30501 0.33525 0.34976 0.56552 0.24419 1.1904-0.0721 0.42676-0.289 0.99801-0.48838 1.2515-0.46392 0.58976-2.7706 1.7908-5.3417 2.7777-2.8695 1.1014-5.5486 2.2149-6.5321 2.7166-0.4657 0.23759-1.8401 0.8416-3.0524 1.343-1.2122 0.5015-3.0666 1.2692-4.1207 1.7093-1.0541 0.4402-2.8007 1.1202-3.8765 1.5262-1.0758 0.40601-2.7122 1.1363-3.6323 1.6178-0.92015 0.48147-1.7485 0.88519-1.8314 0.88519-0.083 0-0.95187 0.38031-1.9535 0.85467-1.0017 0.47434-1.8696 0.85467-1.923 0.85467s-0.80713 0.35797-1.6788 0.7631-2.7976 1.106-4.2733 1.5567c-1.4758 0.45074-2.8374 0.93698-3.0219 1.0989-0.41465 0.36392-0.41987 0.91954-0.0305 2.2588 0.3868 1.3305 0.15243 2.113-0.82414 2.7777-0.61453 0.41828-1.0018 0.48763-3.0219 0.61048-3.8122 0.23181-4.133 0.30319-5.0975 1.0989-2.1652 1.7862-10.804 6.7449-12.973 7.4478-1.6529 0.53566-2.2546 1.0128-3.3271 2.6556-0.75101 1.1504-1.0066 1.7492-1.343 3.266-1.0995 4.9562-2.6511 9.5995-3.7544 11.202-0.26667 0.38738-1.4133 1.5052-2.564 2.4724-1.5524 1.305-2.1062 1.8686-2.1062 2.1977 0 0.55255 1.6226 2.0146 2.2282 2.0146 0.23299 0 0.81689 0.19433 1.3125 0.45786 1.0861 0.57746 1.7021 0.61282 3.785 0.1221 1.4628-0.34461 1.6694-0.46958 2.4419-1.3125 0.46284-0.50508 1.3337-1.6375 1.9535-2.5335 0.61984-0.89599 1.5466-2.0973 2.0451-2.6861 1.2637-1.4927 3.3917-3.2661 3.9376-3.2661 0.59276 0 1.4148 0.64604 2.7777 2.1367 2.6601 2.9096 3.9008 6.5509 4.5481 13.492 0.40796 4.3748 0.75051 6.693 1.5262 10.042 1.031 4.4518 1.1232 5.1558 0.82415 6.0437-0.36624 1.0874-0.84499 1.1172-1.0073 0.061-0.30463-1.9816-0.72481-4.1952-1.0683-5.6164-0.2038-0.84324-0.44568-2.1852-0.54943-2.9913-0.10376-0.80612-0.36368-1.925-0.57995-2.503-0.21629-0.57804-0.52247-1.618-0.67153-2.2893-0.33785-1.5216-1.2276-4.5022-2.2588-7.631-0.64967-1.9712-0.99818-2.7156-2.0146-4.1818-1.4872-2.1454-1.8487-2.4214-3.0219-2.2893-1.0482 0.11818-1.2186 0.24292-3.2661 2.8082-0.88962 1.1145-2.2554 2.5958-3.0524 3.2661-1.2614 1.0608-1.6414 1.2546-2.9303 1.5872-3.0663 0.79137-5.3684 0.10544-7.4173-2.2282-1.4719-1.6766-1.9152-3.1799-1.4041-4.5786 0.14909-0.40799 0.39841-0.5675 1.1599-0.79362 0.53798-0.15979 1.0368-0.30523 1.1294-0.30523 0.35648 0 1.9125-1.4566 2.625-2.4724 0.99538-1.4189 2.6493-5.9972 3.5713-9.8897 1.3551-5.7212 1.3457-5.7079 7.7531-9.0351 0.89599-0.46523 2.556-1.3411 3.6629-1.9535 1.1068-0.61251 2.4771-1.298 3.0524-1.4957 0.8187-0.28125 1.4108-0.69971 2.7472-1.984l1.7093-1.6483 0.24419-1.4346c0.14222-0.78401 0.34972-1.9704 0.45786-2.6556 0.10816-0.68519 0.42548-2.0426 0.70205-2.9913 0.27657-0.94871 0.8231-2.8808 1.221-4.3039 0.39786-1.423 1.1158-3.5412 1.5872-4.7007 0.47142-1.1595 0.96505-2.4476 1.0989-2.8692 0.13381-0.42163 0.492-1.2211 0.79362-1.8009 0.3016-0.57976 0.8127-1.6869 1.1294-2.4419 2.4933-5.9441 7.329-14.403 10.5-18.375 0.50331-0.63043 1.4947-1.8796 2.1977-2.7777 0.70299-0.89803 2.1076-2.4401 3.144-3.4492 1.0363-1.0091 2.6142-2.5631 3.5102-3.4492 0.896-0.88614 1.8426-1.7675 2.1061-1.9535 0.27448-0.19372 0.55635-0.30929 0.82415-0.33577zm-123.35 27.471c0.58578-0.0165 1.1795-0.008 1.8009 0 0.82853 0.0109 1.6935 0.0403 2.6556 0.0915 2.9337 0.15619 3.7583 0.29821 6.4405 0.97676 2.7986 0.70805 4.0802 1.1713 8.4246 3.1134 2.7395 1.2247 6.4288 3.9372 9.2487 6.8068 0.44406 0.45191 0.89697 0.82415 1.0073 0.82415 0.11029 0 0.74622 0.70869 1.4041 1.5872 0.65785 0.87858 1.6426 2.1508 2.1977 2.8082 0.55508 0.6574 1.1628 1.5403 1.3736 1.9535 0.2108 0.41317 0.90991 1.4881 1.5262 2.4114 2.718 4.0721 5.39 10.831 7.3257 18.467 1.1705 4.6174 1.569 6.824 1.8925 10.348 0.10162 1.1069 0.31619 2.814 0.45786 3.8155 0.46163 3.2634-0.20814 14.172-1.0683 17.521-0.28657 1.1158-0.54391 2.7139-0.73257 4.6396-0.17677 1.8042-1.7429 8.51-2.6861 11.477-0.30162 0.94873-0.86606 2.7253-1.2515 3.9376-1.8204 5.7254-6.1454 15.382-9.0656 20.268-1.6286 2.7248-7.1722 10.96-8.1194 12.057-0.56136 0.64994-1.4959 1.7616-2.0756 2.4724-1.8699 2.2924-3.5605 4.1763-4.426 4.9449-0.4646 0.41259-1.693 1.5581-2.7472 2.5335-3.1044 2.8724-5.8326 4.9624-8.5467 6.5626-1.0014 0.59046-2.3707 1.398-3.0524 1.8009-2.7511 1.6264-9.319 4.7153-11.111 5.2196-1.0014 0.2819-2.3977 0.65912-3.0829 0.85467-4.6014 1.3136-11.121 1.893-15.811 1.3736-4.1953-0.46465-13.454-3.896-16.178-5.9827-0.47435-0.36346-1.3821-1.0191-2.0146-1.4652-3.4718-2.4488-6.2655-5.299-9.6456-9.8287-1.544-2.0692-3.8859-6.2584-5.0364-9.0046-0.64038-1.5285-1.4148-3.344-1.7093-4.0292-0.29453-0.6852-0.75257-2.0509-1.0378-3.0524-0.28525-1.0014-0.72262-2.5532-0.97677-3.4492-1.0714-3.7773-1.809-7.8111-2.1977-12.271-0.10566-1.2123-0.28639-3.17-0.39681-4.3344-0.22064-2.3266-0.19221-7.0426 0.0305-9.7371 0.43265-5.2382 0.58217-6.6581 0.85467-7.8752 0.16521-0.73785 0.42418-2.173 0.57995-3.1745 0.27635-1.7767 0.44436-2.6245 1.6178-7.7531 1.4406-6.2962 3.9994-13.557 7.0815-20.207 0.65871-1.4211 1.3388-2.8174 1.5262-3.0829 0.18742-0.26548 0.67432-1.102 1.0683-1.8925 0.39404-0.79069 1.1848-2.2258 1.7704-3.1745 0.58562-0.94873 1.4114-2.2756 1.8314-2.9608 2.4011-3.9166 4.9426-7.4919 7.692-10.744 2.3191-2.7434 4.8684-5.5095 6.0437-6.5932 0.57977-0.53455 1.7512-1.6331 2.5945-2.4419 1.8088-1.7347 3.6438-3.2853 4.9754-4.1818 0.52706-0.35483 1.5501-1.0985 2.2893-1.6483 0.73915-0.54976 2.1743-1.4981 3.1745-2.1061 2.3382-1.4215 8.2465-4.2948 10.348-5.0364 0.896-0.31629 1.9592-0.73533 2.3809-0.91572 1.3893-0.59431 3.2368-1.03 5.8606-1.4041 2.0607-0.29381 3.7369-0.46939 5.4943-0.51891zm-8.1804 17.215c-0.11128 0.0276-0.2302 0.12767-0.33576 0.27472-0.52306 0.7286-1.6376 2.7105-3.0219 5.3722-0.9671 1.8596-1.6862 2.9892-2.3198 3.6323-0.98185 0.99663-1.0144 1.072-3.6934 6.6847-0.95595 2.0028-2.0474 4.1986-2.4114 4.8838-0.80117 1.508-0.83078 2.0699-0.18314 4.3039 0.95615 3.298 1.3205 3.6856 2.5945 2.8387 0.46896-0.31178 1.3367-0.86624 1.923-1.2515 1.795-1.1794 7.4499-3.899 8.8519-4.2428 0.72634-0.17806 1.8199-0.51412 2.4114-0.76309 0.59144-0.24888 1.3856-0.50777 1.7704-0.57996 0.3848-0.0723 0.92585-0.36086 1.1904-0.641 0.62841-0.66517 1.533-3.6783 1.4041-4.6396-0.0849-0.63265-2.9069-6.4768-4.9144-10.164-0.87277-1.6034-1.2599-2.379-2.1061-4.2734-0.47476-1.0627-0.82606-1.5174-1.1599-1.4346zm19.413 1.8925c-0.55084 0.002-0.79891 0.0889-1.0378 0.30524-0.58713 0.53135-1.5256 2.3312-2.8998 5.5248-0.68036 1.5812-1.3688 3.133-1.5262 3.4492-1.5928 3.2014-2.6743 5.5904-2.9913 6.6237-0.21023 0.6852-0.56992 1.6377-0.79362 2.1367-0.22373 0.49883-1.0466 2.803-1.8314 5.0975-0.78482 2.2945-1.5542 4.4927-1.7093 4.9143-0.34449 0.93623-0.36431 1.205-0.0915 1.3736 0.32844 0.20297 0.80999-0.41566 2.2588-2.8998 1.1864-2.0342 2.178-3.6612 4.3954-7.2342 0.34316-0.55295 0.9632-1.5737 1.3736-2.2588 0.81961-1.3684 8.0241-12.16 8.7604-13.125 0.81767-1.072 0.45628-2.1444-1.0378-3.1745-0.76123-0.52481-1.1086-0.63977-2.1977-0.70204-0.26616-0.0152-0.48791-0.0313-0.67152-0.0305zm18.04 15.14c-1.1274 0.0142-2.9413 0.28863-4.8838 0.73257-1.4231 0.32517-4.2629 0.96441-6.3184 1.4346-2.0555 0.47001-4.2125 1.0715-4.7922 1.343-0.57977 0.27154-2.0153 0.73047-3.205 1.0073-2.0469 0.47627-2.1782 0.53278-2.625 1.1904-0.56967 0.83826-0.61534 1.3291-0.1221 2.1672 0.20519 0.34861 0.68493 1.471 1.0683 2.4724 0.38339 1.0014 0.93386 2.1815 1.1904 2.6251 1.2132 2.0974 4.3808 10.497 4.7617 12.606 0.25366 1.4045 0.51816 1.4904 3.0219 0.85467 2.076-0.52716 2.4049-0.8595 3.2966-3.3882 0.39432-1.1182 1.3398-3.3577 2.0756-4.9449 0.73582-1.5872 1.6485-3.6993 2.0451-4.7007 1.0443-2.637 2.511-5.9848 3.4187-7.7836 0.43388-0.85974 0.79362-1.6324 0.79362-1.7093 0-0.0772 0.36259-0.85335 0.79362-1.7399 0.43107-0.88651 0.73433-1.7593 0.67153-1.923-0.0655-0.17087-0.51399-0.25266-1.1904-0.24419zm-31.501 5.3722c-0.39923 0.0499-1.0321 0.36672-1.984 0.94624-0.85633 0.5214-1.7935 1.0004-2.0756 1.0683-0.28212 0.0674-0.66244 0.27535-0.85467 0.48838-0.19224 0.21303-1.1842 0.87078-2.1672 1.4652-2.839 1.7168-2.9572 1.7993-4.1818 2.8082-0.63977 0.52706-1.6115 1.3182-2.1672 1.7399-0.55572 0.42167-1.3798 1.0657-1.8314 1.4346-0.45164 0.36893-1.3081 1.0888-1.923 1.5872-6.3255 5.1273-8.5223 7.1629-11.019 10.378-0.57302 0.73785-1.1009 1.396-1.1904 1.4346-0.97738 0.42089-5.7853 6.2256-7.7531 9.3708-0.39635 0.63353-1.1143 1.7618-1.6178 2.503-1.8866 2.7773-3.9726 6.7937-4.9144 9.5234-0.6785 1.9666-1.5259 5.2737-1.7399 6.7763-0.11256 0.79059-0.23377 1.6595-0.27471 1.923-0.0409 0.26353-0.0753 0.97691-0.061 1.5567l0.0305 1.0378 4.2123 0.21367c5.2693 0.27476 10.944 1.1199 13.278 1.984 0.55045 0.20385 1.8774 0.61248 2.9608 0.88519 4.0703 1.0247 8.1066 3.4408 13.278 7.9667 4.3722 3.8267 6.4802 6.4862 7.3563 9.3098 0.6601 2.1277 0.87904 2.2543 2.0756 1.2515 1.5598-1.3071 6.3337-7.1053 7.9667-9.6761 0.65511-1.0314 1.7378-2.6795 2.3809-3.6629 1.2068-1.8455 1.6983-3.2 2.8387-7.5089 0.27898-1.0541 0.68786-2.4588 0.88519-3.144 0.19734-0.6851 0.55452-2.423 0.82415-3.846 0.26964-1.423 0.59681-3.0137 0.70205-3.5408 0.39518-1.9791 0.59386-4.9772 0.70205-10.836 0.0917-4.9689 0.0428-6.4402-0.21367-8.333-0.17138-1.2649-0.4111-3.197-0.51891-4.3039-0.1078-1.1068-0.30551-2.3561-0.45785-2.7777-0.15235-0.42167-0.61461-2.4663-1.0378-4.5175-1.3904-6.7388-2.8838-11.284-3.785-11.63-0.37336-0.14329-0.69374 0.20273-2.564 2.7166-1.5987 2.1489-1.6909 2.3025-3.1745 4.7007-1.4689 2.3744-2.3564 3.229-3.3271 3.2355-1.6581 0.0117-1.9166-0.44618-1.343-2.3198 0.20468-0.6685 0.68384-2.4702 1.0683-3.9986 0.38452-1.5284 1.016-3.9154 1.4346-5.3112s0.70673-2.6102 0.641-2.7166c-0.0901-0.14568-0.21831-0.21307-0.45786-0.18315zm-9.6761 14.041c1.2334 0.0174 2.7454 0.48995 4.5175 1.4041 1.9894 1.0263 3.374 2.3991 3.8765 3.8155 0.71787 2.0232 0.55119 1.8535 2.0146 1.7093 1.1324-0.11164 1.8038-0.0362 5.2501 0.73257 2.1796 0.48585 4.0046 0.8852 4.0597 0.8852 0.49316 0-1.3215 3.5715-1.8925 3.7239-0.20272 0.0537-2.0182-0.25064-4.0292-0.67153-3.9415-0.82487-5.7394-0.91791-6.1048-0.33576-0.10679 0.17015-0.15287 0.45078-0.0915 0.61048 0.0612 0.1597 1.8536 1.2045 3.9681 2.3503 3.3462 1.8135 3.843 2.163 3.846 2.564 0.005 0.67426-1.2836 2.8736-1.6788 2.8692-0.17932 0-4.8051-2.4409-10.287-5.4332-8.5441-4.6642-9.9785-5.5059-10.012-5.8911-0.0227-0.26226 0.6439-1.6959 1.6178-3.4492 0.91741-1.6515 1.8671-3.2786 2.1062-3.6018 0.65099-0.88007 1.6053-1.2994 2.8387-1.282zm1.5567 4.5481c-0.30222-0.0212-0.56271 0.0335-0.79362 0.1221-0.47471 0.18216-1.4346 1.7695-1.4346 2.3809 0 0.46552 0.18327 0.62107 1.8009 1.4957 1.0021 0.54191 1.9641 0.98013 2.1367 0.94624 1.0183-0.20034 1.6039-2.7138 0.85467-3.6629-0.55556-0.70371-1.6573-1.2184-2.564-1.282zm-11.324 9.9508c0.2208 0 4.457 1.2048 9.4014 2.6861 13.209 3.9573 13.278 4.0038 13.278 4.3344 0 0.54767-1.5326 3.1416-1.862 3.144-0.17495 0-0.98548-0.23643-1.8009-0.51891-1.4375-0.49795-1.4888-0.49028-1.862-0.15261-0.54882 0.49668-1.923 3.1146-1.923 3.6629 0 0.33943 0.30407 0.71406 1.221 1.4346 0.85645 0.67299 1.2515 1.1153 1.2515 1.4041 0 0.66303-1.3064 2.9952-1.6788 2.9913-0.17742 0-4.3082-3.4033-9.1572-7.5394-6.8304-5.8261-8.8149-7.6267-8.8519-7.9972-0.0276-0.27555 0.29389-1.0982 0.76309-1.9535 0.61398-1.1193 0.91832-1.4953 1.221-1.4957zm4.8533 5.0059c-0.11964 0.0114-0.18314 0.073-0.18314 0.15262 0 0.0889 1.3436 1.2046 2.9913 2.503 3.2986 2.5991 3.2722 2.583 4.0597 1.221 0.8415-1.4553 0.74952-1.5196-3.0219-2.7777-2.4775-0.82649-3.4871-1.1332-3.846-1.0989zm-9.6455 3.6629c0.55777-0.0791 18.929 13.013 19.016 13.553 0.0334 0.20707-0.25199 0.99957-0.641 1.7399-0.5546 1.0554-0.79297 1.343-1.1294 1.343-0.23598 0-3.1876-0.98546-6.5626-2.1977s-6.2614-2.2282-6.3795-2.2282c-0.70758 0 0.35684 0.97061 5.1585 4.6396 4.1887 3.2008 5.3722 4.1848 5.3722 4.5175 0 0.23433-0.2929 0.99-0.67152 1.6788-0.52459 0.9544-0.80782 1.2515-1.1294 1.2515-0.46292 0-20.64-7.9098-21.336-8.3635-0.23718-0.15452-0.4304-0.32023-0.42734-0.39681 0.003-0.0772 0.32253-0.72315 0.70205-1.4346 0.4295-0.80534 0.80804-1.3125 1.0073-1.3125 0.17604 0 2.7143 1.0111 5.6469 2.2282 2.9326 1.2172 5.3801 2.1593 5.4332 2.1061 0.26915-0.26919-0.49464-0.91527-4.6396-4.0597-3.7403-2.8375-4.5116-3.5095-4.5175-3.9071-0.0106-0.7019 1.1896-2.77 1.6483-2.8387 0.2088-0.0312 2.7953 0.80295 5.7385 1.862 2.9432 1.0591 5.4147 1.923 5.4943 1.923 0.68861 0-0.54307-1.0236-4.6396-3.846-2.929-2.018-4.7955-3.4146-4.7922-3.6018 0.0111-0.63548 1.2287-2.5958 1.6483-2.6556zm-18.406 21.641c-1.5248 0.0478-2.8678 0.18778-3.0829 0.36628-0.2894 0.24019-0.30567 0.63651-0.21366 3.8155 0.0566 1.9544 0.21223 4.3707 0.36628 5.3722 0.15406 1.0014 0.43682 2.2124 0.61048 2.6861 0.17365 0.47373 0.56826 1.7508 0.88519 2.8387 2.1804 7.485 6.9202 12.864 13.247 15.048 1.3192 0.45527 1.7276 0.5189 4.2734 0.5189 2.2424 0 3.3096-0.11164 5.1585-0.48838 3.3325-0.67895 7.3706-2.4458 10.561-4.6091 1.7158-1.1632 2.3251-1.6407 4.4565-3.4797l0.70205-0.57995-0.21366-0.88519c-0.12991-0.48565-0.24419-1.1016-0.24419-1.343 0-0.62044-0.99096-2.1068-2.3809-3.5713-0.65363-0.68861-1.5302-1.681-1.923-2.2282-1.6269-2.2668-7.2722-6.7115-10.805-8.4856-4.1602-2.0889-9.3544-3.7602-13.553-4.3344-1.2649-0.17299-2.9068-0.40433-3.6629-0.51891-0.93925-0.14236-2.657-0.16986-4.1818-0.12209z"
    />
  </g>
  <metadata>
    <rdf:RDF>
      <cc:Work>
        <dc:format>image/svg+xml</dc:format>
        <dc:type rdf:resource="http://purl.org/dc/dcmitype/StillImage" />
        <cc:license
          rdf:resource="http://creativecommons.org/licenses/publicdomain/"
        />
        <dc:publisher>
          <cc:Agent rdf:about="http://openclipart.org/">
            <dc:title>Openclipart</dc:title>
          </cc:Agent>
        </dc:publisher>
        <dc:title>imperialism</dc:title>
        <dc:date>2011-08-14T21:22:46</dc:date>
        <dc:description />
        <dc:source
          >https://openclipart.org/detail/155413/imperialism-by-worker</dc:source
        >
        <dc:creator>
          <cc:Agent>
            <dc:title>worker</dc:title>
          </cc:Agent>
        </dc:creator>
        <dc:subject>
          <rdf:Bag>
            <rdf:li>bomb</rdf:li>
            <rdf:li>capitalism</rdf:li>
            <rdf:li>eu</rdf:li>
            <rdf:li>imperialism</rdf:li>
            <rdf:li>nato</rdf:li>
            <rdf:li>usa</rdf:li>
            <rdf:li>war</rdf:li>
          </rdf:Bag>
        </dc:subject>
      </cc:Work>
      <cc:License rdf:about="http://creativecommons.org/licenses/publicdomain/">
        <cc:permits rdf:resource="http://creativecommons.org/ns#Reproduction" />
        <cc:permits rdf:resource="http://creativecommons.org/ns#Distribution" />
        <cc:permits
          rdf:resource="http://creativecommons.org/ns#DerivativeWorks"
        />
      </cc:License>
    </rdf:RDF>
  </metadata>
</svg>
