<?xml version="1.0" encoding="UTF-8" standalone="no"?>
<!-- Created with Inkscape (http://www.inkscape.org/) -->
<svg
  xmlns:dc="http://purl.org/dc/elements/1.1/"
  xmlns:cc="http://creativecommons.org/ns#"
  xmlns:rdf="http://www.w3.org/1999/02/22-rdf-syntax-ns#"
  xmlns:svg="http://www.w3.org/2000/svg"
  xmlns="http://www.w3.org/2000/svg"
  xmlns:sodipodi="http://sodipodi.sourceforge.net/DTD/sodipodi-0.dtd"
  xmlns:inkscape="http://www.inkscape.org/namespaces/inkscape"
  width="714.28571"
  height="372.54932"
  id="svg6234"
  version="1.1"
  inkscape:version="0.48.4 r9939"
  sodipodi:docname="New document 64"
>
  <defs id="defs6236">
    <clipPath id="clip_color">
      <path
        inkscape:connector-curvature="0"
        id="path3389"
        d="M 0,0 -11,-11 V 11 L 0,0 v -11 h 11 z"
      />
    </clipPath>
    <clipPath id="clipPath6214">
      <path
        inkscape:connector-curvature="0"
        id="path6216"
        d="M 0,0 -11,-11 V 11 L 0,0 v -11 h 11 z"
      />
    </clipPath>
  </defs>
  <sodipodi:namedview
    id="base"
    pagecolor="#ffffff"
    bordercolor="#666666"
    borderopacity="1.0"
    inkscape:pageopacity="0.0"
    inkscape:pageshadow="2"
    inkscape:zoom="0.90624295"
    inkscape:cx="537.73628"
    inkscape:cy="213.68866"
    inkscape:document-units="px"
    inkscape:current-layer="layer1"
    showgrid="false"
    fit-margin-top="0"
    fit-margin-left="0"
    fit-margin-right="0"
    fit-margin-bottom="0"
    showguides="true"
    inkscape:guide-bbox="true"
    inkscape:window-width="1280"
    inkscape:window-height="749"
    inkscape:window-x="0"
    inkscape:window-y="26"
    inkscape:window-maximized="1"
  />
  <metadata id="metadata6239">
    <rdf:RDF>
      <cc:Work rdf:about="">
        <dc:format>image/svg+xml</dc:format>
        <dc:type rdf:resource="http://purl.org/dc/dcmitype/StillImage" />
        <dc:title />
      </cc:Work>
    </rdf:RDF>
  </metadata>
  <g
    inkscape:label="Layer 1"
    inkscape:groupmode="layer"
    id="layer1"
    transform="translate(-2.8571965,-288.94466)"
  >
    <g transform="translate(1917.5168,91.797866)" id="g6185">
      <path
        sodipodi:nodetypes="scsccccccccscssccscccccccccccccscccssscccsccsccsccsccccccccccccsccccscscscccsccscsscccscscccccccscccccssccccscscccccccsscscsscscccccsccccscsccccccccsccccscccccccccccccccccscscccscccsccccsccccccscscccccccccccssccscscc"
        inkscape:connector-curvature="0"
        id="path6160"
        d="m -1439.8325,408.78694 c -1.6455,-0.0385 -2.3353,0.0245 -3.0938,0.1875 -0.9342,0.20069 -9.9912,2.78606 -20.125,5.75 -30.7633,8.99793 -35.4087,10.31525 -36.3437,10.34375 l -0.9063,0.0313 1.0626,0.34375 c 1.5738,0.51871 1.8188,0.507 6.4374,-0.875 4.3031,-1.28798 6.0127,-1.80594 31.4376,-9.3125 7.6182,-2.24934 15.2064,-4.50812 16.8437,-5 l 2.9687,-0.875 9.0313,0.78125 c 4.9587,0.43181 9.3782,0.78125 9.8437,0.78125 1.062,0 3.1281,-0.85452 2.3438,-0.96875 -0.2875,-0.0419 -5.0816,-0.36486 -10.6875,-0.71875 -4.5506,-0.28728 -7.167,-0.43023 -8.8125,-0.46875 z m 20.4688,3.25 c -0.1751,0.0105 -0.3775,0.031 -0.625,0.0625 -0.7556,0.0959 -13.667,3.96227 -28.6876,8.5625 -34.5014,10.56647 -32.0608,9.81451 -33.5,10 -0.8541,0.11007 -1.2727,0.30321 -1.375,0.625 -0.2098,0.66154 -0.3191,5.71165 -0.125,5.90625 0.089,0.0894 0.4705,0.049 0.8126,-0.0937 0.5291,-0.22105 5.6564,-1.89069 21.5312,-7 1.5811,-0.5089 3.0875,-1.00777 3.375,-1.125 1.5853,-0.64653 3.3407,-1.06595 3.8438,-0.90625 0.8805,0.27946 3.1614,-0.57995 -19.9063,7.5 l -9.2813,3.25 0.094,0.90625 c 0.049,0.49092 0.1385,0.91845 0.1875,0.96875 0.1063,0.10924 1.7461,-0.39217 2.8437,-0.875 1.0924,-0.48068 19.2576,-6.63826 25.75,-8.71875 0.9343,-0.29942 3.0659,-1.02986 4.7188,-1.625 5.263,-1.89494 6.1231,-2.06063 5.1562,-1.09375 -0.2373,0.23734 -1.9428,0.97879 -3.7812,1.65625 -1.8383,0.67761 -6.2285,2.29873 -9.75,3.59375 -3.5218,1.29495 -9.8846,3.64009 -14.125,5.21875 -4.2404,1.57862 -8.3079,3.07722 -9.0625,3.34375 -0.9557,0.33755 -1.375,0.64661 -1.375,0.96875 0,0.55544 2.3385,15.93205 2.4375,16.03125 0.038,0.038 6.4669,-2.33446 14.2812,-5.28125 7.8148,-2.94678 14.3687,-5.29315 14.5626,-5.21875 0.1936,0.0743 0.3437,0.35946 0.3437,0.625 0,0.47297 -0.2251,0.57148 -4.0625,2.0625 -0.575,0.22338 -1.4221,0.55391 -1.875,0.75 -0.453,0.19608 -0.8807,0.375 -0.9688,0.375 -0.088,0 -0.6719,0.22526 -1.2812,0.5 -0.6096,0.27477 -2.0908,0.85215 -3.3125,1.3125 -2.1644,0.8156 -7.0475,2.7405 -14.0313,5.5 -2.6138,1.03279 -3.4247,1.45736 -3.3124,1.75 0.081,0.21204 0.362,0.3139 0.5937,0.25 0.2318,-0.0638 5.4224,-2.00875 11.5313,-4.34375 24.0815,-9.20476 22.3406,-8.59767 23.2812,-8.375 0.9108,0.21563 0.9271,0.23619 0.094,0.40625 -0.5467,0.11119 -15.3964,5.99846 -27.875,11.0625 l -7.2188,2.9375 0.125,0.90625 c 0.2038,1.25599 -0.3066,1.35695 -2.6562,0.5 -1.409,-0.51382 -2.2125,-0.98874 -2.8438,-1.6875 l -0.875,-1 0.094,-3.09375 c 0.083,-2.22659 0.042,-2.99974 -0.1563,-2.71875 -0.2166,0.30722 -0.2713,0.1856 -0.2813,-0.53125 -0.018,-1.96077 -1.391,-6.0135 -2.0312,-6 -0.6408,0.0134 -0.7806,0.62842 -0.9062,3.78125 -0.178,4.46851 -0.8288,6.18664 -2.7188,7.15625 l -0.9688,0.5 4.9688,2.40625 c 2.7188,1.33469 5.4469,2.59573 6.0938,2.78125 2.5539,0.73228 1.9418,0.90182 14.8124,-4.21875 4.473,-1.77962 8.4285,-3.27975 8.7813,-3.34375 0.3529,-0.064 3.1388,-1.1733 6.2187,-2.46875 37.9691,-15.97023 37.0979,-15.59004 37.9376,-16.5625 0.2591,-0.30022 0.4687,-0.9786 0.4687,-1.53125 0,-0.98922 -1.3712,-8.36075 -3.4687,-18.5625 -0.7048,-3.42827 -1.1073,-5.99403 -1.0313,-6.59375 0.105,-0.82442 0.04,-0.94798 -0.3125,-0.8125 -0.243,0.0933 -0.4062,0.0249 -0.4062,-0.15625 0,-0.16987 -0.2249,-0.25029 -0.75,-0.21875 z m 23.1874,8.8125 c -0.9909,-0.0279 -2.0923,0.0685 -2.9374,0.28125 -0.8473,0.2134 -1.2697,0.18705 -1.9376,-0.0937 -0.7845,-0.32983 -1.2446,-0.25911 -4.9687,0.53125 -2.2558,0.47873 -4.7442,0.99878 -5.5313,1.15625 -0.7869,0.15747 -1.7308,0.46794 -2.0937,0.71875 -0.3629,0.25082 -0.8735,0.5342 -1.125,0.625 -0.2516,0.0908 -0.4687,0.29199 -0.4687,0.4375 0,0.41136 1.2076,0.60004 2.5,0.40625 1.6186,-0.24273 1.4638,0.18809 -0.2813,0.78125 -0.9965,0.3387 -1.4065,0.59842 -1.3125,0.84375 0.075,0.19602 0.3474,1.33479 0.5938,2.53125 l 0.4374,2.15625 1.4688,-0.0313 c 1.2322,-0.0301 2.0467,-0.31597 5.375,-1.9375 6.3939,-3.11487 6.5828,-3.2336 6.875,-3.875 0.1542,-0.33837 0.5984,-0.73415 0.9688,-0.875 0.8897,-0.33831 2.1874,-0.31445 2.1874,0.0313 0,0.26552 -2.1681,2.50398 -4.3124,4.46875 -0.575,0.52676 -2.6752,2.69656 -4.6876,4.8125 -4.5967,4.83334 -8.8423,9.27105 -11.375,11.90625 -1.0781,1.12186 -2.4782,2.6276 -3.125,3.34375 -0.6467,0.71614 -1.3204,1.3075 -1.5,1.3125 -0.1797,0.005 -0.3437,0.1165 -0.3437,0.25 0,0.13351 -0.4169,0.70076 -0.9375,1.25 -1.8755,1.97873 -2.7195,3.1717 -4.0625,5.71875 -1.3497,2.55903 -1.365,2.61332 -1.375,4.9375 -0.01,2.12818 0.048,2.48252 0.75,3.75 0.8164,1.47391 2.7959,3.17922 4.7187,4.0625 2.9999,1.37801 6.6827,2.31536 10.8438,2.78125 1.2217,0.13679 2.9189,0.36998 3.7812,0.5 3.0235,0.45581 7.8884,1.03038 11.125,1.3125 1.7966,0.1566 15.8547,2.21133 16.2859,2.26033 0.4312,0.049 0.9226,0.1034 1.0937,0.125 0.499,0.0628 0.6105,-0.36341 0.4376,-1.625 l -0.1563,-1.1875 -14.5046,-2.41658 c -2.8532,-0.67172 -9.6998,-1.71273 -14.7813,-2.25 -5.9402,-0.62797 -11.5778,-1.79207 -13.2812,-2.75 -0.2496,-0.14036 -0.6262,-0.25 -0.8438,-0.25 -0.2175,0 -0.4062,-0.11595 -0.4062,-0.25 0,-0.13405 -0.2223,-0.31815 -0.5,-0.40625 -0.6994,-0.22212 -1.8438,-2.25358 -1.8438,-3.28125 0,-2.23675 1.8441,-5.82428 4.8126,-9.375 3.4995,-4.186 6.6216,-7.39787 20.375,-20.90625 5.3089,-5.21435 6.9687,-7.46941 6.9687,-9.5625 0,-1.15082 -0.1089,-1.42253 -0.6563,-1.78125 -0.3774,-0.24722 -1.259,-0.40959 -2.25,-0.4375 z m -105.5312,5.5625 c -1.2204,-0.005 -1.8542,0.32656 -2.5,1.03125 l -0.8438,0.9375 0.4688,2.84375 c 0.2636,1.56698 0.541,3.22035 0.625,3.6875 0.1238,0.68596 0.2944,0.84375 0.8125,0.84375 0.7791,0 0.7834,-0.0902 0.094,-2.40625 -0.7184,-2.41251 -0.5299,-4.26458 0.5313,-5.28125 l 0.7187,-0.6875 7.3126,1.84375 c 4.0147,1.01377 7.464,1.84375 7.6874,1.84375 0.3925,0 1.4678,-0.96746 1.25,-1.125 -0.059,-0.0427 -1.2814,-0.35756 -2.7187,-0.6875 -1.4373,-0.32994 -4.7783,-1.10703 -7.4375,-1.75 -2.9766,-0.71968 -4.7796,-1.08869 -6,-1.09375 z m 11.8125,6.5 c -0.2084,0.0258 -0.3901,0.13336 -0.5313,0.3125 -0.783,0.99432 -0.5293,3.40815 0.4688,4.40625 1.5745,1.57441 2.6963,-2.51699 1.1562,-4.21875 -0.3258,-0.36008 -0.7463,-0.543 -1.0937,-0.5 z m -16.4063,3.4375 c -0.7899,-0.0158 -1.7667,0.20402 -3.0937,0.625 -1.3206,0.41897 -2.601,0.9915 -2.8437,1.28125 -1.7032,2.03231 -1.3233,8.49959 0.8437,14.5625 0.4113,1.15093 0.798,2.14175 0.875,2.21875 0.1423,0.14223 2.9014,-0.7383 5.875,-1.90625 0.9022,-0.35436 1.7388,-0.5841 1.875,-0.5 0.4315,0.2666 1.0501,2.77481 1.2187,4.96875 0.1604,2.08649 0.1503,2.12679 -0.5624,2.6875 -1.4341,1.12805 -2.9225,0.525 -4.9063,-2 -1.0952,-1.3939 -2.3256,-2.17444 -2.75,-1.75 -0.2355,0.23578 1.0585,2.38907 2.6875,4.46875 1.405,1.79388 2.2341,2.57091 3.25,3.03125 0.2156,0.0977 0.4693,0.1774 0.5312,0.1875 0.062,0.0101 1.397,-0.28044 2.9688,-0.65625 2.8264,-0.67585 3.1944,-0.88765 4.1562,-2.28125 0.2494,-0.36113 0.8432,-0.74249 1.3126,-0.84375 1.8719,-0.40378 3.5039,-1.17254 3.7812,-1.78125 1.5053,-3.30368 -1.0058,-13.30972 -4.75,-18.9375 -0.6366,-0.95675 -1.4282,-2.01276 -1.7812,-2.34375 l -0.6563,-0.59375 -2.0625,0.6875 c -2.2203,0.74434 -2.6277,0.70039 -4,-0.40625 -0.569,-0.45882 -1.1788,-0.70298 -1.9688,-0.71875 z m 46.75,24.09375 c -0.2387,0.0373 -0.5664,0.15484 -1.0624,0.375 -0.698,0.30982 -2.486,1.0443 -3.9688,1.625 -2.4224,0.94872 -2.9525,1.3512 -2.0312,1.4375 0.1694,0.0159 0.5014,0.0406 0.75,0.0625 0.7896,0.0697 2.1672,3.4375 1.4062,3.4375 -0.1988,0 -0.674,0.43934 -1.0625,1 -1.3715,1.97899 -1.4513,6.5008 -0.1563,8.0625 0.2848,0.34355 1.1204,0.73983 2.125,1 0.9187,0.23795 3.4909,0.99884 5.7188,1.6875 4.6635,1.4415 5.6412,1.62443 7.5,1.40625 1.0447,-0.12261 1.3962,-0.29085 1.5,-0.6875 0.092,-0.35138 0.2677,-0.44235 0.5938,-0.34375 0.2615,0.079 8.7725,1.32141 18.9062,2.78125 10.1324,1.45978 22.2348,3.21703 26.9062,3.90625 4.6716,0.68924 18.6069,3.12738 18.96,3.10408 0.519,-0.0342 0.7634,-0.34598 1.2813,-1.5625 0.3523,-0.82771 0.573,-1.5517 0.5,-1.625 -0.073,-0.0733 -15.7659,-2.77491 -22.8663,-3.69783 -12.3465,-1.60495 -40.8236,-6.15824 -41.8124,-6.6875 -1.324,-0.70843 -1.136,-3.86571 0.3124,-5.21875 0.4187,-0.39111 0.7813,-0.7926 0.7813,-0.875 0,-0.0824 -0.3501,-0.33952 -0.7813,-0.5625 -0.5936,-0.30698 -0.7812,-0.59077 -0.7812,-1.15625 0,-0.55367 -0.1579,-0.78966 -0.5938,-0.90625 -0.3233,-0.0865 -3.3449,-0.29651 -6.6874,-0.46875 l -6.0626,-0.3125 -0.25,-0.9375 c -0.5918,-2.1307 -0.099,-3.73875 1.3126,-4.25 0.2848,-0.10327 0.2885,-0.19669 0.062,-0.4375 -0.1168,-0.1245 -0.2612,-0.19351 -0.5,-0.15625 z m 15.4063,10.40625 c -0.4743,-6.4e-4 -0.7363,0.14867 -1.125,0.5625 -0.4689,0.49911 -0.529,0.69165 -0.25,0.78125 0.2009,0.0646 7.4381,1.19276 16.0625,2.5 8.6244,1.30728 20.4817,3.11367 26.375,4.03125 5.8933,0.91756 20.2546,3.0873 20.4886,3.1015 0.4466,0.027 1.2083,-1.41676 0.9063,-1.71875 -0.095,-0.0947 -11.3531,-1.86593 -13.6137,-2.19525 -2.2606,-0.32933 -7.0097,-1.02019 -10.5312,-1.53125 -7.1084,-1.03183 -16.715,-2.42986 -28.75,-4.1875 -4.384,-0.64027 -8.4183,-1.2363 -9,-1.3125 -0.2229,-0.0292 -0.4044,-0.031 -0.5625,-0.0313 z"
        style="fill: #000000"
      />
      <path
        inkscape:connector-curvature="0"
        id="path2844"
        transform="translate(-414.4154,-150.08845)"
        d="m -1363.2188,420.375 c -10.4424,-0.0135 -18.2719,11.01931 -13.3437,20.71875 1.4245,2.80355 3.4508,5.05003 15.5937,17.5 l 4.5313,4.6875 3.3437,-0.46875 c 3.2316,-0.44046 10.7078,-3.68444 11.6876,-5.0625 0.7611,-1.0702 -0.7272,-3.22788 -5.6563,-8.34375 l -4.5313,-4.71875 1.125,-2.6875 c 1.2998,-3.11041 0.8949,-5.98612 -1.1562,-8.1875 -1.2741,-1.3676 -1.3283,-1.83381 -0.5625,-4.875 0.844,-3.35213 0.8478,-3.35764 -1.5313,-5.34375 -1.3231,-1.1046 -4.0982,-2.37608 -6.1874,-2.84375 -1.125,-0.25175 -2.2323,-0.3736 -3.3126,-0.375 z m 21.875,11.4375 c -0.4891,0.0381 -1.0044,0.2041 -1.7187,0.5 -3.5059,1.45215 -4.2187,2.58164 -4.2187,6.78125 0,2.12104 -0.3761,4.72337 -0.8438,5.75 -0.7549,1.65675 -0.6353,2.04311 0.9688,3.4375 3.2088,2.78923 7.0253,8.35643 6.5624,9.5625 -0.4838,1.26118 -9.8357,5.96875 -11.8437,5.96875 -1.1957,0 -1.2754,1.45557 -1.2813,23.8125 l -0.031,23.84375 7.0312,6.625 6.9688,6.625 0.2188,-13.25 c 0.1888,-12.84109 0.9075,-16.76759 1.8437,-9.9375 0.2506,1.82867 0.4304,8.37837 0.4375,14.53125 l 0.031,11.15625 6.5938,5.875 c 0.8228,0.72961 1.6231,1.41471 2.375,2.0625 l 5,0 c 0.1875,-6.71405 0.3438,-21.65793 0.3438,-39.09375 0,-48.38466 -0.5437,-44.4248 5.5624,-41.46875 3.7667,1.82329 3.7945,1.48894 -0.4687,13.75 -1.6168,4.65006 -2.95,8.98549 -2.9375,9.65625 0.045,2.43342 3.3998,5.15625 6.3438,5.15625 3.1481,0 4.8479,-2.91173 9.4062,-16.34375 5.5488,-16.35181 5.6542,-15.77188 -4.1562,-20.40625 -8.5473,-4.03721 -14.6203,-6.79181 -21.625,-9.8125 -2.9562,-1.27465 -6.4542,-2.96437 -7.75,-3.75 -1.2853,-0.77896 -1.9971,-1.09474 -2.8126,-1.03125 z m -28.6874,10.625 c 0.8738,-0.0933 1.9199,0.3462 2.1562,1.25 0.6602,2.52458 4.7331,4.45615 8.625,4.09375 1.8908,-0.17607 3.8642,-0.66986 4.375,-1.09375 0.7085,-0.58804 2.0481,0.41778 5.6875,4.1875 2.6237,2.71764 4.7813,5.20863 4.7813,5.5625 0,0.35392 -1.4254,1.34662 -3.1563,2.1875 -1.731,0.84095 -4.2225,1.71736 -5.5625,1.96875 -2.3606,0.44286 -2.6726,0.19177 -10.2812,-7.8125 -4.3192,-4.54387 -7.875,-8.67799 -7.875,-9.1875 0,-0.69894 0.5701,-1.08366 1.25,-1.15625 z m -45.5626,4.65625 c -0.6996,-0.0139 -1.3011,0.18114 -1.9374,0.5 -2.3429,1.17382 -3.7165,4.74507 -2.625,6.90625 0.7788,1.54238 15.9588,11.27713 25.5937,16.4375 2.1678,1.16113 4.9113,2.77236 6.0937,3.5625 2.5659,1.71458 5.9983,1.63071 7.0938,-0.15625 0.9098,-1.48398 -0.188,-2.58279 -10.75,-10.875 -3.5077,-2.75382 -9.4251,-7.40661 -13.125,-10.3125 -5.5069,-4.32451 -8.2439,-6.0208 -10.3438,-6.0625 z m 48.7188,10.71875 c -0.4399,0.19243 -2.4357,2.48525 -4.4062,5.0625 -1.9709,2.57725 -5.2745,6.7928 -7.3438,9.34375 -2.0692,2.55116 -3.75,5.10933 -3.75,5.6875 0,1.51565 1.9311,5.06995 3,5.5 1.7489,0.70366 5.308,0.45125 6.4062,-0.4375 0.6091,-0.49267 3.3261,-3.79649 6,-7.34375 2.674,-3.54726 5.6772,-7.31627 6.6876,-8.40625 l 1.8437,-1.96875 -3.8437,-3.875 c -1.9715,-1.99622 -3.9027,-3.53727 -4.5,-3.5625 -0.04,-10e-4 -0.066,-0.012 -0.094,0 z m -50.75,13.625 c -0.036,-0.004 -0.04,0.0168 -0.063,0.0313 -0.3946,0.24385 -0.4554,3.03069 -0.1563,6.8125 l 0.5,6.40625 -8.3437,-0.40625 c -5.5562,-0.26292 -8.2356,-0.1383 -7.9375,0.34375 1.096,1.77341 12.1044,10 13.375,10 0.7765,0 3.8282,-1.44512 6.75,-3.21875 2.9218,-1.77363 5.4333,-3.25 5.625,-3.25 0.1917,0 1.4971,1.82807 2.9062,4.03125 1.4256,2.22832 2.9571,3.8506 3.4376,3.65625 6.04,-2.44374 14.8437,-6.59655 14.8437,-7 0,-0.28521 -2.5658,-0.75213 -5.7187,-1.03125 l -5.75,-0.5 -0.031,-6.5625 c -0.028,-3.60481 -0.3039,-7.13695 -0.5937,-7.875 -0.6241,-1.58824 -0.9683,-1.33967 -5.4688,4.40625 -1.5766,2.01284 -3.2494,3.67173 -3.7188,3.6875 -0.4692,0.0158 -2.7128,-2.19536 -4.9687,-4.9375 -2.1149,-2.5708 -4.1407,-4.5448 -4.6875,-4.59375 z m 8.7188,19.90625 c -1.1311,-0.0762 -3.4164,1.21122 -12.4063,6.59375 -2.0493,1.22692 -7.3986,4.35553 -11.9063,6.96875 -4.5076,2.61322 -8.4666,5.16078 -8.7812,5.65625 -0.3145,0.49545 -0.5878,1.93514 -0.5938,3.1875 -0.012,2.56306 2.6937,5.25574 5.2813,5.25 1.7029,-0.004 8.4602,-3.33356 15.7813,-7.78125 2.5955,-1.54388 5.2603,-3.07712 7.9687,-4.3125 1.2056,-0.31527 1.8321,0.36139 5.0313,5.21875 4.774,7.24932 6.3026,10.7328 5.75,13.21875 -0.2321,1.04304 -3.0733,4.68852 -6.3126,8.09375 -3.2391,3.40544 -7.9703,8.45475 -10.5,11.21875 -4.2983,4.69629 -5.7576,5.46258 -7.2187,3.78125 -0.1971,-0.22671 -2.616,-2.24924 -5.375,-4.46875 -0.752,-0.60496 -1.391,-1.10342 -2.0625,-1.625 4.7694,6.47356 10.3884,12.27129 16.7188,17.21875 0.6836,-0.72679 1.3767,-1.44832 2.0937,-2.25 3.6942,-4.13002 7.0203,-7.5 7.375,-7.5 0.5905,0 9.4367,5.07993 14.0625,8.0625 1.0631,0.6854 2.4087,1.45037 3,1.71875 0.5912,0.26835 2.8341,1.58811 4.9688,2.9375 2.1342,1.3494 4.5532,2.73021 5.375,3.0625 0.8214,0.33233 22.4814,0.63124 48.125,0.65625 l 13.9687,0 c 6.4384,-3.75522 12.3635,-8.29336 17.625,-13.5 -2.4013,-0.0241 -4.7064,-0.0524 -8,-0.0625 l 0,4.4375 -14.7813,0 0,-1.71875 -14.7812,0 0,-2.8125 c -10.1764,-0.0636 -17.375,-0.16487 -17.375,-0.3125 0,-1.11549 5.9481,-12.5 6.5312,-12.5 0.3732,0 3.1306,2.41895 6.125,5.375 l 4.7188,4.65625 0,-14.65625 5.375,0 c -0.2267,-0.21329 -0.4281,-0.41074 -0.6562,-0.625 -18.6107,-17.46973 -19.262,-18.0625 -20.1563,-18.0625 -0.4426,0 -3.4601,5.1625 -6.6875,11.46875 -4.0341,7.8828 -6.1984,11.41526 -6.9375,11.28125 -1.1186,-0.2034 -13.9182,-7.85034 -15.9063,-9.5 -0.6247,-0.51861 -2.4528,-3.20891 -4.0624,-6 -1.61,-2.79116 -5.0819,-8.31218 -7.6876,-12.25 -2.6052,-3.93839 -6.3678,-9.87386 -8.3437,-13.1875 -1.9759,-3.3135 -4.0495,-6.33615 -4.6563,-6.71875 -0.207,-0.13064 -0.4266,-0.20117 -0.6874,-0.21875 z m -9.3438,22.6875 c -5.3348,0 -9.6562,4.32131 -9.6562,9.65625 0,5.33479 4.3214,9.65625 9.6562,9.65625 5.3348,0 9.6562,-4.32131 9.6562,-9.65625 0,-5.3348 -4.3213,-9.65625 -9.6562,-9.65625 z"
        style="fill: #000000"
      />
      <path
        inkscape:connector-curvature="0"
        style="fill: #000000"
        d="m -1635.3714,361.55584 c -0.398,0.032 -0.2252,0.18003 0.4375,0.4375 0.8978,0.3488 1.1582,0.84969 0.6875,1.3125 -0.1162,0.11421 -1.2665,0.28031 -2.5313,0.34375 -3.9264,0.1969 -7.8865,1.34382 -10.8124,3.125 -1.341,0.81639 -1.6876,0.9294 -1.6876,0.625 0,-0.30702 1.3579,-1.68926 2.9688,-3.03125 0.156,-0.12998 0.2169,-0.21875 0.125,-0.21875 -0.2073,0 -7.0938,5.06649 -7.0938,5.21875 0,0.0606 0.5468,-0.21474 1.2188,-0.59375 1.0003,-0.56419 1.2306,-0.6064 1.3125,-0.34375 0.055,0.17643 -0.169,0.54003 -0.5,0.8125 -4.3226,3.55884 -8.2378,8.40125 -10.0937,12.5 -0.3355,0.74074 -0.6667,1.30485 -0.75,1.25 -0.083,-0.0549 0.2242,-1.05352 0.7187,-2.21875 0.4945,-1.16521 0.8491,-2.14281 0.7813,-2.1875 -0.1377,-0.0905 -0.037,-0.28373 -2.4688,4.90625 -0.9674,2.06468 -1.698,3.79578 -1.625,3.84375 0.074,0.0481 0.3012,-0.22807 0.5,-0.625 0.5604,-1.11856 1.1471,-1.99457 1.2812,-1.90625 0.067,0.044 -0.1529,0.65388 -0.4687,1.375 -2.1874,4.99264 -4.5937,13.71433 -4.5937,16.65625 0,0.54642 -0.1174,1.05841 -0.2813,1.125 -0.2001,0.0814 -0.234,-0.31945 -0.125,-1.1875 0.3917,-3.11926 0.3776,-3.37831 0.125,-3 -0.1391,0.208 -0.237,0.74026 -0.25,1.15625 -0.013,0.41594 -0.1182,1.06599 -0.2187,1.46875 -0.1791,0.71254 -0.2242,0.67721 -1.7188,-1.875 -0.8447,-1.44265 -1.8092,-2.95905 -2.125,-3.375 l -0.5625,-0.78125 0.2187,0.96875 c 0.113,0.51996 0.1832,1.27155 0.1876,1.6875 0.011,0.67853 -0.053,0.75 -0.6876,0.75 -0.5597,0 -0.8968,-0.21081 -1.625,-1.0625 -2.5234,-2.95199 -6.3524,-5.83952 -10.4062,-7.84375 -1.2154,-0.60088 -2.2434,-1.1144 -2.2812,-1.125 -0.038,-0.0108 -0.1468,-0.28533 -0.25,-0.625 l -0.1876,-0.625 1.4063,0.5 c 0.7736,0.26522 1.8529,0.6748 2.4063,0.90625 l 1,0.40625 -0.5938,-0.46875 c -0.3359,-0.2559 -1.189,-1.74721 -1.9375,-3.375 -0.7412,-1.61183 -1.5082,-3.18809 -1.6875,-3.5 -0.1786,-0.30993 -1.7608,-1.55454 -3.5312,-2.75 -2.5307,-1.70955 -3.7765,-2.71502 -5.75,-4.78125 -2.7464,-2.8755 -4.4688,-5.30962 -4.4688,-6.28125 0,-0.34378 -0.2278,-1.15162 -0.5312,-1.8125 -0.3035,-0.6609 -0.632,-1.38578 -0.7188,-1.59375 -0.086,-0.20799 -0.1032,0.16258 -0.031,0.8125 0.078,0.70754 0.013,1.1875 -0.1563,1.1875 -0.1559,0 -0.2783,-0.0782 -0.2813,-0.15625 0,-0.078 -0.518,-0.51678 -1.1562,-0.96875 -0.9455,-0.66952 -1.3007,-0.78227 -1.875,-0.6875 -0.8682,0.14331 -0.9012,-0.1014 -0.1562,-1.0625 0.6875,-0.88696 0.2759,-0.75924 -0.8126,0.28125 -0.5743,0.54909 -0.7835,0.95147 -0.6874,1.28125 0.095,0.32728 -0.1465,0.78026 -0.75,1.40625 -1.1586,1.20159 -3.0101,4.36054 -3.9376,6.6875 -0.6952,1.74457 -0.7941,1.86212 -1.4374,1.78125 -0.375,-0.0472 -1.4788,0.021 -2.4688,0.1875 -0.9901,0.1665 -2.1361,0.36704 -2.5312,0.40625 -0.3954,0.0392 -0.1178,0.0508 0.5937,0.0625 0.7115,0.0117 1.8051,-0.058 2.4375,-0.15625 1.5305,-0.23788 2.1562,-0.0652 2.1562,0.53125 0,0.63488 -1.7107,5.58003 -2,5.78125 -0.1237,0.0862 -2.9263,0.28605 -6.2187,0.4375 -3.2925,0.15145 -6.0516,0.3266 -6.125,0.375 -0.074,0.0484 1.0507,0.0625 2.5,0.0625 1.5311,0 2.625,0.0797 2.625,0.1875 0,0.25046 -0.5561,0.33979 -5.6875,0.6875 -8.0485,0.54539 -15.1387,1.5154 -21.75,3.03125 -1.5812,0.36253 -3.2762,0.72194 -3.75,0.78125 -1.604,0.20082 -0.319,-0.42713 2.6562,-1.28125 1.5406,-0.44224 2.9195,-0.88128 3.0626,-0.96875 0.387,-0.23696 -7.4295,1.79142 -12.0938,3.0625 l 0,0.34375 c 1.3067,-0.27574 2.3995,-0.48293 2.4688,-0.4375 0.2725,0.17925 -0.6644,0.58426 -2.4063,1.03125 -0.015,0.004 -0.047,0.0272 -0.063,0.0313 l 0,1.46875 c 1.0611,-0.32019 1.8862,-0.5625 2.1875,-0.5625 1.1488,0 0.4415,0.44404 -2.1875,1.375 l 0,0.46875 c 3.1886,-0.82943 7.1201,-1.89137 7.6875,-2.125 0.5593,-0.23024 1.8301,-0.67388 2.8125,-1 0.9824,-0.32614 1.7812,-0.63849 1.7812,-0.6875 0,-0.11348 -2.5592,0.53742 -4.0312,1.03125 -1.2243,0.41079 -2.3125,0.50368 -2.3125,0.1875 0,-0.26625 1.9773,-0.82883 4.625,-1.3125 6.0019,-1.09633 7.6457,-1.37524 9.5625,-1.625 1.1475,-0.14951 3.8562,-0.53813 6.0312,-0.84375 4.4675,-0.62777 8.6581,-0.94962 9.1876,-0.71875 0.4212,0.18374 -0.4563,0.71931 -1.1876,0.71875 -0.7684,-8.1e-4 -5.5321,0.6047 -5.4062,0.6875 0.066,0.0432 2.1114,-0.0181 4.5312,-0.125 l 4.4063,-0.1875 2.5313,0.71875 c 1.3964,0.38815 2.5312,0.76932 2.5312,0.875 0,0.10564 -0.3138,0.9286 -0.6875,1.8125 -0.3737,0.88391 -1.2871,3.04464 -2.0313,4.8125 -0.7442,1.76779 -1.7944,4.294 -2.3437,5.59375 -1.4015,3.3158 -1.3565,3.14728 -1,2.8125 0.4533,-0.42578 0.387,-0.059 -0.375,1.8125 -1.6116,3.9583 -4.4889,13.5908 -4.5,15.09374 0,0.3297 -0.1152,0.71901 -0.2813,0.875 -0.246,0.23124 -0.3032,0.21451 -0.1874,-0.0937 0.078,-0.20797 0.2324,-1.25187 0.3124,-2.34375 0.178,-2.42331 0.02,-1.81898 -1.25,4.90625 -0.9673,5.12522 -1.0832,6.32067 -0.3124,3.59375 0.653,-2.31144 0.7002,-1.84527 0.125,1.4375 -0.2673,1.52503 -0.5466,5.24015 -0.6563,8.875 l -0.1875,6.21875 -2.6562,0.0625 c -1.682,0.0345 -3.256,-0.0388 -4.3126,-0.21875 -2.1757,-0.37082 -7.8652,-0.71837 -10.8124,-0.65625 -1.4325,0.0302 -3.1463,-0.0849 -4.4376,-0.28125 -1.215,-0.18475 -3.306,-0.3125 -4.9374,-0.3125 -1.4689,0 -2.5046,-0.0417 -3.625,-0.1875 l 0,1 c 2.1307,0.0769 4.4568,0.24165 5.3437,0.40625 0.9932,0.18427 2.7982,0.2757 4.875,0.28125 1.8182,0.005 4.3601,0.15957 5.625,0.3125 1.2651,0.15295 3.7755,0.31924 5.5937,0.375 4.9259,0.15111 6.3704,0.27615 6.2813,0.53125 -0.093,0.26711 2.0656,1.81213 2.5313,1.8125 0.3504,0 0.485,0.43967 1,3.6875 l 0.3124,2.09375 -1.4687,1.28125 c -1.3805,1.19957 -1.7218,1.625 -1.2813,1.625 0.104,0 0.8914,-0.50105 1.75,-1.125 1.6302,-1.18474 2.0938,-1.34145 2.0938,-0.78125 0,0.49562 -5.2903,3.88972 -5.8438,3.75 -0.2475,-0.0625 -1.5626,0.27117 -2.9687,0.75 -8.0778,2.75054 -10.8465,3.71054 -15.9687,5.59376 -1.5613,0.57405 -3.0022,1.13868 -4.0313,1.5625 l 9.5937,0 0,2.59375 c 0.8734,-0.40873 1.7746,-0.84293 2.4063,-1.15625 2.7333,-1.35572 4.328,-2.20122 9.8437,-5.25 2.6227,-1.44959 5.9401,-2.75878 5.625,-2.21876 -0.2042,0.35024 -0.1228,0.34021 1.625,-0.4375 l 0.9688,-0.4375 1.0625,2.40625 c 1.1373,2.58993 1.6972,3.69429 2.4375,4.84376 0.8199,1.27284 0.2886,1.17891 -0.6875,-0.125 -0.5166,-0.69015 -1.0707,-1.25 -1.2187,-1.25 -0.1483,0 -0.25,0.019 -0.25,0.0625 0,0.0435 0.8332,1.45675 1.8437,3.125 1.0103,1.66815 2.0434,3.6735 2.3125,4.46875 0.7781,2.3004 1.0732,1.37162 0.3438,-1.09375 -0.3617,-1.22188 -0.6351,-2.21875 -0.5938,-2.21875 0.041,0 0.9893,1.13226 2.0938,2.53125 2.3397,2.96355 4.4381,4.90302 7.5937,6.96875 2.8477,1.864 2.6903,2.15221 -0.7187,1.25 -1.3133,-0.34758 -2.5063,-0.69788 -2.6563,-0.78125 -0.4019,-0.22295 -0.75,-0.17561 -0.75,0.0937 0,0.27791 8.0098,3.69869 9.5,4.0625 1.7677,0.43167 2,0.46669 2,0.25 0,-0.11613 -0.1001,-0.2141 -0.2187,-0.21875 -0.1186,-0.005 -0.8396,-0.38087 -1.625,-0.84375 -1.3099,-0.77181 -1.391,-0.87856 -0.9688,-1.15625 0.3347,-0.22007 0.6099,-0.22515 1,-0.0937 0.295,0.0995 1.6247,0.35709 2.9688,0.59375 2.302,0.40537 2.8124,0.42343 8.5,0.3125 5.6644,-0.1105 7.0154,-0.16119 8.25,-0.40625 0.4012,-0.0797 0.5,0.0151 0.5,0.46875 0,0.46502 -0.3013,0.71107 -1.5938,1.375 -2.0827,1.06986 -2.0971,1.39412 -0.063,0.8125 0.5193,-0.14842 2.4778,-0.63964 4.375,-1.125 3.5088,-0.8976 7.8992,-2.36759 7.9063,-2.625 0.011,-0.26224 -0.7157,-0.14629 -3.1563,0.5 -1.3351,0.35357 -2.8383,0.68237 -3.3125,0.71875 -0.7435,0.057 -0.8635,0.011 -0.9375,-0.40625 -0.074,-0.41321 0.1395,-0.57054 1.4375,-1.03125 7.0973,-2.51907 14.1943,-6.08826 21.7188,-10.9375 3.8011,-2.44989 5.0108,-2.9628 4.5312,-1.96875 -0.1007,0.2086 -1.4671,1.56632 -3.0312,3.03125 -2.8947,2.71143 -3.4683,3.58612 -1.3126,2 0.6569,-0.48331 3.5644,-2.63876 6.4688,-4.78125 2.9044,-2.14242 5.3249,-3.90625 5.375,-3.90625 0.051,0 0.7953,0.72488 1.6562,1.59375 0.8612,0.86888 2.1765,2.12137 2.9063,2.78125 1.2781,1.15513 1.6391,1.65334 1.0313,1.40625 -0.1589,-0.0646 -0.8399,-0.6419 -1.5,-1.28125 -1.7764,-1.72032 -1.6639,-0.99401 0.1562,1.03125 1.7393,1.93521 6.6365,6.21875 7.125,6.21875 0.1705,0 0.068,-0.24487 -0.2188,-0.53125 -1.1612,-1.16381 -3.2812,-3.53031 -3.2812,-3.65625 0,-0.0741 1.7939,1.02032 3.9688,2.4375 4.6252,3.014 7.869,4.59694 12.4374,6.03125 1.8182,0.57085 3.4816,1.10752 3.7188,1.1875 0.2371,0.08 0.4803,0.26664 0.5312,0.4375 0.082,0.27374 -0.2866,0.3125 -3.2187,0.3125 -1.8298,0 -3.3437,0.0742 -3.3437,0.15625 0,0.16365 6.6998,1.37226 7.625,1.375 0.3162,0 1.8656,0.29368 3.4374,0.65625 2.9781,0.68695 4.1328,0.66473 2.3438,-0.0625 -0.9247,-0.37585 -1.3438,-0.7579 -1.3438,-1.1875 0,-0.0975 1.8371,-0.1875 4.1876,-0.1875 3.9,0 4.4319,-0.0301 7.5624,-0.625 1.8481,-0.35121 4.154,-0.86422 5.125,-1.125 1.615,-0.43391 2.0177,-0.46141 4.875,-0.375 l 0.4063,0 0,-0.84375 c -0.8326,0.14084 -1.75,0.27969 -1.75,0.21875 0,-0.0353 0.6553,-0.27057 1.4375,-0.53125 0.1189,-0.0396 0.206,-0.0612 0.3125,-0.0937 l 0,-5.40625 c -0.3319,0.18377 -0.7919,0.40748 -0.875,0.46875 -0.079,0.0582 -1.1497,0.69498 -2.375,1.40625 -1.2254,0.71127 -2.2187,1.40318 -2.2187,1.5625 0,0.25698 0.052,0.26654 0.625,0 0.8816,-0.40947 4.1658,-1.65625 4.375,-1.65625 0.093,0 0.1562,0.17937 0.1562,0.375 0,0.60912 -2.2195,1.56625 -5.3125,2.28125 -0.9318,0.21536 -1.7668,0.47871 -1.875,0.59375 -0.1083,0.11504 -1.1454,0.28041 -2.3125,0.375 -1.1673,0.0946 -2.7259,0.24483 -3.4375,0.34375 -1.653,0.22982 -4.7851,0.20043 -8.8437,-0.0937 -1.6114,-0.11679 -2.4273,-0.47311 -2.1563,-0.9375 0.1399,-0.23998 0.6106,-0.26451 3,-0.15625 1.9404,0.0879 2.8437,0.0751 2.8437,-0.0625 0,-0.11079 -0.4236,-0.29707 -0.9374,-0.40625 -1.627,-0.34564 -11.51,-1.90625 -12.0626,-1.90625 -1.0114,0 -0.5158,0.29021 1.5313,0.9375 2.2191,0.7017 2.945,1.06977 2.6875,1.34375 -0.3369,0.35861 -1.3661,0.12796 -4.6562,-1 -4.5366,-1.55519 -7.3122,-2.85151 -11.5,-5.40625 -3.2069,-1.95625 -4.1598,-2.74124 -3.7188,-3.03125 0.09,-0.0591 1.1682,0.47712 2.375,1.1875 1.2068,0.71039 2.1507,1.16923 2.0938,1 -0.099,-0.29316 -9.3578,-7.71875 -9.625,-7.71875 -0.3273,0 0,0.43325 1.4687,1.96875 1.6765,1.75614 2.0831,2.56953 0.9687,1.90625 -0.3325,-0.19799 -0.9414,-0.75068 -1.3437,-1.21875 -0.4024,-0.4681 -1.2934,-1.48842 -2,-2.25 l -1.2813,-1.375 0.7813,-0.5625 c 1.0345,-0.71015 0.7693,-0.88327 -0.375,-0.25001 l -0.875,0.46876 -0.7187,-0.78126 -0.7188,-0.78125 1.75,-1.53125 c 2.1056,-1.86531 6.0238,-5.75437 7.75,-7.6875 l 1.25,-1.40625 2.4062,-0.0625 c 0.1852,-0.004 0.3716,0 0.5626,0 1.3359,-0.002 2.8099,0.086 3.9062,0.25 1.358,0.20316 2.5503,0.26951 3.625,0.1875 l 1.625,-0.125 0.1875,0.59375 c 0.1017,0.33348 0.1563,0.8805 0.1563,1.21875 0,0.33822 0.2001,0.7143 0.4374,0.84375 0.4931,0.26918 0.5161,0.23999 0.4376,-1.0625 -0.038,-0.63032 0.048,-0.80098 0.375,-0.71875 0.2638,0.0667 0.4875,-0.0455 0.5937,-0.3125 0.1342,-0.33764 0.2348,-0.36638 0.5625,-0.1875 0.3177,0.17337 0.5021,0.15875 0.7812,-0.0625 0.1969,-0.15613 0.4355,-0.23908 0.5626,-0.1875 0.3818,0.15522 12.1489,0.15237 17.6874,0 2.8461,-0.0782 6.2812,-0.12188 7.625,-0.0937 4.4424,0.0929 5.5757,0.0949 7.0626,-0.0625 l 1.4687,-0.15625 -0.031,0.71875 c -0.031,0.63769 0.055,0.73092 0.6876,0.78125 0.6001,0.0476 0.9212,0.32911 1.9374,1.78125 0.6695,0.95648 1.8121,2.59705 2.5313,3.625 0.7189,1.02805 1.3787,1.80923 1.4687,1.75 0.09,-0.0593 -0.3517,-0.98999 -1,-2.09375 -0.6482,-1.10378 -1.1874,-2.11732 -1.1874,-2.21875 0,-0.10142 0.7825,0.83826 1.75,2.0625 0.561,0.71002 0.9953,1.25379 1.375,1.71875 l 0,-3.03125 c -0.7174,-0.80834 -1.2203,-1.44903 -1.375,-1.71875 -0.5602,-0.97729 0.1072,-0.49954 1.375,0.90625 l 0,-4.40625 c -0.01,-0.004 -0.026,0.004 -0.031,0 -0.1618,-0.1282 -0.1549,-0.19631 0.031,-0.21875 l 0,-2.84375 c -0.1157,0.20078 -0.2297,0.44589 -0.375,0.78125 -0.4745,1.09513 -0.8309,1.44012 -1.1563,1.09375 -0.1,-0.10564 -0.5202,-0.1875 -0.9063,-0.1875 -0.4526,0 -0.6874,-0.0854 -0.6874,-0.28125 0,-0.16697 -0.3006,-0.55671 -0.6563,-0.84375 -0.3558,-0.28706 -0.7965,-0.67908 -1,-0.875 -0.33,-0.31802 -0.3763,-0.28455 -0.2187,0.21875 0.097,0.31002 0.2226,0.60229 0.25,0.65625 0.027,0.0539 -0.091,0.11655 -0.25,0.15625 -0.1582,0.0397 -0.7715,-0.83716 -1.375,-1.96875 -1.511,-2.83245 -4.5881,-9.87239 -4.4376,-10.15625 0.067,-0.12764 0.2277,0.12109 0.3438,0.5625 0.1162,0.44141 0.3268,0.8798 0.4688,0.9375 0.1421,0.0577 0.2022,-0.14636 0.125,-0.4375 -0.077,-0.29115 -0.474,-1.89872 -0.875,-3.5625 -1.0543,-4.37499 -1.9464,-7.38475 -2.0938,-7.09375 -0.07,0.13897 0.023,1.13487 0.2188,2.21875 0.1952,1.08389 0.2989,2.00978 0.2187,2.0625 -0.2632,0.17316 -0.7785,-2.27031 -1.5313,-7.40625 -0.5072,-3.46142 -0.468,-5.39895 0.2813,-12.18749 0.2352,-2.13178 0.4193,-4.2509 0.4063,-4.71875 l 0,-0.84375 -0.2813,1.03125 c -0.1436,0.57194 -0.3588,1.40706 -0.5,1.875 -0.2292,0.75894 -0.2483,0.72122 -0.125,-0.375 0.676,-6.01814 1.6771,-9.97589 3.9687,-15.78125 1.7583,-4.45469 2.3233,-6.4106 1.1563,-4 -0.6245,1.28986 -0.9169,1.28678 -0.4375,0 0.2337,-0.62725 0.5907,-1.48796 1,-2.40625 l -2,0 -0.063,0 -0.063,0 0,-0.1875 0,-0.8125 c -0.1692,0.37814 -0.3491,0.85799 -0.5625,1.46875 -0.6721,1.92346 -2.2234,6.06393 -2.5,6.6875 -0.1072,0.24113 -0.079,0.30806 0.094,0.1875 0.1493,-0.10401 0.5233,-0.72441 0.8126,-1.375 0.7404,-1.66541 0.8494,-1.31947 0.1562,0.46875 -1.1564,2.98398 -3.0833,11.77963 -3.2812,15 -0.065,1.05032 -0.115,0.81305 -0.1876,-0.9375 l -0.094,-2.375 -0.1875,1.71875 c -0.3459,2.80171 -0.5878,9.32373 -0.2812,7.65624 0.4364,-2.37469 0.5257,-2.29154 0.375,0.375 -0.238,4.20772 0.5554,12.35736 1.5,15.46875 0.2337,0.77019 0.373,1.46007 0.3124,1.5 -0.061,0.0399 -0.5077,-0.93019 -1,-2.15625 -1.111,-2.76579 -0.9937,-1.87574 0.4688,3.25 0.6231,2.18379 1.2366,4.34983 1.3438,4.84375 0.1071,0.49395 0.2825,0.90625 0.4062,0.90625 0.1234,0 0.051,-0.78809 -0.1562,-1.75 -0.591,-2.74906 -0.4287,-2.71556 0.4374,0.0625 1.2276,3.9364 3.0133,8.00132 5.1876,11.875 0.4899,0.8725 0.8331,1.63273 0.75,1.6875 -0.083,0.0547 -0.1563,-0.004 -0.1563,-0.125 0,-0.12135 -0.1473,-0.21875 -0.3125,-0.21875 -0.1649,0 -0.2338,0.13994 -0.1875,0.3125 0.077,0.28553 -0.7529,0.3329 -9.125,0.40625 -5.0596,0.0443 -10.7589,0.10788 -12.6563,0.125 -1.8975,0.0172 -5.3577,-0.13416 -7.6874,-0.3125 -2.3298,-0.17834 -5.2813,-0.30663 -6.5626,-0.28125 -2.3085,0.0458 -2.336,0.0518 -3.1562,-0.5625 -0.4552,-0.341 -0.885,-0.625 -0.9688,-0.625 -0.4261,0 -0.068,0.70216 0.5938,1.15625 l 0.75,0.53125 -2.8438,-0.0937 c -4.1378,-0.12784 -6.2483,-0.27171 -6.6562,-0.4375 -0.2637,-0.10726 0.2802,-0.97395 2.0625,-3.25 1.337,-1.70749 3.2382,-4.29405 4.2187,-5.75 0.9807,-1.45587 1.9446,-2.75768 2.1563,-2.90625 0.9127,-0.63979 0.7461,0.45392 -0.4375,2.875 -1.802,3.68575 -2.2909,4.84375 -2.0625,4.84375 0.1126,0 1.624,-2.1972 3.3437,-4.875 1.7202,-2.67773 4.4007,-6.57256 5.9688,-8.6875 1.5682,-2.1148 2.7831,-3.89519 2.7188,-3.9375 -0.065,-0.0424 -0.729,0.60081 -1.5,1.40625 -0.7711,0.8054 -2.1869,2.22559 -3.125,3.1875 -2.582,2.64698 -3.2953,2.25003 -1.5,-0.84375 4.0828,-7.0365 8.0467,-17.35166 9.5,-24.71874 0.7883,-3.99594 1.0457,-4.625 1.75,-4.625 0.3537,0 0.4146,0.30047 0.4374,1.5625 0.025,1.38566 0.375,4.34343 0.5,4.53125 0.025,-0.1357 0.3796,-2.36942 0.7813,-4.9375 0.4016,-2.56806 0.993,-5.69284 1.3125,-6.9375 0.5522,-2.15162 0.5726,-2.26957 0.094,-2.5 -0.2769,-0.13322 -0.6544,-0.25 -0.8126,-0.25 -0.1581,0 -0.057,0.11732 0.2188,0.25 0.4719,0.22691 0.4536,0.36571 -0.4062,2.40625 -1.095,2.59828 -1.2598,2.84375 -2.0313,2.84375 -0.5834,0 -0.6006,-0.05 -0.4063,-2.40625 0.2155,-2.61083 -0.1697,-7.52145 -0.8437,-10.5625 -0.2304,-1.0399 -1.1119,-3.67496 -1.9375,-5.875 -1.3384,-3.56671 -1.4562,-4.05306 -1.125,-4.53125 l 0.375,-0.53125 0.875,0.65625 c 3.2755,2.51194 4.7153,3.55069 4.9062,3.5625 0.1207,0.008 -0.1098,-0.29752 -0.5,-0.6875 -2.4681,-2.46939 -4.0508,-4.40226 -5.2812,-6.40625 -1.3356,-2.17486 -2.0433,-3.14138 -2.0625,-2.875 -0.011,0.0666 0.2757,0.95277 0.5937,1.96875 0.5242,1.6755 0.5249,1.87993 0.125,2.28125 -0.2424,0.24333 -0.5051,0.4375 -0.5624,0.4375 -0.057,0 -0.7621,-0.75578 -1.5938,-1.6875 -3.0064,-3.36868 -6.5035,-5.75733 -10.25,-7.03125 -0.9944,-0.33812 -1.8125,-0.73816 -1.8125,-0.875 0,-0.65247 0.5668,-0.92932 2.1875,-1.0625 2.033,-0.16706 1.6798,-0.34422 -1.8125,-0.78125 -1.5233,-0.19062 -2.477,-0.25078 -2.875,-0.21875 z m -1.625,4.34375 c 1.2688,-0.0256 1.9174,0.23007 1.6563,0.78125 -0.2526,0.53267 -0.644,0.6806 -1.8438,0.6875 -1.9793,0.0114 -1.9172,0.3224 0.1562,0.65625 1.0876,0.17514 2.2602,0.35252 2.5938,0.40625 0.6808,0.10963 1.0669,-0.42359 0.6562,-0.90625 -0.3245,-0.38132 0.01,-1.125 0.5,-1.125 0.9221,0 3.3835,1.04148 5.2813,2.21875 3.1657,1.96428 6.6652,5.98686 6.2187,7.15625 -0.1059,0.27919 -0.347,0.47788 -0.5312,0.4375 -0.1843,-0.0405 -0.9387,-0.64584 -1.6562,-1.34375 -0.7175,-0.69792 -1.3306,-1.21244 -1.375,-1.125 -0.087,0.17141 4.0883,6.6708 5.2812,8.21875 0.3983,0.517 0.7945,0.89665 0.875,0.84375 0.08,-0.0529 -0.2559,-0.92261 -0.75,-1.9375 -0.8575,-1.76036 -1.0462,-3.21875 -0.4375,-3.21875 0.7128,0 2.6186,5.17983 3.4687,9.375 0.8108,4.00086 0.5071,11.82705 -0.5,12.625 -0.6691,0.53028 -0.7922,-0.15275 -0.4374,-2.5625 0.2021,-1.37361 0.2466,-2.5 0.125,-2.5 -0.2537,0 -0.2825,0.13088 -1.0626,2.875 -1.0086,3.54726 -1.6347,12.4375 -0.875,12.4375 0.1582,0 0.2763,-0.49582 0.2813,-1.09375 0.011,-0.59793 0.2153,-2.08324 0.4375,-3.3125 0.3702,-2.0468 0.749,-2.89117 1.25,-2.6875 0.3053,0.12413 -0.7702,6.42783 -1.4375,8.40625 -1.8214,5.39973 -6.374,15.32797 -8.6563,18.90624 -1.2617,1.97819 -1.5646,2.29975 -1.8124,1.875 -0.1341,-0.22964 0.7887,-2.49728 2.75,-6.8125 0.287,-0.63158 -0.1712,-0.70842 -0.5626,-0.0937 -0.1489,0.23398 -1.3259,2.26794 -2.5937,4.53125 -1.2676,2.2632 -2.4771,4.38003 -2.7187,4.6875 -0.6977,0.88718 -1.4052,1.02419 -2.7813,0.5625 -1.6716,-0.56091 -2.0478,-0.35867 -0.4687,0.25 2.1457,0.82706 2.7059,0.90625 3.625,0.59375 1.5081,-0.51296 1.5409,-0.53545 -1.0313,3.40625 -2.658,4.07293 -5.7961,8.16046 -6.8437,8.9375 -0.043,0.032 -0.901,0.0945 -1.9063,0.125 -1.0054,0.0304 -2.7371,0.0932 -3.8437,0.15625 -1.3682,0.0779 -2.5462,0.0372 -3.7188,-0.15625 -0.9487,-0.15659 -2.9007,-0.36446 -4.3125,-0.4375 l -2.5625,-0.125 -0.8438,-1.5 c -0.9263,-1.68313 -1.179,-1.9716 -1.0312,-1.15625 0.055,0.30289 -0.045,0.58661 -0.2188,0.625 -0.5317,0.11783 -4.1338,-8.18956 -5.5624,-12.8125 -0.3374,-1.09187 -0.6762,-2.17227 -0.75,-2.40625 -0.074,-0.23397 -0.013,-0.4375 0.125,-0.4375 0.137,0 0.5415,0.91336 0.9062,2.03125 0.6072,1.86069 1.1345,2.95449 1.1562,2.40625 0.018,-0.46905 -2.8935,-11.4924 -3.0624,-11.59375 -0.099,-0.0589 -0.094,0.36555 0,0.9375 0.3784,2.29633 0.5378,4.06665 0.375,3.96875 -0.278,-0.16707 -1.026,-4.56292 -1.3438,-7.9375 -0.341,-3.62229 -0.3787,-11.93724 -0.063,-11.93749 0.1186,-2e-5 0.1805,1.1116 0.125,2.4375 -0.055,1.32585 -0.053,2.36646 0.031,2.31249 0.084,-0.0539 0.4175,-2.41294 0.75,-5.21874 0.3324,-2.80563 0.6861,-5.4278 0.7812,-5.84375 0.095,-0.41595 0.087,-0.69676 -0.031,-0.625 -0.118,0.0718 -0.4538,1.10513 -0.75,2.28125 l -0.5313,2.125 0.1563,-1.71875 c 0.2485,-2.94905 2.4583,-11.95259 3,-12.1875 0.1765,-0.0765 4.3643,-8.17334 4.7812,-9.25 0.06,-0.15598 -0.3572,0.30332 -0.9062,1.03125 -0.5492,0.72793 -0.9941,1.43252 -1,1.5625 -0.011,0.12999 -0.1293,0.21875 -0.2813,0.21875 -0.5272,0 2.0444,-4.45846 4.3125,-7.46875 2.5285,-3.35516 5.3283,-6.3902 5.75,-6.21875 0.1508,0.0611 0.1975,0.30603 0.094,0.53125 -0.176,0.38171 -0.4893,0.68317 -2.4063,2.375 -0.4047,0.3571 -0.5496,0.56586 -0.3125,0.46875 0.6598,-0.27013 7.9185,-5.1875 7.6562,-5.1875 -0.1266,0 -0.8548,0.29227 -1.625,0.65625 -0.7703,0.36395 -1.4839,0.6875 -1.5624,0.6875 -0.079,0 -0.1563,-0.21682 -0.1563,-0.46875 0,-0.89378 4.3878,-2.9769 8,-3.8125 1.6361,-0.37851 3.0131,-0.57382 4,-0.59375 z m -68.9687,2.34375 c 0.5403,0.005 1.1557,0.30834 1.7812,0.90625 0.8894,0.85013 1.4372,1.94769 1.4375,2.84375 l 0,0.5625 -0.6875,-0.5625 c -0.3888,-0.31198 -0.713,-0.49168 -0.7188,-0.40625 -0.017,0.25147 3.7651,5.06172 3.9063,4.96875 0.07,-0.0466 -0.1731,-0.58833 -0.5625,-1.21875 -0.7896,-1.27792 -1.2827,-2.60141 -0.7812,-2.125 2.3332,2.21656 7.0461,8.41735 8.125,10.6875 0.679,1.42907 0.8966,3.10419 0.4374,3.40625 -0.1146,0.0753 -0.8148,-0.67038 -1.5624,-1.6875 -0.7477,-1.01713 -1.412,-1.7684 -1.4688,-1.65625 -0.057,0.11213 0.2198,0.90632 0.625,1.75 0.4052,0.84367 0.75,1.54713 0.75,1.59375 0,0.13773 -0.3631,0.10027 -2.0312,-0.34375 -3.9822,-1.05996 -10.5053,-2.05397 -15.2188,-2.3125 -2.1495,-0.11791 -2.3125,-0.15905 -2.3125,-0.5625 0,-0.23759 0.2204,-0.55535 0.4687,-0.71875 0.2484,-0.16341 0.3101,-0.3125 0.1563,-0.3125 -0.4642,0 1.2893,-4.92366 3,-8.40625 0.8475,-1.7251 1.313,-2.29413 2.7813,-3.5625 0.9793,-0.84617 1.5338,-1.47786 1.25,-1.40625 -0.777,0.19608 -1.0396,-0.0249 -0.7188,-0.59375 0.3313,-0.58737 0.8034,-0.8497 1.3438,-0.84375 z m -1.8438,0.0937 c 0.019,-0.005 0.04,0.0157 0.063,0.0313 0.095,0.0628 0.1138,0.20728 0.031,0.34375 -0.092,0.15084 -0.1424,0.12652 -0.1563,-0.0937 -0.011,-0.14949 0,-0.26701 0.063,-0.28125 z m 15.3438,11.8125 c 0.082,-0.002 0.3372,0.1823 0.9374,0.625 2.018,1.48833 2.6702,2.22245 2.4688,2.75 -0.1007,0.263 -0.3547,0.46875 -0.5938,0.46875 -0.5206,0 -0.8613,-0.4633 -0.5624,-0.78125 0.1259,-0.134 0.08,-0.16445 -0.094,-0.0937 -0.2714,0.11035 -1.3108,-1.22516 -2.0625,-2.625 -0.1231,-0.22955 -0.1573,-0.34161 -0.094,-0.34375 z m -23.6876,3.5 c 0.3871,0.005 0.3761,0.10535 0.2813,0.34375 -0.1201,0.30231 -0.3828,0.375 -1.0937,0.375 -0.5152,0 -1.3376,0.0625 -1.8126,0.125 -0.9897,0.13018 -1.4888,-0.19842 -0.7187,-0.46875 0.2812,-0.0987 1.2577,-0.23886 2.1563,-0.3125 0.5869,-0.0481 0.9553,-0.0659 1.1874,-0.0625 z m 28.4063,2.25 c 0.1244,0 0.6901,0.59855 1.25,1.34375 0.56,0.74521 0.9828,1.44174 0.9375,1.53125 -0.045,0.0895 -0.765,-0.14973 -1.5938,-0.53125 -1.2764,-0.58774 -1.5,-0.80657 -1.5,-1.3125 0,-0.56642 0.4126,-1.03125 0.9063,-1.03125 z m -32.5937,0.0313 c 0.4465,-0.01 1.0176,0.0153 1.6874,0.0625 2.0229,0.14248 2.0715,0.1894 1.5313,1.46875 -0.1647,0.38995 -0.3889,0.68954 -0.5,0.6875 -0.1113,-10e-4 -1.0353,-0.32543 -2.0625,-0.71875 -2.3949,-0.91706 -2.5908,-1.4593 -0.6562,-1.5 z m 5.8124,0.21875 c 1.0249,-0.005 4.4306,0.37316 7.3438,0.8125 8.5644,1.29166 11.0625,1.78672 11.0625,2.25 0,0.51286 -0.923,0.53634 -3.2813,0.0313 -1.2917,-0.27668 -2.5534,-0.50293 -2.7812,-0.5 -0.2277,0.003 1.9152,0.79101 4.75,1.75 l 5.1562,1.71875 0.7188,1.46875 c 1.0989,2.15837 1.6013,2.26029 0.75,0.15625 -0.2296,-0.5671 -0.3843,-1.06705 -0.3438,-1.09375 0.04,-0.0267 0.3725,0.003 0.7188,0.0625 1.2899,0.22184 1.8706,3.27467 1.9062,10 0.024,4.43895 -0.033,5.11258 -0.625,6.9375 -0.4131,1.27438 -1.1365,2.67754 -1.9374,3.81249 -1.6523,2.34146 -3.5959,6.50623 -3.8126,8.15625 -0.1513,1.15156 -0.4571,1.69282 -2.8437,4.875 -1.4842,1.97881 -2.646,3.73233 -2.5625,3.875 0.083,0.14274 -0.025,0.28712 -0.25,0.34375 -0.7423,0.18738 -3.9062,3.70371 -3.9062,4.34375 0,0.12432 -0.2344,0.26144 -0.5313,0.3125 -0.2967,0.0511 -1.1023,0.64951 -1.7813,1.3125 -2.5369,2.47774 -8.733,7.58188 -9,7.40625 -0.095,-0.0623 -0.1874,-0.46279 -0.1874,-0.875 0,-0.54556 0.2777,-0.98919 0.9687,-1.625 1.3725,-1.26279 1.4385,-1.34375 1,-1.34375 -0.2141,0 -1.6171,0.99657 -3.0937,2.21875 l -2.6876,2.21875 -4,0.0313 -4,0 0.1563,-1 c 0.1176,-0.61928 0.099,-1.01572 -0.094,-1.09375 -0.1677,-0.0681 -0.3126,-0.71573 -0.3126,-1.4375 0,-1.73814 -0.5295,-1.68701 -0.6562,0.0625 -0.054,0.75394 -0.13,-0.69172 -0.1562,-3.1875 -0.054,-5.0812 0.2494,-7.29735 1.8124,-14.15625 0.5689,-2.49571 1.0826,-5.3143 1.1563,-6.25 0.194,-2.46057 2.9178,-11.02334 4.875,-15.31249 0.9007,-1.97391 3.097,-7.66647 3.0937,-8.03125 -0.011,-0.621 1.7378,-5.04165 2.0626,-5.21875 0.1907,-0.10401 0.2904,-0.29737 0.2187,-0.4375 -0.1539,-0.30051 0.5321,-2.44861 0.8125,-2.5625 0.04,-0.0166 0.1348,-0.0306 0.2812,-0.0313 z m 20.9688,3.90625 c 0.2318,0 0.5829,0.57619 0.5938,0.96875 0.011,0.23767 -0.468,0.17285 -0.8438,-0.125 -0.3708,-0.29382 -0.2041,-0.84375 0.25,-0.84375 z m 1.9688,0.59375 c 0.393,-0.005 1.199,0.50537 1.3437,0.90625 0.095,0.26465 0.2615,0.63053 0.3437,0.8125 0.1778,0.39355 -0.1317,0.41751 -0.8437,0.0625 -0.5079,-0.25335 -1.238,-1.5729 -0.9687,-1.75 0.036,-0.0238 0.069,-0.0304 0.125,-0.0313 z m 79.7812,2.3125 c -0.026,-4.9e-4 -0.054,0.0153 -0.094,0.0313 -0.1564,0.0635 -0.2812,0.18341 -0.2812,0.28125 0,0.27196 0.2152,0.20255 0.4062,-0.125 0.074,-0.12619 0.047,-0.18621 -0.031,-0.1875 z m -74.6562,0.125 c 0.1985,0.0128 1.1731,0.58133 2.2187,1.3125 3.9807,2.78399 6.921,5.78709 6.2187,6.34375 -0.6405,0.50767 -1.3075,0.26728 -2.6874,-0.96875 -0.7604,-0.68114 -1.4377,-1.19725 -1.5,-1.15625 -0.243,0.15976 4.8133,8.25 5.1562,8.25 0.05,0 -0.1754,-0.9021 -0.5,-2 -0.5134,-1.7374 -0.523,-2.00143 -0.1562,-2.15625 0.8897,-0.37571 1.2724,-0.0842 1.7812,1.34375 1.535,4.30832 1.1718,9.68596 -0.9375,13.84374 -0.7633,1.50441 -1.2842,2.03125 -2,2.03125 -0.7123,0 -0.7185,-0.17619 0,-2.65625 0.6696,-2.31113 0.6395,-2.2043 0.2813,-1.96875 -0.4165,0.27382 -5.7214,10.35319 -5.9376,11.28125 -0.1028,0.44054 -0.11,0.77075 -0.031,0.71875 0.078,-0.052 0.8433,-1.0854 1.6875,-2.28125 0.8443,-1.1959 1.7063,-2.31794 1.9375,-2.5 0.4829,-0.3803 1.6217,-0.45592 1.4062,-0.0937 -3.0949,5.20149 -11.4336,13.28787 -18.1562,17.59375 -3.1555,2.02121 -4.5011,2.65147 -4.9688,2.34375 -0.1668,-0.10976 3.0629,-2.78664 5.0313,-4.15625 0.5576,-0.38805 0.955,-0.77065 0.8437,-0.84375 -0.1111,-0.0731 -1.939,0.99066 -4.0312,2.34375 -2.0921,1.35308 -5.0734,3.27002 -6.625,4.25 -1.5518,0.97986 -2.8918,1.77166 -3,1.78125 -0.6844,0.0605 -1.7812,-0.16587 -1.7812,-0.375 0,-0.13686 0.9377,-1.09889 2.0937,-2.125 5.7078,-5.06619 9.9903,-9.46161 13.4375,-13.8125 1.8027,-2.2755 2.2812,-2.7688 2.2812,-2.34375 0,0.13094 0.1183,0.17855 0.25,0.125 0.1316,-0.0536 0.1884,-0.33446 0.125,-0.625 -0.068,-0.31341 0.1915,-0.9832 0.6563,-1.65625 0.431,-0.62393 1.5375,-2.36723 2.4687,-3.875 1.2722,-2.06012 1.6656,-2.54567 1.5313,-1.90625 -0.099,0.46795 -0.3464,1.89397 -0.5625,3.15625 -0.216,1.26222 -0.6051,2.62438 -0.8438,3 -0.2386,0.3756 -0.3204,0.65625 -0.1874,0.65625 0.4423,0 1.1709,-1.51312 2.0312,-4.21875 0.4683,-1.47255 1.5261,-4.02345 2.3438,-5.6875 1.4787,-3.00931 1.4985,-3.05366 1.625,-5.96874 0.069,-1.61183 0.047,-2.89565 -0.031,-2.84375 -0.077,0.0521 -0.2931,1.08204 -0.4687,2.28125 -0.1758,1.19919 -0.5044,2.69188 -0.75,3.31249 -0.4282,1.08223 -1.1811,2.10618 -1.4376,1.9375 -0.067,-0.0443 0.1838,-1.10505 0.5626,-2.34375 0.3789,-1.23869 0.8478,-3.00154 1.0624,-3.93749 0.5503,-2.39756 0.4649,-9.12839 -0.1562,-12.5625 -0.2701,-1.49398 -0.3846,-2.77782 -0.2812,-2.84375 z m 14.1874,8.3125 c 0.083,-0.0146 0.1752,0 0.2813,0 0.5421,0 2.3211,1.57083 2.8437,2.5 0.1082,0.19208 0.041,1.80602 -0.1562,3.59375 -0.459,4.19047 -0.2382,4.58029 0.4062,0.71875 0.1568,-0.93978 0.1967,0.11753 0.125,3.1875 l -0.094,4.65624 -1.4375,1.59375 c -0.7948,0.8839 -1.6656,1.75553 -1.9062,1.9375 -0.4554,0.34435 -1.3431,0.45426 -1.5938,0.1875 -0.079,-0.0848 0.1622,-0.91218 0.5312,-1.84375 2.0546,-5.18697 2.3497,-10.75505 0.8126,-14.78124 -0.4396,-1.15108 -0.3956,-1.64793 0.1874,-1.75 z m -18.875,13.46874 c 0.064,-0.0147 0.1278,0.11171 0.25,0.40625 0.2589,0.624 0.082,1.3468 -0.5624,2.5625 -0.5815,1.09778 -0.7205,1.20731 -1.125,0.78125 -0.365,-0.38438 -0.2033,-1.1385 0.3124,-1.4375 0.4869,-0.28225 1.0651,-1.23542 0.875,-1.4375 -0.091,-0.0971 -0.084,-0.36067 0.031,-0.59375 0.088,-0.17814 0.169,-0.26974 0.2187,-0.28125 z m 22.1876,1.96875 0.3437,3.28125 c 0.1844,1.81248 0.4624,3.98059 0.625,4.8125 0.1625,0.8319 0.3771,1.90705 0.4687,2.375 0.2903,1.48229 -0.3193,0.22226 -0.875,-1.8125 -0.284,-1.0399 -0.5644,-1.77508 -0.625,-1.65625 -0.1412,0.27729 2.2087,10.56908 2.5313,11.09375 0.3438,0.55911 0.307,0.29479 -0.1563,-2.15625 -0.2256,-1.19386 -0.3424,-2.20972 -0.2812,-2.25 0.1376,-0.0905 0.1907,0.1126 1.25,3.75 1.0402,3.57162 3.5955,9.95106 4.9062,12.21875 0.1946,0.33627 0.2032,0.59671 0,0.84375 -0.2287,0.28122 -0.5684,0.36552 -1.5,0.34375 -1.5309,-0.0358 -2.8124,-0.16677 -2.8124,-0.28125 0,-0.0486 0.3235,-0.48697 0.7187,-1 0.8456,-1.09739 0.8641,-1.15625 0.2813,-1.15625 -0.2622,0 -0.7331,0.45437 -1.1563,1.0625 -0.7986,1.14715 -1.1482,1.3761 -1.625,1.0625 -0.1759,-0.11574 -0.7365,-0.21584 -1.2187,-0.21875 -0.5186,-0.003 -1.3302,-0.22917 -2,-0.5625 -1.4719,-0.73243 -2.0275,-0.4575 -0.6876,0.34375 l 0.9688,0.59375 -1.75,0 c -0.9497,0.003 -2.1663,-0.0991 -2.7188,-0.21875 -0.916,-0.19841 -11.5778,-0.42827 -17.6874,-0.375 -1.2649,0.011 -3.3738,-0.10646 -4.6876,-0.28125 l -2.375,-0.3125 5.0626,-3.21875 c 2.7829,-1.76315 4.9824,-3.23107 4.9062,-3.28125 -0.076,-0.0502 -1.4633,0.59673 -3.0938,1.46875 -1.6302,0.87204 -3.4487,1.84212 -4.0312,2.125 -1.1397,0.55365 -2.25,0.67632 -2.25,0.25 0,-0.14485 1.3762,-1.22522 3.0625,-2.40625 7.2172,-5.05438 13.4199,-10.8908 18.6875,-17.5625 1.189,-1.50587 1.8774,-1.93087 2.4375,-1.5625 0.2521,0.16576 0.1351,0.7233 -0.4375,2.375 -0.4158,1.19939 -0.7533,2.30377 -0.75,2.4375 0.011,0.28292 2.3349,-3.26121 4.7812,-7.3125 l 1.6876,-2.8125 z m -24.1876,2.78125 c 0.078,0.002 0.1063,0.0613 0.031,0.1875 -0.1912,0.32755 -0.4063,0.39697 -0.4063,0.125 0,-0.0978 0.125,-0.21772 0.2813,-0.28125 0.041,-0.0164 0.069,-0.0318 0.094,-0.0313 z m -36.5,5.4375 c 0.019,-0.005 0.038,0.0158 0.063,0.0313 0.095,0.0629 0.1148,0.20726 0.031,0.34375 -0.092,0.15082 -0.1737,0.12653 -0.1875,-0.0937 -0.011,-0.14948 0.035,-0.26701 0.094,-0.28125 z m 137.375,7.4375 c 0.091,0.0116 0.3213,0.46509 0.5,1.0625 0.1906,0.63724 0.2865,1.1743 0.2188,1.21875 -0.067,0.0445 -0.2971,-0.43343 -0.5,-1.0625 -0.2031,-0.62909 -0.2987,-1.16617 -0.2188,-1.21875 z m -124.6874,11 0.094,0.71875 c 0.05,0.39514 0.023,0.82369 -0.063,0.96875 -0.1749,0.29988 -1.2097,0.36949 -1.4688,0.0937 -0.094,-0.10033 0.1843,-0.56016 0.625,-1 l 0.8126,-0.78125 z m 10.875,1.1875 c 0.4791,0 0.1313,0.57858 -0.5626,0.9375 -0.843,0.43613 -0.9682,0.47182 -1.5,0.25 -0.2685,-0.11204 -0.05,-0.29198 0.75,-0.65625 0.608,-0.27716 1.2025,-0.53125 1.3126,-0.53125 z m -21.0313,1 c 1.0453,0.0135 4.5745,0.34853 5.0313,0.5 0.2312,0.0767 -0.5112,0.8364 -2.1563,2.15625 -1.3799,1.10701 -2.6002,1.9919 -2.7187,2 -0.1187,0.008 -0.2049,-0.25578 -0.2188,-0.59375 -0.014,-0.33798 -0.1435,-1.36215 -0.25,-2.28125 -0.1071,-0.9191 -0.088,-1.70168 0.031,-1.75 0.031,-0.0128 0.1319,-0.0332 0.2813,-0.0313 z m 7.9687,0.53125 c 0.067,-0.004 0.117,-0.002 0.1876,0 0.08,0.003 0.1642,0.0195 0.25,0.0313 0.3558,0.0496 0.2684,0.22425 -0.4688,0.78125 -0.5169,0.39063 -1.047,0.68826 -1.1562,0.6875 -0.4829,-0.003 -0.5277,-0.43931 -0.094,-0.875 0.4004,-0.40202 0.8106,-0.59612 1.2812,-0.625 z m 7.3126,0.5625 c 0.017,0 0.022,0.0248 0.031,0.0313 0.076,0.0495 -0.3704,0.40821 -1,0.8125 l -1.1562,0.75 0,-0.71875 c 0,-0.67797 0.362,-0.91296 0.75,-0.5 0.1238,0.13178 0.36,0.0884 0.7187,-0.125 0.2261,-0.13458 0.4612,-0.20128 0.5937,-0.21875 0.022,-0.003 0.046,-0.0324 0.063,-0.0313 z m 1.8437,0.1875 c 0.3558,-0.002 0.6563,0.064 0.6563,0.15625 0,0.0923 -0.9521,0.6716 -2.0938,1.28125 -1.1415,0.60967 -2.3704,1.26935 -2.75,1.46875 l -0.6875,0.375 0.1875,-0.46875 c 0.2774,-0.64203 3.8856,-2.80611 4.6875,-2.8125 z m 5.8125,0.375 c 0.5889,0 0.8592,0.0964 0.7812,0.25 -0.1027,0.20271 -3.8662,2.29362 -5.5,3.0625 -0.3067,0.14429 -0.5123,0.3258 -0.4374,0.375 0.1752,0.11533 5.1911,-2.00104 6.8124,-2.875 l 1.25,-0.6875 3.3438,0.125 c 1.8526,0.0691 4.8045,0.25701 6.5312,0.40625 2.3763,0.20532 3.7042,0.23674 5.4376,0.0937 1.2598,-0.1039 2.6658,-0.12878 3.125,-0.0625 0.4592,0.0663 2.9834,0.19199 5.625,0.28125 5.2633,0.17782 6.5996,0.27037 7.25,0.625 0.6673,0.36402 2.0321,0.51955 2.4687,0.28125 0.2134,-0.11645 0.6669,-0.15899 1.0313,-0.125 0.5916,0.0552 0.6841,0.17179 0.8124,1.21875 0.079,0.64481 0.3023,1.27635 0.5,1.40625 0.2874,0.18893 0.3438,-0.0405 0.3438,-1.1875 0,-1.56661 0.1188,-1.64982 2.0938,-1.65625 0.7061,-0.002 0.785,0.0181 0.625,0.4375 -0.157,0.41171 -0.077,0.5 0.5624,0.5 1.3361,0 2.0714,0.72105 3.9376,3.875 0.9843,1.66382 1.9451,3.24 2.1562,3.5 0.6848,0.84343 0.4354,0.007 -0.5938,-1.9375 -1.3755,-2.59902 -1.245,-2.91823 0.25,-0.625 0.6779,1.0399 1.5289,2.24653 1.875,2.6875 l 0.625,0.8125 -2.8124,2.3125 c -4.8232,3.97726 -8.4045,7.17748 -8.2188,7.37501 0.099,0.10531 0.483,-0.038 0.875,-0.34375 2.8423,-2.21716 5.0815,-3.67244 5.3438,-3.5 0.4703,0.30936 -0.4356,1.018 -5.25,4.1875 -4.8655,3.20314 -7.7337,4.77456 -12.375,6.8125 -3.2587,1.43079 -7.6636,2.95072 -7.9688,2.75 -0.4481,-0.2947 0.6086,-1.08487 2.5312,-1.9375 5.3186,-2.35865 4.3507,-2.33582 -3.25,0.0937 -5.8985,1.88549 -7.1379,2.3484 -6.8124,2.5625 0.098,0.0645 1.149,-0.0379 2.3124,-0.25 1.1634,-0.21203 2.1651,-0.40625 2.2188,-0.40625 0.053,0 0.049,0.2045 0,0.4375 -0.1083,0.49664 -0.9093,0.77724 -3.4688,1.21875 l -1.875,0.3125 -0.9062,-0.5 c -1.3938,-0.77136 -2.9192,-0.73998 -3.9688,0.125 -0.686,0.56546 -0.986,0.66899 -1.9687,0.65625 -0.6324,-0.008 -1.2795,-0.0302 -1.4375,-0.0625 -0.1581,-0.0324 -1.0132,-0.16067 -1.9062,-0.28125 l -1.625,-0.21875 0.1562,-0.75 c 0.2283,-1.11914 -0.5493,-1.6343 -4.375,-3 -1.8337,-0.6547 -3.3972,-1.13005 -3.5,-1.0625 -0.1029,0.0675 0.5469,0.606 1.4688,1.21875 1.126,0.74844 1.6172,1.23665 1.5,1.4375 -0.096,0.16443 -0.3287,0.28258 -0.5313,0.28125 -0.6735,-0.004 -4.5613,-2.66515 -6.1563,-4.21875 -0.8645,-0.84221 -2.0899,-1.98018 -2.7187,-2.5 -1.4056,-1.16288 -3.514,-3.869 -3.375,-4.34375 0.071,-0.24253 0.4931,0.0862 1.375,1.0625 0.6987,0.77348 1.315,1.3058 1.375,1.1875 0.059,-0.11829 -0.7387,-1.53036 -1.75,-3.125 -1.0114,-1.59452 -2.1089,-3.4451 -2.4687,-4.09375 -0.3599,-0.64856 -0.7522,-1.11251 -0.875,-1.06251 -0.1232,0.05 0.083,0.90507 0.4687,1.90626 0.3865,1.00118 0.6442,1.9557 0.5937,2.125 -0.1195,0.40063 -2.1002,-3.57343 -2.6562,-5.31251 l -0.4375,-1.34375 0.9375,-0.53125 c 0.517,-0.29094 1.9851,-1.02983 3.25,-1.625 5.4086,-2.5449 8.8599,-4.25314 12.5625,-6.25 3.1609,-1.70456 4.0913,-2.125 4.8125,-2.125 z m -10.7188,0.0625 c 0.013,0 0.022,0.0258 0.031,0.0313 0.1819,0.11964 -1.3213,2.19136 -1.875,2.59375 -0.6231,0.45285 -1.2187,0.41914 -1.2187,-0.0625 0,-0.36929 2.6621,-2.57874 3.0624,-2.5625 z m -13.3124,0.65625 c 0.011,-0.005 0.025,-0.001 0.031,0 0.017,0.002 0.043,0.0427 0.063,0.0937 0.072,0.18198 0.072,0.47424 0,0.65625 -0.072,0.18197 -0.125,0.0202 -0.125,-0.34375 0,-0.22748 0,-0.37505 0.031,-0.40625 z m 72.3437,0.78125 0.8437,0 c 0.4588,0 1.7042,0.14555 2.7813,0.3125 1.4338,0.22226 2.6584,0.27214 4.5625,0.1875 2.677,-0.11898 6.1875,0.0491 6.1875,0.28125 0,0.0721 -1.799,1.88762 -4,4.0625 -2.2011,2.17487 -4.2534,4.15535 -4.5625,4.40625 l -0.5938,0.46875 -0.3124,-0.40625 c -0.4741,-0.5827 -0.4237,-0.70409 0.7187,-1.75 1.3341,-1.22119 0.9764,-1.49086 -0.5,-0.375 -1.3285,1.00414 -1.0624,1.18416 -3.25,-2 -1.9657,-2.86172 -2.0708,-3.72484 -0.125,-1.03125 0.7811,1.08138 1.4789,1.92993 1.5625,1.875 0.1464,-0.0963 -1.6858,-3.50673 -2.7812,-5.1875 l -0.5313,-0.84375 z m -72,0.5625 c 0.04,0.006 0.06,0.16239 0.125,0.53125 0.078,0.44195 0.1113,0.8125 0.063,0.8125 -0.2274,0 -0.3745,-0.57926 -0.2812,-1.0625 0.037,-0.19132 0.063,-0.28622 0.094,-0.28125 z m -2.375,0.25 c 0.019,-0.005 0.07,-0.0154 0.094,0 0.095,0.0628 0.084,0.23853 0,0.375 -0.092,0.15084 -0.1424,0.0953 -0.1562,-0.125 -0.011,-0.14949 0,-0.23576 0.063,-0.25 z m 5.6563,0.8125 c 0.035,-0.003 0.045,-0.0116 0.062,0 0.3169,0.20837 -0.1154,0.73976 -1.3124,1.5625 -1.28,0.8799 -1.625,0.98173 -1.625,0.46875 0,-0.35349 2.3508,-1.98237 2.875,-2.03125 z m 142.8437,0.0937 c 0.263,-0.0357 0.5464,0.36247 0.7187,1 0.1051,0.38996 0.1314,0.6875 0.063,0.6875 -0.225,0 -1.0715,-1.54758 -0.9063,-1.65625 0.036,-0.0234 0.087,-0.026 0.125,-0.0313 z m -4.4687,0.21875 c 0.013,-0.0204 0.1415,0.0798 0.3437,0.25 0.2397,0.20186 0.4063,0.41588 0.4063,0.5 0,0.28737 -0.193,0.14523 -0.5313,-0.375 -0.157,-0.24108 -0.2318,-0.35451 -0.2187,-0.375 z m -143.6876,0.1875 c 0.015,0.008 0.046,0.0352 0.063,0.0937 0.068,0.23397 0.068,0.64103 0,0.875 -0.068,0.23398 -0.125,0.0304 -0.125,-0.4375 0,-0.30707 0.025,-0.50508 0.062,-0.53125 z m 7.8438,2.125 c 0.014,0 0.021,-0.004 0.031,0 0.5372,0.21834 0.3521,0.40488 -0.9062,0.96875 -1.8261,0.81832 -1.9375,0.89108 -1.9375,0.71875 0,-0.29828 2.3815,-1.71483 2.8125,-1.6875 z m -13.3125,5.1875 -1.5937,1 c -0.9469,0.59861 -2.6716,1.38854 -4.1876,1.90625 -2.8901,0.987 -3.8437,1.21743 -3.8437,0.93751 0,-0.21789 3.918,-1.87265 7.3125,-3.06251 l 2.3125,-0.78125 z m 82.7187,0.8125 c 0.1548,0.002 0.2375,0.12342 0.3438,0.34375 0.132,0.27359 -0.1294,0.65498 -1.0312,1.34375 -1.9658,1.5014 -2.3412,1.14661 -0.6563,-0.625 0.6915,-0.72708 1.0859,-1.06584 1.3437,-1.0625 z m 2.1876,2.71876 c 0.015,0 0.053,-0.003 0.062,0 0.1148,0.0468 0.354,0.35621 0.5626,0.6875 0.375,0.59549 0.3697,0.59608 -1.125,1.5 -1.6245,0.98234 -1.9832,1.0823 -2.25,0.625 -0.1804,-0.30907 2.2724,-2.78865 2.75,-2.8125 z m -99.6876,1.96875 c 0.5887,0 -0.087,0.4145 -1.4687,0.875 -1.5703,0.52334 -1.6081,0.53011 -1.8125,0.3125 -0.1439,-0.15298 2.7061,-1.1875 3.2812,-1.1875 z m 44.9688,14.15625 0.5312,0.375 c 0.2945,0.21405 0.4682,0.52764 0.375,0.6875 -0.3791,0.64942 -1.3384,0.0846 -1.0624,-0.625 l 0.1562,-0.4375 z"
        id="path2818-9"
      />
      <path
        style="fill: #000000"
        d="m -1539.3939,266.88385 c -0.6499,0.0139 -1.1563,0.0937 -1.1563,0.0937 l -15.2813,8.03125 -15.125,-5.46875 -2.875,0.65625 11.9688,7.96875 -9.875,5.15625 -6.6562,-1.90625 -2.9688,1.1875 7.4375,4.96875 9.8125,-2.375 26,-13.59375 c 0,0 2.5184,-1.26325 1.7812,-3.28125 -0.4606,-1.26125 -1.9794,-1.46068 -3.0624,-1.4375 z m 9.6562,16.625 c -4.071,0 -7.4062,1.8635 -7.4062,4.1875 0,0.936 0.5344,1.802 1.4374,2.5 0.01,0.006 0.025,-0.004 0.031,0 1.556,0.729 3.5487,1.21875 5.7187,1.21875 2.63,0 5.0375,-0.6595 6.6876,-1.6875 0.01,-0.011 0.011,-0.0515 0.031,-0.0625 0.54,-0.585 0.8125,-1.26075 0.8125,-1.96875 0,-2.324 -3.2525,-4.1875 -7.3125,-4.1875 z m -1.4688,1.96875 c 0.82,0.012 1.6438,0.1135 1.8438,0.3125 0.39,0.389 -0.505,3.559 -0.875,3.875 -0.33,0.278 -1.65,0.1865 -2,-0.0625 -0.43,-0.307 -1.2425,-3.42975 -0.8125,-3.84375 0.22,-0.207 1.0138,-0.29425 1.8437,-0.28125 z m -62.9687,0.78125 c -3.7838,0 -6.8437,3.06005 -6.8437,6.84375 0,3.7838 3.06,6.84375 6.8437,6.84375 3.7838,0 6.8437,-3.05995 6.8437,-6.84375 0,-3.7838 -3.06,-6.84375 -6.8437,-6.84375 z m 58.4375,5.1875 c -0.108,0.455 -0.125,0.91925 -0.125,1.40625 0,3.377 2.745,6.09375 6.125,6.09375 3.37,0 6.0625,-2.71675 6.0625,-6.09375 0,-0.477 -0.046,-0.96025 -0.1563,-1.40625 -1.2899,1.631 -3.4362,2.71875 -5.9062,2.71875 -2.48,0 -4.71,-1.07775 -6,-2.71875 z m -4.875,10.25 c -1.83,0 -3.3125,2.05175 -3.3125,4.59375 l 0,28.03125 c 0,0.053 0,0.071 0,0.125 0,1.907 1.0957,3.46875 2.4687,3.46875 1.3731,0 2.5,-1.56175 2.5,-3.46875 0,-0.053 0,-0.072 0,-0.125 l 0,-19.40625 c 0,-0.897 0.6978,-1.65625 1.5938,-1.65625 0.897,0 1.625,0.75925 1.625,1.65625 l 0,6.90625 c 5.502,-8.546 9.245,-16.429 10.875,-20.125 l -15.75,0 z m 21.5312,0 c -1.75,4.987 -9.8642,23.1005 -16.6562,34.6875 l 0,37.6875 c 0,1.62 1.3447,2.9375 2.9688,2.9375 1.6099,0 2.9062,-1.3175 2.9062,-2.9375 l 0,-34.375 c 0,-1.162 0.965,-2.125 2.125,-2.125 1.16,0 2.125,0.963 2.125,2.125 l 0,34.375 c 0,1.62 1.3175,2.9375 2.9375,2.9375 1.62,0 2.9375,-1.3175 2.9375,-2.9375 l 0,-59.15625 c 0,-0.897 0.735,-1.65625 1.625,-1.65625 0.9,0 1.625,0.75925 1.625,1.65625 l 0,19.40625 c -0.01,0.053 0,0.072 0,0.125 0,1.907 1.12,3.46875 2.5,3.46875 1.37,0 2.4375,-1.56175 2.4375,-3.46875 0,-0.054 0.01,-0.072 0,-0.125 l 0,-28.03125 c 0,-2.542 -1.4825,-4.59375 -3.3125,-4.59375 l -4.2188,0 z m -75.125,0.34375 c -6.711,0 -12.1562,5.4768 -12.1562,12.1875 l 0.031,7.53125 c 0.2532,3.8356 1.5354,6.30765 4.5,8.96875 -1.8336,2.1589 -3.7123,5.42405 -4.8437,8.46875 -1.5825,4.259 -2.625,13.375 -2.625,13.375 0,0 5.4552,-1.93775 11.5313,-3.03125 l 0,20.84375 c 0,1.6186 1.3501,2.9375 2.9687,2.9375 1.6186,0 2.9375,-1.3189 2.9375,-2.9375 l 0,-21.5625 c 0.4248,-0.0277 0.8396,-0.072 1.2812,-0.0937 l 0,26.78125 c 0,1.6186 1.3189,2.9375 2.9376,2.9375 1.6186,0 2.9374,-1.3189 2.9374,-2.9375 l 0,-26.9375 c 4.9795,-0.0267 9.3438,0.15625 9.3438,0.15625 0,0 -2.3882,-8.48245 -6.0625,-12.90625 -2.6345,-3.1718 -4.8942,-5.18555 -6.8437,-7.59375 -0.498,-0.64861 -1.2961,-1.41465 -1.3126,-2.09375 l -0.3437,-13.90625 c -0.018,-0.72805 0.5219,-1.32565 1.25,-1.34375 0.7174,-0.0178 1.0429,0.55322 1.4063,1.1875 l 8.5624,14.84375 3.625,-2.46875 -7.0312,-12.5 c -2.3324,-5.3877 -6.1354,-9.90625 -12.0938,-9.90625 z m -6.0312,8.84375 c 0.7283,0 1.3438,0.58419 1.3438,1.3125 l 0,13.90625 c 0,0.72828 -0.6155,1.34375 -1.3438,1.34375 -0.6983,0 -1.2369,-0.56266 -1.2812,-1.25 l 0,-14 c 0,-0.72829 0.5529,-1.3125 1.2812,-1.3125 z m 37.125,9.78125 c -3.1216,0 -5.625,2.5035 -5.625,5.625 0,3.1216 2.5035,5.6875 5.625,5.6875 3.1216,0 5.6562,-2.5659 5.6562,-5.6875 0,-3.1216 -2.5347,-5.625 -5.6562,-5.625 z m -12.3438,6.46875 -3.25,2.9375 12.25,13.71875 0,31.09375 c 0,1.1622 0.9629,2.09375 2.125,2.09375 1.1622,0 2.0626,-0.93156 2.0626,-2.09375 l 0,-13.75 c 0,-1.1192 0.9432,-2.0625 2.0624,-2.0625 0.8478,0 1.602,0.5418 1.9063,1.28125 0.012,0.0293 0.021,0.0327 0.031,0.0625 0.028,0.0781 0.044,0.16788 0.062,0.25 l 2.5,12.28125 c 0.2348,1.1382 1.3306,1.8598 2.4688,1.625 1.1382,-0.2348 1.891,-1.33055 1.6562,-2.46875 l -2.7812,-13.59375 c 1.9815,-0.41908 3.5625,-0.75 3.5625,-0.75 l -3.5625,-13.71875 c 0,0 7.1911,9.0275 8.4375,9.25 1.2464,0.22255 3.5313,-2.53125 3.5313,-2.53125 l -10.1563,-11.3125 0,-0.0313 c -0.2288,-0.30336 -0.506,-0.58486 -0.7813,-0.84375 -1.717,-1.6151 -4.2609,-2.362 -6.9374,-2.1875 -3.1055,0.20245 -4.5515,0.97674 -5.6563,0.75 -0.3647,-0.0748 -0.7473,-0.32523 -1.125,-0.625 l -8.4063,-9.375 z"
        id="path6109"
        inkscape:connector-curvature="0"
      />
      <circle
        transform="matrix(10,0,0,10,-1557.5168,339.84355)"
        d="m -2,9 c 0,4.970563 -4.0294373,9 -9,9 -4.970563,0 -9,-4.029437 -9,-9 0,-4.9705627 4.029437,-9 9,-9 4.9705627,0 9,4.0294373 9,9 z"
        style="fill: none; stroke: #f4c300; stroke-width: 2"
        sodipodi:ry="9"
        sodipodi:rx="9"
        sodipodi:cy="9"
        sodipodi:cx="-11"
        cx="-11"
        cy="9"
        r="9"
        id="circle3399"
      />
      <circle
        transform="matrix(10,0,0,10,-1557.5168,339.84355)"
        d="m 20,9 c 0,4.970563 -4.029437,9 -9,9 C 6.0294373,18 2,13.970563 2,9 2,4.0294373 6.0294373,0 11,0 c 4.970563,0 9,4.0294373 9,9 z"
        style="fill: none; stroke: #009f3d; stroke-width: 2"
        sodipodi:ry="9"
        sodipodi:rx="9"
        sodipodi:cy="9"
        sodipodi:cx="11"
        cx="11"
        cy="9"
        r="9"
        id="circle3401"
      />
      <path
        inkscape:connector-curvature="0"
        id="path5861"
        d="m -1345.2304,236.99936 0,0.65625 c -0.1901,0.0134 -0.4942,0.1778 -0.625,0.375 -0.1672,0.25206 -0.2508,0.59308 -0.063,0.84375 0.2904,0.38674 0.88,0.46297 1.2813,0.625 0.1415,0.0572 0.084,0.22705 0.031,0.25 -0.5149,0.22264 -1.0937,-0.25 -1.0937,-0.25 0,0 -0.2695,0.38131 -0.4063,0.59375 0.2809,0.21392 0.8125,0.34375 0.8125,0.34375 l 0,0.59375 0.75,0.0313 0,-0.625 c 0,0 0.4841,-0.0986 0.6563,-0.40625 0.2504,-0.44769 0.058,-0.81905 0.031,-0.875 -0.1845,-0.38515 -1.2403,-0.55026 -1.3437,-0.65625 -0.042,-0.043 0.012,-0.17478 0.063,-0.1875 0.046,-0.0113 0.4336,-0.12086 0.9687,0.25 0.1284,-0.19702 0.375,-0.59375 0.375,-0.59375 0,0 -0.2589,-0.24213 -0.6875,-0.3125 l 0,-0.65625 -0.75,0 z m -7.8437,4.9375 c 10e-5,-4e-5 -0.1552,0.55851 -0.2188,0.78125 -0.2277,-0.0473 -0.6248,0.0307 -0.8437,0.21875 -0.2798,0.24045 -0.4817,0.61208 -0.3438,0.96875 0.2127,0.55026 0.864,0.86427 1.2813,1.1875 0.1472,0.11402 0.039,0.27193 -0.031,0.28125 -0.6781,0.0906 -1.2187,-0.65625 -1.2187,-0.65625 0,0 -0.4252,0.3585 -0.6563,0.5625 0.2589,0.34425 0.8125,0.65625 0.8125,0.65625 l -0.1875,0.71875 0.875,0.28125 0.2188,-0.71875 c 0,0 0.6022,0.0229 0.9062,-0.28125 0.4424,-0.44249 0.3254,-0.95668 0.3125,-1.03125 -0.089,-0.51328 -1.2576,-1.02882 -1.3437,-1.1875 -0.035,-0.0643 0.03,-0.18952 0.094,-0.1875 0.057,0.002 0.5887,-0.0191 1.0938,0.59375 0.2161,-0.18868 0.625,-0.5625 0.625,-0.5625 0,0 -0.2389,-0.36903 -0.7188,-0.59375 0.058,-0.19291 0.25,-0.75 0.25,-0.75 l -0.9062,-0.28125 z m 16.4687,1.09375 -1.6562,0.0313 c 0,-7e-5 0.015,1.02712 0.031,1.4375 -0.4097,0.0456 -1.0158,0.37492 -1.2812,0.8125 -0.3392,0.55931 -0.4914,1.31863 -0.063,1.84375 0.6615,0.81016 1.9313,0.96635 2.8125,1.28125 0.3108,0.11109 0.2377,0.44578 0.125,0.5 -1.0929,0.52624 -2.4375,-0.40625 -2.4375,-0.40625 0,0 -0.5043,0.81022 -0.7813,1.28125 0.6258,0.43758 1.75,0.65625 1.75,0.65625 l 0.031,1.34375 1.6562,-0.0625 -0.031,-1.3125 c 0,0 1.0301,-0.25767 1.375,-0.9375 0.5018,-0.9893 -5e-4,-1.7877 -0.063,-1.90625 -0.4325,-0.81602 -2.6738,-1.09255 -2.9063,-1.3125 -0.094,-0.0892 -0.047,-0.34303 0.063,-0.375 0.098,-0.0285 0.9989,-0.34813 2.1875,0.40625 0.2602,-0.43697 0.75,-1.28125 0.75,-1.28125 0,0 -0.5988,-0.51058 -1.5312,-0.625 -0.01,-0.35698 -0.031,-1.375 -0.031,-1.375 z m -10.0625,2.6875 -1.6875,1.0625 c 0,-9e-5 0.6397,1.04641 0.9063,1.46875 -0.4032,0.2979 -0.8628,1.03398 -0.875,1.65625 -0.016,0.79538 0.2911,1.64654 1.0625,1.9375 1.1902,0.4489 2.6307,-0.1375 3.75,-0.34375 0.3948,-0.0727 0.523,0.34294 0.4375,0.46875 -0.8289,1.22039 -2.8125,1 -2.8125,1 0,0 -0.027,1.21043 -0.031,1.875 0.9253,0.0787 2.25,-0.375 2.25,-0.375 l 0.8438,1.375 1.7187,-1.0625 -0.8437,-1.375 c 0,0 0.9269,-0.88681 0.875,-1.8125 -0.075,-1.34701 -1.0804,-1.9136 -1.2188,-2 -0.9528,-0.59478 -3.4961,0.52706 -3.875,0.4375 -0.1536,-0.0363 -0.2517,-0.36844 -0.1562,-0.46875 0.085,-0.0894 0.8205,-0.94366 2.5312,-0.875 0.01,-0.61849 0.031,-1.8125 0.031,-1.8125 0,0 -0.9491,-0.16717 -2,0.28125 -0.2269,-0.37032 -0.9063,-1.4375 -0.9063,-1.4375 z m 18.3125,2.15625 c 10e-5,-1.7e-4 -0.5221,2.18547 -0.7187,3.0625 -0.8923,-0.13239 -2.3816,0.2536 -3.1875,1.03125 -1.0302,0.994 -1.7388,2.49301 -1.125,3.84375 0.947,2.08388 3.53,3.12255 5.2187,4.28125 0.5956,0.4087 0.2375,1.07323 -0.031,1.125 -2.6067,0.50285 -4.875,-2.21875 -4.875,-2.21875 0,0 -1.5569,1.47058 -2.4063,2.3125 1.0797,1.27557 3.3438,2.375 3.3438,2.375 l -0.6563,2.8125 3.5313,0.84375 0.6562,-2.84375 c 0,0 2.2966,0.027 3.4063,-1.21875 1.6146,-1.81299 1.0354,-3.80779 0.9687,-4.09375 -0.4591,-1.96834 -5.0683,-3.77963 -5.4375,-4.375 -0.1497,-0.24141 0.095,-0.74345 0.3438,-0.75 0.2222,-0.006 2.2815,-0.16664 4.375,2.09375 0.7947,-0.77925 2.3437,-2.3125 2.3437,-2.3125 0,0 -1.0284,-1.39313 -2.9375,-2.15625 0.1812,-0.76019 0.7188,-2.96875 0.7188,-2.96875 l -3.5313,-0.84375 z m -24.4687,6.59375 -1.5,0.34375 c -10e-5,-7e-5 0.1943,0.91191 0.2812,1.28125 -0.3633,0.11413 -0.8684,0.55612 -1.0312,1 -0.2082,0.56737 -0.2008,1.2563 0.2812,1.65625 0.7436,0.61705 1.9264,0.52729 2.7813,0.65625 0.3015,0.0455 0.2801,0.36831 0.1875,0.4375 -0.8974,0.67128 -2.25,0.0625 -2.25,0.0625 0,0 -0.3325,0.83622 -0.5,1.3125 0.6451,0.28558 1.7187,0.28125 1.7187,0.28125 l 0.2813,1.1875 1.4687,-0.3125 -0.25,-1.21875 c 0,0 0.8706,-0.38484 1.0625,-1.0625 0.2793,-0.98612 -0.297,-1.65367 -0.375,-1.75 -0.5371,-0.66305 -2.6251,-0.49813 -2.875,-0.65625 -0.1014,-0.0641 -0.096,-0.29536 0,-0.34375 0.083,-0.0432 0.8196,-0.50406 2.0313,-0.0313 0.1583,-0.44242 0.4687,-1.28125 0.4687,-1.28125 0,0 -0.6655,-0.34314 -1.5312,-0.28125 -0.071,-0.32212 -0.25,-1.28125 -0.25,-1.28125 z m 11.2812,5.40625 -3,1.0625 c 0,-1.4e-4 0.665,1.85304 0.9375,2.59375 -0.7214,0.32711 -1.6505,1.32374 -1.875,2.28125 -0.287,1.22388 -0.096,2.67053 1,3.375 1.6907,1.08685 4.1087,0.60517 5.9063,0.65625 0.6341,0.0181 0.6737,0.70885 0.5,0.875 -1.684,1.61195 -4.6563,0.65625 -4.6563,0.65625 0,0 -0.4616,1.81818 -0.6875,2.84375 1.4039,0.42725 3.625,0.15625 3.625,0.15625 l 0.8438,2.40625 3,-1.0625 -0.875,-2.40625 c 0,0 1.7118,-1.05248 1.9375,-2.5 0.3283,-2.1064 -1.0335,-3.32075 -1.2188,-3.5 -1.2758,-1.23384 -5.5378,-0.36144 -6.0937,-0.625 -0.2253,-0.10686 -0.3061,-0.62655 -0.125,-0.75 0.1611,-0.11009 1.6292,-1.20253 4.25,-0.53125 0.2155,-0.95333 0.625,-2.8125 0.625,-2.8125 0,0 -1.4155,-0.53324 -3.1875,-0.1875 -0.2282,-0.64718 -0.9063,-2.53125 -0.9063,-2.53125 z m 22.8438,3.375 -2.9063,0.0625 c 0,-1.4e-4 0.038,1.80948 0.063,2.53125 -0.7207,0.0774 -1.8115,0.66985 -2.2812,1.4375 -0.6003,0.98121 -0.8754,2.29234 -0.125,3.21875 1.1576,1.42922 3.4213,1.72142 4.9687,2.28125 0.5458,0.19748 0.3861,0.78042 0.1875,0.875 -1.9255,0.91784 -4.25,-0.75 -4.25,-0.75 0,0 -0.9158,1.45486 -1.4062,2.28125 1.0974,0.77381 3.0937,1.1875 3.0937,1.1875 l 0.063,2.3125 2.9063,-0.0625 -0.063,-2.34375 c 0,0 1.795,-0.4319 2.4062,-1.625 0.8893,-1.73622 0.015,-3.16609 -0.094,-3.375 -0.7548,-1.43797 -4.6863,-1.89284 -5.0938,-2.28125 -0.1652,-0.15748 -0.067,-0.63205 0.125,-0.6875 0.1716,-0.0495 1.7276,-0.58479 3.8125,0.75 0.4605,-0.76662 1.3438,-2.25 1.3438,-2.25 0,0 -1.0799,-0.8861 -2.7188,-1.09375 -0.013,-0.6278 -0.031,-2.46875 -0.031,-2.46875 z m -11.9375,9.5625 -2.0625,0.71875 c -10e-5,-1e-4 0.441,1.27125 0.625,1.78125 -0.497,0.22164 -1.123,0.90569 -1.2813,1.5625 -0.2024,0.83954 -0.093,1.82387 0.6563,2.3125 1.1568,0.75384 2.8278,0.42599 4.0625,0.46875 0.4355,0.0151 0.4638,0.5116 0.3437,0.625 -1.1637,1.10017 -3.2187,0.40625 -3.2187,0.40625 0,0 -0.3092,1.26518 -0.4688,1.96875 0.9626,0.29949 2.4688,0.125 2.4688,0.125 l 0.5937,1.65625 2.0625,-0.71875 -0.5937,-1.65625 c 0,0 1.1825,-0.72531 1.3437,-1.71875 0.2346,-1.44562 -0.7171,-2.28232 -0.8437,-2.40625 -0.8711,-0.85305 -3.8068,-0.28533 -4.1875,-0.46875 -0.1544,-0.0744 -0.1876,-0.41597 -0.063,-0.5 0.1112,-0.0749 1.1087,-0.81608 2.9062,-0.34375 0.1521,-0.65399 0.4375,-1.9375 0.4375,-1.9375 0,0 -0.9687,-0.35495 -2.1875,-0.125 -0.154,-0.44556 -0.5937,-1.75 -0.5937,-1.75 z m 8.1562,7.75 -1.7187,0.5625 c -10e-5,-9e-5 0.3515,1.07669 0.5,1.5 -0.4129,0.17971 -0.958,0.739 -1.0938,1.28125 -0.1736,0.69311 -0.054,1.49646 0.5625,1.90625 0.9516,0.63222 2.3226,0.39303 3.3438,0.4375 0.3602,0.0157 0.3813,0.40706 0.2812,0.5 -0.9709,0.90165 -2.6562,0.34375 -2.6562,0.34375 0,0 -0.2691,1.01283 -0.4063,1.59375 0.7942,0.25488 2.0313,0.125 2.0313,0.125 l 0.4687,1.375 1.7188,-0.5625 -0.4688,-1.40625 c 0,0 0.9843,-0.58551 1.125,-1.40625 0.2047,-1.19431 -0.5524,-1.86528 -0.6562,-1.96875 -0.7144,-0.71219 -3.1551,-0.28294 -3.4688,-0.4375 -0.1271,-0.0627 -0.1661,-0.33764 -0.063,-0.40625 0.092,-0.0612 0.9225,-0.68528 2.4063,-0.28125 0.1306,-0.53996 0.375,-1.5625 0.375,-1.5625 0,0 -0.8025,-0.33752 -1.8125,-0.15625 l -0.4688,-1.4375 z m 5.7813,4.6875 c 0,-1e-4 0.021,1.19859 0.031,1.6875 -0.4889,0.0425 -1.2341,0.45554 -1.5625,0.96875 -0.4197,0.65598 -0.6202,1.51888 -0.125,2.15625 0.764,0.98332 2.2727,1.22486 3.3125,1.625 0.3668,0.14115 0.2607,0.53244 0.125,0.59375 -1.316,0.59494 -2.875,-0.5625 -2.875,-0.5625 0,0 -0.6255,0.97857 -0.9687,1.53125 0.7322,0.53883 2.0625,0.84375 2.0625,0.84375 l 0,1.5625 1.9687,0 0,-1.59375 c 0,0 1.2263,-0.26324 1.6563,-1.0625 0.6258,-1.16311 0.071,-2.13834 0,-2.28125 -0.4912,-0.98372 -3.167,-1.35651 -3.4375,-1.625 -0.1097,-0.10887 -0.037,-0.43384 0.094,-0.46875 0.1169,-0.0311 1.2007,-0.36958 2.5938,0.5625 0.3222,-0.51263 0.9375,-1.5 0.9375,-1.5 0,0 -0.7372,-0.61825 -1.8438,-0.78125 l 0,-1.65625 -1.9687,0 z m -6.0313,6.46875 -1.5625,0.53125 c 0,-8e-5 0.3264,0.98465 0.4688,1.375 -0.3803,0.17116 -0.8492,0.68374 -0.9688,1.1875 -0.1067,0.44963 -0.09,0.95226 0.125,1.34375 l -2.7812,0 0,10.84375 0.625,0.53125 15.9375,13.5625 19.5,16.625 c -2.3701,3.80943 -4.0236,6.50089 -6.125,9.84375 -0.9981,-0.66781 -2.0012,-1.28591 -2.9688,-1.84375 -0.9675,-0.55783 -1.9102,-1.07448 -2.8437,-1.53125 -0.9336,-0.45677 -1.8541,-0.85413 -2.75,-1.21875 -0.896,-0.36462 -1.7701,-0.68737 -2.625,-0.96875 -0.8548,-0.28138 -1.6899,-0.5117 -2.5,-0.71875 -0.8101,-0.20706 -1.582,-0.38961 -2.3438,-0.53125 -0.7619,-0.14165 -1.5087,-0.25861 -2.2187,-0.34375 -0.71,-0.0851 -1.3766,-0.14994 -2.0313,-0.1875 -0.6547,-0.0376 -1.2792,-0.0324 -1.875,-0.0313 -0.5957,0.001 -1.1854,3.5e-4 -1.7187,0.0313 -1.0665,0.0618 -1.986,0.18517 -2.7813,0.3125 -0.7952,0.12734 -1.4419,0.28463 -1.9375,0.40625 -0.4956,0.12161 -0.8326,0.2054 -1,0.25 -0.1877,0.05 -0.3665,0.14464 -0.5312,0.28125 -0.1647,0.1366 -0.3329,0.32901 -0.4688,0.53125 -0.1359,0.20223 -0.2423,0.40933 -0.3437,0.65625 -0.1014,0.24691 -0.1889,0.51061 -0.25,0.78125 -0.061,0.27065 -0.1098,0.57034 -0.125,0.84375 -0.015,0.27341 -0.01,0.52603 0.031,0.78125 0.037,0.25523 0.093,0.50266 0.1875,0.71875 0.094,0.21609 0.2178,0.4065 0.375,0.5625 0.1937,0.19236 0.51,0.39025 0.9063,0.59375 0.3963,0.20351 0.8955,0.40757 1.4687,0.625 1.1464,0.43484 2.6128,0.899 4.3125,1.40625 1.6996,0.50725 3.6089,1.05431 5.6563,1.65625 2.0474,0.60193 4.2164,1.2811 6.4062,2 1.0948,0.35946 2.2206,0.73213 3.3125,1.125 1.0919,0.39287 2.1555,0.78968 3.2188,1.21875 1.0632,0.42908 2.1161,0.87568 3.125,1.34375 1.0089,0.46806 1.9773,0.95891 2.9062,1.46875 0.8558,0.46968 1.6706,0.96134 2.4375,1.46875 0.024,-1.71656 0.125,-10.5 0.125,-10.5 l 8.5938,7.0625 7.0625,-7.3125 -12.6563,-10.78125 c 2.5152,-4.03896 4.625,-7.46875 4.625,-7.46875 0,0 -8.2212,-7.03771 -20.9062,-8.90625 -0.8059,-0.16461 -1.5788,-0.2863 -2.3438,-0.40625 l 0,-24.78125 -1.1875,0 c -10e-4,-0.0416 9e-4,-0.0838 0,-0.125 l -8.3437,0.0937 c -0.158,-0.25629 -0.2998,-0.45723 -0.3438,-0.5 -0.6698,-0.65144 -2.9265,-0.20419 -3.2187,-0.34375 -0.1185,-0.0566 -0.158,-0.31027 -0.063,-0.375 0.085,-0.0577 0.84,-0.63849 2.2187,-0.28125 0.1149,-0.50158 0.3438,-1.46875 0.3438,-1.46875 0,0 -0.7541,-0.30443 -1.6875,-0.125 -0.1192,-0.34105 -0.4688,-1.3125 -0.4688,-1.3125 z m 28.25,67.53125 c -0.1172,8.57593 -0.2867,20.9113 -0.5312,38.59375 2.4621,-1.71977 4.7202,-3.89821 6.1875,-6.625 7.1729,-13.33319 0.8181,-24.54919 0,-26.1875 -1.0845,-2.17165 -3.0904,-4.08448 -5.6563,-5.78125 z m -0.5312,38.59375 c -0.1237,0.0864 -0.2504,0.16593 -0.375,0.25 -0.5208,0.35149 -1.0641,0.68813 -1.5938,1 -1.0594,0.62374 -2.0977,1.18181 -3.125,1.65625 -1.0272,0.47444 -2.0322,0.88133 -2.9375,1.21875 -0.9052,0.33742 -1.7128,0.59983 -2.4062,0.8125 -0.9897,0.30353 -1.2892,0.35774 -1.625,0.4375 l -0.6875,-12.5625 -20.625,0 0,13.15625 c 11.4315,1.27866 14.698,0.53439 20.6562,-0.40625 0,0 0.245,-0.0505 0.6563,-0.15625 l 1,18.625 c 3.5736,0.0102 7.1452,0.021 10.7187,0.0313 0.1235,-8.77889 0.1962,-13.36546 0.3438,-24.0625 z m -33.375,5.96875 c -0.6187,-0.0689 -1.144,-0.13762 -1.8125,-0.21875 0,0 -0.9833,-0.21321 -2.5625,-0.625 -0.7896,-0.20589 -1.7287,-0.44438 -2.7813,-0.75 -1.0526,-0.30563 -2.2098,-0.69054 -3.4375,-1.09375 -1.2277,-0.4032 -2.5288,-0.8451 -3.8437,-1.34375 -1.3149,-0.49865 -2.6546,-1.03305 -3.9688,-1.625 -1.3143,-0.59194 -2.5868,-1.22315 -3.8125,-1.90625 -0.6129,-0.34154 -1.2383,-0.69857 -1.8125,-1.0625 -0.5743,-0.36393 -1.1004,-0.73895 -1.625,-1.125 1.9675,-3.16784 4.764,-7.5566 7.0938,-11.15625 2.3297,-3.59964 4.1875,-6.40625 4.1875,-6.40625 0,0 0.2687,0.2087 0.7812,0.5625 0.5126,0.35379 1.2728,0.83019 2.2188,1.40625 0.946,0.57606 2.0746,1.23945 3.375,1.90625 0.6501,0.33339 1.3386,0.66858 2.0625,1 0.7239,0.33142 1.4934,0.65575 2.2812,0.96875 0.7878,0.313 1.5958,0.62812 2.4375,0.90625 0.8418,0.27814 1.708,0.52317 2.5938,0.75 0.8859,0.22683 1.7986,0.43466 2.7187,0.59375 0.9201,0.15909 1.8369,0.26885 2.7813,0.34375 0.9444,0.0749 1.9161,0.11943 2.875,0.0937 0.7191,-0.0193 1.4341,-0.0713 2.1562,-0.15625 0.2407,-0.0283 0.478,-0.058 0.7188,-0.0937 0.4817,-0.0714 0.9877,-0.1775 1.4687,-0.28125 0.4809,-0.10375 0.9585,-0.2056 1.4375,-0.34375 0.4791,-0.13815 0.9305,-0.29413 1.4063,-0.46875 0.4759,-0.17461 0.9661,-0.38062 1.4375,-0.59375 0.1945,-0.0879 0.3857,-0.23999 0.5625,-0.4375 0.1767,-0.19751 0.3303,-0.43882 0.4687,-0.71875 0.1384,-0.27992 0.2645,-0.6024 0.3438,-0.9375 0.079,-0.3351 0.1252,-0.69948 0.125,-1.0625 -2e-4,-0.36302 -0.056,-0.73005 -0.1563,-1.09375 -0.1005,-0.3637 -0.2471,-0.69412 -0.4687,-1.03125 -0.1107,-0.16856 -0.2613,-0.34318 -0.4063,-0.5 -0.1449,-0.15681 -0.2871,-0.29584 -0.4687,-0.4375 -0.1816,-0.14165 -0.3729,-0.28316 -0.5938,-0.40625 -0.2209,-0.1231 -0.4873,-0.24262 -0.75,-0.34375 -1.49,-0.57338 -3.0567,-1.12434 -4.6875,-1.65625 -1.6308,-0.53191 -3.3139,-1.06162 -5.0312,-1.59375 -1.7173,-0.53214 -3.4694,-1.05095 -5.2188,-1.625 -1.7495,-0.57405 -3.4915,-1.18609 -5.2187,-1.84375 -0.8636,-0.32883 -1.7147,-0.6737 -2.5625,-1.03125 -0.8479,-0.35755 -1.706,-0.73352 -2.5313,-1.125 -0.5666,-0.26874 -1.1029,-0.55695 -1.6562,-0.84375 0.015,1.90515 0.019,2.88143 0.031,4.3125 l -10.8125,0 -0.8437,-13.625 0.1562,0 c -0.098,-0.13772 -0.1829,-0.2684 -0.2812,-0.40625 -0.098,-0.13784 -0.194,-0.265 -0.2813,-0.40625 -0.295,-0.47732 -0.5434,-0.97341 -0.7812,-1.46875 -0.2377,-0.49535 -0.4733,-0.98928 -0.6563,-1.5 -0.086,-0.24204 -0.179,-0.50425 -0.25,-0.75 l 0.094,1.875 -12.25,-0.0937 -0.3438,-13.65625 12,-0.59375 0.1563,3.25 c 0.082,-0.44908 0.1432,-0.89704 0.25,-1.34375 0.1303,-0.54432 0.3038,-1.08646 0.4687,-1.625 0.1649,-0.53854 0.3342,-1.06363 0.5313,-1.59375 0.3942,-1.06024 0.8358,-2.11431 1.3437,-3.125 0.508,-1.01068 1.086,-1.99753 1.6875,-2.9375 0.2353,-0.3677 0.4789,-0.70907 0.75,-1.0625 0.2711,-0.35343 0.572,-0.72403 0.875,-1.0625 0.6061,-0.67693 1.258,-1.29334 1.9688,-1.90625 0.7109,-0.61291 1.4651,-1.20667 2.25,-1.75 0.7849,-0.54333 1.6093,-1.06307 2.4375,-1.53125 0.8283,-0.46819 1.6592,-0.89377 2.5,-1.28125 0.8408,-0.38748 1.7085,-0.73003 2.5312,-1.03125 0.8226,-0.30122 1.6012,-0.54061 2.375,-0.75 0.7738,-0.2094 1.5245,-0.38799 2.2188,-0.5 0.9345,-0.15078 1.8301,-0.27769 2.6875,-0.40625 l 0,-14.4375 -10.7813,-9.1875 -58.5312,50.4375 7.0625,8.0625 11.3437,-8.3125 0.1219,11.49247 0.6594,62.16378 c 16.3998,0.0553 32.7877,0.109 49.1875,0.15625 l 0,-18 z m -21.3438,-46.71875 c 0.1363,0.19229 0.2598,0.40512 0.4063,0.59375 2.9091,3.74413 6.7793,6.49861 11.0625,8.71875 -0.031,-3.94823 -0.063,-8.875 -0.063,-8.875 l -11.4063,-0.4375 z m 11.25,-17.4375 -7.875,0.15625 -4.5625,0.21875 0.875,14.40625 c 2.4387,-0.0182 11.6875,-0.0937 11.6875,-0.0937 0,0 -0.086,-9.79563 -0.125,-14.6875 z m -13.875,3.71875 c -0.5603,3.08233 -0.4963,6.17625 0.375,9.09375 z m -11.7187,13.5 12.2812,0.1875 0.5313,13.65625 -12.4375,0 z"
        style="color: #000000; fill: #000000; fill-rule: evenodd"
        sodipodi:nodetypes="ccccccccccccccccccccccccccscccccccccccccccccccccccccccccccccccccccccccccccccccccccccccccccccccccccccsscccccccccccccccccccccccccccccccccccccccccccccccccccccccccccccccccccccccccccccccccccccccccccccccccccccccccccccccccccccccssccccccccccccccccccccccccccccccccccccccccccccccccccccscscsccccccccccccccccccccccccccccscccccccccccccccsssscccccccscssccssscccccccccsccccccsscsccccccccccccccccccsscssccscsccccccccccccccccccccccccccccccccccc"
      />
      <circle
        transform="matrix(10,0,0,10,-1557.5168,339.84355)"
        d="m -13,0 c 0,4.9705627 -4.029437,9 -9,9 -4.970563,0 -9,-4.0294373 -9,-9 0,-4.9705627 4.029437,-9 9,-9 4.970563,0 9,4.0294373 9,9 z"
        style="fill: none; stroke: #0085c7; stroke-width: 2"
        sodipodi:ry="9"
        sodipodi:rx="9"
        sodipodi:cy="0"
        sodipodi:cx="-22"
        cx="-22"
        cy="0"
        r="9"
        id="circle3409"
      />
      <circle
        transform="matrix(10,0,0,10,-1557.5168,339.84355)"
        d="M 9,0 C 9,4.9705627 4.9705627,9 0,9 -4.9705627,9 -9,4.9705627 -9,0 c 0,-4.9705627 4.0294373,-9 9,-9 4.9705627,0 9,4.0294373 9,9 z"
        style="fill: none; stroke: #000000; stroke-width: 2"
        sodipodi:ry="9"
        sodipodi:rx="9"
        sodipodi:cy="0"
        sodipodi:cx="0"
        cx="0"
        cy="0"
        r="9"
        id="circle3411"
      />
      <circle
        transform="matrix(10,0,0,10,-1557.5168,339.84355)"
        d="m 31,0 c 0,4.9705627 -4.029437,9 -9,9 -4.970563,0 -9,-4.0294373 -9,-9 0,-4.9705627 4.029437,-9 9,-9 4.970563,0 9,4.0294373 9,9 z"
        style="fill: none; stroke: #df0024; stroke-width: 2"
        sodipodi:ry="9"
        sodipodi:rx="9"
        sodipodi:cy="0"
        sodipodi:cx="22"
        cx="22"
        cy="0"
        r="9"
        id="circle3413"
      />
      <circle
        transform="matrix(10,0,0,10,-1667.5168,429.84355)"
        id="circle3419"
        cy="0"
        cx="0"
        clip-path="url(#clip_color)"
        r="9"
        sodipodi:cx="0"
        sodipodi:cy="0"
        sodipodi:rx="9"
        sodipodi:ry="9"
        style="fill: none; stroke: #f4c300; stroke-width: 2"
        d="M 9,0 C 9,4.9705627 4.9705627,9 0,9 -4.9705627,9 -9,4.9705627 -9,0 c 0,-4.9705627 4.0294373,-9 9,-9 4.9705627,0 9,4.0294373 9,9 z"
      />
      <circle
        transform="matrix(10,0,0,10,-1447.5168,429.84355)"
        id="circle3425"
        cy="0"
        cx="0"
        clip-path="url(#clip_color)"
        r="9"
        sodipodi:cx="0"
        sodipodi:cy="0"
        sodipodi:rx="9"
        sodipodi:ry="9"
        style="fill: none; stroke: #009f3d; stroke-width: 2"
        d="M 9,0 C 9,4.9705627 4.9705627,9 0,9 -4.9705627,9 -9,4.9705627 -9,0 c 0,-4.9705627 4.0294373,-9 9,-9 4.9705627,0 9,4.0294373 9,9 z"
      />
      <path
        sodipodi:nodetypes="ccccccsscczccsc"
        inkscape:connector-curvature="0"
        id="path6055"
        d="m -1768.3529,366.3803 c -0.4426,0 -3.4601,5.1625 -6.6875,11.46875 -4.0341,7.8828 -6.1984,11.41526 -6.9375,11.28125 -0.5625,-0.10229 -4.0732,-2.06215 -7.6875,-4.21875 l 0,17.46875 23.875,0 c -2.6214,-0.054 -4.5,-0.11876 -4.5,-0.1875 0,-1.11549 5.948,-12.5 6.5312,-12.5 0.3731,0 3.1305,2.41895 6.125,5.375 l 10.962,10.44033 c 0,0 6.3752,6.15494 11.0375,0.84475 4.6624,-5.31019 -0.55,-10.54984 -0.55,-10.54984 0,0 -7.8787,-7.49773 -12.0121,-11.36024 -18.6106,-17.46973 -19.262,-18.0625 -20.1563,-18.0625 z"
        style="fill: #000000"
      />
      <path
        inkscape:connector-curvature="0"
        id="path6103"
        d="m -1345.2403,237.0047 0,0.65625 c -0.1901,0.0134 -0.4942,0.1778 -0.625,0.375 -0.1672,0.25206 -0.2503,0.59308 -0.063,0.84375 0.2904,0.38674 0.88,0.46297 1.2813,0.625 0.1415,0.0572 0.084,0.22705 0.031,0.25 -0.5149,0.22264 -1.0937,-0.25 -1.0937,-0.25 0,0 -0.2695,0.38131 -0.4063,0.59375 0.2809,0.21392 0.8125,0.34375 0.8125,0.34375 l 0,0.59375 0.75,0.0313 0,-0.625 c 0,0 0.4841,-0.0986 0.6563,-0.40625 0.2504,-0.44769 0.058,-0.81905 0.031,-0.875 -0.1845,-0.38515 -1.2403,-0.55026 -1.3437,-0.65625 -0.042,-0.043 0.012,-0.17478 0.063,-0.1875 0.046,-0.0113 0.4336,-0.12086 0.9687,0.25 0.1284,-0.19702 0.375,-0.59375 0.375,-0.59375 0,0 -0.2589,-0.24213 -0.6875,-0.3125 l 0,-0.65625 -0.75,0 z m -7.8437,4.9375 c 10e-5,-4e-5 -0.1552,0.55851 -0.2188,0.78125 -0.2277,-0.0473 -0.6248,0.0307 -0.8437,0.21875 -0.2798,0.24045 -0.4817,0.61208 -0.3438,0.96875 0.2127,0.55026 0.864,0.86427 1.2813,1.1875 0.1472,0.11402 0.039,0.27193 -0.031,0.28125 -0.6781,0.0906 -1.2187,-0.65625 -1.2187,-0.65625 0,0 -0.4252,0.3585 -0.6563,0.5625 0.2589,0.34425 0.8125,0.65625 0.8125,0.65625 l -0.1875,0.71875 0.875,0.28125 0.2188,-0.71875 c 0,0 0.6022,0.0229 0.9062,-0.28125 0.4424,-0.44249 0.3254,-0.95668 0.3125,-1.03125 -0.089,-0.51328 -1.2576,-1.02882 -1.3437,-1.1875 -0.035,-0.0643 0.03,-0.18952 0.094,-0.1875 0.057,0.002 0.5887,-0.0191 1.0938,0.59375 0.2161,-0.18868 0.625,-0.5625 0.625,-0.5625 0,0 -0.2389,-0.36903 -0.7188,-0.59375 0.058,-0.19291 0.25,-0.75 0.25,-0.75 l -0.9062,-0.28125 z m 16.4687,1.09375 -1.6562,0.0313 c 0,-7e-5 0.015,1.02712 0.031,1.4375 -0.4097,0.0456 -1.0158,0.37492 -1.2812,0.8125 -0.3392,0.55931 -0.4909,1.31863 -0.063,1.84375 0.6615,0.81016 1.9313,0.96635 2.8125,1.28125 0.3108,0.11109 0.2377,0.44578 0.125,0.5 -1.0929,0.52624 -2.4375,-0.40625 -2.4375,-0.40625 0,0 -0.5043,0.81022 -0.7813,1.28125 0.6258,0.43758 1.75,0.65625 1.75,0.65625 l 0.031,1.34375 1.6562,-0.0625 -0.031,-1.3125 c 0,0 1.0301,-0.25767 1.375,-0.9375 0.5018,-0.9893 0,-1.7877 -0.063,-1.90625 -0.4325,-0.81602 -2.6738,-1.09255 -2.9063,-1.3125 -0.094,-0.0892 -0.048,-0.34303 0.063,-0.375 0.098,-0.0285 0.9989,-0.34813 2.1875,0.40625 0.2602,-0.43697 0.75,-1.28125 0.75,-1.28125 0,0 -0.5988,-0.51058 -1.5312,-0.625 -0.01,-0.35698 -0.031,-1.375 -0.031,-1.375 z m -10.0625,2.6875 -1.6875,1.0625 c 0,-9e-5 0.6397,1.04641 0.9063,1.46875 -0.4032,0.2979 -0.8628,1.03398 -0.875,1.65625 -0.016,0.79538 0.2911,1.64654 1.0625,1.9375 1.1902,0.4489 2.6307,-0.1375 3.75,-0.34375 0.3948,-0.0727 0.523,0.34294 0.4375,0.46875 -0.8289,1.22039 -2.8125,1 -2.8125,1 0,0 -0.027,1.21043 -0.031,1.875 0.9253,0.0787 2.25,-0.375 2.25,-0.375 l 0.8438,1.375 1.7187,-1.0625 -0.8437,-1.375 c 0,0 0.9269,-0.88681 0.875,-1.8125 -0.075,-1.34701 -1.0804,-1.9136 -1.2188,-2 -0.9528,-0.59478 -3.4961,0.52706 -3.875,0.4375 -0.1536,-0.0363 -0.2517,-0.36844 -0.1562,-0.46875 0.085,-0.0894 0.8205,-0.94366 2.5312,-0.875 0.01,-0.61849 0.031,-1.8125 0.031,-1.8125 0,0 -0.9491,-0.16717 -2,0.28125 -0.2269,-0.37032 -0.9063,-1.4375 -0.9063,-1.4375 z m 18.3125,2.15625 c 10e-5,-1.7e-4 -0.5221,2.18547 -0.7187,3.0625 -0.8923,-0.13239 -2.3816,0.2536 -3.1875,1.03125 -1.0302,0.994 -1.7388,2.49301 -1.125,3.84375 0.947,2.08388 3.53,3.12255 5.2187,4.28125 0.5956,0.4087 0.2373,1.07323 -0.031,1.125 -2.6067,0.50285 -4.875,-2.21875 -4.875,-2.21875 0,0 -1.5569,1.47058 -2.4063,2.3125 1.0797,1.27557 3.3438,2.375 3.3438,2.375 l -0.6563,2.8125 3.5313,0.84375 0.6562,-2.84375 c 0,0 2.2966,0.027 3.4063,-1.21875 1.6146,-1.81299 1.0354,-3.80779 0.9687,-4.09375 -0.4591,-1.96834 -5.0683,-3.77963 -5.4375,-4.375 -0.1497,-0.24141 0.095,-0.74345 0.3438,-0.75 0.2222,-0.006 2.2815,-0.16664 4.375,2.09375 0.7947,-0.77925 2.3437,-2.3125 2.3437,-2.3125 0,0 -1.0284,-1.39313 -2.9375,-2.15625 0.1812,-0.76019 0.7188,-2.96875 0.7188,-2.96875 l -3.5313,-0.84375 z m -24.4687,6.59375 -1.5,0.34375 c -10e-5,-7e-5 0.1943,0.91191 0.2812,1.28125 -0.3633,0.11413 -0.8684,0.55612 -1.0312,1 -0.2082,0.56737 -0.2008,1.2563 0.2812,1.65625 0.7436,0.61705 1.9264,0.52729 2.7813,0.65625 0.3015,0.0455 0.2801,0.36831 0.1875,0.4375 -0.8974,0.67128 -2.25,0.0625 -2.25,0.0625 0,0 -0.3325,0.83622 -0.5,1.3125 0.6451,0.28558 1.7187,0.28125 1.7187,0.28125 l 0.2813,1.1875 1.4687,-0.3125 -0.25,-1.21875 c 0,0 0.8706,-0.38484 1.0625,-1.0625 0.2793,-0.98612 -0.297,-1.65367 -0.375,-1.75 -0.5371,-0.66305 -2.6251,-0.49813 -2.875,-0.65625 -0.1014,-0.0641 -0.096,-0.29536 0,-0.34375 0.083,-0.0432 0.8196,-0.50401 2.0313,-0.0313 0.1583,-0.44242 0.4687,-1.28125 0.4687,-1.28125 0,0 -0.6655,-0.34314 -1.5312,-0.28125 -0.071,-0.32212 -0.25,-1.28125 -0.25,-1.28125 z m 11.2812,5.40625 -3,1.0625 c 0,-1.4e-4 0.665,1.85304 0.9375,2.59375 -0.7214,0.32711 -1.6505,1.32374 -1.875,2.28125 -0.287,1.22388 -0.096,2.67053 1,3.375 1.6907,1.08685 4.1087,0.60517 5.9063,0.65625 0.6341,0.0181 0.6737,0.70885 0.5,0.875 -1.684,1.61195 -4.6563,0.65625 -4.6563,0.65625 0,0 -0.4616,1.81818 -0.6875,2.84375 1.4039,0.42725 3.625,0.15625 3.625,0.15625 l 0.8438,2.40625 3,-1.0625 -0.875,-2.40625 c 0,0 1.7118,-1.05248 1.9375,-2.5 0.3283,-2.1064 -1.0335,-3.32075 -1.2188,-3.5 -1.2758,-1.23384 -5.5378,-0.36144 -6.0937,-0.625 -0.2253,-0.10686 -0.3061,-0.62655 -0.125,-0.75 0.1611,-0.11009 1.6292,-1.20253 4.25,-0.53125 0.2155,-0.95333 0.625,-2.8125 0.625,-2.8125 0,0 -1.4155,-0.53324 -3.1875,-0.1875 -0.2282,-0.64718 -0.9063,-2.53125 -0.9063,-2.53125 z m 22.8438,3.375 -2.9063,0.0625 c 0,-1.4e-4 0.037,1.80948 0.063,2.53125 -0.7207,0.0774 -1.8115,0.66985 -2.2812,1.4375 -0.6003,0.98121 -0.8754,2.29234 -0.125,3.21875 1.1576,1.42922 3.4213,1.72142 4.9687,2.28125 0.5458,0.19748 0.3861,0.78042 0.1875,0.875 -1.9255,0.91784 -4.25,-0.75 -4.25,-0.75 0,0 -0.9158,1.45486 -1.4062,2.28125 1.0974,0.77381 3.0937,1.1875 3.0937,1.1875 l 0.063,2.3125 2.9063,-0.0625 -0.063,-2.34375 c 0,0 1.795,-0.4319 2.4062,-1.625 0.8893,-1.73622 0.015,-3.16609 -0.094,-3.375 -0.7548,-1.43797 -4.6863,-1.89284 -5.0938,-2.28125 -0.1652,-0.15748 -0.067,-0.63205 0.125,-0.6875 0.1716,-0.0495 1.7276,-0.58479 3.8125,0.75 0.4605,-0.76662 1.3438,-2.25 1.3438,-2.25 0,0 -1.0799,-0.8861 -2.7188,-1.09375 -0.013,-0.6278 -0.031,-2.46875 -0.031,-2.46875 z m -11.9375,9.5625 -2.0625,0.71875 c -10e-5,-1e-4 0.441,1.27125 0.625,1.78125 -0.497,0.22164 -1.123,0.90569 -1.2813,1.5625 -0.2024,0.83954 -0.093,1.82387 0.6563,2.3125 1.1568,0.75384 2.8278,0.42599 4.0625,0.46875 0.4355,0.0151 0.4638,0.5116 0.3437,0.625 -1.1637,1.10017 -3.2187,0.40625 -3.2187,0.40625 0,0 -0.3092,1.26518 -0.4688,1.96875 0.9626,0.29949 2.4688,0.125 2.4688,0.125 l 0.5937,1.65625 2.0625,-0.71875 -0.5937,-1.65625 c 0,0 1.1825,-0.72531 1.3437,-1.71875 0.2346,-1.44562 -0.7171,-2.28232 -0.8437,-2.40625 -0.8711,-0.85305 -3.8068,-0.28533 -4.1875,-0.46875 -0.1544,-0.0744 -0.1871,-0.41597 -0.063,-0.5 0.1112,-0.0749 1.1087,-0.81608 2.9062,-0.34375 0.1521,-0.65399 0.4375,-1.9375 0.4375,-1.9375 0,0 -0.9687,-0.35495 -2.1875,-0.125 -0.154,-0.44556 -0.5937,-1.75 -0.5937,-1.75 z m 8.1562,7.75 -1.7187,0.5625 c -10e-5,-9e-5 0.3515,1.07669 0.5,1.5 -0.4129,0.17971 -0.958,0.739 -1.0938,1.28125 -0.1736,0.69311 -0.054,1.49646 0.5625,1.90625 0.9516,0.63222 2.3226,0.39303 3.3438,0.4375 0.3602,0.0157 0.3813,0.40706 0.2812,0.5 -0.9709,0.90165 -2.6562,0.34375 -2.6562,0.34375 0,0 -0.2691,1.01283 -0.4063,1.59375 0.7942,0.25488 2.0313,0.125 2.0313,0.125 l 0.4687,1.375 1.7188,-0.5625 -0.4688,-1.40625 c 0,0 0.9843,-0.58551 1.125,-1.40625 0.2047,-1.19431 -0.5524,-1.86528 -0.6562,-1.96875 -0.7144,-0.71219 -3.1551,-0.28294 -3.4688,-0.4375 -0.1271,-0.0627 -0.1656,-0.33764 -0.063,-0.40625 0.092,-0.0612 0.9225,-0.68528 2.4063,-0.28125 0.1306,-0.53996 0.375,-1.5625 0.375,-1.5625 0,0 -0.8025,-0.33752 -1.8125,-0.15625 l -0.4688,-1.4375 z m 5.7813,4.6875 c 0,-1e-4 0.021,1.19859 0.031,1.6875 -0.4889,0.0425 -1.2341,0.45554 -1.5625,0.96875 -0.4197,0.65598 -0.6202,1.51888 -0.125,2.15625 0.764,0.98332 2.2727,1.22486 3.3125,1.625 0.3668,0.14115 0.2607,0.53244 0.125,0.59375 -1.316,0.59494 -2.875,-0.5625 -2.875,-0.5625 0,0 -0.6255,0.97857 -0.9687,1.53125 0.7322,0.53883 2.0625,0.84375 2.0625,0.84375 l 0,1.5625 1.9687,0 0,-1.59375 c 0,0 1.2263,-0.26324 1.6563,-1.0625 0.6258,-1.16311 0.071,-2.13834 0,-2.28125 -0.4912,-0.98372 -3.167,-1.35651 -3.4375,-1.625 -0.1097,-0.10887 -0.037,-0.43384 0.094,-0.46875 0.1169,-0.0311 1.2007,-0.36958 2.5938,0.5625 0.3222,-0.51263 0.9375,-1.5 0.9375,-1.5 0,0 -0.7372,-0.61825 -1.8438,-0.78125 l 0,-1.65625 -1.9687,0 z m -6.0313,6.46875 -1.5625,0.53125 c 0,-8e-5 0.3264,0.98465 0.4688,1.375 -0.3803,0.17116 -0.8492,0.68374 -0.9688,1.1875 -0.1067,0.44963 -0.09,0.95226 0.125,1.34375 l -2.7812,0 0,2.25 17.4687,0 0,-2.25 -1.1875,0 c -10e-4,-0.0416 9e-4,-0.0838 0,-0.125 l -8.3437,0.0937 c -0.158,-0.25629 -0.2998,-0.45723 -0.3438,-0.5 -0.6698,-0.65144 -2.9265,-0.20419 -3.2187,-0.34375 -0.1185,-0.0566 -0.1575,-0.31027 -0.063,-0.375 0.085,-0.0577 0.84,-0.63849 2.2187,-0.28125 0.1149,-0.50158 0.3438,-1.46875 0.3438,-1.46875 0,0 -0.7541,-0.30443 -1.6875,-0.125 -0.1192,-0.34105 -0.4688,-1.3125 -0.4688,-1.3125 z m -15.5,6.09375 -0.6875,0.59375 1.375,0 -0.6875,-0.59375 z"
        style="color: #000000; fill: #000000; fill-rule: evenodd"
      />
      <path
        inkscape:connector-curvature="0"
        id="path6180"
        transform="translate(-414.4154,-150.08845)"
        d="m -1291.5312,514.375 c -0.1531,0.0511 -0.5495,0.35476 -1.0938,0.875 -0.5743,0.54909 -0.7836,0.95147 -0.6875,1.28125 0.095,0.32728 -0.1465,0.78026 -0.75,1.40625 -1.1586,1.20159 -3.01,4.36054 -3.9375,6.6875 -0.6952,1.74457 -0.7942,1.86212 -1.4375,1.78125 -0.375,-0.0472 -1.4788,0.021 -2.4687,0.1875 -0.9901,0.1665 -2.1362,0.36704 -2.5313,0.40625 -0.3954,0.0392 -0.1177,0.0508 0.5937,0.0625 0.7115,0.0117 1.8052,-0.058 2.4376,-0.15625 1.5304,-0.23788 2.1562,-0.0652 2.1562,0.53125 0,0.63488 -1.7107,5.58003 -2,5.78125 -0.1237,0.0862 -2.9264,0.28605 -6.2188,0.4375 -3.2925,0.15145 -6.0516,0.3266 -6.125,0.375 -0.074,0.0484 1.0507,0.0625 2.5,0.0625 1.5311,0 2.625,0.0797 2.625,0.1875 0,0.25046 -0.5561,0.33979 -5.6874,0.6875 -2.314,0.1568 -4.5206,0.33262 -6.6876,0.5625 l 0,1.53125 c 0.3677,-0.052 0.62,-0.076 0.9688,-0.125 4.4675,-0.62777 8.658,-0.94962 9.1875,-0.71875 0.4212,0.18374 -0.4562,0.71931 -1.1875,0.71875 -0.7684,-8.1e-4 -5.5322,0.6047 -5.4062,0.6875 0.066,0.0432 2.1114,-0.0181 4.5312,-0.125 l 4.4062,-0.1875 2.5313,0.71875 c 1.3964,0.38815 2.5313,0.76932 2.5313,0.875 0,0.10564 -0.3138,0.9286 -0.6876,1.8125 -0.3737,0.88391 -1.287,3.04464 -2.0312,4.8125 -0.7442,1.76779 -1.7944,4.294 -2.3438,5.59375 -1.4014,3.3158 -1.3564,3.14728 -1,2.8125 0.4534,-0.42578 0.3871,-0.059 -0.375,1.8125 -1.6115,3.9583 -4.4888,13.59081 -4.5,15.09375 0,0.3297 -0.1151,0.71901 -0.2812,0.875 -0.246,0.23124 -0.3033,0.21446 -0.1875,-0.0937 0.078,-0.20797 0.2325,-1.25187 0.3125,-2.34375 0.178,-2.42331 0.02,-1.81898 -1.25,4.90625 -0.9673,5.12522 -1.0833,6.32067 -0.3125,3.59375 0.653,-2.31144 0.7002,-1.84527 0.125,1.4375 -0.2673,1.52503 -0.5466,5.24015 -0.6563,8.875 l -0.031,0.65625 2.0938,0 c 0,-0.20463 -0.029,-0.27794 -0.031,-0.5 -0.054,-5.0812 0.2495,-7.29735 1.8125,-14.15625 0.5689,-2.49571 1.0826,-5.3143 1.1562,-6.25 0.194,-2.46057 2.9179,-11.02335 4.875,-15.3125 0.9008,-1.97391 3.0971,-7.66647 3.0938,-8.03125 -0.011,-0.621 1.7377,-5.04165 2.0625,-5.21875 0.1907,-0.10401 0.2904,-0.29737 0.2187,-0.4375 -0.1539,-0.30051 0.5321,-2.44861 0.8126,-2.5625 0.04,-0.0166 0.1348,-0.0305 0.2812,-0.0313 1.0249,-0.005 4.4306,0.37316 7.3438,0.8125 8.5644,1.29166 11.0624,1.78672 11.0624,2.25 0,0.51286 -0.9229,0.53629 -3.2812,0.0313 -1.2917,-0.27668 -2.5534,-0.50293 -2.7812,-0.5 -0.2277,0.003 1.9151,0.79101 4.75,1.75 l 5.1562,1.71875 0.7188,1.46875 c 1.0988,2.15837 1.6013,2.26029 0.75,0.15625 -0.2296,-0.5671 -0.3843,-1.06705 -0.3438,-1.09375 0.04,-0.0267 0.3724,0.003 0.7188,0.0625 1.2899,0.22184 1.8706,3.27467 1.9062,10 0.024,4.43895 -0.033,5.11258 -0.625,6.9375 -0.4131,1.27438 -1.1366,2.67755 -1.9375,3.8125 -1.6523,2.34146 -3.5958,6.50623 -3.8125,8.15625 -0.1513,1.15156 -0.4572,1.69282 -2.8438,4.875 -1.4841,1.97881 -2.6459,3.73233 -2.5624,3.875 0.083,0.14274 -0.025,0.28712 -0.25,0.34375 -0.7423,0.18738 -3.9063,3.70371 -3.9063,4.34375 0,0.12432 -0.2343,0.26144 -0.5313,0.3125 -0.2966,0.0511 -1.1022,0.64951 -1.7812,1.3125 -0.5363,0.52383 -1.2897,1.19109 -2.0625,1.875 l 3.6875,0 c 3.3442,-3.23106 6.1025,-6.2322 8.4688,-9.21875 1.8027,-2.2755 2.2812,-2.7688 2.2812,-2.34375 0,0.13094 0.1183,0.17855 0.25,0.125 0.1316,-0.0536 0.1884,-0.33446 0.125,-0.625 -0.068,-0.31341 0.1914,-0.9832 0.6562,-1.65625 0.4311,-0.62393 1.5376,-2.36723 2.4688,-3.875 1.2722,-2.06012 1.6656,-2.54567 1.5312,-1.90625 -0.099,0.46795 -0.3463,1.89397 -0.5624,3.15625 -0.216,1.26222 -0.6051,2.62438 -0.8438,3 -0.2386,0.3756 -0.3205,0.65625 -0.1875,0.65625 0.4423,0 1.171,-1.51312 2.0313,-4.21875 0.4682,-1.47255 1.526,-4.02345 2.3437,-5.6875 1.4787,-3.00931 1.4985,-3.05367 1.625,-5.96875 0.069,-1.61183 0.047,-2.89565 -0.031,-2.84375 -0.077,0.0521 -0.2931,1.08204 -0.4687,2.28125 -0.1758,1.19919 -0.5044,2.69189 -0.75,3.3125 -0.4282,1.08223 -1.181,2.10618 -1.4375,1.9375 -0.067,-0.0443 0.1837,-1.10505 0.5625,-2.34375 0.3789,-1.23869 0.8479,-3.00155 1.0625,-3.9375 0.5503,-2.39756 0.4648,-9.12839 -0.1562,-12.5625 -0.2701,-1.49398 -0.3847,-2.77782 -0.2813,-2.84375 0.1985,0.0128 1.1732,0.58133 2.2187,1.3125 3.9808,2.78399 6.9211,5.78709 6.2188,6.34375 -0.6405,0.50767 -1.3076,0.26728 -2.6875,-0.96875 -0.7604,-0.68114 -1.4377,-1.19725 -1.5,-1.15625 -0.243,0.15976 4.8133,8.25 5.1563,8.25 0.05,0 -0.1755,-0.9021 -0.5,-2 -0.5135,-1.7374 -0.5231,-2.00143 -0.1563,-2.15625 0.5931,-0.25047 0.9824,-0.20039 1.3125,0.28125 l 0,-5.78125 c -2.4386,-2.41729 -5.6604,-4.67717 -9.0312,-6.34375 -1.2155,-0.60088 -2.2435,-1.1144 -2.2813,-1.125 -0.038,-0.0108 -0.1468,-0.28533 -0.25,-0.625 l -0.1875,-0.625 1.4062,0.5 c 0.7736,0.26522 1.8529,0.6748 2.4063,0.90625 l 1,0.40625 -0.5937,-0.46875 c -0.336,-0.2559 -1.1891,-1.74721 -1.9376,-3.375 -0.7411,-1.61183 -1.5082,-3.18809 -1.6874,-3.5 -0.1787,-0.30993 -1.7609,-1.55454 -3.5313,-2.75 -2.5307,-1.70955 -3.7765,-2.71502 -5.75,-4.78125 -2.7464,-2.8755 -4.4687,-5.30962 -4.4687,-6.28125 0,-0.34378 -0.2279,-1.15162 -0.5313,-1.8125 -0.3035,-0.6609 -0.6319,-1.38578 -0.7187,-1.59375 -0.086,-0.20799 -0.1035,0.16258 -0.031,0.8125 0.078,0.70754 0.013,1.1875 -0.1563,1.1875 -0.1559,0 -0.2782,-0.0782 -0.2812,-0.15625 0,-0.078 -0.5181,-0.51678 -1.1562,-0.96875 -0.9456,-0.66952 -1.3008,-0.78227 -1.875,-0.6875 -0.8682,0.14331 -0.9013,-0.1014 -0.1563,-1.0625 0.3437,-0.44348 0.4343,-0.64487 0.2813,-0.59375 z m -0.031,3.96875 c 0.5403,0.005 1.1558,0.30834 1.7813,0.90625 0.8894,0.85013 1.4372,1.94769 1.4374,2.84375 l 0,0.5625 -0.6874,-0.5625 c -0.3888,-0.31198 -0.713,-0.49168 -0.7188,-0.40625 -0.017,0.25147 3.765,5.06172 3.9062,4.96875 0.07,-0.0466 -0.173,-0.58833 -0.5624,-1.21875 -0.7897,-1.27792 -1.2828,-2.60141 -0.7813,-2.125 2.3332,2.21656 7.0461,8.41735 8.125,10.6875 0.679,1.42907 0.8967,3.10419 0.4375,3.40625 -0.1146,0.0753 -0.8149,-0.67038 -1.5625,-1.6875 -0.7477,-1.01713 -1.4119,-1.7684 -1.4687,-1.65625 -0.057,0.11213 0.2198,0.90632 0.625,1.75 0.4052,0.84367 0.75,1.54713 0.75,1.59375 0,0.13773 -0.3632,0.10027 -2.0313,-0.34375 -3.9822,-1.05996 -10.5052,-2.05397 -15.2187,-2.3125 -2.1495,-0.11791 -2.3126,-0.15905 -2.3126,-0.5625 0,-0.23759 0.2205,-0.55535 0.4688,-0.71875 0.2484,-0.16341 0.3101,-0.3125 0.1562,-0.3125 -0.4641,0 1.2893,-4.92366 3,-8.40625 0.8476,-1.7251 1.313,-2.29413 2.7813,-3.5625 0.9793,-0.84617 1.5338,-1.47786 1.25,-1.40625 -0.777,0.19608 -1.0395,-0.0249 -0.7187,-0.59375 0.3313,-0.58737 0.8033,-0.8497 1.3437,-0.84375 z m -1.8437,0.0937 c 0.019,-0.005 0.039,0.0157 0.062,0.0313 0.095,0.0628 0.1141,0.20728 0.031,0.34375 -0.092,0.15084 -0.1423,0.12647 -0.1563,-0.0937 -0.011,-0.14949 -5e-4,-0.26701 0.063,-0.28125 z m 15.3437,11.8125 c 0.082,-0.002 0.3373,0.1823 0.9375,0.625 2.018,1.48833 2.6701,2.22245 2.4688,2.75 -0.1007,0.263 -0.3547,0.46875 -0.5938,0.46875 -0.5206,0 -0.8614,-0.4633 -0.5625,-0.78125 0.1259,-0.134 0.08,-0.1645 -0.094,-0.0937 -0.2715,0.11035 -1.3108,-1.22516 -2.0626,-2.625 -0.123,-0.22955 -0.157,-0.34161 -0.094,-0.34375 z m -23.6875,3.5 c 0.3871,0.005 0.376,0.10535 0.2812,0.34375 -0.1201,0.30231 -0.3828,0.375 -1.0937,0.375 -0.5152,0 -1.3375,0.0625 -1.8125,0.125 -0.9897,0.13018 -1.4889,-0.19842 -0.7188,-0.46875 0.2812,-0.0987 1.2577,-0.23886 2.1563,-0.3125 0.5869,-0.0481 0.9554,-0.0659 1.1875,-0.0625 z m 28.4062,2.25 c 0.1244,0 0.6901,0.59855 1.25,1.34375 0.56,0.74521 0.9828,1.44174 0.9376,1.53125 -0.045,0.0895 -0.765,-0.14973 -1.5938,-0.53125 -1.2764,-0.58774 -1.5,-0.80657 -1.5,-1.3125 0,-0.56642 0.4126,-1.03125 0.9062,-1.03125 z m -32.5937,0.0313 c 0.4465,-0.01 1.0177,0.0153 1.6875,0.0625 2.0229,0.14248 2.0714,0.1894 1.5312,1.46875 -0.1646,0.38995 -0.3888,0.68954 -0.5,0.6875 -0.1113,-10e-4 -1.0353,-0.32543 -2.0624,-0.71875 -2.3949,-0.91706 -2.5909,-1.4593 -0.6563,-1.5 z m 26.625,4.125 c 0.047,-0.0156 0.1,0 0.1563,0 0.2318,0 0.5828,0.57619 0.5937,0.96875 0.011,0.23767 -0.4679,0.17285 -0.8437,-0.125 -0.3245,-0.25709 -0.2373,-0.73447 0.094,-0.84375 z m 2.125,0.59375 c 0.393,-0.005 1.1991,0.50537 1.3437,0.90625 0.095,0.26465 0.2616,0.63053 0.3438,0.8125 0.1778,0.39355 -0.1318,0.41751 -0.8438,0.0625 -0.5079,-0.25335 -1.238,-1.5729 -0.9687,-1.75 0.036,-0.0238 0.069,-0.0303 0.125,-0.0313 z m 0.4375,24.21875 c 0.064,-0.0147 0.1278,0.11171 0.25,0.40625 0.2589,0.624 0.082,1.3468 -0.5625,2.5625 -0.5815,1.09778 -0.7205,1.20731 -1.125,0.78125 -0.365,-0.38438 -0.2032,-1.1385 0.3125,-1.4375 0.4869,-0.28225 1.0651,-1.23542 0.875,-1.4375 -0.091,-0.0971 -0.084,-0.36067 0.031,-0.59375 0.088,-0.17814 0.1691,-0.26974 0.2188,-0.28125 z m 12.7812,0.3125 c -0.043,0.007 -0.1292,0.0661 -0.2187,0.125 -0.4165,0.27382 -5.7213,10.35319 -5.9375,11.28125 -0.1028,0.44054 -0.1102,0.77075 -0.031,0.71875 0.078,-0.052 0.8432,-1.0854 1.6874,-2.28125 0.8444,-1.1959 1.7064,-2.31794 1.9376,-2.5 0.4828,-0.3803 1.6217,-0.45597 1.4062,-0.0937 -2.7965,4.69997 -9.8579,11.7253 -16.1562,16.21875 l 3.875,0 c 5.7194,-4.42347 10.7445,-9.38939 15.125,-14.9375 0.1007,-0.12756 0.1874,-0.20028 0.2812,-0.3125 l 0,-6.5625 c -0.1489,0.35471 -0.2964,0.72282 -0.4688,1.0625 -0.7633,1.50441 -1.2842,2.03125 -2,2.03125 -0.7123,0 -0.7184,-0.17619 0,-2.65625 0.5022,-1.73335 0.6282,-2.11483 0.5,-2.09375 z m -14.7812,4.4375 c 0.078,0.002 0.1065,0.0613 0.031,0.1875 -0.1912,0.32755 -0.4062,0.39697 -0.4062,0.125 0,-0.0978 0.1249,-0.21772 0.2812,-0.28125 0.041,-0.0164 0.069,-0.0317 0.094,-0.0313 z m -36.5,5.4375 c 0.019,-0.005 0.037,0.0158 0.063,0.0313 0.095,0.0629 0.115,0.20726 0.031,0.34375 -0.092,0.15082 -0.1738,0.12648 -0.1876,-0.0937 -0.011,-0.14948 0.035,-0.26701 0.094,-0.28125 z m 32.875,12.3125 c -0.077,-0.0505 -1.0755,0.52577 -2.3125,1.28125 l 0.875,0 c 0.1979,-0.14443 0.4134,-0.31203 0.5937,-0.4375 0.5577,-0.38805 0.9551,-0.77065 0.8438,-0.84375 z"
        style="fill: #000000"
      />
      <path
        style="color: #000000; fill: #000000; fill-rule: evenodd"
        d="M 536.375 155.4375 L 536.4375 162.34375 L 536.5 169.25 L 544.15625 169.25 L 544.15625 155.4375 L 536.375 155.4375 z "
        transform="translate(-1914.6596,197.14679)"
        id="path6351"
      />
    </g>
  </g>
</svg>
