<svg
  height="100px"
  width="100px"
  fill="#000000"
  xmlns="http://www.w3.org/2000/svg"
  viewBox="0 0 100 100"
  x="0px"
  y="0px"
>
  <g data-name="john crawford III">
    <path
      d="M60.37719,70.42243a.49991.49991,0,1,1-.49991-.49991A.49989.49989,0,0,1,60.37719,70.42243Zm1.42385-.49991a.49991.49991,0,1,0,.49991.49991A.49993.49993,0,0,0,61.801,69.92252Zm-2.8135-1.87984a.49991.49991,0,1,0,.4999.49991A.49989.49989,0,0,0,58.98754,68.04268Zm-2.37371.49991a.49991.49991,0,1,0,.49991-.49991A.49989.49989,0,0,0,56.61383,68.54259Zm-1.87374,0a.49991.49991,0,1,0,.49991-.49991A.49989.49989,0,0,0,54.74009,68.54259Zm-1.87374,0a.49991.49991,0,1,0,.49991-.49991A.49985.49985,0,0,0,52.86635,68.54259Zm-1.8738,0a.49991.49991,0,1,0,.49991-.49991A.49989.49989,0,0,0,50.99255,68.54259Zm-1.37383-.49991a.49991.49991,0,1,0,.49991.49991A.49989.49989,0,0,0,49.61872,68.04268Zm-2.3737.49991a.49991.49991,0,1,0,.4999-.49991A.49988.49988,0,0,0,47.245,68.54259Zm-1.87374,0a.49991.49991,0,1,0,.49991-.49991A.49989.49989,0,0,0,45.37128,68.54259Zm-1.87374,0a.49991.49991,0,1,0,.49991-.49991A.49985.49985,0,0,0,43.49754,68.54259Zm-.874,0a.49991.49991,0,1,0-.49991.4999A.49989.49989,0,0,0,42.62356,68.54259Zm-2.87356,0a.49991.49991,0,1,0,.49991-.49991A.49989.49989,0,0,0,39.75,68.54259Zm-2.29193,1.37993a.49991.49991,0,1,0,.4999.49991A.49993.49993,0,0,0,37.45807,69.92252Zm1.82376,0a.49991.49991,0,1,0,.4999.49991A.49993.49993,0,0,0,39.28183,69.92252ZM63.21661,82.43594a.49991.49991,0,1,0,.49991.49991A.49993.49993,0,0,0,63.21661,82.43594Zm-26.14263,0a.49991.49991,0,1,0,.49991.49991A.49994.49994,0,0,0,37.074,82.43594Zm23.28952,1.8655a.49991.49991,0,1,0,.49991.49991A.49993.49993,0,0,0,60.3635,84.30144Zm-20.56077.01129a.49991.49991,0,1,0,.4999.49991A.49986.49986,0,0,0,39.80273,84.31273Zm4.70781,1.92189a.49991.49991,0,1,0,.4999.4999A.49989.49989,0,0,0,44.51054,86.23462Zm-1.8738,0a.49991.49991,0,1,0,.4999.4999A.49992.49992,0,0,0,42.63674,86.23462Zm-1.87374,0a.49991.49991,0,1,0,.49991.4999A.49993.49993,0,0,0,40.763,86.23462Zm16.85553,0a.49991.49991,0,1,0,.4999.4999A.49992.49992,0,0,0,57.61853,86.23462Zm-1.87374,0a.49991.49991,0,1,0,.49991.4999A.49989.49989,0,0,0,55.74479,86.23462ZM56.6253,88.062a.49991.49991,0,1,0,.49991.49991A.49986.49986,0,0,0,56.6253,88.062Zm-1.8738,0a.49991.49991,0,1,0,.49991.49991A.49989.49989,0,0,0,54.7515,88.062Zm-1.87374,0a.49991.49991,0,1,0,.49991.49991A.49989.49989,0,0,0,52.87776,88.062Zm-1.87373,0a.49991.49991,0,1,0,.4999.49991A.49985.49985,0,0,0,51.004,88.062Zm-1.8738,0a.49991.49991,0,1,0,.4999.49991A.49989.49989,0,0,0,49.13023,88.062Zm-1.87374,0a.49991.49991,0,1,0,.49991.49991A.49989.49989,0,0,0,47.25649,88.062Zm-1.87374,0a.49991.49991,0,1,0,.49991.49991A.49986.49986,0,0,0,45.38275,88.062Zm-1.8738,0a.49991.49991,0,1,0,.49991.49991A.49989.49989,0,0,0,43.509,88.062Zm6.59241,1.90205a.49991.49991,0,1,0,.49991.49991A.49994.49994,0,0,0,50.10136,89.96409ZM42.32661,61.207l.39348,1.447a5.333,5.333,0,0,1,1.2981-.18649,5.03994,5.03994,0,0,1,2.38726.50479A3.58025,3.58025,0,0,1,47.17,63.48a3.76724,3.76724,0,0,0,1.32836.75084,4.63166,4.63166,0,0,0,1.47581.25581q.10983,0,.21822-.00586a4.2312,4.2312,0,0,0,1.42161-.332,3.118,3.118,0,0,0,1.19119-.87581,2.83709,2.83709,0,0,1,.50332-.46183,3.944,3.944,0,0,1,2.47464-.52822,4.914,4.914,0,0,1,1.41185.28315l.50577-1.41185a6.427,6.427,0,0,0-1.84244-.36907,5.366,5.366,0,0,0-3.40757.79575,4.272,4.272,0,0,0-.74889.67663,1.69358,1.69358,0,0,1-.67907.5126,2.70064,2.70064,0,0,1-.91487.21285,3.00825,3.00825,0,0,1-1.13016-.17379,2.28938,2.28938,0,0,1-.85971-.4921,5.11164,5.11164,0,0,0-1.04473-.68835,6.52323,6.52323,0,0,0-3.079-.661A6.797,6.797,0,0,0,42.32661,61.207Zm14.262,10.13583a12.12336,12.12336,0,0,0-5.56.991,2.40849,2.40849,0,0,1-1.22146.34076,2.46377,2.46377,0,0,1-1.2195-.38665,10.41911,10.41911,0,0,0-5.16066-.94123l.01952,1.49972a9.14349,9.14349,0,0,1,4.43034.76353,3.92714,3.92714,0,0,0,1.90541.56435h.05858a3.99008,3.99008,0,0,0,1.93568-.53994,11.00308,11.00308,0,0,1,4.81893-.79184Zm-.102-22.50366,1.0545,1.06621a7.52361,7.52361,0,0,1,2.57508-1.61854,2.18609,2.18609,0,1,0,4.3197.4705,2.17172,2.17172,0,0,0-.11509-.66992,7.38467,7.38467,0,0,1,3.16769,1.7955l1.04766-1.074a8.567,8.567,0,0,0-12.04954.03027Zm-16.6-.54342a7.53482,7.53482,0,0,1,2.57234,1.60963l1.0545-1.06621a8.56706,8.56706,0,0,0-12.04954-.03027l1.04766,1.074a7.38324,7.38324,0,0,1,3.16769-1.79544,2.183,2.183,0,1,0,4.25794.66986A2.19944,2.19944,0,0,0,39.88657,48.2957Zm22.37288-7.086A23.99132,23.99132,0,0,0,55.92859,42.683l1.06524,2.80417a20.9243,20.9243,0,0,1,5.53755-1.2898,12.35192,12.35192,0,0,1,4.55433.18063,10.40639,10.40639,0,0,1,3.63165,1.75749l1.79557-2.4019a13.38462,13.38462,0,0,0-4.67443-2.25935A15.20521,15.20521,0,0,0,62.25945,41.20967ZM37.46814,44.1974a20.92334,20.92334,0,0,1,5.538,1.2898L44.07141,42.683a23.99033,23.99033,0,0,0-6.33135-1.47336,15.20361,15.20361,0,0,0-5.57856.2646,13.38462,13.38462,0,0,0-4.67443,2.25935l1.79557,2.4019A10.40639,10.40639,0,0,1,32.91429,44.378,12.35037,12.35037,0,0,1,37.46814,44.1974ZM46.568,78.47427l.24116,1.4802a22.71365,22.71365,0,0,1,3.35046-.29194,23.36443,23.36443,0,0,1,3.25282.19527l.19722-1.486a24.83189,24.83189,0,0,0-3.46859-.209A24.2552,24.2552,0,0,0,46.568,78.47427Zm29.7816-14.90935a4.50294,4.50294,0,0,0,.7152-2.437,4.55978,4.55978,0,0,0-.7152-2.438l-1.26148.81235a3.00731,3.00731,0,0,1,0,3.25038ZM23.65038,58.68984a4.55978,4.55978,0,0,0-.7152,2.438,4.50294,4.50294,0,0,0,.7152,2.437l1.26148-.81235a3.00731,3.00731,0,0,1,0-3.25038Zm61.88645-7.13119A21.2075,21.2075,0,0,0,89.52737,57.98a1.49994,1.49994,0,0,1-2.24666,1.98791,26.319,26.319,0,0,1-2.74034-3.69823c.12577.41338.24727.828.39751,1.23482A22.10144,22.10144,0,0,0,88.219,63.40772a1.49993,1.49993,0,0,1-2.36968,1.8395c-.51589-.66461-.98346-1.36046-1.4285-2.06974.01867.128.03582.25562.05278.38255a8.85391,8.85391,0,0,0,.60878,2.46244,9.77938,9.77938,0,0,0,1.84292,2.84127,1.49965,1.49965,0,1,1-2.21248,2.025,12.73767,12.73767,0,0,1-2.40142-3.71807,10.82413,10.82413,0,0,1-.59309-1.907A12.023,12.023,0,0,0,84.128,72.3504,1.49953,1.49953,0,1,1,81.7251,74.145a15.07855,15.07855,0,0,1-2.496-5.18324,14.687,14.687,0,0,0,1.23744,5.6148,1.4995,1.4995,0,1,1-2.75145,1.19314A18.26477,18.26477,0,0,1,76.521,71.88076c-.09373-.49984-.159-1.00286-.21053-1.50686a6.51129,6.51129,0,0,0-.3133,1.49124,6.77144,6.77144,0,0,0,.67322,3.53939,1.4995,1.4995,0,1,1-2.69189,1.322,9.85271,9.85271,0,0,1-.97876-3.68035A31.083,31.083,0,0,1,61.453,87.61711,16.63338,16.63338,0,0,1,50.0952,92.5H49.938a16.63159,16.63159,0,0,1-11.36753-4.88289A31.0905,31.0905,0,0,1,27.00254,72.99066a9.85559,9.85559,0,0,1-.981,3.73589,1.4995,1.4995,0,1,1-2.69189-1.322,6.76972,6.76972,0,0,0,.67322-3.53841,6.51632,6.51632,0,0,0-.31336-1.49222c-.05156.50369-.11674,1.00641-.21047,1.50589a18.256,18.256,0,0,1-1.19411,3.8899,1.4995,1.4995,0,1,1-2.75145-1.19314,15.27143,15.27143,0,0,0,.99786-3.25037,15.1543,15.1543,0,0,0,.23958-2.3645,15.07983,15.07983,0,0,1-2.496,5.18331A1.49953,1.49953,0,1,1,15.872,72.3504a12.11356,12.11356,0,0,0,2.07383-4.39665,12.21391,12.21391,0,0,0,.33582-2.69,10.82413,10.82413,0,0,1-.59309,1.907,12.73767,12.73767,0,0,1-2.40142,3.71807,1.49965,1.49965,0,0,1-2.21248-2.025,9.77938,9.77938,0,0,0,1.84292-2.84127A8.85391,8.85391,0,0,0,15.52639,63.56c.017-.12693.03411-.25453.05278-.38255-.445.70928-.91261,1.40513-1.4285,2.06974a1.49993,1.49993,0,0,1-2.36968-1.8395,22.10144,22.10144,0,0,0,3.28113-5.90321c.15024-.40684.27174-.82144.39751-1.23482a26.319,26.319,0,0,1-2.74034,3.69823A1.49994,1.49994,0,1,1,10.47263,57.98a21.20835,21.20835,0,0,0,3.9906-6.42148A16.50577,16.50577,0,0,1,11.718,54.37325a1.49987,1.49987,0,0,1-1.88735-2.3316,12.81626,12.81626,0,0,0,3.04339-3.46615,21.35575,21.35575,0,0,0,1.267-2.82163,25.26766,25.26766,0,0,1-2.12576,2.267,1.49954,1.49954,0,1,1-2.05626-2.18319,21.99419,21.99419,0,0,0,3.54182-4.29706c.37194-.59235.65314-1.10935.89437-1.59144-.41051.39007-.81821.78355-1.25319,1.14621a1.49984,1.49984,0,0,1-1.92054-2.30426,23.08047,23.08047,0,0,0,2.99115-2.99847,22.39182,22.39182,0,0,0,2.41709-3.59278c-.85238.75719-1.55153,1.40367-2.027,1.84994a1.49959,1.49959,0,1,1-2.05431-2.18514c.58241-.54775,1.47629-1.37573,2.59425-2.35406,1.2195-1.06621,2.06749-1.75456,2.8154-2.36187.61951-.50284,1.16287-.94318,1.79068-1.5007.19467-.17288.38488-.356.577-.53487q-1.14447.7874-2.24464,1.64209a1.49967,1.49967,0,1,1-1.84243-2.36675,49.86131,49.86131,0,0,1,9.5442-5.82449c-1.34875.43816-2.64008.91335-3.87972,1.44444a1.49968,1.49968,0,1,1-1.18045-2.7573c1.45823-.62489,2.97211-1.18533,4.49868-1.66571a39.67127,39.67127,0,0,1,7.29114-1.68133c.04424-.00531.089-.00574.13321-.01093a32.20785,32.20785,0,0,0-4.49666.38586,1.4999,1.4999,0,1,1-.47257-2.96234,35.16141,35.16141,0,0,1,7.69535-.374c.08074.005.1608.01489.24141.02044a1.4977,1.4977,0,0,1,.85409-2.81875,28.48123,28.48123,0,0,1,6.90888,1.654c.10454.03936.20395.08983.30793.13035a1.49454,1.49454,0,0,1,1.76542-2.30378A14.45547,14.45547,0,0,1,50,10.73215a14.46574,14.46574,0,0,1,4.55043-3.1071,1.49451,1.49451,0,0,1,1.76536,2.30378c.104-.04052.20345-.091.308-.13035a28.48123,28.48123,0,0,1,6.90888-1.654,1.4977,1.4977,0,0,1,.85409,2.81875c.08061-.00555.16067-.01544.24141-.02044a35.17459,35.17459,0,0,1,7.69535.374,1.4999,1.4999,0,1,1-.47257,2.96234,32.1807,32.1807,0,0,0-4.48971-.38537c.04211.005.08464.00537.12675.01044A39.34853,39.34853,0,0,1,74.70637,15.563a48.51619,48.51619,0,0,1,4.57094,1.68817,1.49968,1.49968,0,1,1-1.18045,2.7573c-1.2624-.54086-2.5713-1.02313-3.89161-1.45a49.84876,49.84876,0,0,1,9.55609,5.83,1.49967,1.49967,0,1,1-1.84243,2.36675q-1.098-.85494-2.24312-1.641c.1918.17849.38158.36126.57595.53377.62732.55752,1.17068.99786,1.79019,1.5007.74791.60731,1.5959,1.29566,2.81491,2.36187,1.11845.97833,2.01233,1.80631,2.59474,2.35406a1.49959,1.49959,0,1,1-2.05431,2.18514c-.47538-.44621-1.17434-1.09251-2.02673-1.84945a22.41664,22.41664,0,0,0,2.41631,3.59229,23.11438,23.11438,0,0,0,2.99163,2.99847,1.49984,1.49984,0,0,1-1.92054,2.30426c-.43492-.3626-.84256-.75608-1.253-1.146.24129.48208.52255.999.89467,1.59125a21.97458,21.97458,0,0,0,3.54134,4.29706,1.49954,1.49954,0,1,1-2.05626,2.18319,25.25832,25.25832,0,0,1-2.1257-2.267,21.27279,21.27279,0,0,0,1.26844,2.82358,12.80677,12.80677,0,0,0,3.04192,3.4642,1.49987,1.49987,0,0,1-1.88735,2.3316A16.50893,16.50893,0,0,1,85.53683,51.55865Zm-12.195,14.45506,1.48313.22455c-.05266.34729-.12455.69049-.18856,1.0354a5.89284,5.89284,0,0,0,1.58565-.80542c.04692-.035.08489-.07782.13034-.11414a5.06312,5.06312,0,0,0,.51615-.45855A5.37576,5.37576,0,0,0,77.908,63.8834a17.83845,17.83845,0,0,0,.63654-3.00061c.03094-.23413.04486-.472.06958-.70752-.03627-.06445-.105-.19-.17986-.353-.32842-.71472-.38391-1.29492-.64543-1.80316a3.68421,3.68421,0,0,0-.25435-.415,3.404,3.404,0,0,0-.48088-.53112,4.30756,4.30756,0,0,1-.75815-.88367,5.35975,5.35975,0,0,1-.47423-4.11377c.13225-4.61786-.52876-6.93964-1.55861-8.87988-.23384-.44037-.48819-.85437-.74937-1.28009a17.36961,17.36961,0,0,1-2.11-4.52356c-.21627-.72937-.35394-1.363-.476-1.92151a10.38089,10.38089,0,0,0-1.01153-3.02484A13.291,13.291,0,0,0,67.425,29.331c-2.17294-1.99139-7.43081-4.126-15.52063-4.288l-.00335.06323q-.97559-.05127-1.90572-.06647-.91509.01649-1.87337.06647l-.00329-.063c-8.09262.16239-13.34758,2.29715-15.52021,4.28781a13.31885,13.31885,0,0,0-2.49319,3.11853h-.00049a10.38567,10.38567,0,0,0-1.0086,3.02c-.12156.55945-.25972,1.19214-.476,1.92249a17.35281,17.35281,0,0,1-2.10948,4.5216c-.26117.4267-.51552.8407-.74986,1.282l-.04735.0888c-1.05913,1.99414-2.05992,3.89752-1.59578,8.51514.006.02075.01911.03723.02429.05847a5.46056,5.46056,0,0,1-.43693,4.33026,4.30566,4.30566,0,0,1-.75864.88465,3.41219,3.41219,0,0,0-.48039.53015,3.69132,3.69132,0,0,0-.25435.414c-.2601.50372-.318,1.08893-.64575,1.806-.07477.16357-.14331.28967-.17978.35486.0246.23462.03851.47155.06933.70477a17.83123,17.83123,0,0,0,.6366,3.00055,5.37757,5.37757,0,0,0,1.04033,2.01318,5.045,5.045,0,0,0,.51517.45771c.04539.03631.08336.0791.13022.11407a5.90579,5.90579,0,0,0,1.61049.81512c-.06469-.34814-.13718-.69464-.19034-1.04516l1.48312-.22455a30.38255,30.38255,0,0,0,5.35108,13.17822,29.71943,29.71943,0,0,0,2.8578,3.35962.4905.4905,0,0,1,.30786-.1156.49991.49991,0,0,1,.49991.49988.49163.49163,0,0,1-.12216.3175c.59985.575,1.22157,1.12836,1.87007,1.65351a.47694.47694,0,0,1-.01905-.09418.5.5,0,1,1,.55.48975c.49228.38116.98206.76532,1.5,1.11767l.11717.09857a14.48143,14.48143,0,0,0,1.84659,1.583.49993.49993,0,0,1,.69481.46033l-.00287.0141a15.2462,15.2462,0,0,0,3.74547,1.77014.49291.49291,0,0,1,.4761-.38208.49992.49992,0,0,1,.49991.49994.4873.4873,0,0,1-.02911.144c.34228.082.6925.15533,1.05548.21344a.50367.50367,0,1,1,.58546.07391,14.08291,14.08291,0,0,0,1.48221.10492h.13766a14.04412,14.04412,0,0,0,1.62543-.12268.49156.49156,0,0,1-.23567-.41357.49991.49991,0,1,1,.99982,0,.49225.49225,0,0,1-.12278.31842c.34911-.0614.68749-.13477,1.017-.218a.47718.47718,0,0,1-.02027-.1004.49747.49747,0,0,1,.965-.17249,15.31982,15.31982,0,0,0,3.69829-1.79461.494.494,0,0,1,.48679-.43488.47856.47856,0,0,1,.10856.02191,15.29419,15.29419,0,0,0,1.19887-.96942.49138.49138,0,0,1-.31421.11987.49991.49991,0,1,1,.49991-.49987.49434.49434,0,0,1-.13211.33227c.23836-.21643.43234-.40588.57015-.54816l.11667-.09857c.53262-.3623,1.037-.75647,1.54238-1.14923a.49425.49425,0,0,1-.34942-.46948.49774.49774,0,0,1,.995-.02405q.98109-.80567,1.88948-1.68616a.48836.48836,0,0,1-.03137-.15533.49993.49993,0,0,1,.49991-.49988.4819.4819,0,0,1,.12578.02539,29.72311,29.72311,0,0,0,2.77267-3.26941A30.38166,30.38166,0,0,0,73.34187,66.01371Zm-21.39648.67166a.49991.49991,0,1,0,.4999-.49991A.49985.49985,0,0,0,51.94539,66.68537Zm-1.8738,0a.49991.49991,0,1,0,.49991-.49991A.49989.49989,0,0,0,50.07159,66.68537Zm-1.37383-.49991a.49991.49991,0,1,0,.4999.49991A.49989.49989,0,0,0,48.69776,66.18546Zm-2.37371.49991a.49991.49991,0,1,0,.49991-.49991A.4999.4999,0,0,0,46.32405,66.68537Z"
    ></path>
  </g>
</svg>
