<svg
  height="100px"
  width="100px"
  fill="#000000"
  xmlns="http://www.w3.org/2000/svg"
  data-name=" Kaldrick Donald"
  viewBox="0 0 100 100"
  x="0px"
  y="0px"
>
  <path
    d="M38.68555,45.38076a8.99969,8.99969,0,0,1,4.874,1.79L42.66113,48.372a7.74682,7.74682,0,0,0-2.14734-1.11951c.00562.06232.01917.12085.01917.18579a2.169,2.169,0,0,1-4.33795,0,2.00851,2.00851,0,0,1,.03192-.30908,7.78611,7.78611,0,0,0-2.40271,1.12659L32.959,47.03115A9.14354,9.14354,0,0,1,38.68555,45.38076Zm23.48047,0a8.99923,8.99923,0,0,0-4.87305,1.79l.89844,1.20117a7.74838,7.74838,0,0,1,2.14807-1.11975c-.00568.06244-.01923.121-.01923.186a2.169,2.169,0,0,0,4.33795,0,2.01375,2.01375,0,0,0-.03216-.31183,7.74278,7.74278,0,0,1,2.4013,1.12934l.86719-1.22461A9.07553,9.07553,0,0,0,62.166,45.38076ZM36.707,38.7372a15.038,15.038,0,0,0-7.75683,2.84766l1.17773,1.61719a12.96583,12.96583,0,0,1,12.72656-1.47364l.77735-1.84179A15.01748,15.01748,0,0,0,36.707,38.7372Zm20.51465,1.14942.77734,1.84179a12.96789,12.96789,0,0,1,12.72754,1.47364l1.17578-1.61719a14.96639,14.96639,0,0,0-14.68066-1.69824Zm23.0332,19.23144c-.82715,2.041-1.45019,2.92578-2.46972,3.50879a4.886,4.886,0,0,1-2.44629.61719c-.1789,0-.34387-.02033-.51325-.03467a39.78834,39.78834,0,0,1-2.34808,10.01514,32.172,32.172,0,0,1-4.69336,8.69531,29.90512,29.90512,0,0,1-5.38184,5.39941l-.084.06543a24.02247,24.02247,0,0,1-6.54688,3.876,16.787,16.787,0,0,1-5.72363,1.23926,16.55077,16.55077,0,0,1-5.82422-1.2666,23.93459,23.93459,0,0,1-6.55371-3.96485,30.36684,30.36684,0,0,1-5.459-5.57617,33.05785,33.05785,0,0,1-4.69043-8.875,41.2435,41.2435,0,0,1-2.28577-9.612c-.188.0177-.374.03876-.57361.03876a4.88354,4.88354,0,0,1-2.44629-.61719c-1.01953-.583-1.64257-1.46777-2.46972-3.50879A21.27716,21.27716,0,0,1,17.792,49.62c.13867-3.10058.90625-4.081,1.56055-4.58886a3.79162,3.79162,0,0,1,1.42071-.675,31.63924,31.63924,0,0,1-.53637-7.92236,32.06879,32.06879,0,0,1,6.91461-18.038,30.15528,30.15528,0,0,1,8.34143-7.21521A30.26363,30.26363,0,0,1,49.98279,7.505V7.50014c.11987-.00018.25458.00031.38916.00092.13458-.00061.16925-.0011.28912-.00092l.1.00488A27.69951,27.69951,0,0,1,64.451,11.18056a30.15528,30.15528,0,0,1,8.34143,7.21521A32.06879,32.06879,0,0,1,79.707,36.4338a31.64716,31.64716,0,0,1-.533,7.90545,3.80341,3.80341,0,0,1,1.47339.69092c.6543.50879,1.42188,1.48926,1.56055,4.59082A21.27565,21.27565,0,0,1,80.25488,59.11806ZM80.71,49.68837c-.084-1.86328-.41406-3.03125-.98242-3.47363a2.41284,2.41284,0,0,0-1.92969-.43262A2.494,2.494,0,0,0,76.208,46.92763L74.919,46.162l.00585-.00922-.05169.01495c.0802-1.67755.515-4.13012-.47071-6.80389-1.01776-2.76056-1.91406-2.85895-2.91271-5.25842-2.01478-4.84076.21051-6.20093-1.76532-10.09156-1.34656-2.65161-3.745-4.03186-5.81122-5.13946A22.60965,22.60965,0,0,0,55.044,16.57863c-1.79071-.18243-3.47828-.191-4.52-.19641a51.38016,51.38016,0,0,0-5.13849.19641c-3.1.30121-6.17883.60047-9.35474,2.29578-2.08124,1.1109-4.46527,2.489-5.81122,5.13946-1.97583,3.89063.24939,5.2508-1.76538,10.09156-.99865,2.39947-1.895,2.49786-2.91272,5.25842-.9812,2.66156-.55529,5.10266-.47223,6.7796l.01184.01856-1.28906.76562a2.49412,2.49412,0,0,0-1.58887-1.14551,2.41317,2.41317,0,0,0-1.93066.4336c-.56836.4414-.89844,1.60937-.98242,3.47168a19.7019,19.7019,0,0,0,1.8457,8.86816c.76953,1.89942,1.21778,2.42285,1.82324,2.76856a3.60018,3.60018,0,0,0,2.12885.39782q-.06829-.84658-.10443-1.70056l1.498-.0625A40.24937,40.24937,0,0,0,28.92676,72.2958a31.68967,31.68967,0,0,0,4.48144,8.49414,28.69241,28.69241,0,0,0,5.11328,5.23925,22.90955,22.90955,0,0,0,6.24317,3.80567,14.88146,14.88146,0,0,0,5.21875,1.165,15.18238,15.18238,0,0,0,5.25683-1.1416,22.74191,22.74191,0,0,0,6.16016-3.66016l.084-.06543a28.40218,28.40218,0,0,0,5.1123-5.12891,30.80977,30.80977,0,0,0,4.47852-8.31054,38.65255,38.65255,0,0,0,2.44335-12.06934l1.498.06445c-.01471.34705-.04089.69165-.06409,1.03687a3.57571,3.57571,0,0,0,2.08851-.40112c.60546-.34571,1.05371-.86914,1.82324-2.76856A19.70044,19.70044,0,0,0,80.71,49.68837ZM23.76172,52.95009l-1.19336-.9082a3.57221,3.57221,0,0,0,.4375,4.81055l1.00976-1.10938a2.14078,2.14078,0,0,1-.67187-1.36816A2.10959,2.10959,0,0,1,23.76172,52.95009Zm52.47656,0a2.10959,2.10959,0,0,1,.418,1.42481,2.14078,2.14078,0,0,1-.67187,1.36816l1.00976,1.10938a3.57221,3.57221,0,0,0,.4375-4.81055ZM50.35156,80.3915H50.335a20.59147,20.59147,0,0,0-2.63184.17773c-.71582.08985-1.43164.21192-2.12792.36524l.32031,1.46484c.65332-.14258,1.32324-.25781,1.99316-.3418a18.95306,18.95306,0,0,1,2.44824-.166c1.10645.03125,2.01661.10742,2.48536.166.667.083,1.33691.19825,1.99121.3418l.32226-1.46484c-.69922-.15332-1.415-.27637-2.12793-.36524A20.38089,20.38089,0,0,0,50.35156,80.3915Zm1.68555-8.12793a5.27559,5.27559,0,0,0-.90918.47754.97763.97763,0,0,1-1.40332,0,5.22531,5.22531,0,0,0-.9082-.47754,6.117,6.117,0,0,0-3.68457-.14649l.3457,1.459a4.64423,4.64423,0,0,1,2.79.084,3.80232,3.80232,0,0,1,.66113.35157,2.83834,2.83834,0,0,0,1.48047.52929l.01758-.32715.01758.32715h.00488a2.84288,2.84288,0,0,0,1.47461-.52832,3.78373,3.78373,0,0,1,.66211-.35254,4.64344,4.64344,0,0,1,2.79-.084l.3457-1.459A6.09451,6.09451,0,0,0,52.03711,72.26357Zm1.22461-11.90625a3.83975,3.83975,0,0,0-.9707.68848,2.14976,2.14976,0,0,1-.85743.54785,3.10306,3.10306,0,0,1-.5.11718,2.42154,2.42154,0,0,1-.49707.02735,4.20934,4.20934,0,0,1-1.042-.15137,1.89511,1.89511,0,0,1-.82715-.52637,3.79376,3.79376,0,0,0-.97656-.70214,4.03817,4.03817,0,0,0-2.665-.21l.32227,1.46485a2.602,2.602,0,0,1,1.69433.09765,2.37194,2.37194,0,0,1,.60742.45215,3.3413,3.3413,0,0,0,1.41993.86231,5.64223,5.64223,0,0,0,1.43945.21289c.03418.001.06641.001.09863.001a4.69529,4.69529,0,0,0,.626-.041,4.88347,4.88347,0,0,0,.77246-.18066,3.61186,3.61186,0,0,0,1.39063-.8584,2.46714,2.46714,0,0,1,.6123-.44922,2.34231,2.34231,0,0,1,1.67773-.10059l.35352-1.457A3.75463,3.75463,0,0,0,53.26172,60.35732Z"
  ></path>
</svg>
