<svg xmlns="http://www.w3.org/2000/svg" width="192" height="192">
  <g fill="none" stroke="#000" stroke-width="16">
    <path d="M96 48c64-64 128 0 0 128C-32 48 32-16 96 48z" />
    <path
      d="M126.184 142.822C123.298 111.925 115.776 67.776 96 48c-19.776 19.776-27.298 63.925-30.184 94.822M34.472 96h123.056"
    />
  </g>
</svg>
