<svg
  xmlns="http://www.w3.org/2000/svg"
  xmlns:xlink="http://www.w3.org/1999/xlink"
  version="1.1"
  x="0px"
  y="0px"
  viewBox="0 0 90 112.5"
  style="enable-background: new 0 0 90 90"
  xml:space="preserve"
>
  <g>
    <path
      d="M51.3,64.8l-4.7-2.1c-0.2-0.1-0.5-0.1-0.7,0L45.4,63c-0.2,0.1-0.5,0.1-0.7,0l-0.5-0.2c-0.2-0.1-0.5-0.1-0.7,0l-4.7,2.1   c-0.3,0.2-0.6,0.5-0.6,0.9c0,0.5,0.4,1,1,1h0.7c0.5,0,0.9,0.3,1.1,0.8c0.7,1.6,2.2,2.7,4.1,2.7c1.8,0,3.4-1.1,4.1-2.7   c0.2-0.5,0.6-0.8,1.1-0.8h0.7c0.5,0,1-0.4,1-1v0C51.9,65.3,51.7,65,51.3,64.8z"
    />
  </g>
  <path
    d="M70.4,44.8c0-1.3-0.5-2.6-1.3-3.5c-0.4-0.5-0.7-1.2-0.6-1.8c0-0.1,0-0.1,0-0.2c0-1.4-0.5-2.6-1.3-3.6  c-0.1-0.1-0.2-0.2-0.3-0.3c-0.5-0.5-0.9-1.3-0.9-2c0-0.3-0.1-0.5-0.1-0.7c-0.6-1.9-2.2-3.4-4.3-3.7c-0.4,0-0.7-0.3-0.9-0.6  c-0.1-0.1-0.2-0.2-0.2-0.4c-0.2-0.3-0.3-0.7-0.3-1.1c0-0.1,0-0.1,0-0.2c0-1.3-0.6-2.4-1.5-3.2c-0.3-0.2-0.4-0.5-0.4-0.8l0,0  c0-1.7-1.1-3.1-2.6-3.6c-0.6-0.2-1.2-0.7-1.6-1.3c-0.7-1.1-2-1.9-3.4-1.9c-0.1,0-0.2,0-0.2,0c-0.7,0-1.4-0.3-1.7-0.8  c-0.8-1.2-2.2-1.9-3.7-1.9c-1.5,0-2.9,0.8-3.7,1.9c-0.4,0.6-1.1,0.9-1.7,0.8c-0.1,0-0.2,0-0.2,0c-1.4,0-2.7,0.8-3.4,1.9  c-0.4,0.6-0.9,1-1.6,1.3c-1.5,0.5-2.6,2-2.6,3.6c0,0.1,0,0.2,0,0.3c0,0.4-0.1,0.7-0.4,0.9c-0.9,0.8-1.5,1.9-1.5,3.2  c0,0.1,0,0.1,0,0.2c0,0.4-0.1,0.7-0.3,1l0,0c-0.2,0.3-0.5,0.5-0.9,0.5c-0.3,0-0.6,0.1-0.8,0.1c-1.7,0.4-3.1,1.7-3.6,3.3  c-0.1,0.2-0.1,0.5-0.2,0.9c-0.1,0.8-0.4,1.4-0.9,2c-0.1,0.1-0.3,0.3-0.4,0.5c-0.7,1-1.2,2.2-1.2,3.5c0,0.1,0,0.1,0,0.2  c0,0.7-0.2,1.3-0.6,1.8c-0.8,1-1.3,2.2-1.3,3.5c0,1.4,0.6,2.8,1.5,3.8c0.2,0.3,0.3,0.6,0.3,1c0,0.2-0.1,0.5-0.1,0.8  c0,1.8,0.9,3.4,2.3,4.2c0.5,0.3,0.7,0.8,0.6,1.4c0,0.2,0,0.3,0,0.5c0,0.8,0.2,1.6,0.7,2.3c0.3,0.5,0.3,1.1,0,1.6l-2,3.3  c-0.6,1.1-0.7,2.3-0.2,3.5c0.5,1,1.4,1.8,2.5,2c0.3,0.1,0.6,0.1,0.9,0.1c0.8,0,1.6-0.3,2.3-0.8h0c0.1-0.1,0.2-0.2,0.3-0.3  c0.2-0.2,0.6-0.2,0.8,0.1c0.5,0.8,1.2,1.5,1.9,2.2l5,4.6c1.4,1.3,3.3,2,5.2,2h6.6c1.9,0,3.8-0.7,5.2-2l5-4.6  c0.7-0.7,1.4-1.4,1.9-2.2c0.2-0.3,0.6-0.3,0.8-0.1c0.1,0.1,0.2,0.2,0.3,0.3h0c0.7,0.5,1.5,0.8,2.3,0.8c0.3,0,0.6,0,0.9-0.1  c1.1-0.3,2.1-1,2.5-2.1c0.5-1.1,0.4-2.4-0.3-3.5l-2-3.3c-0.3-0.5-0.3-1.1,0-1.6c0.4-0.6,0.6-1.4,0.6-2.2c0-0.1,0-0.3,0-0.4  c-0.1-0.5,0.2-1.1,0.7-1.4c1.5-0.9,2.5-2.5,2.5-4.3c0-0.3,0-0.5-0.1-0.8c-0.1-0.3,0.1-0.7,0.3-1C69.8,47.5,70.4,46.2,70.4,44.8z   M64.1,63.3c-0.1,0.2-0.3,0.4-0.6,0.5c-0.3,0.1-0.5,0-0.7-0.2c-0.2-0.2-0.3-0.4-0.3-0.7l0.2-2.1c0-0.1,0.2-0.2,0.2-0.1l1.1,1.8  C64.2,62.8,64.2,63.1,64.1,63.3z M54.3,43c0.9,0,1.7,0.2,2.4,0.5c0.2,0.1,0.1,0.4-0.1,0.3c-0.5-0.1-1.1-0.2-1.7-0.2  c-4.2,0-7.7,3.5-7.7,7.8V54c0,0.8,0.2,1.5,0.7,2.2l0,0c0.1,0.1,0.1,0.3-0.1,0.4l-2.5,1.8c-0.2,0.2-0.6,0.2-0.8,0l-2.5-1.8  c-0.1-0.1-0.2-0.3-0.1-0.4l0.1-0.1c0.4-0.6,0.7-1.4,0.7-2.1v-2.6c0-4.2-3.4-7.8-7.7-7.8c-0.6,0-1.1,0.1-1.7,0.2  c-0.2,0-0.3-0.2-0.1-0.3c0.7-0.3,1.5-0.5,2.4-0.5H39c0.6,0,1-0.5,1-1v0c0-0.6-0.5-1-1-1h-3.2c-1.1,0-2.1,0.2-3.1,0.6  c-0.1,0.1-0.2-0.1-0.2-0.2c0.1-0.3,0.2-0.5,0.3-0.8c0.1-0.3,0.3-0.5,0.6-0.6c1.3-0.4,2.3-1.3,2.9-2.4c0.2-0.5,0.8-0.8,1.4-0.7  c0.2,0,0.4,0,0.6,0c0.8,0,1.6-0.2,2.3-0.6c0.4-0.2,0.8-0.2,1.2,0.1c0.9,0.8,2.1,1.3,3.5,1.3c1.3,0,2.5-0.5,3.5-1.3  c0.3-0.3,0.8-0.3,1.2-0.1c0.7,0.4,1.4,0.6,2.3,0.6c0.2,0,0.4,0,0.6,0c0.6-0.1,1.1,0.2,1.4,0.7c0.5,1.1,1.5,2,2.7,2.4  c0.4,0.1,0.7,0.4,0.8,0.8c0.1,0.2,0.1,0.5,0.2,0.7c0.1,0.1-0.1,0.2-0.2,0.2c-0.9-0.4-2-0.6-3.1-0.6H51c-0.6,0-1,0.5-1,1v0  c0,0.6,0.5,1,1,1H54.3z M27.2,63.6L27.2,63.6c-0.2,0.2-0.5,0.2-0.7,0.2c-0.3-0.1-0.5-0.2-0.6-0.5c-0.1-0.2-0.1-0.5,0.1-0.7l1.1-1.8  c0.1-0.1,0.2-0.1,0.2,0.1l0.1,1.5C27.5,62.7,27.4,63.3,27.2,63.6z M27.2,66.6c-0.5,0.4-1.3,0.5-1.9,0.1c-0.1,0-0.1-0.1-0.2-0.1  c-0.4-0.4-0.6-0.9-0.6-1.4c0-0.1,0.2-0.2,0.3-0.1c0.4,0.3,0.8,0.6,1.3,0.7c0.2,0.1,0.4,0.1,0.7,0.1c0.3,0,0.5,0,0.8-0.1  c0.1,0,0.3,0.1,0.2,0.2C27.6,66.2,27.4,66.5,27.2,66.6z M59.8,58.8c-1.7,1.1-3.9,1.1-5.6-0.1c-0.4-0.3-1-0.2-1.3,0.1l0,0  c-0.4,0.4-0.4,1.2,0.1,1.5c1.2,0.9,2.6,1.3,4.1,1.3c0.9,0,1.8-0.2,2.6-0.5c0.4-0.2,0.8,0.2,0.7,0.6L60.3,63  c-0.4,2.2-1.5,4.2-3.2,5.7l-5,4.6c-1,1-2.4,1.5-3.8,1.5h-6.6c-1.4,0-2.8-0.5-3.8-1.5l-5-4.6c-1.7-1.5-2.8-3.5-3.2-5.7l-0.1-1.3  c0-0.4,0.4-0.7,0.8-0.6c0.8,0.3,1.7,0.5,2.6,0.5c1.5,0,2.9-0.4,4-1.3c0.5-0.4,0.6-1.1,0.1-1.6l0,0c-0.4-0.4-0.9-0.4-1.3-0.1  c-0.8,0.6-1.8,0.9-2.9,0.9c-1,0-1.9-0.3-2.7-0.8c-0.5-0.3-0.8-0.9-0.8-1.5v-6.2c0.1-2.3,1.5-4.2,3.4-5c0.1-0.1,0.3,0.1,0.3,0.2  c-0.1,0.2-0.1,0.5-0.1,0.7c0.1,1.2,1.1,2.1,2.2,2.1c1.2,0,2.2-1,2.2-2.2c0-0.1,0-0.3,0-0.4c0-0.2,0.2-0.3,0.3-0.2  c1.7,1,2.9,2.8,2.9,4.9v2.8c0,0.3-0.1,0.6-0.2,0.8l-0.5,0.8l0,0c-0.5,0.7-0.3,1.7,0.4,2.2l3.1,2.2c0.5,0.3,1,0.5,1.6,0.5  c0.6,0,1.1-0.2,1.6-0.5l3.1-2.2c0.4-0.3,0.6-0.7,0.7-1.1c0.1-0.4-0.1-0.9-0.3-1.2l-0.5-0.6c-0.2-0.2-0.3-0.5-0.3-0.8v-2.8  c0-2.1,1.2-4,2.9-4.9c0.2-0.1,0.3,0.1,0.3,0.2c0,0.2,0,0.5,0,0.7c0.2,1,1,1.8,2,1.8c1.3,0.1,2.4-0.9,2.4-2.2c0-0.2,0-0.4-0.1-0.6  c0-0.1,0.1-0.3,0.3-0.2c2,0.8,3.4,2.8,3.4,5v6.2C60.5,58,60.3,58.5,59.8,58.8z M65.5,65.2c0,0.5-0.2,1-0.6,1.4  c-0.1,0-0.1,0.1-0.2,0.1c-0.6,0.4-1.4,0.3-1.9-0.1c-0.2-0.2-0.4-0.4-0.5-0.7c-0.1-0.1,0.1-0.3,0.2-0.2c0.3,0.1,0.5,0.1,0.8,0.1  c0.2,0,0.4,0,0.7-0.1c0.5-0.1,0.9-0.3,1.3-0.7C65.3,65,65.5,65.1,65.5,65.2z"
  />
</svg>
