<?xml version="1.0" encoding="UTF-8"?>
<!-- Generator: Adobe Illustrator 16.0.0, SVG Export Plug-In . SVG Version: 6.00 Build 0)  -->
<!DOCTYPE svg PUBLIC "-//W3C//DTD SVG 1.1//EN" "http://www.w3.org/Graphics/SVG/1.1/DTD/svg11.dtd">
<svg
  version="1.1"
  id="mahatma_ghandi"
  xmlns="http://www.w3.org/2000/svg"
  xmlns:xlink="http://www.w3.org/1999/xlink"
  x="0px"
  y="0px"
  width="174px"
  height="189.583px"
  viewBox="0 0 174 189.583"
  enable-background="new 0 0 174 189.583"
  xml:space="preserve"
>
  <g id="parts_group">
    <path
      fill-rule="evenodd"
      clip-rule="evenodd"
      stroke="#000000"
      stroke-width="0"
      stroke-linecap="square"
      stroke-miterlimit="10"
      d="   M168,110.692v0.83c-6.59-2.511-13.67-5.5-20.26-8.04c-4.34-1.681-16.811-2.671-19.311-0.28c-2.5,2.38-1.71,10.99-3.16,15.35   c-2.689,8.09-7.789,13.61-14.189,19.061c-6.01,5.1-12.39,10-19.11,14.14c-5.51,3.41-15.56,11.31-22.51,10.05   c-6.79-1.22-3.63-10.6-11.78-9.93c-5.8,0.49-17.05,1.729-20.76-4.03c-11.47,9.44-17,22.79-23.31,36.07h-1.86l0.15-0.16l0.31-0.76   l0.46-0.92l0.61-1.23l0.77-1.689l0.92-1.69l2-3.99l4.3-8.439l1.99-3.53l0.77-1.54l0.77-1.229l1.99-2.761l2-2.46l1.99-1.989   l1.84-1.54l1.54-1.221l1.38-0.92l0.77-0.47l0.3-0.15v-0.149l-0.15-0.311l-0.31-1.38l-0.3-1.84l0.15-2l0.15-1.53L36,138.782   l-0.15-1.07l-0.46-0.93l-1.38-1.221l-1.85-0.619l-0.92-0.301l-0.46-0.77l-0.46-1.84l0.16-1.69l0.15-0.62v-0.149l-3.38-1.07v-0.16   l-0.15-0.46v-3.22l0.31-1.69l0.3-0.31l0.46-0.76l0.46-0.931l0.16-0.149l-0.16-0.15l-0.61-0.16l-0.92-0.149l-2.61-1.23l-0.46-0.609   l-0.46-1.07l-0.46-2.62l-0.16-2.3v-1.07l-0.15-0.31l-0.15-0.771l-0.46-1.22l-0.46-1.39l-0.93-3.061l-0.3-1.39l-0.31-1.07   l-0.15-0.77l-0.16-0.46l-0.61-0.311l-0.92,0.16l-1.23,0.15l-0.46-0.15l-0.15-0.311l0.15-1.069l0.46-1.23v-0.46l-0.31-0.31   l-0.46-0.311l-0.46-0.609l-0.3-0.92l-0.31-1.23l-0.31-2.61l0.16-2.76l-1.85-5.37l-1.22-1.69l-0.93-1.38l-0.76-1.23l-0.46-1.08   l-0.46-2.3v-5.83l-0.16-2.76l-0.15-6.14l-0.31-6.6l-0.15-6.14l0.31-4.76l0.92-4.76l1.84-4.91l1.07-2.46l1.54-2.45l1.53-2.31l2-2.45   l2.15-2.3l2.45-2.31l2.77-2.15l2.91-2.14l3.38-2l3.68-1.99l3.99-1.69l4.15-1.38l4.3-1.23l4.45-0.92l4.6-0.62l4.61-0.46l4.45-0.15   l4.6,0.15l4.3,0.16l4.301,0.61l4.14,0.61l3.689,0.92l3.53,1.08l3.22,1.23l2.761,1.38l2.46,1.53l4.45,3.84l3.84,4.3l3.68,4.76   l3.07,5.52l2.92,5.84l2.609,6.44l2.301,6.91l2.149,7.52l1.53,0.61l1.38,0.77l2.31,2.15l1.69,2.3l1.07,2.92l0.609,2.92v3.22   l-0.46,3.22l-0.76,3.07l-0.92,2.76l-0.93,2.61l-0.92,2.15l-0.761,2l-1.229,3.53l-1.08,2.76l0.16,2.15l0.46,2.3l0.46,1.69   l0.149,0.609v0.16h0.15l0.31-0.16l1.23-0.149l2-0.311l2.45-0.3l2.76-0.16h3.07l3.069,0.16l2.92,0.61l3.221,0.92l3.689,1.229   l7.83,3.22l3.37,1.391l2.771,1.22l1.069,0.46l0.92,0.46l0.46,0.16L168,110.692z"
    />
    <path
      fill-rule="evenodd"
      clip-rule="evenodd"
      fill="#FFFFFF"
      d="M168.64,111.772v72.779H13.31c0.1-0.21,0.2-0.43,0.3-0.64H168   v-72.39C168.22,111.612,168.43,111.692,168.64,111.772z"
    />
    <polyline
      fill="none"
      stroke="#000000"
      stroke-width="0"
      stroke-linecap="square"
      stroke-miterlimit="10"
      points="123.799,57.124    125.334,57.738 126.715,58.505 129.171,60.654 130.706,62.957 131.934,65.873 132.395,68.789 132.395,72.012 131.934,75.236    131.166,78.306 130.246,81.222 129.324,83.678 128.403,85.98 127.636,87.976 126.408,91.353 125.334,94.116 125.947,98.567    126.408,100.409 126.563,100.869 126.563,101.022  "
    />

    <polygon
      fill-rule="evenodd"
      clip-rule="evenodd"
      fill="#FFFFFF"
      stroke="#000000"
      stroke-width="0"
      stroke-linecap="square"
      stroke-miterlimit="10"
      points="   120.115,56.356 119.654,56.203 118.58,56.049 116.738,55.743 114.743,55.589 109.984,55.282 107.836,55.435 105.841,55.743    104.152,56.663 102.924,58.044 101.695,60.04 100.928,62.189 100.314,64.338 99.854,66.487 99.547,68.329 99.547,69.71    99.854,70.478 100.622,70.938 101.85,71.245 103.23,71.245 105.993,71.398 107.222,71.706 108.143,72.166 108.757,72.933    109.217,73.701 109.984,75.236 110.599,76.157 111.212,76.31 111.826,76.157 113.055,75.85 113.822,76.31 114.129,77.231    113.976,78.766 113.822,79.533 114.129,79.841 115.357,79.533 116.277,79.227 117.045,78.919 117.813,78.766 118.427,78.919    118.733,79.38 118.58,79.841 117.813,81.068 116.585,82.604 116.124,83.678 115.817,84.752 115.817,85.827 115.971,86.594    116.277,87.055 116.738,87.362 117.353,87.362 117.813,87.055 118.273,86.287 118.58,85.366 118.887,84.445 119.501,83.832    121.036,82.757 121.804,82.143 122.878,81.375 123.799,80.147 124.72,78.613 125.334,77.231 125.641,76.003 125.795,74.929    125.641,73.854 125.027,72.166 123.952,70.938 122.571,69.864 121.496,69.25 120.729,68.636 120.729,68.175 120.883,67.715    120.883,66.947 120.576,65.412 120.576,64.645 120.729,64.031 121.036,63.57 121.957,63.417 123.031,63.724 124.26,64.645    125.334,66.18 126.255,67.868 127.943,72.166 128.864,76.464 129.479,74.622 129.785,72.78 129.785,69.557 129.171,66.947    127.943,64.798 126.408,62.957 124.566,61.729 122.725,60.961 120.883,60.5 119.194,60.5 117.813,60.961 116.431,61.729    115.357,62.803 113.361,64.952 112.594,66.026 111.826,66.793 111.212,67.561 110.905,68.482 110.905,70.17 111.212,71.552    111.366,72.012 111.366,72.166 111.212,72.012 110.752,71.859 109.678,70.784 108.604,69.096 108.449,68.021 108.604,66.793    109.371,64.492 110.905,62.343 112.747,60.347 115.203,58.812 117.813,57.891 119.194,57.584 122.264,57.891 123.952,58.505    125.487,59.272 127.176,60.5 128.558,61.882 129.631,63.57 130.553,65.259 131.014,67.101 131.32,68.943 131.32,70.938    130.859,74.929 129.938,78.919 128.711,82.45 127.482,85.52 127.022,86.748 126.563,87.822 125.027,91.66 123.492,95.19    122.417,96.725 120.883,97.953 119.194,98.874 116.892,99.488 114.743,99.488 113.208,98.874 112.134,97.799 111.366,96.571    110.752,95.19 110.599,93.808 110.444,92.734 110.444,91.813 110.444,90.892 110.599,89.664 111.059,86.748 111.059,83.678    110.905,82.45 110.444,81.683 109.984,81.068 109.371,80.608 108.143,79.841 107.222,79.687 106.301,79.841 105.226,80.455    103.845,81.529 103.23,82.143 102.617,82.45 101.85,82.757 101.235,82.45 100.774,81.529 100.468,80.455 100.007,79.073    99.239,77.692 98.166,76.464 97.552,76.003 96.938,75.696 96.017,75.696 95.249,76.157 94.636,77.231 93.561,80.147 92.333,83.524    92.025,84.906 92.18,86.133 92.793,87.362 93.561,88.59 95.249,91.199 95.863,92.734 96.017,94.576 95.863,96.417 95.863,98.106    96.017,99.333 96.17,100.255 96.477,100.715 96.784,100.715 97.244,100.255 97.858,99.333 98.626,97.953 99.547,96.11    101.695,92.273 102.771,90.431 103.538,88.896 104.152,87.822 104.306,87.515 104.306,87.668 104.459,87.976 104.766,89.51    105.226,91.66 105.841,94.269 107.222,100.255 107.989,103.018 108.757,105.474 109.217,107.469 109.371,109.311 109.217,110.845    108.604,112.227 107.068,114.53 105.073,116.372 104.459,116.832 103.691,117.6 101.389,119.442 98.779,121.59 95.709,124.045    92.793,126.656 90.184,128.958 88.035,130.954 87.268,131.875 86.807,132.489 85.886,133.563 84.504,134.484 81.588,135.711    80.36,136.018 79.593,136.326 79.133,136.479 79.593,136.633 81.741,136.633 84.658,136.326 88.188,135.711 91.565,134.944    93.254,134.176 95.249,132.949 97.244,131.414 99.239,129.725 103.385,126.042 107.528,122.665 109.217,120.976 110.752,118.981    111.826,116.678 112.747,114.376 113.515,112.227 113.976,110.539 114.129,109.311 114.282,109.004 114.282,108.85 114.436,108.85    115.05,109.004 115.817,109.004 116.738,108.85 117.813,108.39 118.887,107.623 119.809,106.547 120.729,105.013 121.649,103.325    122.725,102.25 123.799,101.79 124.105,101.943 124.412,102.25 124.72,103.018 125.027,104.092 125.18,105.781 125.487,107.929    125.487,110.232 125.334,112.688 125.027,115.451 124.412,118.213 123.799,119.749 122.878,121.284 121.649,123.125    120.269,124.967 116.738,128.804 112.747,132.642 108.449,136.326 104.152,139.549 102.156,140.93 100.314,142.159 98.626,143.079    97.091,143.847 93.868,144.921 90.337,145.996 82.663,147.53 79.285,147.991 76.369,148.298 75.142,148.452 74.374,148.452    73.76,148.298 73.453,148.145 73.453,147.684 73.606,146.917 74.834,144.921 76.522,143.079 78.365,141.698 79.9,140.624    80.975,139.549 81.128,139.088 80.975,138.781 80.514,138.627 79.746,138.627 78.518,138.935 77.137,139.242 74.066,140.009    72.839,140.47 71.918,140.777 71.304,141.084 71.458,141.237 71.918,141.391 72.071,141.698 72.071,142.159 71.918,142.772    71.611,143.386 70.997,144.154 69.462,145.996 68.848,146.456 67.927,146.917 66.699,147.376 65.318,147.684 61.941,148.298    58.411,148.605 54.727,148.912 51.503,149.065 48.894,149.219 47.359,149.219 46.285,149.065 44.903,148.758 43.368,148.298    41.987,147.376 40.605,146.302 39.531,144.767 39.071,142.926 39.224,140.777 40.145,138.627 41.526,137.093 43.368,135.865    45.517,134.944 47.513,134.484 49.508,134.176 51.043,134.023 52.271,134.023 52.885,134.023 53.192,133.87 53.192,133.41    52.885,133.102 51.811,132.182 50.583,131.875 49.354,131.567 48.126,131.107 47.206,130.647 46.745,130.339 46.592,130.493    45.978,130.647 44.136,131.414 41.987,132.334 40.145,132.949 38.303,133.41 36.001,133.563 33.852,133.563 32.931,133.41    32.317,133.102 31.856,132.642 31.703,132.028 32.01,130.186 32.931,128.498 33.545,127.884 34.159,127.577 37.229,126.809    38.917,126.349 40.298,126.196 41.833,125.888 43.522,125.121 45.21,124.506 46.898,124.045 48.434,123.739 49.969,123.279    51.197,122.665 52.271,122.05 53.499,121.744 54.88,121.898 56.108,122.205 56.875,122.358 57.336,122.818 57.49,123.432    57.643,124.2 57.643,124.506 57.95,124.506 58.718,124.353 59.639,124.045 60.406,123.125 60.406,122.511 59.946,121.898    58.104,120.669 55.801,119.594 54.88,119.288 54.113,119.288 52.885,119.288 51.811,118.981 50.89,118.674 50.583,118.828    50.583,119.134 50.89,119.902 51.35,120.363 51.964,120.669 52.117,120.823 51.964,120.823 51.503,121.129 49.969,121.744    47.973,122.205 46.438,122.511 45.671,122.358 44.75,122.205 43.829,121.744 42.754,121.437 41.833,121.129 41.066,120.976    40.605,120.976 40.605,121.284 40.759,122.205 40.759,123.125 40.452,123.893 40.298,124.2 40.145,123.739 39.685,122.972    39.071,122.358 38.917,122.358 38.61,122.665 38.457,123.739 38.457,124.661 37.996,125.121 37.689,125.274 36.921,125.121    36.154,124.814 35.694,124.353 35.233,123.125 35.233,122.205 35.387,122.05 35.847,122.511 36.768,122.818 37.689,122.972    37.843,122.972 37.536,122.665 37.536,121.898 37.689,121.129 38.457,120.823 39.224,120.669 39.531,120.209 39.377,119.749    38.764,119.594 37.075,119.134 36.308,118.828 36.001,118.52 35.847,118.367 35.08,118.674 34.005,119.134 32.317,119.749    30.168,120.055 27.866,119.749 26.638,119.288 25.717,118.52 24.949,117.6 24.335,116.525 24.028,115.451 23.875,114.223    23.721,112.688 23.721,106.855 24.028,102.711 24.335,98.414 24.642,94.729 24.796,93.194 24.796,91.813 24.949,90.892    24.949,90.125 24.949,86.287 24.796,85.06 24.796,84.599 24.642,84.445 24.335,83.832 23.107,82.143 21.879,80.147 21.419,79.38    21.112,78.766 20.958,77.999 21.112,77.078 21.419,74.929 21.572,73.854 21.572,73.087 21.419,72.626 20.958,72.626 20.344,74.468    19.423,76.31 18.656,77.999 18.195,79.227 18.042,79.687 17.582,79.841 16.507,79.687 15.433,79.38 15.125,79.227 14.972,79.227    13.744,77.692 12.823,76.617 12.056,76.003 11.595,75.389 11.289,74.775 11.135,74.008 10.981,72.78 10.981,70.938 10.981,68.636    10.674,66.026 10.214,60.5 9.753,54.361 9.446,48.528 9.753,43.923 10.674,39.165 12.363,34.407 13.591,32.104 14.972,29.649    16.507,27.346 18.502,25.044 20.651,22.742 22.954,20.593 25.717,18.444 28.633,16.295 32.01,14.299 35.54,12.458 39.377,10.769    43.522,9.388 47.82,8.16 52.271,7.239 56.722,6.625 61.174,6.318 65.778,6.165 70.229,6.165 74.527,6.471 78.825,6.932    82.816,7.546 86.5,8.467 90.03,9.388 93.254,10.616 96.017,11.997 98.319,13.532 102.617,17.216 106.607,21.514 109.984,26.272    113.208,31.644 116.124,37.477 118.58,43.77 120.883,50.523 123.031,57.738 120.115,56.356  "
    />

    <polygon
      fill-rule="evenodd"
      clip-rule="evenodd"
      stroke="#000000"
      stroke-width="0"
      stroke-linecap="square"
      stroke-miterlimit="10"
      points="   34.773,67.715 35.387,68.943 36.001,69.403 36.768,69.403 37.382,68.943 37.689,68.789 37.996,68.789 38.764,69.25 40.145,69.864    41.987,69.864 44.443,69.71 47.052,69.71 49.201,69.864 50.122,70.017 50.736,70.017 51.503,70.017 52.424,70.17 54.88,70.324    57.183,70.784 58.104,70.938 58.718,71.245 59.025,72.012 58.718,72.78 57.95,73.394 56.875,73.394 55.341,73.087 53.652,72.473    52.117,72.012 50.736,72.012 50.429,72.166 50.275,72.319 50.429,72.78 50.89,73.24 51.043,73.394 50.736,73.547 49.815,73.701    47.973,74.622 46.898,74.008 45.671,73.394 42.601,72.626 41.22,72.319 40.145,72.166 39.377,72.012 39.071,72.012 38.917,71.859    38.764,71.552 37.843,71.092 36.921,70.784 35.847,70.324 34.926,69.403 34.466,68.482 34.773,67.715  "
    />

    <polygon
      fill-rule="evenodd"
      clip-rule="evenodd"
      stroke="#000000"
      stroke-width="0"
      stroke-linecap="square"
      stroke-miterlimit="10"
      points="   36.615,72.166 34.466,73.24 33.084,74.775 32.01,76.771 31.396,79.073 31.089,81.375 31.243,83.524 31.703,85.366 32.317,86.901    31.703,86.287 31.089,85.52 30.321,83.678 30.015,81.989 29.861,81.529 29.861,81.375 29.554,81.375 28.633,81.068 27.405,80.455    26.484,79.38 25.563,77.999 24.489,76.31 23.875,74.622 23.721,74.161 23.721,73.701 23.875,73.547 24.182,73.701 24.949,74.315    26.024,74.775 26.638,74.775 27.405,74.468 28.633,73.394 29.708,72.319 30.782,71.706 31.549,71.552 32.317,71.552 36.615,72.166     "
    />

    <polygon
      fill-rule="evenodd"
      clip-rule="evenodd"
      stroke="#000000"
      stroke-width="0"
      stroke-linecap="square"
      stroke-miterlimit="10"
      points="   52.271,93.962 53.192,92.12 53.652,90.278 53.806,88.436 53.806,86.748 53.499,85.06 53.039,83.371 51.35,80.301 49.047,77.538    46.438,75.389 43.829,74.008 42.447,73.547 41.066,73.394 38.457,73.394 36.308,74.008 34.773,75.083 33.698,76.31 33.084,77.845    32.624,79.227 32.624,80.455 32.777,81.529 33.238,82.143 33.698,82.45 35.08,82.296 36.308,81.836 37.229,81.836 37.843,82.45    38.457,83.217 39.224,83.985 39.838,84.445 40.145,84.599 40.145,84.445 39.992,83.678 39.685,82.757 39.838,81.989 40.298,80.608    40.298,78.613 40.452,77.078 40.759,76.617 41.066,76.464 41.373,76.924 41.68,77.999 41.68,79.073 41.833,79.994 41.833,80.608    41.68,81.529 41.373,82.143 41.373,82.604 41.68,82.757 42.294,82.604 42.908,82.143 43.215,81.222 43.675,80.301 43.982,79.533    44.289,79.227 44.443,79.073 44.443,79.38 44.289,80.147 44.289,81.529 43.982,82.143 43.215,83.064 42.294,83.832 41.833,84.445    41.833,84.752 41.987,84.752 42.908,84.445 43.829,83.985 44.136,83.832 44.289,83.832 44.443,84.292 44.903,85.213 45.671,86.133    46.898,86.901 45.978,89.05 45.824,90.892 45.978,92.12 46.131,92.427 46.438,92.581 46.745,92.427 47.666,91.506 48.28,90.738    49.662,89.357 51.35,88.283 51.964,87.822 52.271,87.515 52.271,87.055 51.197,86.594 50.89,86.441 50.89,86.133 51.043,85.827    50.89,85.673 50.429,85.673 49.969,85.827 49.662,85.673 49.815,85.06 50.275,84.445 50.89,83.985 51.503,83.832 51.657,83.832    51.811,83.985 52.117,84.599 52.424,85.366 52.731,86.594 52.885,87.976 52.885,89.664 52.424,91.506 51.657,93.655 52.271,93.962     "
    />

    <polygon
      fill-rule="evenodd"
      clip-rule="evenodd"
      fill="#FFFFFF"
      stroke="#000000"
      stroke-width="0"
      stroke-linecap="square"
      stroke-miterlimit="10"
      points="   49.969,80.761 49.201,79.994 48.126,79.227 46.898,78.919 45.671,78.919 45.21,79.38 45.057,80.301 45.057,81.375 47.052,81.375    48.741,81.222 49.969,80.761  "
    />

    <polygon
      fill-rule="evenodd"
      clip-rule="evenodd"
      stroke="#000000"
      stroke-width="0"
      stroke-linecap="square"
      stroke-miterlimit="10"
      points="   24.335,95.19 24.796,94.116 25.256,93.347 26.484,92.12 28.019,91.66 29.554,91.506 30.936,91.66 32.317,92.12 33.238,92.581    33.698,92.887 34.005,93.041 34.005,92.427 33.852,91.66 33.392,90.892 32.931,90.585 32.01,90.278 30.782,89.971 28.172,89.971    26.791,90.431 25.563,91.353 24.489,92.581 24.335,95.19  "
    />

    <polygon
      fill-rule="evenodd"
      clip-rule="evenodd"
      stroke="#000000"
      stroke-width="0"
      stroke-linecap="square"
      stroke-miterlimit="10"
      points="   35.08,90.892 36.615,92.887 38.303,94.576 40.145,95.803 42.141,96.571 44.136,97.032 46.285,97.032 48.28,96.725 50.429,95.958    51.197,96.11 52.117,96.264 52.271,96.417 51.657,97.032 49.815,98.106 49.354,98.414 49.201,98.874 48.894,100.409    49.201,101.943 49.508,102.557 49.815,103.018 50.429,103.325 51.197,103.786 53.652,105.013 56.108,106.394 58.257,108.083    59.946,110.232 61.02,111.46 62.095,112.841 64.704,115.451 66.393,116.525 68.388,117.447 69.309,117.907 69.77,118.059    69.923,118.367 69.923,118.52 69.002,118.52 67.467,118.213 65.471,117.6 63.476,116.678 61.634,115.604 60.099,114.223    58.871,112.995 57.643,111.92 55.034,110.539 53.959,110.079 52.885,109.772 52.271,109.618 51.811,109.618 51.503,110.079    51.043,110.845 50.275,111.92 49.662,112.38 48.741,112.841 48.126,113.149 47.82,112.995 47.973,112.688 48.28,112.227    49.201,110.845 49.508,109.925 49.662,109.004 49.201,107.008 48.126,105.167 46.592,103.786 45.671,103.325 44.597,103.171    42.754,103.325 41.373,103.786 40.452,104.246 39.992,104.246 39.992,104.092 40.298,103.786 41.526,103.018 42.908,102.404    44.289,102.096 44.75,101.943 44.597,101.33 44.136,100.715 43.522,99.949 41.987,98.414 41.373,97.799 41.22,97.645    40.912,97.493 40.298,97.185 39.377,96.571 38.303,95.958 36.154,93.962 35.233,92.734 34.62,91.506 35.08,90.892  "
    />

    <polygon
      fill-rule="evenodd"
      clip-rule="evenodd"
      stroke="#000000"
      stroke-width="0"
      stroke-linecap="square"
      stroke-miterlimit="10"
      points="   33.545,118.059 32.47,118.213 31.089,118.213 28.172,117.752 26.944,117.447 26.024,116.986 25.563,116.525 25.563,116.065    26.177,115.912 26.944,115.912 28.94,116.678 31.243,117.447 32.317,117.752 33.238,117.752 33.545,118.059  "
    />

    <polygon
      fill-rule="evenodd"
      clip-rule="evenodd"
      stroke="#000000"
      stroke-width="0"
      stroke-linecap="square"
      stroke-miterlimit="10"
      points="   36.154,117.447 36.154,116.986 36.615,116.218 37.996,114.53 39.838,112.995 40.759,112.534 41.526,112.227 43.062,112.38    44.903,112.995 45.517,113.456 45.824,113.762 45.671,114.069 45.057,114.376 43.062,114.684 41.22,114.991 39.377,115.451    38.61,115.757 37.843,116.372 37.229,117.139 36.615,117.447 36.154,117.447  "
    />

    <polygon
      fill-rule="evenodd"
      clip-rule="evenodd"
      stroke="#000000"
      stroke-width="0"
      stroke-linecap="square"
      stroke-miterlimit="10"
      points="   49.969,119.594 49.508,118.367 48.741,117.6 47.82,116.986 47.052,116.832 46.898,117.139 47.206,117.6 47.206,117.907    47.052,118.059 46.745,117.907 45.21,117.139 44.289,116.832 43.522,116.986 41.987,117.139 41.066,117.139 40.145,117.447    39.224,117.907 38.917,118.367 39.071,118.674 39.531,118.674 40.298,118.828 41.066,118.981 41.526,119.288 42.294,119.902    42.754,120.363 43.368,120.669 43.675,120.669 43.675,120.516 43.368,119.902 42.908,119.442 43.062,119.288 43.368,119.134    44.443,119.288 45.517,119.749 46.438,120.209 46.745,120.516 46.745,120.055 46.592,119.749 46.131,119.288 45.978,119.134    46.131,118.981 47.052,118.981 48.434,119.134 49.508,119.442 49.969,119.594  "
    />

    <polygon
      fill-rule="evenodd"
      clip-rule="evenodd"
      stroke="#000000"
      stroke-width="0"
      stroke-linecap="square"
      stroke-miterlimit="10"
      points="   68.542,126.502 68.388,125.888 67.927,125.274 66.546,124.2 65.165,122.972 64.704,122.205 64.397,121.437 64.244,120.823    63.937,120.516 63.629,120.669 63.322,120.976 63.169,121.437 63.169,122.205 63.322,123.125 63.629,124.2 64.397,124.967    65.471,125.427 66.699,125.735 68.234,126.349 68.542,126.502  "
    />
    <polygon
      fill-rule="evenodd"
      clip-rule="evenodd"
      fill="#FFFFFF"
      points="100.468,58.966 100.468,61.115 100.622,61.115    100.928,60.961 102.156,60.808 103.845,60.5 105.993,60.193 107.989,60.04 109.984,60.04 111.673,60.347 112.747,60.961    112.9,60.808 113.361,60.347 113.976,59.887 114.743,59.58 114.436,59.119 113.822,58.812 112.134,58.352 109.678,58.198    104.766,58.505 102.617,58.659 101.082,58.812 100.622,58.966 100.468,58.966  "
    />

    <polygon
      fill-rule="evenodd"
      clip-rule="evenodd"
      stroke="#000000"
      stroke-width="0"
      stroke-linecap="square"
      stroke-miterlimit="10"
      points="   55.955,88.59 56.569,85.827 57.643,83.678 58.871,82.296 59.485,81.989 59.946,81.989 60.099,81.683 59.946,81.529 58.411,80.915    56.569,80.608 56.108,80.455 55.801,80.301 55.955,80.301 56.262,80.147 57.49,79.533 59.332,78.613 61.788,77.538 64.857,76.31    68.234,74.775 75.755,71.552 83.737,68.175 87.728,66.64 91.412,65.259 94.788,64.031 97.705,62.957 100.314,62.189    102.156,61.729 103.538,61.421 104.612,61.268 105.226,61.115 105.687,60.961 105.841,60.808 105.687,60.654 103.691,60.654    102.003,60.808 100.468,60.961 99.087,61.268 98.012,61.575 96.323,62.189 94.021,63.11 91.258,64.184 88.035,65.412    84.504,66.793 76.983,69.864 69.77,72.78 66.393,74.161 63.476,75.389 60.867,76.31 59.025,77.231 57.797,77.692 57.49,77.845    57.336,77.845 57.029,77.692 56.416,77.384 55.341,76.924 53.959,76.464 51.197,75.696 50.122,75.543 49.815,75.389 52.117,78.306    55.955,78.306 56.108,78.459 55.801,78.766 55.188,79.073 54.88,79.687 54.574,80.147 54.266,80.301 53.806,80.455 53.652,80.455    53.806,80.608 53.959,81.068 54.266,81.836 54.727,82.757 55.341,85.06 55.648,87.822 55.955,88.59  "
    />

    <polygon
      fill-rule="evenodd"
      clip-rule="evenodd"
      stroke="#000000"
      stroke-width="0"
      stroke-linecap="square"
      stroke-miterlimit="10"
      points="   91.565,62.189 96.631,60.5 101.695,59.272 103.845,58.659 105.993,58.352 107.682,58.044 109.063,58.044 109.678,58.044    105.38,58.044 102.463,58.352 99.087,58.966 95.556,59.887 91.872,61.268 91.565,62.189  "
    />
    <polygon
      fill-rule="evenodd"
      clip-rule="evenodd"
      fill="#FFFFFF"
      points="12.209,86.748 13.744,87.055 15.433,87.976    16.967,89.357 18.656,91.199 20.038,93.501 21.266,95.958 22.187,98.72 22.8,101.636 23.721,99.794 23.107,96.878 22.187,94.116    21.112,91.506 19.73,89.357 18.195,87.515 16.507,86.133 14.819,85.213 13.284,84.906 12.209,86.748  "
    />

    <polygon
      fill-rule="evenodd"
      clip-rule="evenodd"
      stroke="#000000"
      stroke-width="0"
      stroke-linecap="square"
      stroke-miterlimit="10"
      points="   123.339,90.278 122.264,91.813 121.036,93.041 119.654,94.116 118.427,94.882 117.353,95.343 116.431,95.343 115.971,95.037    115.971,94.269 116.431,93.501 117.045,93.041 118.58,92.581 120.422,92.12 121.344,91.506 122.264,90.585 123.339,90.278  "
    />

    <polygon
      fill-rule="evenodd"
      clip-rule="evenodd"
      fill="#FFFFFF"
      stroke="#000000"
      stroke-width="0"
      stroke-linecap="square"
      stroke-miterlimit="10"
      points="   119.194,70.324 118.427,69.25 117.353,68.329 116.277,67.715 115.357,67.408 114.282,67.408 113.515,67.715 112.9,68.175    112.747,69.096 113.055,71.092 113.822,72.933 114.282,73.701 114.59,74.315 114.743,74.929 114.896,75.389 115.05,75.696    115.357,75.85 116.277,75.696 117.198,75.083 117.659,74.315 117.506,73.547 117.045,72.933 116.124,72.319 114.896,71.552    114.282,71.092 113.976,70.631 113.822,70.017 114.282,69.557 115.05,69.864 115.971,70.324 117.045,70.478 118.273,70.631    119.041,70.784 119.194,70.324  "
    />
    <polygon
      fill-rule="evenodd"
      clip-rule="evenodd"
      points="33.698,127.423 33.238,128.498 33.084,129.265 33.084,129.878    33.545,130.493 34.005,130.8 34.773,130.954 36.615,130.8 39.224,130.186 42.141,129.265 44.903,128.343 45.978,128.037    46.745,127.73 47.052,127.577 47.206,127.423 46.592,127.423 45.364,127.116 44.443,126.502 44.136,126.196 43.829,126.196    43.368,126.656 42.447,127.423 41.22,127.73 40.452,127.73 39.992,127.423 39.224,126.962 38.457,126.656 37.843,126.502    37.075,126.656 33.698,127.423  "
    />

    <polygon
      fill-rule="evenodd"
      clip-rule="evenodd"
      stroke="#000000"
      stroke-width="0"
      stroke-linecap="square"
      stroke-miterlimit="10"
      points="   16.967,109.004 15.739,109.004 14.512,108.698 13.13,108.237 11.749,107.469 10.367,106.241 9.139,104.859 7.912,103.018    6.837,100.869 6.07,98.414 5.609,95.958 5.609,93.655 5.916,91.353 6.376,89.204 7.297,87.515 8.525,85.98 9.907,84.906    11.595,84.292 13.438,84.138 15.279,84.599 17.121,85.366 18.81,86.594 20.344,88.283 21.726,90.125 22.8,92.427 22.647,92.734    21.572,90.585 20.344,88.743 18.963,87.362 17.428,86.133 15.739,85.366 14.051,85.06 12.363,85.06 10.828,85.673 9.446,86.748    8.372,88.129 7.451,89.817 6.99,91.66 6.684,93.808 6.837,95.958 7.144,98.259 7.912,100.562 8.833,102.557 9.753,104.246    10.828,105.474 11.902,106.547 13.898,107.623 16.2,108.237 16.967,109.004  "
    />
  </g>
</svg>
