<?xml version="1.0" encoding="UTF-8" standalone="no"?>
<!-- Created with Inkscape (http://www.inkscape.org/) -->
<svg
  xmlns:dc="http://purl.org/dc/elements/1.1/"
  xmlns:cc="http://creativecommons.org/ns#"
  xmlns:rdf="http://www.w3.org/1999/02/22-rdf-syntax-ns#"
  xmlns:svg="http://www.w3.org/2000/svg"
  xmlns="http://www.w3.org/2000/svg"
  xmlns:xlink="http://www.w3.org/1999/xlink"
  xmlns:sodipodi="http://sodipodi.sourceforge.net/DTD/sodipodi-0.dtd"
  xmlns:inkscape="http://www.inkscape.org/namespaces/inkscape"
  width="506.19775"
  height="534.83575"
  id="svg2"
  version="1.1"
  inkscape:version="0.48.4 r9939"
  sodipodi:docname="New document 1"
>
  <defs id="defs4">
    <linearGradient
      id="SVGID_1_"
      y2="159.75"
      gradientUnits="userSpaceOnUse"
      x2="38.502998"
      gradientTransform="matrix(1,0,0,-1,0,253.79)"
      y1="159.75"
      x1="7.8853002"
    >
      <stop style="stop-color: #6c5837" offset="0" id="stop3298" />
      <stop style="stop-color: #735d3a" offset=".1115" id="stop3300" />
      <stop style="stop-color: #876b43" offset=".4515" id="stop3302" />
      <stop style="stop-color: #927146" offset=".758" id="stop3304" />
      <stop style="stop-color: #957348" offset="1" id="stop3306" />
    </linearGradient>
    <linearGradient
      x1="80.793999"
      y1="-93.934998"
      gradientTransform="matrix(0.9845,0.1756,0.1756,-0.9845,-39.723,14.049)"
      x2="84.371002"
      gradientUnits="userSpaceOnUse"
      y2="-93.934998"
      id="SVGID_5_"
    >
      <stop id="stop3334" offset="0" style="stop-color: #464646" />
      <stop id="stop3336" offset="1" style="stop-color: #ffffff" />
    </linearGradient>
    <linearGradient
      x1="89.961998"
      y1="-141.56"
      gradientTransform="matrix(0.9845,0.1756,0.1756,-0.9845,-39.723,14.049)"
      x2="93.540001"
      gradientUnits="userSpaceOnUse"
      y2="-141.56"
      id="SVGID_4_"
    >
      <stop id="stop3327" offset="0" style="stop-color: #464646" />
      <stop id="stop3329" offset="1" style="stop-color: #ffffff" />
    </linearGradient>
    <linearGradient
      x1="86.609001"
      y1="-122.33"
      gradientTransform="matrix(0.9845,0.1756,0.1756,-0.9845,-39.723,14.049)"
      x2="90.186996"
      gradientUnits="userSpaceOnUse"
      y2="-122.33"
      id="SVGID_3_"
    >
      <stop id="stop3320" offset="0" style="stop-color: #464646" />
      <stop id="stop3322" offset="1" style="stop-color: #ffffff" />
    </linearGradient>
    <linearGradient
      x1="69.348999"
      y1="-161.03999"
      gradientTransform="matrix(0.9845,0.1756,0.1756,-0.9845,-39.723,14.049)"
      x2="118.45"
      gradientUnits="userSpaceOnUse"
      y2="-152.28999"
      id="SVGID_2_"
    >
      <stop id="stop3311" offset="0" style="stop-color: #464646" />
      <stop id="stop3313" offset="1" style="stop-color: #ffffff" />
    </linearGradient>
    <radialGradient
      inkscape:collect="always"
      r="58.419998"
      gradientTransform="matrix(1,0,0,1.431,-0.51113,-37.077)"
      cx="67.081001"
      cy="84.331001"
      gradientUnits="userSpaceOnUse"
      xlink:href="#g3"
      id="radialGradient3886"
    />
    <linearGradient
      inkscape:collect="always"
      x1="48.974998"
      y1="87.788002"
      gradientTransform="translate(-0.51113,-0.73228)"
      x2="117.86"
      gradientUnits="userSpaceOnUse"
      xlink:href="#g3"
      y2="77.995003"
      id="linearGradient3884"
    />
    <radialGradient
      inkscape:collect="always"
      r="72.108002"
      gradientTransform="matrix(1,0,0,1.1743,-0.51113,-17.871)"
      cx="175.42"
      cy="98.309998"
      gradientUnits="userSpaceOnUse"
      xlink:href="#g3"
      id="radialGradient3882"
    />
    <linearGradient
      inkscape:collect="always"
      x1="116.57"
      y1="98.309998"
      gradientTransform="translate(-0.51113,-0.73228)"
      x2="221.69"
      gradientUnits="userSpaceOnUse"
      y2="94.320999"
      id="linearGradient3880"
    >
      <stop
        offset="0"
        style="stop-color: #ff281e"
        stop-color="#1e90ff"
        id="s1"
      />
      <stop
        offset="0.52"
        style="stop-color: #b21414"
        stop-color="#1464b2"
        id="s2"
      />
      <stop
        offset="0.67"
        style="stop-color: #b21414"
        stop-color="#1464b2"
        id="s3"
      />
      <stop
        offset="1"
        style="stop-color: #ff1e1e"
        stop-color="#1e90ff"
        id="s4"
      />
    </linearGradient>
    <linearGradient
      inkscape:collect="always"
      x1="-3.7498"
      y1="144.07001"
      gradientTransform="translate(-0.25069,-0.89258)"
      x2="4.3179998"
      gradientUnits="userSpaceOnUse"
      y2="144.07001"
      id="linearGradient3878"
    >
      <stop offset="0" stop-color="#783000" id="s5" />
      <stop offset=".75" id="s6" />
      <stop offset="1" stop-color="#642800" id="s7" />
    </linearGradient>
    <linearGradient id="g3">
      <stop
        offset="0"
        style="stop-color: #ff1e1e"
        stop-color="#1e90ff"
        id="s8"
      />
      <stop
        offset="1"
        style="stop-color: #b22314"
        stop-color="#1464b2"
        id="s9"
      />
    </linearGradient>
  </defs>
  <sodipodi:namedview
    id="base"
    pagecolor="#ffffff"
    bordercolor="#666666"
    borderopacity="1.0"
    inkscape:pageopacity="0.0"
    inkscape:pageshadow="2"
    inkscape:zoom="0.3615324"
    inkscape:cx="407.05331"
    inkscape:cy="486.89393"
    inkscape:document-units="px"
    inkscape:current-layer="g3272"
    showgrid="false"
    fit-margin-top="0"
    fit-margin-left="0"
    fit-margin-right="0"
    fit-margin-bottom="0"
    inkscape:window-width="1280"
    inkscape:window-height="723"
    inkscape:window-x="0"
    inkscape:window-y="26"
    inkscape:window-maximized="1"
  />
  <metadata id="metadata7">
    <rdf:RDF>
      <cc:Work rdf:about="">
        <dc:format>image/svg+xml</dc:format>
        <dc:type rdf:resource="http://purl.org/dc/dcmitype/StillImage" />
        <dc:title />
      </cc:Work>
    </rdf:RDF>
  </metadata>
  <g
    inkscape:label="Layer 1"
    inkscape:groupmode="layer"
    id="layer1"
    transform="translate(-15.003339,-196.2778)"
  >
    <g id="g3272">
      <g id="g3383">
        <g transform="translate(198.83462,184.0149)" id="g3276">
          <path
            style="fill: #ffffff; fill-opacity: 1; stroke: none"
            d="m 9.5,249.46875 c -48.013618,83.29022 -95.997225,166.59799 -144.25,249.75 99.135417,0 198.270833,0 297.40625,0 C 113.07244,413.38731 63.440697,327.5835 13.96875,241.6875 12.479167,244.28125 10.989583,246.875 9.5,249.46875 z"
            id="path3278"
            inkscape:connector-curvature="0"
          />
          <path
            inkscape:connector-curvature="0"
            style="fill: #d40000; fill-rule: evenodd; stroke-width: 3pt"
            d="m 13.59375,215.90625 c -6.2434681,0.0137 -12.4998183,2.74638 -16.21875,8.125 -25.899337,45.41946 -133.69301,230.61772 -157.3125,271.625 -5.71056,11.85004 3.15518,26.9902 16.1875,28.0625 52.29043,-0.28686 267.42497,-0.4522 314.75,-0.5 13.11358,-0.97668 21.81252,-16.23978 16.21875,-28.0625 -26.3911,-45.13943 -133.730591,-230.16552 -157.4375,-271.125 -3.701857,-5.43326 -9.944032,-8.13866 -16.1875,-8.125 z m 0.375,37.5625 c 46.104518,79.92253 92.15701,159.95328 138.53125,239.75 l -276.84375,0 C -89.65804,433.66728 -55.292324,373.93025 -20.9375,314.1875 l 34.90625,-60.71875 z"
            id="path3280"
          />
          <g id="g3282">
            <path
              inkscape:connector-curvature="0"
              id="path3284"
              d="m -61.78125,413.5 c -1.152241,0.056 -2.217343,0.79767 -3.6875,1.15625 -12.485228,22.10186 -24.571285,44.44118 -36.90625,66.625 l 85.15625,0 c 0.0068,-5.62108 -1.598821,-9.22408 -2.9375,-15.34375 -0.12294,-2.54759 -1.155331,-3.45404 -2.34375,-9 -1.536749,-2.69784 -3.859471,-6.73198 -3.96875,-9.59375 -1.04499,-4.99955 -2.843832,-6.21144 -3.645874,-9.00019 -0.540834,-1.88051 -0.932349,-3.70979 -1.510376,-5.49981 -2.75696,-7.05342 -9.459131,-3.34809 -11.59375,-10.40625 -3.059838,-6.00356 -8.093038,-7.29811 -17.375,-8.71875 -0.420045,-0.17929 -0.80342,-0.23743 -1.1875,-0.21875 z"
              style="stroke-width: 3pt"
            />
            <g transform="translate(-24.800216,-10.400108)" id="g3286">
              <g
                id="g3288"
                transform="translate(-390.30997,14.487765)"
                style="fill: #00ff00"
              >
                <path
                  sodipodi:nodetypes="sccccccccccccccccccccsccscc"
                  inkscape:connector-curvature="0"
                  id="path3290"
                  d="m 497.09374,239.73038 c -0.45051,0.24896 -0.89265,0.52774 -1.34424,0.802 -7.22596,4.38947 -10.83422,9.58986 -10.83422,9.58986 0,0 15.93201,34.87083 31.51457,33.86094 l 52.29593,93.89494 -1.0534,0.61613 c 0.73649,0.59775 1.49279,1.5106 2.13421,2.62498 l 3.9996,6.97296 c 1.59189,2.76542 2.27046,8.89689 -4.13406,12.87611 l -9.47559,5.89444 c 0,0 1.41674,1.29619 1.87545,2.12553 12.20826,22.07115 21.20523,44.31133 50.33129,38.99996 20.02901,-21.80267 6.03486,-41.2799 -6.12294,-63.38107 -0.45771,-0.82982 -0.80766,-2.7139 -0.80766,-2.7139 l -10.03522,4.88217 c -6.78221,3.29474 -11.62924,-0.55274 -13.11681,-3.37586 l -3.76426,-7.13009 c -0.59943,-1.13748 -0.9393,-2.24381 -1.05205,-3.18561 l -1.02666,0.53188 -52.26718,-93.83945 c 9.4032,-12.59399 -13.92002,-44.73585 -13.92002,-44.73585 0,0 -6.43896,0.9554 -13.19674,4.68993 z m 4.31284,10.29496 10.32707,-4.99817 c 0,0 8.30713,10.1641 -2.89414,16.4923 -11.20302,6.32916 -15.60137,-6.0657 -15.60137,-6.0657 z"
                  style="fill: #000000"
                />
              </g>
              <path
                style="stroke-width: 3pt"
                d="m 307.15625,184.5625 c -1.79769,0.0395 -3.4862,0.5319 -4.90625,1.5625 -2.79983,2.03196 -3.02772,1.90049 -3.0625,5.21875 0.07,3.85057 0.41244,10.44937 2.15625,13.3125 -2.94843,9.26332 -6.2452,25.06555 -8.40625,34.15625 -14.20231,7.80452 -24.90062,15.586 -30.0625,19.375 -3.93079,0.91643 -7.81017,2.05544 -10.375,1.53125 -4.43839,-1.10611 -5.91558,-2.07243 -7.15625,-3.875 0.0473,-0.86451 0.26425,-2.81819 0.4375,-3.65625 3.02557,-0.26546 5.44789,-1.02183 8.25,-2.625 10.42903,-5.96677 14.62302,-20.47722 8.65625,-30.90625 -3.72923,-6.51816 -10.66566,-10.56358 -17.90625,-11.21875 -0.54305,-0.0491 -1.07954,-0.0839 -1.625,-0.0937 -3.81819,-0.0714 -7.67172,0.8234 -11.09375,2.78125 -10.42903,5.96677 -14.49803,20.50845 -8.53125,30.9375 1.33773,2.33816 1.50555,3.31431 3.46875,4.9375 -0.0844,3.4474 0.10446,4.13117 -3.3125,3.90625 -15.35844,-0.9916 -31.54818,1.5066 -45.65625,8.125 -6.96356,3.6764 -16.81459,13.88283 -21.15625,21.125 -3.76188,6.50104 -7.69226,13.25083 -8.6875,19.5625 -1.12938,7.84313 -0.92691,12.69397 -4.9375,19.09375 -2.28888,3.97429 -5.59024,8.45011 -5.8125,11.21875 -0.15684,1.95371 7.95576,13.06868 10.5625,11.28125 4.25412,-2.41906 6.54804,-6.28015 9.375,-10.1875 0.74063,-1.02369 -0.29162,-3.01561 -0.625,-3.46875 4.54837,-10.30059 6.83978,-21.32379 11.28125,-31.625 0.61846,-2.15632 1.54732,-3.52217 3,-4.96875 3.92414,-4.39801 10.48036,-5.66906 15.5625,-8.28125 0.22503,-0.19326 0.48613,-0.32317 0.78125,-0.46875 2.06638,-1.01823 5.45563,-0.78259 4.40625,2.46875 -3.16883,13.03584 -1.2135,26.38558 -1.53125,39.625 0.008,3.54144 -0.0524,8.1078 -1.3438,11.6875 -1.00266,2.57827 -3.78726,9.33683 -5.375,14.5 -2.81948,7.4362 -4.49005,15.23868 -5.75,23.125 -2.96106,9.11835 0.20842,19.58717 -4.6875,28 -2.09519,1.83864 -3.67537,2.92204 -5.78125,4.75 -0.98346,-0.7376 -1.30525,-0.92276 -2.8125,-1.5 -1.43243,2.21278 -14.76826,16.61946 -16.5,18.875 -9.43906,9.56733 -15.01624,24.72308 -29.875,27 3.22831,9.1932 8.46344,17.48107 13.15625,25.96875 5.14178,10.25147 18.15314,13.66007 28.46875,10.65625 -2.12727,-2.74727 -5.12683,-4.84157 -7.09375,-7.78125 -3.23901,-4.68211 -9.5167,-12.73404 -3.5625,-17.84375 13.56531,-11.5877 27.76445,-22.51843 41.0625,-34.4375 11.86564,-13.12703 18.26754,-30.77715 21.25,-48.0625 3.27107,6.33904 17.35397,28.77049 21.03125,36.53125 0.41698,2.35175 0.2788,5.03075 0.375,8.3125 -0.90863,-0.0855 -1.04284,-0.18416 -1.8125,-0.3125 1.51794,10.04837 3.79951,19.80689 5.53125,29.8125 3.82693,10.8608 4.80204,22.83904 7.25,33.625 11.34183,0.0855 23.72067,0.37425 35.0625,0.40625 3.07865,-1.07965 12.60838,2.00929 10.8125,-4.0625 -5.79385,-4.30795 -13.85843,-6.75023 -21.03125,-9.1875 -0.43829,-15.56429 -1.6415,-31.09196 -2.21875,-46.65625 -0.75897,-27.17338 -3.66239,-27.83983 -8.6875,-43.25 -1.76036,-5.39838 -8.02417,-17.77921 -9.4375,-25.84375 -1.14493,-11.61393 -0.84997,-24.55541 -0.375,-35.6875 0.74417,-9.50563 2.82869,-19.28063 5.65625,-26.90625 12.82623,-7.33066 32.48307,-20.06635 40.84375,-31.46875 4.72664,-5.56109 14.90329,-13.20139 17.375,-19.1875 2.46094,-5.96004 2.81682,-27.33687 5.1875,-35.15625 2.44793,-5.25968 3.42047,-7.99698 3.4375,-17.0625 -1.6601,-4.052 -7.85694,-7.80616 -13.25,-7.6875 z"
                id="path3292"
                inkscape:connector-curvature="0"
                sodipodi:nodetypes="cscccccccssccssccccccscsccccccccccccccccccccccccccccccsccccscccc"
              />
            </g>
          </g>
        </g>
        <path
          sodipodi:nodetypes="cssssac"
          inkscape:connector-curvature="0"
          id="path3298"
          d="m 355.12567,222.99981 c -62.7551,38.35034 -63.45238,40.44218 -128.29932,43.92857 -64.84693,3.4864 -27.02515,-0.2462 7.67007,35.56123 32.49146,33.53302 48.11225,62.7551 49.50681,71.12245 1.39456,8.36735 -4.18368,15.34013 11.15646,4.88095 15.34013,-10.45919 62.75021,-34.3885 94.82993,-50.20408 13.52635,-6.66861 41.13946,-18.82653 41.13946,-18.82653"
          style="fill: #d40000; stroke: none"
        />
        <path
          sodipodi:nodetypes="csccacc"
          inkscape:connector-curvature="0"
          id="path3300"
          d="m 356.82244,219.76828 c 0,0 -2.67938,-0.4726 -3.69892,0.53645 -0.89813,0.88889 -0.80108,3.4323 -0.80108,3.4323 l 142.25,161.0625 c 0,0 2.81874,0.19599 3.73514,-0.67648 0.81597,-0.77687 0.76486,-3.29227 0.76486,-3.29227 z"
          style="
            font-size: medium;
            font-style: normal;
            font-variant: normal;
            font-weight: normal;
            font-stretch: normal;
            text-indent: 0;
            text-align: start;
            text-decoration: none;
            line-height: normal;
            letter-spacing: normal;
            word-spacing: normal;
            text-transform: none;
            direction: ltr;
            block-progression: tb;
            writing-mode: lr-tb;
            text-anchor: start;
            baseline-shift: baseline;
            color: #000000;
            fill: #000000;
            fill-opacity: 1;
            fill-rule: nonzero;
            stroke: none;
            stroke-width: 6;
            marker: none;
            visibility: visible;
            display: inline;
            overflow: visible;
            enable-background: accumulate;
            font-family: Sans;
            -inkscape-font-specification: Sans;
          "
        />
      </g>
    </g>
  </g>
</svg>
