<svg
  height="100px"
  width="100px"
  fill="#000000"
  xmlns="http://www.w3.org/2000/svg"
  viewBox="0 0 100 100"
  x="0px"
  y="0px"
>
  <g data-name="michael brown">
    <path
      d="M67.45312,39.06055a11.10935,11.10935,0,0,1,4.27979,2.91015L69.897,43.668a8.6192,8.6192,0,0,0-3.32031-2.26563,9.49646,9.49646,0,0,0-3.26514-.53027,28.61107,28.61107,0,0,0-7.61767.84375l-.59766-2.42773a30.57463,30.57463,0,0,1,8.294-.91407A12.0734,12.0734,0,0,1,67.45312,39.06055ZM41.523,47.88965l.81152-1.26172a9.356,9.356,0,0,0-5.08691-1.43848,9.12838,9.12838,0,0,0-5.54151,2.07227l.95313,1.1582a7.86349,7.86349,0,0,1,2.00818-1.18182,2.6252,2.6252,0,0,0,5.21008-.15076A7.75256,7.75256,0,0,1,41.523,47.88965Zm16.10742-1.25293.80957,1.26367a7.7748,7.7748,0,0,1,1.64679-.79864,2.62516,2.62516,0,0,0,5.20972.1549,7.84028,7.84028,0,0,1,2.00628,1.18476l.95508-1.15625a8.993,8.993,0,0,0-10.62744-.64844Zm23.42157,7.833a4.14019,4.14019,0,0,1,.62872,2.60162c-.02978.8623-.04834,1.60547-.06494,2.27539a37.26063,37.26063,0,0,1-1.0376,8.92383,4.37034,4.37034,0,0,1-1.86132,3.07422,6.12169,6.12169,0,0,1-3.16992.75781c-.271,0-.497-.01282-.67688-.02661a24.66426,24.66426,0,0,1-8.38221,14.10376A25.02868,25.02868,0,0,1,49.97119,92.5h-.019c-8.50879-.00586-16.38526-6.27734-16.46094-6.34082a24.68138,24.68138,0,0,1-8.35876-14.08344c-.18.01386-.40766.0268-.67933.0268a6.11893,6.11893,0,0,1-3.16943-.75781,4.3695,4.3695,0,0,1-1.86181-3.07422,37.26063,37.26063,0,0,1-1.0376-8.92383c-.0166-.66992-.03516-1.41309-.06446-2.26953a4.15086,4.15086,0,0,1,.62421-2.601,50.41777,50.41777,0,0,1-.93542-12.6734,38.31041,38.31041,0,0,1,2.62323-13.26124,34.89023,34.89023,0,0,1,5.75891-9.511A34.004,34.004,0,0,1,33.426,12.80707a33.12939,33.12939,0,0,1,8.04431-3.91052,29.04338,29.04338,0,0,1,5.99414-1.27832,27.27177,27.27177,0,0,1,5.11664.00311,28.80878,28.80878,0,0,1,5.96643,1.23352,30.81,30.81,0,0,1,8.06573,3.97284,34.41355,34.41355,0,0,1,7.02753,6.23218,34.89113,34.89113,0,0,1,5.74707,9.51818,38.30948,38.30948,0,0,1,2.60675,13.26453A50.42948,50.42948,0,0,1,81.05194,54.46967Zm-1.465.57135a3.73853,3.73853,0,0,0-1.98632-.88379l.01373-.07807-.01459.01026c.23657-2.66559.76416-5.01691.80194-6.61841a18.21785,18.21785,0,0,0-.12713-4.07385c-.37152-1.7414-.883-2.0434-2.08863-5.36408a31.96448,31.96448,0,0,1-.986-3.05688c-.29584-1.12793-.31781-1.49256-.811-3.97931a33.62958,33.62958,0,0,0-.81134-3.63336,13.195,13.195,0,0,0-2.08966-3.63416,14.36925,14.36925,0,0,0-3.02008-2.76984,19.41378,19.41378,0,0,0-7.8432-2.88806,59.053,59.053,0,0,0-10.6643-1.39038,57.56481,57.56481,0,0,0-10.55207,1.3772,19.41285,19.41285,0,0,0-7.8468,2.87836,14.36868,14.36868,0,0,0-3.02344,2.766,13.19752,13.19752,0,0,0-2.0943,3.63159,33.64263,33.64263,0,0,0-.81573,3.63238c-.4964,2.48609-.51886,2.85077-.816,3.97828a31.983,31.983,0,0,1-.98981,3.05566c-1.20978,3.31921-1.72162,3.62054-2.09527,5.36145a18.21623,18.21623,0,0,0-.13227,4.07373c.03144,1.40515.37336,3.37549.61426,5.63806l.19061,1.08344a3.73853,3.73853,0,0,0-1.98632.88379,2.41124,2.41124,0,0,0-.59424,1.97851c.02929.86817.04834,1.61524.06494,2.29a35.66253,35.66253,0,0,0,1.00293,8.63672A2.90067,2.90067,0,0,0,22.085,70.07715a5.21179,5.21179,0,0,0,2.79.51312c-.05756-.347-.13293-.68262-.17969-1.03656l1.48731-.19629A23.73453,23.73453,0,0,0,34.4541,85.00879a32.18785,32.18785,0,0,0,9.64264,5.009.56.56,0,0,1,.95752.28021c.3941.10578.79144.2024,1.19293.28711a.55629.55629,0,0,1-.03467-.17175.57123.57123,0,0,1,1.14246,0,.56044.56044,0,0,1-.13354.35382c.56506.091,1.13366.15277,1.70391.18994a.56316.56316,0,0,1-.4353-.54376.57123.57123,0,0,1,1.14246,0,.56382.56382,0,0,1-.48188.55316c.26752.0138.535.03327.80249.03345h.01758c.40045,0,.79175-.03241,1.18665-.05206a.56625.56625,0,1,1,.4187-.01831c.5376-.03638,1.06885-.09778,1.59662-.17121a.55929.55929,0,0,1-.12769-.345.57126.57126,0,1,1,1.1.21015c.40112-.074.7948-.17939,1.19061-.27533a.55586.55586,0,0,1,1.01551-.2594,25.47516,25.47516,0,0,0,9.17572-5.06147,23.71538,23.71538,0,0,0,8.29052-15.64062l1.48731.19726c-.04578.34375-.11963.66938-.1756,1.0066a5.21466,5.21466,0,0,0,2.78644-.51343,2.90174,2.90174,0,0,0,1.19775-2.13086,35.66253,35.66253,0,0,0,1.00293-8.63672c.0166-.6748.03565-1.42187.06494-2.2832A2.41908,2.41908,0,0,0,79.58691,55.041ZM54.00977,76.80371a11.913,11.913,0,0,0-3.97413-.6311v-.00073c-.01684-.00049-.03234.00061-.04913.00024-.0069.00012-.0133-.00037-.0202-.00024v.0003a11.46857,11.46857,0,0,0-3.97608.62762l.50489,1.41211a9.85356,9.85356,0,0,1,3.49951-.54l.00549-.20124.00525.20124a10.30821,10.30821,0,0,1,3.49951.54394Zm-4.581,6.82A.57123.57123,0,1,0,50,83.05255.57121.57121,0,0,0,49.42877,83.62372Zm2.27747,0a.57123.57123,0,1,0,.57123-.57117A.57124.57124,0,0,0,51.70624,83.62372Zm2.84875.57117a.57117.57117,0,1,0-.57123-.57117A.57121.57121,0,0,0,54.555,84.19489Zm2.27747,0a.57117.57117,0,1,0-.57123-.57117A.57121.57121,0,0,0,56.83246,84.19489Zm2.27746-1.14234a.57117.57117,0,1,0,.57123.57117A.57115.57115,0,0,0,59.10992,83.05255Zm-11.95861.57117a.57123.57123,0,1,0,.57122-.57117A.5712.5712,0,0,0,47.15131,83.62372Zm-1.7063-.57117a.57117.57117,0,1,0,.57123.57117A.57117.57117,0,0,0,45.445,83.05255Zm-2.27747,0a.57117.57117,0,1,0,.57123.57117A.57117.57117,0,0,0,43.16754,83.05255Zm-2.27746,0a.57117.57117,0,1,0,.57116.57117A.57116.57116,0,0,0,40.89008,83.05255ZM51.137,85.33838a.5712.5712,0,1,0,.57123.57117A.57121.57121,0,0,0,51.137,85.33838Zm2.274,0a.5712.5712,0,1,0,.57123.57117A.57121.57121,0,0,0,53.411,85.33838Zm2.27393,0a.5712.5712,0,1,0,.57122.57117A.5712.5712,0,0,0,55.68488,85.33838Zm2.27392,0a.5712.5712,0,1,0,.57123.57117A.57124.57124,0,0,0,57.9588,85.33838Zm-9.09576,0a.5712.5712,0,1,0,.57123.57117A.57121.57121,0,0,0,48.863,85.33838Zm-2.274,0a.5712.5712,0,1,0,.57123.57117A.57124.57124,0,0,0,46.58905,85.33838Zm-2.27393,0a.5712.5712,0,1,0,.57123.57117A.5712.5712,0,0,0,44.31512,85.33838Zm-2.27392,0a.5712.5712,0,1,0,.57123.57117A.57121.57121,0,0,0,42.0412,85.33838ZM50,87.59778a.5712.5712,0,1,0,.57123.57123A.57122.57122,0,0,0,50,87.59778Zm2.27747,0a.5712.5712,0,1,0,.57122.57123A.57126.57126,0,0,0,52.27747,87.59778Zm2.27752,0a.5712.5712,0,1,0,.57123.57123A.57122.57122,0,0,0,54.555,87.59778Zm2.27747,0a.5712.5712,0,1,0,.57123.57123A.57122.57122,0,0,0,56.83246,87.59778Zm-9.10993,0a.5712.5712,0,1,0,.57123.57123A.57121.57121,0,0,0,47.72253,87.59778Zm-2.27752,0a.5712.5712,0,1,0,.57123.57123A.57122.57122,0,0,0,45.445,87.59778Zm-2.27747,0a.5712.5712,0,1,0,.57123.57123A.57122.57122,0,0,0,43.16754,87.59778ZM56.78125,68.76562c-1.22461-.15332-1.69678-.24023-2.479-.38476l-.43555-.08008a4.303,4.303,0,0,0-2.82275.2041l-.08692.05371a1.88072,1.88072,0,0,1-.45019.22364,2.22643,2.22643,0,0,1-.49762.09,2.30289,2.30289,0,0,1-.51606-.09,1.88072,1.88072,0,0,1-.45019-.22364l-.0874-.05371a4.31442,4.31442,0,0,0-2.82276-.2041l-.43506.08008c-.78222.14453-1.25439.23144-2.479.38476l.18555,1.48829c1.26806-.15821,1.78418-.25391,2.56543-.39746l.43115-.07911c1.17334-.21386,1.62353-.08007,1.83642.04688a3.339,3.339,0,0,0,.77832.37988,3.76907,3.76907,0,0,0,.90217.17l.00213.0185c.03015-.0011.05823-.00751.08814-.00928.0346.002.06506.009.10034.01025h.05908l-.00055-.02691a3.71215,3.71215,0,0,0,.81745-.16254A3.52259,3.52259,0,0,0,51.811,69.794c.16406-.09864.61621-.23145,1.78759-.01661l.43164.07911c.78125.14355,1.29737.23925,2.56543.39746ZM42.416,41.71582l.59765-2.42773a30.52835,30.52835,0,0,0-8.29394-.91407,12.08556,12.08556,0,0,0-4.06348.68653A11.11141,11.11141,0,0,0,26.377,41.9707L28.21289,43.668a8.62324,8.62324,0,0,1,3.31934-2.26563,9.51513,9.51513,0,0,1,3.26611-.53027A28.406,28.406,0,0,1,42.416,41.71582ZM43.73047,58.5332a2.06443,2.06443,0,0,1,.92236-.57519,2.65636,2.65636,0,0,1,1.665.13183,2.75409,2.75409,0,0,1,.52539.28907,3.48667,3.48667,0,0,1,.4375.36816c.16748.15723.36817.34473.72217.63086a3.98875,3.98875,0,0,0,.43018.32031,3.05743,3.05743,0,0,0,3.13085.001,4.13266,4.13266,0,0,0,.46-.34277c.32714-.26465.52783-.45215.69531-.60938a3.45837,3.45837,0,0,1,.43652-.36719,2.689,2.689,0,0,1,.52783-.29,2.64174,2.64174,0,0,1,1.6626-.13183,2.062,2.062,0,0,1,.92334.57519l1.07129-1.04882a3.55747,3.55747,0,0,0-1.59326-.97168,4.21869,4.21869,0,0,0-3.44238.63183,4.79321,4.79321,0,0,0-.61133.50781c-.14746.1377-.32422.30371-.64063.55957a2.63926,2.63926,0,0,1-.26074.20118,1.55918,1.55918,0,0,1-1.58789-.001,3.244,3.244,0,0,1-.28613-.22363c-.28809-.23243-.46485-.39844-.61231-.53614a4.82357,4.82357,0,0,0-.6123-.50879,4.1716,4.1716,0,0,0-.84424-.456,4.111,4.111,0,0,0-2.59815-.1748,3.55975,3.55975,0,0,0-1.59228.97168ZM23.85791,61.27734l-1.40137-.53515a5.8998,5.8998,0,0,0-.41308,2.48047,6.90153,6.90153,0,0,0,.42138,2.07324l1.39844-.543a5.42743,5.42743,0,0,1-.32178-1.60059A4.41022,4.41022,0,0,1,23.85791,61.27734Zm52.28418,0a4.41022,4.41022,0,0,1,.31641,1.875,5.42743,5.42743,0,0,1-.32178,1.60059l1.39844.543a6.90153,6.90153,0,0,0,.42138-2.07324,5.8998,5.8998,0,0,0-.41308-2.48047Z"
    ></path>
  </g>
</svg>
