<svg
  xmlns="http://www.w3.org/2000/svg"
  data-name="Layer 1"
  viewBox="0 0 40.3873 118.37321250000001"
  x="0px"
  y="0px"
>
  <defs>
    <style>
      .cls-1 {
        fill: #fff;
      }
    </style>
  </defs>
  <title>insecticide</title>
  <path
    d="M53.53283,18.16269l-8.06807-.011,0.01279-9.41262,8.07173-2.679Zm5.37258,4.03612-18.82515-.02558-8.079,8.05711,34.96226,0.04751Zm7.91788,12.80069L66.73921,96.86667l-35.20029-.04784L31.623,34.95165ZM56.39212,7.069a1.443,1.443,0,1,0,1.81079.941A1.443,1.443,0,0,0,56.39212,7.069ZM60.58541,5.454a1.443,1.443,0,1,0,1.81079.941A1.443,1.443,0,0,0,60.58541,5.454ZM64.72232,3.8396a1.443,1.443,0,1,0,1.81079.941A1.443,1.443,0,0,0,64.72232,3.8396Zm4.18092-1.604a1.443,1.443,0,1,0,1.81079.941A1.443,1.443,0,0,0,68.90324,2.23558Zm1.1447,8.538a1.443,1.443,0,1,0,1.81079.941A1.443,1.443,0,0,0,70.04794,10.77357Zm-4.76149-.00545a1.443,1.443,0,1,0,1.81079.941A1.443,1.443,0,0,0,65.28645,10.76812Zm-4.737-.016a1.443,1.443,0,1,0,1.81079.941A1.443,1.443,0,0,0,60.54945,10.75209Zm-4.16769,3.67352a1.443,1.443,0,1,0,1.81079.941A1.443,1.443,0,0,0,56.38176,14.42561Zm4.14871,1.61384a1.443,1.443,0,1,0,1.81079.941A1.443,1.443,0,0,0,60.53046,16.03945Zm4.15975,1.61684a1.443,1.443,0,1,0,1.81079.941A1.443,1.443,0,0,0,64.69021,17.65629ZM68.857,19.27751a1.443,1.443,0,1,0,1.81079.941A1.443,1.443,0,0,0,68.857,19.27751Z"
    transform="translate(-31.53892 -2.1681)"
  />
  <path
    class="cls-1"
    d="M54.01065,62.29755c-0.74673-.00736-1.50494-0.03053-2.19547-0.06657l2.9835,3.958a19.3115,19.3115,0,0,0,3.29512,1.60165l-0.05965.25156a9.175,9.175,0,0,1-3.71915-1.4185L51.00116,62.249l-0.11929-.08606c-0.35865-.03236-0.70009-0.06988-0.98379-0.11143l2.66615,3.51628-0.98379,2.79949c0.12694,1.221,2.18821,5.09476,2.19165,5.09807l-0.20915.16c-1.65215-1.31994-2.6585-5.29924-2.6585-5.29924l0.91841-2.64686L49.74321,62.9441a13.009,13.009,0,0,1,.09521,1.64321c-0.05429,1.68256-.138,3.0025-0.70774,3.13894-0.57506-.13644-0.65727-1.4527-0.71118-3.13894a14.04357,14.04357,0,0,1,.09329-1.62887l-2.06662,2.72042L47.36842,68.396c-0.17588.44905-1.31682,4.15914-2.67035,5.233l-0.20341-.16329c0-.00368,2.06662-3.87706,2.20121-5.04621l-0.99335-2.848,2.66806-3.5126c-0.28753.03053-.62553,0.07172-0.99144,0.10408l-0.11585.08606-3.32685,4.396a9.36342,9.36342,0,0,1-3.70423,1.40085L40.1668,67.791a18.73823,18.73823,0,0,0,3.30085-1.60165l2.97968-3.958c-0.69091.036-1.44147,0.05921-2.19738,0.05921-2.62294-.03788-5.26118-0.20485-5.3713-1.34862a0.68814,0.68814,0,0,1,.08947-0.33578c0.31544-.60866,1.191-0.76865,2.27959-0.77931a29.59871,29.59871,0,0,1,6.18341.98784l0.53376-.48289a5.41373,5.41373,0,0,1-2.22721-1.2302l-0.07647-.11842-0.31353-2.42951-1.755-2.06321,0.19959-.17763,2.17329,1.95361,0.30818,2.435a5.106,5.106,0,0,0,2.04062,1.05771,0.96993,0.96993,0,0,1,.31162-0.39683c0.00765-.0342.01491-0.06657,0.01874-0.09341l-0.00765.00368a0.61834,0.61834,0,0,1-.71309-0.5638,0.38313,0.38313,0,0,1,0-.06657,1.37394,1.37394,0,0,1,.8905-0.91943l0.1625-2.86054,0.26879-.00368,0.29135,2.90908a1.29488,1.29488,0,0,1,.78612.87824c0,0.0217.00574,0.04487,0.00574,0.06289a0.62271,0.62271,0,0,1-.71118.5638H49.614a0.67788,0.67788,0,0,1,.013.08974,0.91865,0.91865,0,0,1,.31009.40234,5.46634,5.46634,0,0,0,2.01806-.993L52.347,56.19289l2.13009-1.88005,0.19232,0.17763-1.72518,2.00583-0.377,2.55712-0.03938.04487a5.44809,5.44809,0,0,1-2.22338,1.23351L50.831,60.8147a29.1422,29.1422,0,0,1,6.18532-.99115c1.08856,0.01434,1.96606.17432,2.28341,0.783a0.68567,0.68567,0,0,1,.08029.32879C59.27527,62.08939,56.63742,62.25636,54.01065,62.29755Z"
    transform="translate(-31.53892 -2.1681)"
  />
  <path
    class="cls-1"
    d="M49.12914,49.83895A13.9716,13.9716,0,0,0,38.80963,73.2554l-0.0061.00648,0.08332,0.07846A13.98665,13.98665,0,1,0,49.12914,49.83895ZM37.17408,63.83442A11.93752,11.93752,0,0,1,56.50884,54.4475L40.21,71.76731A11.89252,11.89252,0,0,1,37.17408,63.83442ZM49.12914,75.78949a11.88894,11.88894,0,0,1-7.44165-2.61484L57.997,55.84456A11.93451,11.93451,0,0,1,49.12914,75.78949Z"
    transform="translate(-31.53892 -2.1681)"
  />
</svg>
