<?xml version="1.0" encoding="UTF-8" standalone="no"?>
<!-- Created with Inkscape (http://www.inkscape.org/) -->
<svg
  xmlns:inkscape="http://www.inkscape.org/namespaces/inkscape"
  xmlns:rdf="http://www.w3.org/1999/02/22-rdf-syntax-ns#"
  xmlns="http://www.w3.org/2000/svg"
  xmlns:cc="http://creativecommons.org/ns#"
  xmlns:dc="http://purl.org/dc/elements/1.1/"
  xmlns:sodipodi="http://sodipodi.sourceforge.net/DTD/sodipodi-0.dtd"
  xmlns:svg="http://www.w3.org/2000/svg"
  xmlns:ns1="http://sozi.baierouge.fr"
  xmlns:xlink="http://www.w3.org/1999/xlink"
  id="svg2"
  sodipodi:docname="mumia abu jamal.svg"
  viewBox="0 0 275 276.72"
  version="1.1"
  inkscape:version="0.47 r22583"
>
  <sodipodi:namedview
    id="base"
    bordercolor="#666666"
    inkscape:pageshadow="2"
    inkscape:window-y="43"
    pagecolor="#ffffff"
    inkscape:window-height="672"
    inkscape:window-maximized="1"
    inkscape:zoom="1.0987013"
    inkscape:window-x="-4"
    showgrid="false"
    borderopacity="1.0"
    inkscape:current-layer="layer1"
    inkscape:cx="192.12091"
    inkscape:cy="109.73489"
    inkscape:window-width="1024"
    inkscape:pageopacity="0.0"
    inkscape:document-units="px"
  />
  <g
    id="layer1"
    inkscape:label="Ebene 1"
    inkscape:groupmode="layer"
    transform="translate(-253.59 -383.39)"
  >
    <path
      id="path2830"
      style="fill: #000000"
      d="m253.59 383.39v134.34 142.38h275v-142.38-134.34h-275zm150.72 14.562c1.2105 0.0122 2.0506 0.13586 2.4375 0.375 0.62437 0.38588 5.0187 0.49708 9.75 0.25s9.7188-0.4049 11.094-0.375c3.8068 0.0829 18.392 5.128 19.312 6.6875 0.4463 0.75647 1.2661 1.107 1.8438 0.75 0.57769-0.35703 1.3365-0.26734 1.6875 0.21875 0.35101 0.4861 2.4562 2.226 4.6562 3.8438s4.3049 3.4056 4.6875 3.9688c0.38259 0.56314 0.95395 0.73355 1.2812 0.40625 0.81813-0.81812 6.5312 4.3218 6.5312 5.875 0 0.68985 1.2375 2.021 2.75 2.9688 1.5125 0.94777 4.7645 3.5538 7.25 5.7812s6.0579 5.1562 7.9375 6.5312c6.2984 4.6075 7.9645 6.479 11 12.438 2.358 4.6286 2.7489 6.2219 1.8438 7.3125-0.95003 1.1447-2.206 0.24557-6.9688-4.9375-3.1955-3.4775-5.8085-6.65-5.8125-7.0625s-0.60704-0.75-1.3438-0.75c-0.73672 0-1.8422-1.125-2.4688-2.5-0.66818-1.4665-1.9705-2.5-3.1562-2.5-1.1118 0-2.0312-0.43789-2.0312-0.96875 0-1.5417-6.0886-8.0312-7.5312-8.0312-0.7214 0-2.5677-1.35-4.125-3s-3.292-3.0176-3.8438-3.0312c-0.55179-0.0136-3.475-2.2505-6.5-5-3.025-2.7496-6.9625-5.5402-8.75-6.1875-1.7875-0.64735-3.25-1.5104-3.25-1.9062 0-0.39581-1.4625-1.024-3.25-1.4062-1.7875-0.38221-3.7-1.0487-4.25-1.4688-1.7928-1.3694-12.219-4-15.844-4-1.9454 0-3.8233-0.43001-4.1562-0.96875-0.36933-0.59754-1.2732-0.6381-2.3125-0.0937-0.937 0.49069-6.6375 1.5819-12.688 2.4062-19.067 2.5979-21.369 3.4831-40.812 15.844-2.3111 1.4693-4.9571 2.7068-5.875 2.75-2.9083 0.13697-8.7406 3.5799-13.656 8.0625-1.5078 1.375-4.3763 3.5995-6.3438 4.9375-3.852 2.6196-5.7569 5.1028-6.375 8.3125-0.21434 1.113-1.0642 2.7883-1.9062 3.7188-0.84207 0.93048-1.5312 2.2448-1.5312 2.9062 0 0.66145-0.675 1.4647-1.5 1.7812-0.825 0.31659-1.5 1.0483-1.5 1.625 0 0.57674-1.125 2.5098-2.5 4.3125s-2.5 3.9507-2.5 4.7812c0 0.83051-0.90169 2.137-2 2.9062-1.0983 0.76929-2.4871 2.9381-3.0938 4.8125-0.60666 1.8744-1.955 5.3248-3 7.6562-1.045 2.3315-1.9062 4.6098-1.9062 5.0625 0 0.45269-0.85512 2.6057-1.9062 4.7812-1.0511 2.1756-2.8949 6.8723-4.0938 10.438-1.1989 3.5652-2.6402 7.0241-3.1875 7.6875-0.54733 0.6634-0.68535 1.678-0.3125 2.2812 0.37285 0.60328-0.32785 1.9917-1.5625 3.0625-1.2347 1.0708-2.764 1.9375-3.4062 1.9375-1.6866 0-0.38511-8.9517 1.75-12 0.93872-1.3402 1.7188-3.7051 1.7188-5.25s0.6104-3.0504 1.375-3.3438c0.76459-0.2934 1.3958-1.5169 1.4062-2.7188 0.0301-3.462 1.9844-14.762 3.4062-19.688 1.6324-5.6551 7.5988-14 10-14 0.99412 0 1.8125-0.675 1.8125-1.5s0.92812-2.4281 2.0625-3.5625 1.8589-2.5969 1.625-3.25c-0.23391-0.65313 0.23486-2.5375 1.0312-4.1875 1.7828-3.6936 18.87-20.5 20.844-20.5 0.78715 0 1.4375-0.59093 1.4375-1.3125 0-1.7069 4.7425-5.1515 8.2812-6.0312 1.5265-0.37949 3.6505-1.588 4.75-2.6875 1.7703-1.7703 6.9161-4.4132 16.469-8.4688 6.9059-2.9319 25.619-6.4502 33.875-6.75 0.47633-0.0173 0.94025-0.0353 1.3438-0.0312zm-19.719 15.344c0.36327-0.0227 0.70849-0.0122 1.0312 0 1.1917 0.0452 2.0903 0.32511 2.4688 0.9375 0.95047 1.5379-0.4529 5-2.0312 5-0.76859 0-1.9188 0.98465-2.5625 2.1875-1.8261 3.412-4.3324 5.7648-8.5312 8-2.1265 1.132-5.7992 3.1295-8.1562 4.4375s-5.0958 2.375-6.0938 2.375c-0.99797 0-3.691 1.35-5.9688 3s-4.6015 3-5.1562 3c-0.55476 0-1 0.45-1 1s-0.94047 1-2.0938 1c-1.335 0-5.2792 3.3022-10.844 9.0938-9.2818 9.6604-12.741 16.091-12.188 22.656 0.15061 1.7875-0.15313 3.25-0.6875 3.25-0.87354 0-1.7599 4.0057-2.4375 11-0.13321 1.375-1.0905 3.7093-2.0938 5.1875-3.4637 5.1033-6.6158 24.155-4.625 27.875 0.7205 1.3463 1.2176 8.6851 1.3438 19.5 0.17286 14.82 0.46525 17.592 1.9375 19.219 1.4601 1.6134 1.696 3.7976 1.5312 14.312-0.36986 23.609 0.0306 38.346 1.1562 40.906 0.1209 0.275 0.155 0.91169 0.0625 1.4062-0.0925 0.49456 0.14988 1.6196 0.53125 2.5 0.67742 1.5639 0.87051 2.6567 1.2188 6.4688 0.14869 1.6277 0.38908 1.693 1.8438 0.5 1.4882-1.2205 1.6295-1.1146 1.125 0.84375-0.31199 1.2111-0.15329 2.3343 0.34375 2.5 0.49704 0.16568-0.0378 0.86403-1.1562 1.5625-1.7853 1.1149-2.136 0.99573-2.9375-1-0.50215-1.2503-0.93385-1.7188-0.96875-1.0312-0.13528 2.6677-2.6613 0.53641-4.4375-3.75-2.4679-5.9557-2.6242-7.9026-2.5312-28.5 0.0174-3.85-0.0436-7-0.125-7s-0.29704-3.6-0.46875-8c-0.60892-15.603-2.6336-33.831-4.0625-36.594-1.0648-2.0591-1.4273-6.3206-1.375-16.094 0.0975-18.225 1.1673-26.985 4.375-35.781 1.9773-5.422 2.806-9.6981 2.9688-15.5 0.20009-7.1344 0.65307-8.8531 4.125-15.531 6.1111-11.755 15.622-22.369 23.844-26.625 2.68-1.3873 7.0049-4.0334 9.625-5.875s7.7376-4.7369 11.375-6.4375 6.625-3.7232 6.625-4.5c0-3.0312 9.5509-7.1592 15-7.5zm38.188 0.0937c0.54679-0.0185 1.19 0.15965 2.0312 0.5625 1.2486 0.59788 4.5312 1.6679 7.2812 2.3438 8.9252 2.1934 23.127 13.08 28.812 22.094 1.1654 1.8477 2.586 4.0982 3.1562 5 4.747 7.5074 8.5312 14.121 8.5312 14.906 0 0.52053 0.45 0.9375 1 0.9375s1 1.2725 1 2.8125 0.48622 3.2987 1.0938 3.9062c0.60754 0.60754 1.308 3.4975 1.5625 6.4375 0.25448 2.94 1.3433 7.8446 2.4062 10.906 1.063 3.0616 1.9375 6.2479 1.9375 7.0625 0 0.81457 1.575 4.5535 3.5 8.3125s3.5 7.5826 3.5 8.5c0 0.91735 0.41971 2.1025 0.9375 2.625 1.6509 1.666 2.3257 15.052 0.875 17.375-2.3892 3.8257-3.8125 2.4596-3.8125-3.625 0-6.26-1.0398-10.242-4.625-17.906-1.3121-2.805-2.375-6.2925-2.375-7.75 0-1.4576-0.45-2.6562-1-2.6562s-1-1.5173-1-3.375c0-1.8576-0.675-3.9403-1.5-4.625-0.83738-0.69496-1.5-2.8777-1.5-4.9375 0-2.0293-0.9-5.5358-2-7.8125s-2-5.1163-2-6.2812c0-1.165-1.35-4.0706-3-6.4688s-3-4.6313-3-4.9688c0-0.33741-1.0824-1.7911-2.4062-3.2188s-3.2363-4.3205-4.25-6.4375-2.1812-3.8378-2.5938-3.8438c-0.4125-0.006-0.75-0.70625-0.75-1.5312 0-0.825-0.45-1.5-1-1.5s-1.0244-1.0125-1.0625-2.25c-0.0683-2.2202-9.756-11.019-13.688-12.438-0.96381-0.34774-2.875-1.4016-4.25-2.3438-1.375-0.94211-3.9154-2.0294-5.6562-2.4062-4.4695-0.96751-9.181-5.1315-7.5938-6.7188 0.44644-0.44644 0.89071-0.66899 1.4375-0.6875zm0.40625 23.844c0.23801-0.0124 0.50523 0 0.8125 0 7.9594 0 15.482 15.35 17.062 34.812 0.67226 8.2785 3.2001 20.233 4.5938 21.656 0.51176 0.5225 0.9375 1.8142 0.9375 2.9062s0.86544 2.9214 1.9375 4.0625c1.072 1.1412 3.5963 5.2303 5.5938 9.0625 2.9398 5.64 3.7966 8.6659 4.5625 15.969 0.5204 4.9621 1.325 11.956 1.7812 15.531 0.86711 6.795-0.65001 24.268-2.3438 26.969-0.50429 0.80416-0.80572 2.9008-0.6875 4.6562 0.12515 1.8583-0.46325 3.8695-1.4062 4.8125-1.8974 1.8974-5.4375 11.108-5.4375 14.156 0 1.16-0.84503 2.8491-1.875 3.7812-1.4754 1.3352-1.7704 2.6486-1.375 6.1562 0.27942 2.479 0.0344 5.0308-0.5625 5.75-0.60653 0.73081-0.71666 1.8699-0.25 2.625 0.45361 0.73397 0.51213 2.5212 0.125 3.9688-1.0075 3.7672-4.0006 4.0943-3.9688 0.4375 0.0135-1.5491-0.18234-4.6142-0.4375-6.8125-0.51702-4.4545 2.6751-18.721 4.9062-21.906 0.78624-1.1225 1.4375-3.0298 1.4375-4.25s0.34627-2.4499 0.78125-2.7188c0.43499-0.26884 0.89374-2.1457 1.0312-4.1875 0.13751-2.0418 0.69124-4.5144 1.2188-5.5 0.5275-0.98565 0.96875-2.7507 0.96875-3.9062s0.77589-3.2798 1.7188-4.7188c1.3683-2.0883 1.6966-4.86 1.6562-13.719-0.0421-9.23-0.504-12.582-2.8125-20-2.6851-8.6278-4.8691-13.359-8.5625-18.594-1.7543-2.4862-7.3793-17.317-9.0938-24-0.49385-1.925-1.1138-6.425-1.4062-10-0.99344-12.143-1.49-13.825-6.4688-22.156-2.7368-4.5799-5.2678-9.8062-5.625-11.594-0.52683-2.6362-0.4786-3.1634 1.1875-3.25zm-30.969 1.0625c4.7851 0.0956 12.101 4.2363 18.531 10.5 6.3696 6.2045 7.8438 8.7196 7.8438 13.375 0 1.5469 0.7162 3.4279 1.5938 4.1562 1.1718 0.97252 1.4376 2.2944 1 5.0312-0.59316 3.7094 1.0615 6.875 3.5938 6.875 0.57397 0 0.30718 1.125-0.59375 2.5-1.3431 2.0499-1.3787 2.5-0.21875 2.5 1.8939 0 2.9482 4.5588 1.625 7.0312-0.73389 1.3713-0.74842 2.5663-0.0312 3.9062 0.56935 1.0638 1.0312 3.1028 1.0312 4.5312s0.67816 2.8721 1.5 3.1875c2.1308 0.81766 0.82061 2.3438-2 2.3438-1.3101 0-2.6823 0.46666-3.0312 1.0312-0.34893 0.56459-1.3489 0.90209-2.25 0.75-0.95346-0.16093-1.8019 0.53347-2.0312 1.6562-0.21675 1.0611-0.9493 2.4806-1.625 3.1562-1.5008 1.5008-8.5433 3.539-9.7188 2.8125-1.3921-0.86039-2.0926 2.275-0.96875 4.375 0.85173 1.5915 0.53423 2.3988-1.7188 4.4062-1.5144 1.3493-3.19 2.3117-3.75 2.125-0.59922-0.19974-1.0312 1.6894-1.0312 4.5938 0 2.7143-0.55169 5.6025-1.2188 6.4062-0.80705 0.97243-1.1152 4.5757-0.9375 10.812 0.14687 5.155-0.17634 10.05-0.71875 10.875-0.54242 0.825-1.6932 3.525-2.5625 6-1.1749 3.3453-2.1211 4.5072-3.6562 4.5312-1.1358 0.0178-2.7681 0.63792-3.6562 1.375-1.2347 1.0247-1.9638 1.0734-3.0312 0.1875-1.0973-0.91067-2.4352-0.47963-6.25 2.0625-2.6696 1.779-5.1729 3.7074-5.5625 4.2812-0.48221 0.71029-1.0754 0.67463-1.875-0.125-0.8995-0.8995-2.3245-0.71105-6.0312 0.75-6.9822 2.7521-8.8854 4.12-9.5625 6.9375-0.33042 1.375-1.021 3.0625-1.5625 3.75-0.54151 0.6875-1.296 1.25-1.6562 1.25-1.6198 0-5.2645-3.4056-6.75-6.3125-0.89637-1.7541-2.1988-3.5217-2.9062-3.9375-0.70751-0.41577-1.5772-2.1096-1.9375-3.75s-1.0861-3.2175-1.5938-3.5312c-0.50768-0.31377-0.90625-1.6812-0.90625-3.0312s-0.42719-3.2325-0.9375-4.1875c-3.7193-6.9606-4.8078-16.728-3.125-27.75 0.50384-3.3 1.1783-8.25 1.5-11 0.63021-5.3877 2.4894-13.733 5-22.469 0.8643-3.0074 1.5625-6.9148 1.5625-8.6875s0.45-3.5038 1-3.8438c0.55-0.33992 1-1.9284 1-3.5312s0.86912-4.8353 1.9375-7.1875 3.1448-7.6562 4.625-11.781c2.2235-6.1966 3.6606-8.4098 8.2812-12.781 8.2196-7.7762 26.071-16.31 33.781-16.156zm-56.469 21.156c0.094-0.008 0.19089-0.0129 0.28125 0 2.1782 0.31163 3.2905 4.425 2.0625 7.625-0.35147 0.91604-0.4855 1.7327-0.3125 1.8125s-0.50892 1.0299-1.5 2.125c-1.2588 1.391-1.721 3.3137-1.5625 6.375 0.13388 2.5864-0.39944 5.4103-1.3125 6.875-0.89502 1.4358-1.599 4.9519-1.6562 8.3438-0.0544 3.2244-0.6167 6.4869-1.25 7.25-0.6333 0.76308-0.79609 1.375-0.34375 1.375 0.45235 0 0.285 0.55875-0.375 1.2188-0.66 0.66-1.1875 2.0363-1.1875 3.0625s-0.54491 2.8306-1.1875 4.0312c-0.64258 1.2007-1.2746 3.5368-1.4375 5.1875-0.61348 6.2143-0.68923 31.193-0.0937 32.156 0.76371 1.2357 2.3245 11.458 3.1875 20.844 0.35397 3.85 0.87782 7.7875 1.1562 8.75 0.58725 2.0301-0.63527 2.2532-2.25 0.40625-3.8142-4.3626-7.0966-21.933-7.9062-42.156-0.24221-6.05-0.67461-11.562-0.9375-12.25-0.26289-0.6875-0.0327-1.25 0.5-1.25 0.53274 0 0.96875-1.9225 0.96875-4.2812s0.9-6.0612 2-8.2188 2-4.4479 2-5.0938c0-0.64584 0.67839-2.4559 1.5-4.0312 0.82161-1.5754 1.497-4.0825 1.5-5.5625s0.35771-2.9064 0.8125-3.1875c0.45478-0.28107 0.51167-2.8986 0.125-5.8125-0.41818-3.1514-0.28272-5.8175 0.3125-6.5625 0.55036-0.68887 0.69333-2.6896 0.34375-4.4375-0.89528-4.4764 3.6492-14.355 6.5625-14.594zm19.594 42.125c-5.1982 0.0295-9.75 1.7072-9.75 3.8125 0 0.65492 0.94798 0.46627 2.375-0.46875 2.8881-1.8924 10.159-1.5587 16.625 0.78125 8.0764 2.9229 13.331 4.4569 13.969 4.0625 0.34487-0.21314 1.2638 0.026 2.0625 0.53125 2.1043 1.3312 2.9688 1.1663 2.9688-0.59375 0-2.7542-13.541-6.9368-26-8.0312-0.75706-0.0665-1.5074-0.0981-2.25-0.0937zm-63.781 12.656c1.4801 0 1.8168 0.67214 1.6562 3.25-0.11134 1.7875 0.18825 3.8153 0.6875 4.5 0.57557 0.78944 0.39212 2.0701-0.53125 3.5-0.97893 1.5159-1.2007 3.1839-0.6875 5.0625 0.41983 1.537 0.61319 6.037 0.4375 10-0.19861 4.4803 0.14378 7.9439 0.90625 9.1875 0.7865 1.2821 1.0689 4.423 0.78125 8.75-0.37345 5.6171-0.74842 6.75-2.2188 6.75-1.423 0-3.2396-3.0751-2.875-4.875 0.0419-0.20702-0.30008-0.65702-0.78125-1-1.7538-1.2501-3.0597-5.7038-2.5938-8.875 0.26264-1.7875 0.066-3.25-0.4375-3.25-0.50346 0-0.9335-2.925-0.9375-6.5s0.40145-6.5 0.90625-6.5 0.64914-1.0962 0.3125-2.4375c-0.33665-1.3413-0.14577-2.7213 0.40625-3.0625 0.55202-0.34117 0.997-2.0575 1-3.8125 0.01-5.5981 1.9079-10.688 3.9688-10.688zm71.594 1.0625c-3.1094 0.0581-6.0738 0.46711-7.7812 1.3125-5.4509 2.6989-7.4938 4.5888-5.9688 5.5312 0.85918 0.531 2.3441-0.2191 4.25-2.125 1.6051-1.6051 3.3886-2.6086 3.9688-2.25 0.58018 0.35857 1.6991 0.10219 2.5-0.5625 1.1403-0.94642 1.7941-0.94354 2.9688 0.0312 2.1651 1.7969 1.8444 3.7689-0.75 4.5938-2.1706 0.69009-2.1794 0.71779-0.25 1.4062 2.7974 0.99817 4.4251 0.19502 5.125-2.5938 0.32988-1.3143 0.92055-2.4062 1.3438-2.4062 0.97098 0 7.956 2.7325 10.219 4 2.5229 1.4132 2.9358-0.20879 0.75-3.0312-1.5189-1.9613-2.106-2.1807-2.8125-1.0938-0.72613 1.1171-1.0711 1.0303-1.875-0.40625-0.90849-1.6234-6.5052-2.5032-11.688-2.4062zm71.375 1.9375c0.58246 0 1.0625 0.45 1.0625 1s-0.19496 1-0.4375 1-0.72258-0.45-1.0625-1-0.14496-1 0.4375-1zm-9.0938 0.5c0.37865-0.0164 0.77279 0 1.25 0 3.6474 0 3.9864 0.22091 3.5938 2.2812-0.23835 1.2506-0.0387 2.5182 0.4375 2.8125 1.4358 0.88737 0.9767 4.4359-0.65625 5.0625-1.1888 0.45617-1.2529 0.90458-0.34375 2 0.99685 1.2011 1.5038 1.1711 3.625-0.21875 1.9456-1.2748 3.0127-1.411 4.875-0.5625 3.1018 1.4133 3.0592 3.1286-0.0625 2.5625-1.3398-0.24296-2.7199 0.008-3.0625 0.5625-0.34262 0.55438-0.0116 1 0.75 1 1.8858 0 5.75 4.2356 5.75 6.3125 0 2.2889 1.2519 2.1239 2.8125-0.375 1.5716-2.5165 5.4932-2.2516 6 0.40625 0.28047 1.4708-0.0526 1.7163-1.7188 1.1875-1.743-0.55321-2.0938-0.24629-2.0938 1.8438 0 2.6596 2.1181 4.802 2.7812 2.8125 0.21579-0.64738 0.78053-1.1875 1.2812-1.1875 1.018 0 0.77229 2.8306-0.40625 4.7188-0.42203 0.67614-0.20881 2.2298 0.4375 3.4375 1.589 2.9691-0.59754 15.844-2.6875 15.844-0.77505 0-1.4062 0.829-1.4062 1.8438s-0.88172 2.6412-1.9688 3.625c-1.087 0.98375-1.732 2.1798-1.4375 2.6562 0.29449 0.47649-0.39879 0.875-1.5312 0.875-1.1325 0-2.0625 0.45-2.0625 1 0 1.7254-1.4351 1.0368-3.375-1.625-1.3438-1.8438-2.5228-2.418-4.2188-2.0938-3.4216 0.65408-6.0922-2.5478-4.625-5.5312 0.60597-1.2322 1.3237-3.825 1.5938-5.75 1.0929-7.7899 2.8288-14.36 4.1875-15.719 1.5837-1.5837 1.0514-3.2812-1.0312-3.2812-0.7337 0-1.5897-0.675-1.9062-1.5-0.31658-0.825-1.2061-1.5-2-1.5-2.0105 0-3.3534-7.9364-1.5312-9.0625 1.0007-0.61847 0.68015-1.3209-1.375-2.9375-3.4291-2.6973-3.5335-5-0.21875-5 1.375 0 2.5-0.45 2.5-1s-0.47634-1-1.0625-1c-1.9621 0-4.9375 2.0492-4.9375 3.4062 0 1.734-2.6682 3.9561-3.375 2.8125-0.29746-0.4813 0.59708-3.0734 1.9688-5.7812 2.0696-4.0858 2.5994-4.8224 5.25-4.9375zm12.812 5.7188c1.2762-0.17732 2.6571 1.4726 1.9062 2.6875-0.36954 0.59792-1.0726 1.0938-1.5312 1.0938-1.3302 0-2.0547-2.8527-0.90625-3.5625 0.17239-0.10654 0.34893-0.19342 0.53125-0.21875zm-65.094 1.8125c-0.58238 0.0175-0.19262 0.6925 0.875 1.5 1.0676 0.80751 2.4176 1.455 3 1.4375 0.58238-0.0175 0.19262-0.6925-0.875-1.5-1.0676-0.80751-2.4176-1.455-3-1.4375zm72.062 8.4062c0.17571-0.008 0.31652 0.0309 0.46875 0.125 1.4396 0.88974 1.0296 2.4375-0.65625 2.4375-0.85748 0-1.2774 0.45-0.9375 1 0.33992 0.55 0.4 1 0.125 1s-0.80144-0.45716-1.1562-1.0312c-0.69823-1.1298 0.92627-3.4728 2.1562-3.5312zm-39.219 25.562c2.3185-0.026 4.5841 0.43883 4.875 1.25 0.24651 0.6875 0.0263 2.0375-0.46875 3-1.1024 2.1434-2.8125 2.296-2.8125 0.25 0-1.0476-1.0556-1.5-3.5-1.5-3.6219 0-4.7074-1.3121-1.9375-2.375 1.0353-0.39728 2.4526-0.60937 3.8438-0.625zm-27.062 2c-0.92232 0.23354-0.10349 2.1795 1.75 3.9062 2.0063 1.8691 4.9062 1.8877 4.9062 0.0312 0-0.79022-5.168-3.9375-6.4688-3.9375-0.0774 0-0.12601-0.0156-0.1875 0zm62.594 6c-0.58246 0-0.77742 0.45-0.4375 1s0.81996 1 1.0625 1 0.4375-0.45 0.4375-1-0.48004-1-1.0625-1zm-48.75 18.219c1.6663-0.077 2.7183 0.28804 3.7812 1.25 1.1946 1.0811 2.6549 1.4795 3.9688 1.0625 2.0567-0.65277 2.9124 0.83286 1.125 1.9375-1.5014 0.92794-24.987 1.4437-25.531 0.5625-0.86577-1.4008 1.8054-2.7936 6.4688-3.375 2.475-0.30854 6.1942-0.85524 8.2812-1.2188 0.71374-0.12432 1.3508-0.19309 1.9062-0.21875zm-9.2188 7.3438c0.44513-0.0104 0.86545-0.008 1.3125 0 1.6506 0.0297 3.2766 0.19111 4.8438 0.5 2.9468 0.58081 6.9262 1.0726 8.8438 1.0938 2.2286 0.0246 4.3013 0.86383 5.7188 2.2812 2.1462 2.1462 2.1635 2.2499 0.375 3.7812-1.0163 0.87018-2.2365 2.2945-2.7188 3.1562-0.55608 0.99367-2.9003 1.768-6.375 2.125-3.0135 0.30957-7.2688 0.74694-9.4688 0.96875-2.2 0.22182-5.35-0.0931-7-0.6875-3.3646-1.212-8.5-6.0842-8.5-8.0625 0-2.804 6.2919-4.9994 12.969-5.1562zm-21.719 5.5625c1.8189-0.16756 3.5905 1.1919 6.25 4.4375 3.4686 4.233 5.9991 10.626 4.7188 11.906-0.30253 0.30253-1.4792 0.53825-2.625 0.53125-1.423-0.009-3.7609-2.318-7.375-7.25-4.8429-6.6089-5.148-7.3094-3.5625-8.4688 0.92831-0.67879 1.767-1.0801 2.5938-1.1562zm-61.156 8.875c1.1367 0 2.9708 3.5917 2.2188 4.3438-0.33403 0.33403-0.0842 1.2272 0.53125 1.9688 0.61542 0.74155 0.88159 2.447 0.59375 3.7812-0.28783 1.3342-0.67913 4.5808-0.84375 7.2188-0.38916 6.2358-2.5553 8.8148-2.6562 3.1562-0.0387-2.1725-0.2132-7.6812-0.375-12.219-0.1618-4.5375 0.0751-8.25 0.53125-8.25zm23.344 28c2.4524 0 2.7258 1.8367 0.59375 3.9688-1.1201 1.1201-2.0312 2.4812-2.0312 3.0312s-0.45 1-1 1-1-0.70504-1-1.5625c0-0.85744 0.47572-1.2689 1.0625-0.90625 0.58679 0.36265 0.97695 0.0552 0.875-0.6875-0.41909-3.053 0.14143-4.8438 1.5-4.8438zm-5.8125 1c0.0602-0.0177 0.10461 0 0.1875 0 0.58488 0 1.3562 0.47591 1.7188 1.0625 1.0763 1.7414-0.15971 2.1214-1.5312 0.46875-0.69016-0.83159-0.7966-1.4071-0.375-1.5312zm12.406 0.40625c0.18797-0.0272 0.3739-0.0116 0.5625 0 0.25147 0.0155 0.49273 0.0695 0.71875 0.15625 2.0492 0.78635 8.6875 9.9092 8.6875 11.938 0 0.82373-0.45 1.5-1 1.5s-1-0.45424-1-1c0-0.54575-1.35-2.1861-3-3.6562-1.65-1.4702-3-3.296-3-4.0625 0-0.76669-0.45-1.1212-1-0.78125-0.55 0.33992-1-0.33508-1-1.5 0-1.4043-0.42132-1.8741-1.25-1.4062-0.91457 0.51634-0.94847 0.39423-0.15625-0.46875 0.33499-0.36491 0.87359-0.63717 1.4375-0.71875zm11.406 13.594c0.24254 0 0.72258 0.45 1.0625 1s0.14496 1-0.4375 1-1.0625-0.45-1.0625-1 0.19496-1 0.4375-1z"
    />
  </g>
  <metadata>
    <rdf:RDF>
      <cc:Work>
        <dc:format>image/svg+xml</dc:format>
        <dc:type rdf:resource="http://purl.org/dc/dcmitype/StillImage" />
        <cc:license
          rdf:resource="http://creativecommons.org/licenses/publicdomain/"
        />
        <dc:publisher>
          <cc:Agent rdf:about="http://openclipart.org/">
            <dc:title>Openclipart</dc:title>
          </cc:Agent>
        </dc:publisher>
        <dc:title>free mumia abu-jamal</dc:title>
        <dc:date>2010-12-31T17:12:51</dc:date>
        <dc:description />
        <dc:source
          >https://openclipart.org/detail/102787/free-mumia-abu-jamal-by-worker</dc:source
        >
        <dc:creator>
          <cc:Agent>
            <dc:title>worker</dc:title>
          </cc:Agent>
        </dc:creator>
        <dc:subject>
          <rdf:Bag>
            <rdf:li>abu</rdf:li>
            <rdf:li>capitalsim</rdf:li>
            <rdf:li>famous-people</rdf:li>
            <rdf:li>free</rdf:li>
            <rdf:li>jamal</rdf:li>
            <rdf:li>justice</rdf:li>
            <rdf:li>mumia</rdf:li>
            <rdf:li>police</rdf:li>
            <rdf:li>racism</rdf:li>
            <rdf:li>usa</rdf:li>
          </rdf:Bag>
        </dc:subject>
      </cc:Work>
      <cc:License rdf:about="http://creativecommons.org/licenses/publicdomain/">
        <cc:permits rdf:resource="http://creativecommons.org/ns#Reproduction" />
        <cc:permits rdf:resource="http://creativecommons.org/ns#Distribution" />
        <cc:permits
          rdf:resource="http://creativecommons.org/ns#DerivativeWorks"
        />
      </cc:License>
    </rdf:RDF>
  </metadata>
</svg>
