<?xml version="1.0" encoding="UTF-8" standalone="no"?>
<!-- Created with Inkscape (http://www.inkscape.org/) -->
<svg
  xmlns:dc="http://purl.org/dc/elements/1.1/"
  xmlns:cc="http://creativecommons.org/ns#"
  xmlns:rdf="http://www.w3.org/1999/02/22-rdf-syntax-ns#"
  xmlns:svg="http://www.w3.org/2000/svg"
  xmlns="http://www.w3.org/2000/svg"
  xmlns:sodipodi="http://sodipodi.sourceforge.net/DTD/sodipodi-0.dtd"
  xmlns:inkscape="http://www.inkscape.org/namespaces/inkscape"
  width="736.5907"
  height="433.69299"
  id="svg3809"
  version="1.1"
  inkscape:version="0.48.4 r9939"
  sodipodi:docname="my_body_my_choice_1.svg"
>
  <defs id="defs3811" />
  <sodipodi:namedview
    id="base"
    pagecolor="#ffffff"
    bordercolor="#666666"
    borderopacity="1.0"
    inkscape:pageopacity="0.0"
    inkscape:pageshadow="2"
    inkscape:zoom="0.32062162"
    inkscape:cx="371.92527"
    inkscape:cy="206.29101"
    inkscape:document-units="px"
    inkscape:current-layer="layer1"
    showgrid="false"
    fit-margin-top="0"
    fit-margin-left="0"
    fit-margin-right="0"
    fit-margin-bottom="0"
    inkscape:window-width="1280"
    inkscape:window-height="749"
    inkscape:window-x="0"
    inkscape:window-y="26"
    inkscape:window-maximized="1"
  />
  <metadata id="metadata3814">
    <rdf:RDF>
      <cc:Work rdf:about="">
        <dc:format>image/svg+xml</dc:format>
        <dc:type rdf:resource="http://purl.org/dc/dcmitype/StillImage" />
        <dc:title />
      </cc:Work>
    </rdf:RDF>
  </metadata>
  <g
    inkscape:label="Layer 1"
    inkscape:groupmode="layer"
    id="layer1"
    transform="translate(-10.931892,-184.96021)"
  >
    <path
      style="fill: #000000"
      d="M 572.25 25.71875 C 569.59636 25.743999 567.48834 25.83143 564.875 25.96875 C 561.64706 26.13832 557.80274 26.58694 556.3125 26.96875 C 554.82237 27.35066 553.39028 27.50769 553.125 27.34375 C 552.85972 27.17981 552.47346 27.31403 552.28125 27.625 C 552.08913 27.93597 550.79978 28.34135 549.40625 28.53125 C 548.01273 28.72115 546.08055 29.0053 545.125 29.15625 C 542.38837 29.58829 535.79065 31.89311 533.40625 33.25 C 532.21189 33.92971 530.15757 35.00835 528.84375 35.65625 C 527.52994 36.30416 526.17077 37.00922 525.8125 37.21875 C 525.45413 37.42827 524.3617 37.98791 523.40625 38.46875 C 522.4507 38.9495 520.69436 39.92266 519.5 40.625 C 518.30554 41.32735 516.93797 42.08537 516.4375 42.3125 C 515.93713 42.53954 515.24399 42.99388 514.90625 43.3125 C 514.56851 43.63111 513.01937 44.55314 511.46875 45.34375 C 508.40666 46.90473 505.60416 48.90666 503.21875 51.25 C 501.39481 53.04154 498.92216 54.746 497.53125 55.1875 C 495.76185 55.74895 494.06463 57.27742 492.09375 60.09375 C 491.04099 61.59818 490.1875 62.92634 490.1875 63.0625 C 490.1875 63.19866 489.62656 63.96523 488.9375 64.75 C 488.24844 65.53477 487.61885 66.32897 487.53125 66.53125 C 487.4439 66.73354 486.67596 67.44937 485.8125 68.09375 C 484.80029 68.84913 484.11633 69.76169 483.9375 70.65625 C 483.78483 71.41929 482.92622 72.84482 482.03125 73.84375 C 479.15165 77.0578 476.9612 79.90404 476.125 81.46875 C 475.67656 82.30797 474.74875 83.62158 474.0625 84.40625 C 473.37636 85.19091 472.8125 86.03691 472.8125 86.28125 C 472.8125 86.5253 471.37538 89.68343 469.625 93.3125 C 466.32571 100.15302 465.25037 102.61863 464.75 104.46875 C 464.58848 105.06593 464.17616 105.8704 463.84375 106.25 C 463.23691 106.94319 461.63372 112.51569 460.40625 118.125 C 460.04406 119.78069 459.17588 123.09447 458.5 125.5 C 455.64603 135.65903 455.40625 137.62706 455.40625 148.4375 C 455.40806 154.29227 455.5737 157.47122 456 159 C 456.33582 160.20402 456.67245 162.75028 456.71875 164.65625 C 456.76474 166.56202 457.07983 169.38929 457.4375 170.9375 C 457.79516 172.4857 458.26707 174.74314 458.46875 175.9375 C 458.67032 177.13196 459.11722 178.78891 459.46875 179.625 C 460.93885 183.12134 462.05315 187.18259 462.25 189.71875 C 462.45892 192.41069 463.17633 194.59366 465.34375 199.15625 C 465.96781 200.47017 466.4889 201.65555 466.5 201.78125 C 466.52093 202.01925 469.62697 207.39134 471.28125 210.03125 C 471.80516 210.86735 472.6674 212.425 473.1875 213.5 C 474.55083 216.31815 475.17007 217.31048 476.375 218.625 C 476.96312 219.26667 477.96245 220.70338 478.59375 221.8125 C 479.35064 223.14192 480.45966 224.23833 481.8125 225.03125 C 482.94114 225.69264 484.85103 227.222 486.0625 228.4375 C 491.93729 234.33132 497.13384 238.98548 499.8125 240.71875 C 500.85078 241.39051 503.2764 243.21866 505.1875 244.78125 C 507.0985 246.34385 509.22086 247.96355 509.9375 248.40625 C 510.65413 248.84905 511.74657 249.675 512.34375 250.21875 C 513.66492 251.42146 516.47998 253.03125 517.28125 253.03125 C 517.60309 253.03125 518.12044 253.31187 518.40625 253.65625 C 519.21718 254.63354 523.95234 256.79204 527.5 257.8125 C 529.27102 258.32193 531.24099 259.12499 531.875 259.59375 C 532.58792 260.12079 534.00047 260.5212 535.59375 260.65625 C 537.01083 260.77652 539.01985 261.08833 540.03125 261.34375 C 541.5715 261.73261 542.04264 261.68978 543 261.0625 C 544.03989 260.38119 544.13812 260.15034 543.90625 258.3125 C 543.68536 256.56212 543.07167 232.60677 543.1875 230.21875 C 543.2468 229.00084 543.26605 224.6794 543.21875 224.0625 C 543.14831 223.15626 539.37162 220.93558 536.34375 220.03125 C 534.72591 219.54799 532.69358 218.7946 531.8125 218.34375 C 529.94427 217.3879 526.25 214.23109 526.25 213.59375 C 526.25 213.35303 525.43557 212.49159 524.46875 211.6875 C 523.50193 210.8834 522.1088 209.59435 521.34375 208.8125 C 520.57871 208.03065 518.94391 206.37361 517.71875 205.125 C 516.49349 203.8763 515.24853 202.41925 514.96875 201.875 C 514.68888 201.33086 514.30186 200.99639 514.09375 201.125 C 513.70851 201.36311 512.34375 198.99425 512.34375 198.09375 C 512.34375 197.82183 511.45001 196.74248 510.375 195.6875 C 509.3001 194.63252 508.4375 193.61135 508.4375 193.40625 C 508.4375 193.20115 507.96901 192.41667 507.40625 191.65625 C 506.37844 190.26726 505.65228 188.88782 503.46875 184.28125 C 502.81954 182.91188 502.11396 181.69081 501.90625 181.5625 C 501.3463 181.21641 500.1875 178.71884 500.1875 177.875 C 500.1875 177.47184 499.41534 175.5987 498.46875 173.6875 C 497.52206 171.7761 496.59721 169.37342 496.4375 168.375 C 496.27789 167.37648 495.98917 166.47226 495.78125 166.34375 C 495.57334 166.21534 495.53695 165.06246 495.6875 163.78125 C 495.91414 161.85294 495.7965 161.17574 495.03125 159.9375 C 494.52273 159.11469 494.09375 157.95693 494.09375 157.34375 C 494.09375 156.73056 493.91614 155.7263 493.6875 155.125 C 493.35076 154.23931 493.3936 154.0845 493.90625 154.28125 C 494.40692 154.47337 494.53535 154.02815 494.59375 152.1875 C 494.69509 149.01199 494.73472 148.62456 495 148.125 C 495.5222 147.14208 495.45392 141.4706 494.90625 140.59375 C 494.42209 139.81854 494.47203 139.50672 495.21875 138.46875 C 495.69799 137.80264 496.14835 136.51448 496.21875 135.59375 C 496.2895 134.67313 496.70479 132.81749 497.15625 131.46875 C 497.6077 130.12011 497.9899 128.62602 498 128.15625 C 498.00584 127.68647 498.26456 126.526 498.59375 125.5625 C 498.92303 124.59889 499.41482 123.01805 499.65625 122.0625 C 500.28483 119.57425 501.80347 115.46536 503.03125 112.96875 C 503.61233 111.78717 504.09284 110.5274 504.09375 110.15625 C 504.09476 109.7851 504.69162 108.60626 505.40625 107.53125 C 506.12077 106.45634 506.68659 105.33382 506.6875 105.0625 C 506.68981 104.4312 507.50703 102.89103 508.75 101.15625 C 509.2875 100.4061 509.71965 99.60823 509.71875 99.40625 C 509.71784 99.20427 510.41551 98.36734 511.25 97.53125 C 512.08448 96.69515 513.63242 94.92367 514.6875 93.59375 C 515.74268 92.26373 517.80309 90.30881 519.28125 89.25 C 520.75961 88.1911 523.28514 86.33406 524.875 85.125 C 526.46507 83.91585 528.44516 82.64289 529.28125 82.3125 C 530.8999 81.67275 533.32218 80.16562 533.5625 79.625 C 533.64211 79.44577 533.99222 79.28125 534.34375 79.28125 C 535.37699 79.28125 538.91397 77.53584 540.625 76.1875 C 541.49551 75.50146 542.38503 74.9375 542.59375 74.9375 C 542.80258 74.9375 543.66824 74.4903 544.5 73.9375 C 545.33187 73.3846 546.75782 72.89805 547.6875 72.84375 C 548.61729 72.7896 549.72814 72.54155 550.15625 72.3125 C 550.58437 72.08335 551.43855 71.90625 552.0625 71.90625 C 552.86307 71.90625 553.41892 71.52842 553.9375 70.625 C 554.79272 69.13476 556.10863 68.4375 558.0625 68.4375 C 559.68045 68.43468 562.38464 67.76951 564.28125 66.90625 C 565.01208 66.57331 565.97387 66.41058 566.4375 66.53125 C 566.90114 66.65191 568.4932 66.43853 569.96875 66.09375 C 572.13023 65.58892 572.85342 65.59851 573.6875 66.03125 C 574.2569 66.32652 576.56809 66.70553 578.8125 66.875 C 581.05711 67.04437 584.55262 67.64703 586.59375 68.21875 C 590.98696 69.44955 598.64626 72.05252 599.0625 72.46875 C 599.22362 72.62987 599.73614 72.78125 600.1875 72.78125 C 600.96975 72.78125 604.1925 74.26562 607.46875 76.125 C 608.30484 76.5996 610.35906 77.52622 612.03125 78.1875 C 613.70344 78.84869 615.45978 79.70816 615.9375 80.125 C 616.41533 80.54194 617.77429 81.5466 618.96875 82.34375 C 620.16311 83.141 622.11804 84.75284 623.3125 85.90625 C 624.50686 87.05955 625.86603 88.08792 626.34375 88.21875 C 627.15298 88.44025 631.0471 93.01945 633.21875 96.3125 C 635.11536 99.18861 638.02873 105.5254 638.75 108.34375 C 639.01749 109.38886 639.69579 111.2445 640.25 112.46875 C 641.85083 116.00464 642.67581 118.39571 642.4375 118.78125 C 642.31634 118.97729 642.49106 119.35831 642.8125 119.625 C 643.13394 119.89169 643.81862 122.01551 644.34375 124.34375 C 644.86897 126.67179 645.87279 130.35009 646.59375 132.5 C 647.31472 134.64992 648.20795 138.26188 648.5625 140.53125 C 648.91714 142.80062 649.39232 145.81673 649.625 147.25 C 650.87149 154.92802 650.88484 155.56352 649.84375 165.9375 C 649.49635 169.39912 649.03033 171.64181 648.0625 174.625 C 647.51996 176.29708 646.95122 178.35151 646.78125 179.1875 C 646.61127 180.02359 646.23397 181.08477 645.9375 181.5625 C 645.64092 182.04032 645.25487 183.11469 645.09375 183.9375 C 644.74665 185.70871 641.36081 192.92888 639.9375 194.9375 C 639.38882 195.71181 638.7383 196.6688 638.5 197.0625 C 638.26179 197.45609 637.43266 198.66982 636.65625 199.78125 C 635.87993 200.89259 635.25 201.91612 635.25 202.03125 C 635.25 202.26705 623.51885 213.81547 621.0625 216 C 620.18866 216.77712 618.75149 217.59931 617.84375 217.84375 C 616.936 218.0882 615.63648 218.7354 614.96875 219.28125 C 614.30092 219.82701 612.8874 220.78672 611.8125 221.40625 C 610.73749 222.02577 609.34718 223.04705 608.75 223.6875 C 607.66422 224.85198 607.6875 224.85658 607.6875 236.4375 C 607.6875 242.80693 607.6219 250.06122 607.5625 252.53125 C 607.45633 256.91974 607.42951 257.03898 606.15625 258.15625 C 605.43961 258.78503 604.84375 259.67465 604.84375 260.125 C 604.84375 261.16177 609.03118 265.51008 610.25 265.75 C 611.84832 266.06459 611.98425 266.05437 613.53125 265.59375 C 615.03578 265.14571 618.17377 264.39697 619.84375 264.09375 C 620.32147 264.007 620.7531 263.92635 620.8125 263.90625 C 620.87218 263.88715 621.07087 263.86895 621.25 263.84375 C 621.6444 263.78739 623.72352 262.64488 627.21875 260.5625 C 630.65329 258.51604 634.49717 256.5 634.96875 256.5 C 635.17627 256.5 636.13785 255.8136 637.125 254.96875 C 638.11205 254.1238 639.42762 253.30076 640.03125 253.15625 C 641.74902 252.74494 644.07992 251.45801 645.03125 250.40625 C 645.50837 249.87861 646.43619 249.1838 647.09375 248.84375 C 647.75121 248.50379 648.28125 248.01498 648.28125 247.75 C 648.28125 247.19941 650.31304 245.21875 650.875 245.21875 C 651.40787 245.21875 657.84375 238.98694 657.84375 238.46875 C 657.84536 238.23105 659.50241 236.28985 661.53125 234.15625 C 663.5602 232.02264 665.21875 230.06771 665.21875 229.8125 C 665.22086 229.55728 666.19271 228.38186 667.375 227.1875 C 668.55729 225.99303 669.5524 224.84163 669.5625 224.65625 C 669.57266 224.47088 670.27658 223.36587 671.15625 222.1875 C 672.03602 221.00924 672.80755 219.64595 672.84375 219.15625 C 672.87988 218.66655 673.31234 217.81674 673.8125 217.28125 C 674.31257 216.74566 675.6289 214.55616 676.75 212.40625 C 677.8713 210.25633 679.26111 208.00343 679.8125 207.40625 C 680.36389 206.80907 680.92961 205.74789 681.09375 205.03125 C 681.36547 203.84515 683.05728 199.88199 683.96875 198.28125 C 685.50819 195.57763 686.01355 194.35768 686.28125 192.75 C 686.45012 191.73598 686.75742 190.81813 686.96875 190.6875 C 687.6388 190.27358 688.99267 186.8206 689.3125 184.6875 C 689.48207 183.55654 689.87648 181.94428 690.21875 181.125 C 690.56112 180.30581 690.84375 178.88435 690.84375 177.96875 C 690.84375 177.05326 691.20499 174.62738 691.65625 172.5625 C 692.1075 170.49773 692.4051 168.7176 692.3125 168.625 C 692.08217 168.39484 692.09512 165.73242 692.3125 161.8125 C 693.05419 148.43722 693.08965 145.98956 692.625 144.28125 C 692.35409 143.28504 692.05325 140.90229 691.96875 138.96875 C 691.88401 137.03541 691.61094 135.03062 691.34375 134.53125 C 691.07646 134.03189 690.84375 133.16929 690.84375 132.59375 C 690.84375 132.01821 690.44648 130.41994 689.96875 129.03125 C 689.49093 127.64266 689.125 125.7819 689.125 124.90625 C 689.125 124.03071 688.83241 122.43279 688.5 121.375 C 687.49102 118.16417 686.79596 114.60696 687.09375 114.125 C 687.24853 113.87452 687.18033 113.52505 686.9375 113.375 C 686.69476 113.22495 686.5 112.38092 686.5 111.46875 C 686.5 110.52447 686.2148 109.55785 685.84375 109.25 C 685.48548 108.95262 685.21875 108.28137 685.21875 107.75 C 685.21875 106.85051 684.89592 106.37914 682.59375 103.6875 C 682.11622 103.12906 681.61819 101.90347 681.46875 100.96875 C 681.3192 100.03413 681.06657 99.28125 680.90625 99.28125 C 680.74594 99.28125 680.36481 98.58609 680.0625 97.75 C 679.76008 96.9139 679.2832 96.22885 679 96.21875 C 678.71691 96.21121 678.12125 95.92263 677.6875 95.59375 C 677.04765 95.10868 676.99756 94.84184 677.40625 94.1875 C 677.81463 93.53356 677.67647 92.93163 676.75 91 C 676.12152 89.6897 675.24901 88.02913 674.78125 87.3125 C 674.31359 86.59586 673.49724 85.2368 673 84.28125 C 670.7112 79.8829 670.10296 78.89445 668.625 77.09375 C 667.7562 76.03515 666.46644 74.23246 665.75 73.09375 C 665.03346 71.95504 663.95824 70.6395 663.34375 70.15625 C 662.72946 69.67288 661.79943 68.51569 661.28125 67.59375 C 660.76317 66.67181 659.87919 65.67832 659.3125 65.375 C 658.74571 65.07168 658.28125 64.67179 658.28125 64.5 C 658.28125 64.32822 657.45273 63.30679 656.4375 62.25 C 655.42237 61.19311 653.28048 59.00115 651.6875 57.34375 C 645.68942 51.10274 643.19596 49.06789 638.9375 46.9375 C 637.98245 46.45968 636.82419 45.63523 636.34375 45.125 C 635.8633 44.61487 634.20687 43.68056 632.65625 43.03125 C 631.10564 42.38194 628.94991 41.23098 627.875 40.46875 C 626.79989 39.70653 624.58111 38.32054 622.9375 37.40625 C 621.29389 36.49206 619.14028 35.21634 618.15625 34.5625 C 617.17222 33.90866 615.68558 33.25442 614.84375 33.125 C 614.00192 32.99569 612.55519 32.45512 611.625 31.90625 C 610.69491 31.35747 609.59665 30.8699 609.21875 30.8125 C 608.84086 30.75473 607.07289 30.38202 605.28125 30 C 602.04606 29.31013 600.42643 29.00778 598.34375 28.71875 C 597.74657 28.63583 596.28811 28.34911 595.09375 28.0625 C 593.89929 27.77588 591.74578 27.38631 590.3125 27.21875 C 588.87923 27.05129 587.2636 26.67722 586.71875 26.375 C 586.1738 26.07275 584.48561 25.80135 583 25.78125 C 578.10254 25.715435 574.90364 25.693501 572.25 25.71875 z M 578.15625 72.03125 C 577.24239 72.071204 576.30953 72.187105 575.53125 72.34375 C 574.09808 72.63217 572.02383 73.0211 570.90625 73.21875 C 568.70783 73.60761 566.54623 75.23112 565.5 77.25 C 564.9156 78.37754 564.73202 84.13628 565.25 85.09375 C 565.3604 85.29774 565.5001 86.35892 565.5625 87.46875 C 565.6252 88.57858 565.772 89.99657 565.90625 90.59375 C 566.43943 92.96517 567.6389 100.45638 567.75 102.09375 C 567.81491 103.0492 567.92145 103.84375 567.96875 103.84375 C 568.01605 103.84375 568.09385 104.40836 568.15625 105.125 C 568.21895 105.84164 568.30245 106.4375 568.34375 106.4375 C 568.38552 106.4375 568.51893 107.11711 568.625 107.9375 C 568.73118 108.7578 569.06071 109.71968 569.375 110.09375 C 570.23918 111.12216 570.96875 114.09734 570.96875 116.59375 C 570.96875 117.82021 571.15712 118.8125 571.375 118.8125 C 571.59288 118.8125 571.9042 119.59442 572.0625 120.53125 C 572.2208 121.46798 572.58275 122.32528 572.875 122.4375 C 573.16725 122.54961 573.4406 123.43526 573.5 124.4375 C 573.55918 125.43975 573.77493 126.60268 573.96875 127 C 574.92159 128.95296 575.93213 130.77391 576.15625 130.96875 C 576.29372 131.0882 576.61123 131.58649 576.875 132.0625 C 577.13877 132.53851 577.93322 133.06206 578.625 133.21875 C 579.31678 133.37555 580.86804 133.72903 582.0625 134.03125 C 583.25686 134.33356 585.31118 134.70376 586.625 134.84375 C 589.37934 135.1373 591.62839 135.07686 593.40625 134.6875 C 594.09219 134.53725 595.22086 134.33288 595.9375 134.21875 C 596.65413 134.10463 597.87263 133.90685 598.625 133.78125 C 599.37736 133.65556 600.21006 133.25556 600.5 132.90625 C 600.79003 132.55733 601.22566 132.40032 601.4375 132.53125 C 601.64925 132.66208 601.8478 132.2023 601.875 131.53125 C 601.92431 130.33136 602.01848 129.67892 602.21875 129.25 C 602.49942 128.64829 602.45424 126.52792 602.15625 126.34375 C 601.96846 126.22772 601.8125 125.59471 601.8125 124.90625 C 601.8125 124.21779 601.61452 123.52304 601.375 123.375 C 601.13598 123.22707 600.97695 121.78552 601.03125 120.1875 C 601.0861 118.58959 600.97568 115.70554 600.78125 113.78125 C 600.48236 110.82423 600.54241 110.20221 601.125 109.71875 C 601.63955 109.29175 601.8125 108.34168 601.8125 105.96875 C 601.8125 104.22048 601.6114 102.67748 601.375 102.53125 C 601.1385 102.38523 600.9768 100.57756 601 98.5 C 601.02355 96.42245 600.78862 93.62642 600.5 92.3125 C 600.21137 90.99868 599.9404 87.54106 599.875 84.625 C 599.75645 79.32303 599.74628 79.33798 598.3125 78.125 C 597.52381 77.45787 596.3654 76.59815 595.75 76.21875 C 595.1345 75.83945 594.37488 75.22214 594.0625 74.84375 C 593.75012 74.46535 592.68894 74.0096 591.6875 73.84375 C 590.68606 73.6779 589.53107 73.3693 589.125 73.15625 C 588.71903 72.9431 587.26057 72.69335 585.875 72.59375 C 584.48952 72.49443 582.18327 72.28814 580.75 72.125 C 579.97172 72.03639 579.07011 71.991296 578.15625 72.03125 z M 557.5 76.28125 C 554.18219 76.24623 550.12088 76.95698 549.53125 77.6875 C 549.26013 78.02333 548.06937 78.55814 546.875 78.84375 C 545.08165 79.27266 542.07755 80.83123 539.9375 82.4375 C 537.39762 84.34366 536.62162 85.25437 535.875 87.25 C 534.78842 90.15399 534.66947 91.54821 535.28125 94.5 C 535.55357 95.81382 535.89016 99.30833 536.03125 102.28125 C 536.17225 105.25427 536.3649 107.83194 536.46875 108 C 536.57261 108.16806 536.75836 109.04872 536.875 109.96875 C 536.99174 110.88877 537.37664 112.82105 537.75 114.25 C 538.12337 115.67894 538.60378 118.63728 538.8125 120.84375 C 539.02123 123.05032 539.31991 125.07178 539.46875 125.3125 C 539.61749 125.55333 539.83455 126.27501 539.9375 126.9375 C 541.02418 133.93662 541.22381 134.78368 542.375 136.53125 C 543.05168 137.55845 543.625 138.53161 543.625 138.6875 C 543.625 138.84328 544.22192 139.60442 544.96875 140.375 C 546.24805 141.69431 546.49464 141.75231 549 141.625 C 553.79235 141.38166 558.96912 140.13115 563.5 138.09375 C 564.76119 137.52666 565.90923 137.0625 566.0625 137.0625 C 566.21577 137.0625 566.65407 136.78657 567.03125 136.46875 C 567.40834 136.15094 568.61325 135.56363 569.71875 135.15625 C 573.04169 133.93189 573.35477 133.31787 572.71875 129.375 C 572.20177 126.17081 571.75501 124.89012 570.71875 123.75 C 570.45609 123.46117 570.12413 122.01877 569.96875 120.53125 C 569.81327 119.04373 569.47507 117.55885 569.21875 117.25 C 568.96221 116.94124 568.78235 116.33848 568.84375 115.90625 C 568.90524 115.47391 568.77797 114.42985 568.5625 113.59375 C 568.14677 111.98004 568.10174 111.58907 568 109.40625 C 567.96467 108.64694 567.63951 107.73327 567.28125 107.375 C 566.92288 107.01663 566.625 106.33008 566.625 105.875 C 566.625 105.42002 566.52576 104.93211 566.375 104.78125 C 566.22415 104.6305 566.0099 103.18336 565.90625 101.5625 C 565.80259 99.94174 565.43582 97.77167 565.09375 96.75 C 564.75159 95.72833 564.4748 94.26988 564.5 93.5 C 564.52486 92.73003 564.32581 91.33055 564.03125 90.375 C 563.43739 88.4492 563.14615 85.87592 563.15625 82.46875 C 563.16007 80.49948 562.95215 79.95691 561.53125 78.25 C 559.97329 76.37845 559.78879 76.30545 557.5 76.28125 z M 611.15625 82.1875 C 610.6737 82.225315 610.13527 82.354478 609.40625 82.5 C 606.80166 83.01979 606.80916 83.00523 606.5625 85.8125 C 606.42684 87.35648 606.09479 89.17129 605.8125 89.84375 C 605.18514 91.3368 605.12862 93.47914 605.71875 93.84375 C 606.37823 94.25113 606.25337 98.05248 605.5 100.1875 C 605.06686 101.41537 604.98879 102.12115 605.28125 102.21875 C 606.49181 102.6222 605.40115 107.58859 603.6875 109.5 C 602.5663 110.75061 602.52146 111.41638 603.46875 112.46875 C 604.2814 113.37166 605.14835 117.17477 605.21875 120.09375 C 605.23848 120.91183 605.5039 121.70361 605.78125 121.875 C 606.1274 122.08926 606.20852 123.318 606.0625 125.8125 C 605.86092 129.2557 606.28271 131.84375 607.03125 131.84375 C 607.21884 131.84375 607.44627 132.21153 607.5625 132.65625 C 607.74707 133.36191 610.05381 134.875 610.9375 134.875 C 611.1105 134.875 612.01254 135.21863 612.9375 135.625 C 613.86246 136.03138 615.61814 136.68848 616.8125 137.09375 C 619.54792 138.02173 622.35861 138.11498 624.125 137.3125 C 624.87776 136.97053 626.56118 136.4556 627.875 136.1875 C 629.93132 135.76775 630.44044 135.44383 631.59375 133.875 C 633.63245 131.10184 633.6501 131.12481 634.3125 119.5625 C 634.55584 115.3132 634.93681 111.58337 635.1875 111.28125 C 635.49467 110.91161 635.53817 109.52132 635.28125 107.03125 C 634.88212 103.16447 633.9532 101.08667 630.21875 95.5625 C 627.56153 91.63191 627.40267 91.4375 626.65625 91.4375 C 625.53485 91.43318 623.67857 90.06234 622.5625 88.40625 C 621.91973 87.45241 620.3271 86.2623 618.09375 85.0625 C 613.59882 82.647815 612.60391 82.074055 611.15625 82.1875 z M 525.5 96.8125 C 524.73992 96.841861 523.80527 97.11523 521.9375 97.71875 C 519.88279 98.38275 517.87623 99.29135 517.46875 99.71875 C 517.06127 100.14606 516.17608 100.60156 515.5 100.75 C 514.25773 101.02283 510.11307 104.98496 507.875 108.03125 C 506.79926 109.49501 506.6875 109.95944 506.6875 113.59375 C 506.6875 118.69324 507.51359 125.64971 508.28125 127.15625 C 508.60994 127.80133 508.875 129.50785 508.875 130.9375 C 508.875 132.36705 509.08229 134.07754 509.34375 134.75 C 509.6051 135.42246 509.88825 136.36603 509.96875 136.84375 C 510.04906 137.32158 510.34442 139.07791 510.625 140.75 C 510.90547 142.42219 511.31719 144.01768 511.53125 144.28125 C 511.7452 144.54482 511.8911 145.20883 511.875 145.78125 C 511.83112 147.29373 512.40396 150.53125 512.71875 150.53125 C 512.86689 150.53125 513.47155 151.45906 514.0625 152.59375 C 514.65344 153.72843 515.26284 154.75554 515.40625 154.875 C 515.54966 154.99445 516.1498 155.82418 516.75 156.71875 C 517.3502 157.61331 517.94284 158.24466 518.0625 158.125 C 518.18216 158.00534 518.61975 158.26407 519.03125 158.71875 C 519.58304 159.32841 520.39384 159.57265 522.125 159.59375 C 524.38662 159.62082 525.19019 159.22927 526.125 157.75 C 526.6455 156.92639 528.5816 156.22898 529.75 156.4375 C 530.60059 156.58936 531.54328 155.93111 534.5625 153.03125 C 539.75829 148.04075 540.01177 147.34319 539.875 139.28125 C 539.79308 134.44543 539.60796 132.43464 539.0625 131.15625 C 537.99967 128.66588 537.1674 125.31251 536.90625 122.4375 C 536.5035 118.00343 535.74655 113.0067 535.375 112.3125 C 535.17724 111.94286 534.96965 109.96675 534.90625 107.9375 C 534.84255 105.90825 534.66258 104.08266 534.53125 103.84375 C 534.39982 103.60483 534.2559 103.00897 534.1875 102.53125 C 534.00947 101.28435 530.76868 98.63479 528.03125 97.5 C 526.85873 97.013925 526.26008 96.783139 525.5 96.8125 z M 335.09375 128.875 C 334.56506 128.87505 333.77605 129.08467 332.71875 129.5 C 331.66141 129.87766 330.96483 130.06255 330.625 130.0625 C 329.94527 130.06255 329.54425 130.17973 329.46875 130.40625 C 329.43097 130.59511 328.87632 130.96488 327.78125 131.53125 C 326.72391 132.05996 326.09504 132.31255 325.90625 132.3125 C 325.86855 132.31255 325.84373 132.31255 325.84375 132.3125 C 325.73045 132.31255 325.04039 132.83075 323.71875 133.8125 C 322.43485 134.75659 321.61458 135.31124 321.3125 135.5 C 321.12368 135.61333 320.98828 135.89065 320.875 136.34375 C 320.76166 136.98574 320.78644 137.66408 320.9375 138.34375 C 321.12629 138.98574 321.42836 139.28129 321.84375 139.28125 C 322.10807 139.28129 322.41013 139.12114 322.75 138.78125 C 322.97656 138.51696 323.22915 138.37504 323.53125 138.375 C 323.83333 138.37504 324.22784 138.59117 324.71875 138.96875 C 325.2474 139.30864 325.61716 139.46879 325.84375 139.46875 L 326.3125 139.46875 C 326.27472 139.46879 325.94792 140.09765 325.34375 141.34375 C 324.77731 142.55215 324.42577 143.47658 324.3125 144.15625 C 324.16144 144.79823 324.28513 145.12504 324.625 145.125 L 320.65625 161.5625 C 320.694 161.52476 320.18231 163.24471 319.125 166.71875 C 318.10543 170.19283 317.56905 171.98047 317.53125 172.09375 C 317.41795 172.69794 317.14063 173.25259 316.6875 173.78125 C 316.23436 174.30991 315.7409 174.72916 315.25 175.03125 C 314.79686 175.33334 314.35938 175.70963 313.90625 176.125 C 313.49087 176.50262 313.23175 176.87238 313.15625 177.25 C 313.08072 177.58985 313.15494 177.93489 313.34375 178.3125 C 313.64584 178.95445 314.94654 179.28125 317.25 179.28125 C 318.49613 179.28125 320.37621 179.16407 322.90625 178.9375 C 325.47402 178.71093 327.05204 178.59375 327.65625 178.59375 C 328.41146 178.59375 328.7877 178.68619 328.75 178.875 C 328.71222 179.13931 328.89711 179.23175 329.3125 179.15625 C 329.76562 179.08072 330.22783 178.90236 330.71875 178.5625 C 331.39844 178.0716 331.7994 177.64585 331.875 177.34375 C 331.91274 177.11719 331.72134 176.86459 331.34375 176.5625 C 330.96611 176.26041 330.46094 175.91538 329.78125 175.5 C 327.85539 174.17835 327.43615 170.75669 328.53125 165.28125 C 328.90885 163.43095 329.69786 160.32437 330.90625 155.90625 C 332.1146 151.45041 332.94658 148.07822 333.4375 145.8125 C 333.66405 144.67969 334.151 143.61334 334.90625 142.59375 C 335.66146 141.57422 336.49994 140.711 337.40625 140.03125 C 338.3125 139.31382 339.24343 138.68496 340.1875 138.15625 C 341.16927 137.62763 342.00776 137.25786 342.6875 137.03125 C 343.40494 136.76696 343.89188 136.62504 344.15625 136.625 C 344.19395 136.62504 344.21871 136.62504 344.21875 136.625 C 344.74737 136.62504 345.11715 136.81644 345.34375 137.15625 C 345.60801 137.49615 345.7252 137.81644 345.6875 138.15625 L 345.625 138.6875 C 347.66408 139.59381 348.1263 142.84231 347.03125 148.46875 C 346.50256 150.9988 345.34377 155.29542 343.53125 161.375 C 341.75642 167.45463 340.52342 171.82545 339.84375 174.46875 C 339.65491 175.1107 339.35285 175.59765 338.9375 175.9375 C 338.55986 176.27736 338.19009 176.55468 337.8125 176.78125 C 337.43486 177.00782 337.2252 177.3164 337.1875 177.65625 C 337.112 177.92059 337.112 178.22265 337.1875 178.5625 C 337.22523 178.82683 337.82937 179.02994 339 179.21875 C 340.17058 179.36982 341.33587 179.46875 342.46875 179.46875 C 343.52603 179.46875 344.05595 179.3698 344.09375 179.21875 L 353.5625 179 C 353.86455 179.0377 354.11713 179.0625 354.34375 179.0625 C 355.06117 179.0625 355.45565 178.82814 355.53125 178.375 C 355.64448 177.88411 355.41012 177.34767 354.84375 176.78125 C 354.31504 176.17707 353.69268 175.83204 352.9375 175.71875 C 350.89833 175.45443 350.36191 172.82828 351.34375 167.84375 C 351.57028 166.74868 351.8476 165.68233 352.1875 164.625 L 352.65625 163.03125 L 353.21875 159.75 C 353.21871 159.71225 353.26815 159.52087 353.34375 159.21875 C 353.457 158.65235 353.82676 156.797 354.46875 153.625 C 355.11065 150.45306 355.52338 148.28912 355.75 147.15625 C 355.82552 146.77866 355.8997 146.4766 355.9375 146.25 C 356.01299 146.02346 356.06245 145.8881 356.0625 145.8125 C 356.1002 145.69925 356.0937 145.63155 356.09375 145.59375 C 356.16923 145.10288 356.37885 144.54172 356.71875 143.9375 C 357.09632 143.29559 357.4726 142.75916 357.8125 142.34375 C 358.1523 141.89065 358.31245 141.6628 358.3125 141.625 C 358.35021 141.3607 358.67702 141.0339 359.28125 140.65625 C 359.88538 140.24091 360.20565 139.89588 360.28125 139.59375 C 360.35672 139.25394 361.28765 138.53263 363.0625 137.4375 C 364.83723 136.3047 365.95306 135.7188 366.40625 135.71875 C 367.42576 135.7188 368.2395 136.09507 368.84375 136.8125 C 369.44787 137.49225 369.86712 138.3737 370.09375 139.46875 C 370.32026 140.56387 370.388 141.95702 370.3125 143.65625 C 370.23691 145.35556 370.07677 147.03253 369.8125 148.65625 C 369.58587 150.24226 369.23433 152.07288 368.78125 154.1875 C 368.51686 155.66022 368.07938 157.84238 367.4375 160.75 C 366.79549 163.65765 366.32677 165.77862 366.0625 167.0625 C 364.74079 173.63301 364.62361 177.48564 365.71875 178.65625 C 366.3984 179.37372 367.02727 179.75 367.59375 179.75 C 367.66922 179.75 368.27334 179.67579 369.40625 179.5625 C 370.5768 179.44918 371.83454 179.40625 373.15625 179.40625 C 374.5156 179.40625 375.44653 179.33203 375.9375 179.21875 C 376.42833 179.0677 376.70565 178.83985 376.78125 178.5 C 376.78125 178.34895 376.75645 178.04689 376.71875 177.59375 C 376.71868 177.10285 376.76815 176.68361 376.84375 176.34375 C 376.99472 175.66405 376.80334 174.82555 376.3125 173.84375 C 375.8593 172.82419 375.39708 172.31251 374.90625 172.3125 C 374.7929 172.31251 374.86061 170.96233 375.125 168.28125 C 375.38927 165.56243 375.83325 162.73318 376.4375 159.75 C 377.87237 153.36832 378.7356 149.44148 379 147.96875 C 379.33979 146.42056 379.59237 145.07038 379.78125 143.9375 C 379.96998 142.80469 380.0872 141.73835 380.125 140.71875 C 380.1627 139.66147 380.1627 138.7735 380.125 138.09375 C 380.08717 137.41409 379.90228 136.79173 379.5625 136.1875 C 379.26033 135.5456 378.95827 135.05865 378.65625 134.71875 C 378.35409 134.34118 377.8424 134.01438 377.125 133.75 C 376.40746 133.44796 375.73563 133.23833 375.09375 133.125 C 374.4895 132.974 373.58331 132.85685 372.375 132.78125 C 371.20433 132.66803 370.08852 132.62504 369.03125 132.625 C 367.97387 132.5873 366.57421 132.56255 364.875 132.5625 C 364.42181 132.56255 363.60806 132.9818 362.4375 133.8125 C 361.3046 134.6433 360.7005 135.24743 360.625 135.625 C 360.54942 136.00266 360.36454 136.18755 360.0625 136.1875 C 359.7226 136.18755 359.3958 136.34769 359.09375 136.6875 C 358.82937 136.98964 358.64448 137.15629 358.53125 137.15625 C 358.26687 137.15629 357.85413 136.66284 357.25 135.71875 C 355.51292 132.92444 352.97923 131.5313 349.65625 131.53125 C 348.33456 131.5313 346.82423 131.76566 345.125 132.21875 C 343.42569 132.67193 342.5195 132.90629 342.40625 132.90625 C 341.57547 132.94405 340.73697 133.15368 339.90625 133.53125 C 339.11323 133.87115 338.64451 134.0313 338.53125 134.03125 C 338.11585 134.0313 337.8203 133.30999 337.59375 131.875 C 337.29163 129.87369 336.45314 128.87505 335.09375 128.875 z M 399.28125 132.78125 L 388.84375 136.96875 C 388.35284 137.23312 388.05078 137.65236 387.9375 138.21875 C 387.78645 138.8985 387.92836 139.54559 388.34375 140.1875 C 388.75912 140.82948 389.31377 141.15629 390.03125 141.15625 C 391.12632 141.15629 392.03252 141.83463 392.75 143.15625 C 393.46746 144.44018 393.92967 145.85155 394.15625 147.4375 C 394.38281 149.02351 394.64191 150.49087 394.90625 151.8125 C 395.17057 153.09642 395.47263 153.75002 395.8125 153.75 C 395.96358 153.75002 396.013 153.88543 395.9375 154.1875 C 395.8242 154.86723 396.21871 156.86451 397.125 160.1875 L 398.53125 165.1875 C 398.41795 165.75394 399.164 168.2629 400.75 172.71875 C 402.33596 177.13686 403.21742 179.34375 403.40625 179.34375 C 403.74608 179.34375 403.86326 179.57811 403.75 180.03125 C 403.63669 180.71096 402.93361 181.91922 401.6875 183.65625 C 400.47911 185.43104 399.29559 187.05854 398.125 188.53125 C 396.95438 190.00394 396.37499 190.74345 396.375 190.78125 C 396.37499 190.89452 395.83855 191.44917 394.78125 192.46875 C 393.76167 193.52606 393.23175 194.22914 393.15625 194.53125 C 393.08071 194.98437 392.89583 195.18748 392.59375 195.1875 C 392.36717 195.18748 392.2005 195.40362 392.125 195.78125 C 392.0117 196.19661 391.59246 196.72652 390.875 197.40625 C 390.19529 198.1237 389.52345 198.72783 388.84375 199.21875 L 387.875 199.96875 C 387.85459 200.0606 387.71535 200.27757 387.46875 200.5625 C 387.29899 200.12529 386.94511 199.70055 386.40625 199.3125 C 385.65097 198.63288 385.0898 198.31258 384.75 198.3125 C 384.56114 198.31258 384.38276 198.54043 384.15625 199.03125 C 383.92963 199.52223 383.57809 199.78133 383.125 199.78125 C 382.82286 199.78133 382.16926 200.1511 381.1875 200.90625 C 380.20566 201.66156 378.86198 202.75263 377.125 204.1875 C 375.08583 205.84908 373.99476 207.13156 373.84375 208 C 373.76819 208.37769 373.83589 208.79693 374.0625 209.25 C 374.32679 209.66545 374.60411 210.05344 374.90625 210.46875 C 375.24606 210.84643 375.50516 211.45707 375.65625 212.25 C 375.84501 213.04306 375.84501 213.94274 375.65625 215 C 375.54292 215.4532 375.401 215.94666 375.25 216.4375 C 375.13667 216.73965 375.04425 217.10942 374.96875 217.5625 C 374.7799 218.39331 374.57028 219.99608 374.34375 222.375 C 374.11714 224.75403 373.90751 226.47398 373.71875 227.53125 C 373.2278 229.87251 372.48177 231.0313 371.5 231.03125 C 371.19787 231.0313 370.90231 230.94537 370.5625 230.71875 C 368.44781 229.39714 366.11723 228.7188 363.625 228.71875 C 361.47256 228.7188 359.27218 229.20575 356.96875 230.1875 C 354.66528 231.16935 352.52608 232.47005 350.5625 234.09375 C 348.63664 235.71754 346.82426 237.50519 345.125 239.46875 C 343.46349 241.43239 342.07034 243.46091 340.9375 245.5 C 339.80465 247.53915 339.03386 249.44398 338.65625 251.21875 L 337.46875 256.53125 C 337.46875 256.64455 337.44395 256.78648 337.40625 256.9375 C 337.14189 258.14589 337.0247 259.69918 337.0625 261.625 C 337.10026 263.55085 337.29166 265.62234 337.59375 267.8125 C 337.89584 270.00268 338.49346 272.04943 339.4375 273.9375 C 340.41929 275.82558 341.62755 277.12628 343.0625 277.84375 C 344.27086 278.41017 347.80319 278.6875 353.65625 278.6875 C 358.67851 278.6875 363.53628 278.47787 368.21875 278.0625 C 372.9389 277.68488 375.35542 277.21616 375.46875 276.6875 C 375.54423 276.30988 375.84629 275.89064 376.375 275.4375 C 376.82809 275.17317 377.0872 274.92059 377.125 274.65625 C 377.16271 274.46745 377.0208 274.21486 376.71875 273.875 C 376.41661 273.49739 376.04685 272.96096 375.59375 272.28125 C 375.17833 271.60154 374.89449 270.81253 374.78125 269.90625 C 374.63016 268.99998 374.77208 267.48966 375.1875 265.375 C 375.48955 263.94008 376.06894 261.52356 376.9375 258.125 C 377.84373 254.68872 378.44787 252.19798 378.75 250.6875 C 379.12757 248.79945 379.31895 247.36334 379.28125 246.34375 L 385.96875 213.03125 C 386.11974 213.03132 386.44004 212.14986 386.96875 210.375 C 387.11418 209.91931 387.22072 209.54087 387.34375 209.125 C 387.82258 208.83908 388.32501 208.51923 388.84375 208.125 C 390.76958 206.69004 392.46479 205.08075 393.9375 203.34375 C 395.44795 201.60669 396.74865 200.02867 397.84375 198.59375 L 399.4375 196.4375 C 399.55076 195.98435 400.24734 194.96748 401.53125 193.34375 C 402.85289 191.75775 404.12885 190.22269 405.375 188.75 L 407.3125 186.59375 C 407.35024 186.32942 407.88666 185.67581 408.90625 184.65625 C 409.96354 183.67445 410.51815 183.05209 410.59375 182.75 C 410.63148 182.48567 410.89058 182.17709 411.34375 181.875 C 411.83462 181.61067 412.1119 181.26563 412.1875 180.8125 C 412.26299 180.58592 413.37881 178.89073 415.53125 175.71875 C 417.72138 172.54679 418.9049 170.50004 419.09375 169.59375 L 421.125 166.78125 C 422.48438 164.93094 423.23043 163.67321 423.34375 163.03125 L 425.9375 157.9375 L 431.90625 146.25 C 432.35933 145.04166 433.05591 143.83991 434 142.59375 C 434.98175 141.30989 435.90617 140.23704 436.8125 139.40625 C 437.75648 138.53777 438.61971 137.68106 439.375 136.8125 C 440.13017 135.94403 440.54291 135.24746 440.65625 134.71875 C 440.73171 134.30342 440.64578 133.9024 440.34375 133.5625 C 440.2304 133.4115 439.53383 133.29435 438.25 133.21875 C 436.96605 133.10552 435.52343 133.06255 433.9375 133.0625 C 431.18086 133.06255 428.78908 133.24743 426.75 133.625 C 424.7486 133.9649 423.651 134.56903 423.5 135.4375 C 423.42444 135.7774 423.51688 136.15367 423.78125 136.53125 C 424.5742 137.7019 424.66665 139.76688 424.0625 142.75 C 423.38275 146.18634 421.96487 150.27332 419.8125 155.03125 C 417.66005 159.75147 416.24869 162.66144 415.53125 163.71875 L 410.71875 171.3125 C 410.68096 171.42579 410.1198 169.95844 409.0625 166.9375 C 408.00515 163.91659 407.00651 160.64335 406.0625 157.09375 C 405.11844 153.50642 404.76689 151.0834 405.03125 149.875 L 404.46875 148.65625 C 404.16659 148.65628 404.0494 148.44015 404.125 148.0625 C 404.2005 147.72268 403.90495 146.81648 403.1875 145.34375 C 402.50777 143.87109 402.13145 142.76178 402.09375 141.96875 L 401.65625 137.4375 C 401.3919 134.3411 400.62112 132.7813 399.375 132.78125 C 399.33722 132.7813 399.31895 132.7813 399.28125 132.78125 z M 580.375 134.96875 C 579.68128 134.93945 579.21875 135.00771 579.21875 135.21875 C 579.21875 135.42807 578.48962 135.56745 577.59375 135.53125 C 575.13458 135.43232 569.96229 136.90617 566.78125 138.59375 C 565.22248 139.42069 563.72743 140.09375 563.4375 140.09375 C 562.86276 140.09375 559.97793 142.94935 559.5 144 C 559.33707 144.35837 558.93924 145.15282 558.59375 145.75 C 558.24836 146.34728 557.96875 147.29055 557.96875 147.84375 C 557.96523 148.39696 557.73952 149.20872 557.5 149.65625 C 557.20886 150.2002 557.20886 150.57006 557.5 150.75 C 557.73952 150.89804 557.9375 151.76013 557.9375 152.6875 C 557.9375 153.61487 558.13609 154.50861 558.375 154.65625 C 558.61391 154.80388 558.8125 155.35898 558.8125 155.90625 C 558.8125 157.93147 562.99623 162.61745 566.03125 164 C 567.08341 164.47933 567.9375 165.04419 567.9375 165.25 C 567.9375 165.4558 568.46804 165.71936 569.125 165.84375 C 570.61906 166.12674 575.31538 167.39012 576.1875 167.75 C 576.9931 168.0825 576.89728 168.08245 579 168.5 C 579.95555 168.6898 581.00807 169.02976 581.3125 169.28125 C 581.61683 169.5333 581.9598 169.63395 582.09375 169.5 C 582.59361 169.00014 584.91278 170.16082 584.78125 170.84375 C 584.53318 172.13261 581.98966 172.38082 578.78125 171.40625 C 577.16099 170.91413 575.58377 170.5 575.28125 170.5 C 574.97884 170.5 574.43959 170.22416 574.0625 169.90625 C 573.17035 169.15449 569.68767 167.90625 568.53125 167.90625 C 567.4806 167.90625 561.58711 166.07825 560.15625 165.3125 C 559.61834 165.02468 558.27503 164.63928 557.15625 164.4375 C 556.03746 164.23562 554.62843 163.95017 554.03125 163.8125 C 551.32783 163.18956 550.60779 163.06278 547.75 162.8125 C 546.03172 162.66205 543.7488 162.12869 542.5 161.5625 C 539.05277 159.99981 535.08818 159.50312 530.9375 160.15625 C 527.61003 160.67987 527.34953 160.80789 525.75 162.625 C 523.57432 165.09675 522.76815 167.87589 522.78125 172.84375 C 522.79302 177.3842 524.20511 183.58576 526.28125 188.1875 C 526.73814 189.20011 527.125 190.23572 527.125 190.5 C 527.125 191.55709 529.88535 194.96063 531.125 195.40625 C 531.54667 195.55781 532.08788 196.15927 532.3125 196.75 C 532.53712 197.34085 533.26997 198.16553 533.9375 198.59375 C 536.76591 200.40793 543.81803 206.41327 545.125 208.125 C 546.39897 209.79367 546.5752 210.39815 546.875 214.03125 C 547.19563 217.91625 547.38749 219.78125 547.5 219.78125 C 547.52928 219.78125 547.63709 221.63688 547.75 223.90625 C 547.86282 226.17562 548.05561 228.8257 548.15625 229.78125 C 548.25662 230.7368 548.30545 233.58547 548.28125 236.09375 C 548.25305 238.60203 548.26715 241.32015 548.28125 242.15625 C 548.44318 251.404 548.35989 261.24832 548.125 263.96875 C 547.96106 265.86787 548.02225 267.5979 548.25 267.90625 C 548.4719 268.20685 548.71285 273.12841 548.78125 278.875 C 548.88863 287.89401 548.80124 289.42289 548.21875 289.90625 C 547.60155 290.41849 539.5244 290.54558 521.90625 290.3125 C 520.19522 290.28986 519.08602 289.96347 517.90625 289.21875 C 517.00645 288.65066 515.98196 288.1875 515.625 288.1875 C 514.50662 288.1875 513.78327 290.38442 513.90625 293.40625 C 514.15824 299.60319 514.44844 303.66004 514.71875 304.71875 C 514.87514 305.33113 515.06365 310.03552 515.15625 315.15625 C 515.24843 320.27697 515.39625 325.72852 515.46875 327.28125 C 515.54111 328.83419 515.42224 331.14888 515.21875 332.40625 C 515.01563 333.66371 515.01531 335.02267 515.1875 335.4375 C 515.3598 335.85222 515.52935 336.73812 515.59375 337.40625 C 515.73938 338.92577 516.96017 340.3024 518.15625 340.3125 C 518.65671 340.31622 519.34332 340.50097 519.6875 340.71875 C 520.098 340.97849 520.78464 340.86969 521.65625 340.40625 C 523.19077 339.59019 525.78123 339.4779 539.4375 339.5 C 549.77555 339.5164 550.26752 339.61172 550.4375 341.84375 C 550.51921 342.91654 550.9899 368.91277 551 373.03125 C 551.00171 373.74175 551.43211 374.68211 552.0625 375.3125 C 552.94176 376.19233 553.44479 376.33549 554.78125 376.15625 C 559.6523 375.50248 567.76442 375.24796 572.625 375.59375 C 573.65894 375.66732 574.6 375.61015 574.6875 375.46875 C 574.77526 375.32709 577.44648 375.2905 580.625 375.375 C 583.80353 375.45979 586.60494 375.5252 586.84375 375.5 C 587.25164 375.4567 595.8779 375.4083 599.21875 375.4375 C 600.05435 375.44495 600.90541 375.28209 601.125 375.0625 C 601.34449 374.8428 601.57775 372.14739 601.65625 369.09375 C 601.73444 366.04042 601.95739 362.20052 602.15625 360.53125 C 602.35551 358.86137 602.36367 356.60948 602.15625 355.53125 C 601.94884 354.45363 601.7884 351.111 601.8125 348.125 C 601.8356 345.13899 601.85385 341.84146 601.84375 340.78125 C 601.83771 339.72114 602.05245 338.59453 602.3125 338.28125 C 602.81981 337.67008 607.6764 337.45681 608.03125 338.03125 C 608.14195 338.21033 609.08693 338.3094 610.125 338.25 C 625.67053 337.36601 631.64774 337.46178 634.625 338.59375 C 635.95713 339.10026 637.43355 338.78376 637.46875 338 C 637.61558 334.77075 637.28717 326.25568 636.96875 324.71875 C 636.74353 323.63167 636.46744 320.29861 636.34375 317.3125 C 636.22007 314.32649 636.10685 311.67642 636.09375 311.4375 C 635.94611 308.78159 637.07488 301.83458 637.90625 300.28125 C 638.14949 299.82647 638.37405 297.54991 638.40625 295.21875 C 638.45888 291.41919 638.36915 290.84281 637.46875 289.625 C 636.26402 287.99548 635.26208 287.68544 633.8125 288.4375 C 633.21823 288.74586 631.28133 288.9859 629.53125 289 C 627.78107 289.01449 625.50853 289.1237 624.46875 289.25 C 623.42897 289.3762 619.61851 289.59457 616 289.71875 C 612.38158 289.84294 608.56172 290.13081 607.5 290.34375 C 604.33788 290.97797 602.51261 289.84086 603.71875 288 C 604.24659 287.1945 604.28812 286.6754 603.9375 285.53125 C 603.38712 283.73488 602.72537 258.13373 603.125 254.09375 C 603.1723 253.61602 603.18745 250.79851 603.15625 247.8125 C 603.12485 244.8265 603.18265 237.10609 603.28125 230.65625 C 603.45213 219.45402 603.73 216.76285 604.90625 215.46875 C 605.11256 215.24182 605.28125 214.60463 605.28125 214.0625 C 605.28125 213.52037 605.68542 212.34052 606.1875 211.4375 C 608.12285 207.95616 612.89417 203.9375 615.0625 203.9375 C 615.86649 203.9375 617.47069 203.45357 618.625 202.875 C 619.77931 202.29634 621.24169 201.7205 621.875 201.5625 C 623.17222 201.23895 624.03102 200.47604 625.875 198.15625 C 626.57483 197.27577 627.36938 196.5628 627.625 196.5625 C 627.88062 196.5622 629.15483 195.83397 630.46875 194.9375 C 631.78257 194.04112 633.36472 193.02841 633.96875 192.71875 C 634.57277 192.40909 635.51181 191.31933 636.0625 190.28125 C 636.61329 189.24308 637.74231 187.67671 638.5625 186.78125 C 642.24824 182.75767 643.39811 178.09072 643.65625 166.15625 C 643.79945 159.53775 643.69542 157.14797 643.1875 155.28125 C 642.83004 153.96743 642.45757 152.40968 642.34375 151.8125 C 641.94462 149.71643 639.52101 145.19728 637.8125 143.34375 C 636.18509 141.57837 635.896 141.45464 633.15625 141.21875 C 631.55793 141.08118 628.74605 140.73856 626.875 140.46875 C 621.65998 139.71679 611.87674 140.01461 610.09375 140.96875 C 608.68 141.72544 602.82654 141.62414 600.625 140.8125 C 599.60555 140.43693 598.48624 140.21715 598.15625 140.34375 C 597.82626 140.47035 597.43894 140.38011 597.28125 140.125 C 597.12355 139.86978 596.65587 139.65625 596.25 139.65625 C 595.84413 139.65625 594.56056 139.14574 593.40625 138.53125 C 592.25194 137.91665 591.02796 137.52562 590.6875 137.65625 C 590.34714 137.78687 589.37278 137.50394 588.53125 137.03125 C 586.80741 136.06309 582.45617 135.05666 580.375 134.96875 z M 265.1875 197.96875 C 264.54552 197.96883 263.79948 198.11075 262.96875 198.375 C 262.13798 198.63941 261.49088 198.892 261 199.15625 C 260.47132 199.42066 260.21873 199.56258 260.21875 199.5625 C 259.9544 199.52482 259.35027 199.80214 258.40625 200.40625 L 255.6875 202.375 C 254.06374 203.54568 253.17577 204.43365 253.0625 205 C 253.02472 205.2644 253.1419 205.54173 253.40625 205.84375 C 253.67057 206.10816 253.99737 206.41022 254.375 206.75 C 254.7526 207.08993 255.12236 207.50917 255.5 208 C 255.87759 208.49097 256.16143 209.21228 256.3125 210.15625 C 256.50125 211.0626 256.49478 212.1042 256.34375 213.3125 C 256.34373 213.35033 256.23307 214.95309 255.96875 218.125 C 255.70441 221.29703 255.19272 225.43349 254.4375 230.53125 C 253.68226 235.62911 252.59117 241.78757 251.15625 249 C 250.24996 253.53141 249.31903 257.85276 248.375 261.96875 C 247.46871 266.08477 246.69792 269.358 246.09375 271.8125 C 245.52732 274.22924 245.23175 275.6966 245.15625 276.1875 C 244.96743 277.1693 245.26299 277.98305 246.09375 278.625 C 246.96226 279.30471 248.01037 279.65625 249.21875 279.65625 C 250.16277 279.65625 251.0195 279.39715 251.8125 278.90625 C 252.60548 278.45311 253.19139 277.75654 253.53125 276.8125 C 253.83333 275.83071 254.06769 275.1771 254.21875 274.875 C 254.40754 274.53515 254.59242 274.37501 254.78125 274.375 C 254.93228 274.37501 255.22783 274.53515 255.71875 274.875 C 256.24739 275.21486 256.85152 275.60937 257.53125 276.0625 C 258.21094 276.47788 259.33326 276.87239 260.84375 277.25 C 262.35418 277.58986 264.09237 277.78125 266.09375 277.78125 L 266.21875 277.78125 C 267.16276 277.78125 268.21087 277.54688 269.34375 277.09375 C 270.51432 276.60285 271.50645 276.14064 272.375 275.6875 C 273.28125 275.1966 273.93485 274.9375 274.3125 274.9375 C 274.31247 274.89974 275.3788 273.75918 277.53125 271.53125 C 279.68361 269.26556 280.7747 268.15626 280.8125 268.15625 C 281.11455 268.15626 281.71868 267.20059 282.625 265.3125 C 283.56899 263.38667 284.61711 260.78527 285.75 257.5 C 286.92056 254.177 287.82675 250.97147 288.46875 247.875 C 290.16797 239.2654 289.40369 233.55091 286.15625 230.71875 C 284.6835 229.39714 282.54431 228.7188 279.75 228.71875 C 277.86188 228.7188 275.81514 229.02086 273.625 229.625 C 271.47256 230.19147 269.73438 230.82034 268.375 231.5 C 267.05331 232.17976 266.35675 232.69144 266.28125 233.03125 C 266.24346 233.25786 266.12628 233.44275 265.9375 233.59375 C 265.74866 233.74482 265.53904 233.81254 265.3125 233.8125 C 265.12367 233.81254 264.86457 233.90499 264.5625 234.09375 C 264.29814 234.2826 264.08853 234.5417 263.9375 234.84375 C 263.44658 235.5235 263.0768 235.84379 262.8125 235.84375 C 262.095 235.84379 262.13798 233.80355 262.96875 229.6875 C 263.23306 228.32813 263.49216 227.42193 263.71875 226.96875 C 264.17187 225.79819 264.61585 224.19542 265.03125 222.15625 C 265.55988 219.43747 266.04683 215.67078 266.5 210.875 C 266.99087 206.07936 267.34242 203.20063 267.53125 202.21875 C 268.09765 199.38672 267.30211 197.96883 265.1875 197.96875 z M 315.84375 229.125 C 314.18221 229.12505 312.52997 229.37763 310.90625 229.90625 C 309.32025 230.43496 307.97006 231.08856 306.875 231.84375 C 305.77989 232.56126 304.78126 233.32554 303.875 234.15625 C 303.00647 234.98705 302.35937 235.7331 301.90625 236.375 C 301.4531 236.97923 301.19405 237.39847 301.15625 237.625 C 301.11848 237.88937 300.81641 238.39455 300.25 239.1875 C 299.68357 239.94277 299.26432 240.54689 299 241 L 297.46875 243.5 C 296.94008 244.40631 296.0404 248.24071 294.71875 255 C 294.60546 255.45316 294.4388 256.1315 294.25 257 C 294.09894 257.83077 293.98175 258.41016 293.90625 258.75 C 293.52863 260.75138 293.29425 261.76825 293.21875 261.84375 C 293.02994 262.07033 292.91925 262.42187 292.84375 262.875 C 292.6927 263.55472 292.6927 264.43618 292.84375 265.53125 C 292.99479 266.58858 293.15493 267.56899 293.34375 268.4375 C 293.53252 269.26826 293.6003 269.70575 293.5625 269.78125 C 293.52473 270.00783 293.69139 270.26693 294.03125 270.53125 C 294.37104 270.75783 294.48175 270.98568 294.40625 271.25 C 294.33072 271.70315 294.45442 272.17187 294.71875 272.625 C 295.02084 273.07814 295.3229 273.44791 295.625 273.75 L 296.125 274.21875 C 296.01171 274.67189 296.59109 275.29424 297.875 276.125 C 299.15888 276.91799 300.99601 277.66404 303.375 278.34375 C 305.79172 279.02345 308.20824 279.375 310.625 279.375 C 312.39977 279.375 314.11972 279.15886 315.78125 278.78125 C 317.44273 278.40363 319.1132 277.7318 320.8125 276.75 C 322.5495 275.73044 324.13403 274.45448 325.53125 272.90625 C 326.92838 271.35803 328.17962 269.33602 329.3125 266.84375 C 330.48307 264.31374 331.38925 261.4285 332.03125 258.21875 C 332.29553 257.0104 332.55463 256.40627 332.78125 256.40625 C 333.2721 256.40627 333.59239 255.92583 333.78125 254.90625 C 333.93222 254.11328 333.99995 252.83081 334 251.09375 C 333.9999 249.31899 334.0247 248.34509 334.0625 248.15625 C 334.25126 247.17448 334.2083 246.68753 333.90625 246.6875 C 333.67968 246.68753 333.6549 246.21881 333.84375 245.3125 C 334.22132 243.31118 333.29038 240.66029 331.0625 237.375 C 328.87228 234.08978 325.91934 231.77222 322.21875 230.375 C 320.06631 229.54429 317.95836 229.12505 315.84375 229.125 z M 399.28125 231.375 L 388.84375 235.5625 C 388.35285 235.82687 388.05077 236.24612 387.9375 236.8125 C 387.78644 237.49225 387.92837 238.1706 388.34375 238.8125 C 388.75912 239.45449 389.31378 239.78129 390.03125 239.78125 C 391.12633 239.78129 392.03251 240.42838 392.75 241.75 C 393.46745 243.03392 393.92967 244.47655 394.15625 246.0625 C 394.38281 247.64852 394.64191 249.08463 394.90625 250.40625 C 395.17057 251.69017 395.47263 252.34378 395.8125 252.34375 C 395.96349 252.34378 396.013 252.47918 395.9375 252.78125 C 395.8242 253.46098 396.2187 255.48951 397.125 258.8125 L 398.53125 263.78125 C 398.41795 264.34768 399.16399 266.85664 400.75 271.3125 C 402.33596 275.7306 403.21741 277.9375 403.40625 277.9375 C 403.74608 277.9375 403.86326 278.17186 403.75 278.625 C 403.63669 279.30471 402.9336 280.51296 401.6875 282.25 C 400.47911 284.02479 399.29559 285.65229 398.125 287.125 C 396.95437 288.59769 396.37498 289.3372 396.375 289.375 C 396.37498 289.48828 395.83856 290.07418 394.78125 291.09375 C 393.76167 292.15106 393.23175 292.82289 393.15625 293.125 C 393.08072 293.57812 392.89583 293.81248 392.59375 293.8125 C 392.36717 293.81248 392.2005 293.99737 392.125 294.375 C 392.0117 294.79036 391.59246 295.32027 390.875 296 C 390.19528 296.71745 389.52345 297.32158 388.84375 297.8125 L 387.875 298.5625 C 387.79947 298.90233 386.17197 300.54806 383 303.53125 C 382.16925 304.28645 381.28779 304.79814 380.34375 305.0625 C 379.39972 305.3268 378.67841 305.51815 378.1875 305.59375 C 377.69661 305.66925 377.41925 305.87236 377.34375 306.25 C 377.30605 306.36326 377.28125 306.52991 377.28125 306.71875 C 377.31901 308.49351 378.39186 309.37497 380.46875 309.375 C 381.07293 309.37497 381.79424 309.28252 382.625 309.09375 C 383.49351 308.94268 383.93095 308.87497 383.96875 308.875 C 385.32816 308.87497 386.95567 308.15366 388.84375 306.71875 C 390.76958 305.28378 392.46479 303.70576 393.9375 301.96875 C 395.44795 300.2317 396.74864 298.62241 397.84375 297.1875 L 399.4375 295.0625 C 399.55077 294.60934 400.24734 293.56123 401.53125 291.9375 C 402.85288 290.3515 404.12884 288.81644 405.375 287.34375 L 407.3125 285.1875 C 407.35023 284.92316 407.88666 284.30081 408.90625 283.28125 C 409.96355 282.29945 410.51815 281.64584 410.59375 281.34375 C 410.63148 281.07942 410.89058 280.80209 411.34375 280.5 C 411.83462 280.23566 412.1119 279.85939 412.1875 279.40625 C 412.26299 279.17968 413.3788 277.48447 415.53125 274.3125 C 417.72138 271.14054 418.90491 269.09378 419.09375 268.1875 L 421.125 265.375 C 422.48437 263.5247 423.23042 262.26696 423.34375 261.625 L 425.9375 256.53125 L 431.90625 244.875 C 432.35934 243.66667 433.05591 242.43367 434 241.1875 C 434.98174 239.90365 435.90616 238.83079 436.8125 238 C 437.75648 237.13153 438.61971 236.27481 439.375 235.40625 C 440.13017 234.53778 440.54291 233.8412 440.65625 233.3125 C 440.73172 232.89717 440.64578 232.5274 440.34375 232.1875 C 440.23041 232.0365 439.53384 231.91935 438.25 231.84375 C 436.96605 231.73052 435.52343 231.6563 433.9375 231.65625 C 431.18085 231.6563 428.78907 231.84118 426.75 232.21875 C 424.74859 232.55865 423.651 233.16278 423.5 234.03125 C 423.42443 234.37115 423.51687 234.74743 423.78125 235.125 C 424.5742 236.29565 424.66664 238.36063 424.0625 241.34375 C 423.38275 244.78008 421.96487 248.89832 419.8125 253.65625 C 417.66006 258.37646 416.24868 261.2552 415.53125 262.3125 L 410.71875 269.90625 C 410.68096 270.01954 410.11979 268.55218 409.0625 265.53125 C 408.00515 262.51034 407.00651 259.23711 406.0625 255.6875 C 405.11843 252.10018 404.7669 249.7084 405.03125 248.5 L 404.46875 247.25 C 404.1666 247.25003 404.0495 247.06515 404.125 246.6875 C 404.2005 246.34768 403.90494 245.44148 403.1875 243.96875 C 402.50777 242.49608 402.13145 241.35553 402.09375 240.5625 L 401.65625 236.03125 C 401.3919 232.93485 400.62111 231.37504 399.375 231.375 C 399.33721 231.37504 399.31895 231.37504 399.28125 231.375 z M 276.96875 232.21875 C 277.76171 232.2188 278.41531 232.50263 278.90625 233.03125 C 279.43487 233.55995 279.76168 234.08987 279.875 234.65625 C 280.02601 235.22272 280.14315 235.90106 280.21875 236.65625 C 280.29427 237.41152 280.3372 237.80605 280.375 237.84375 C 280.86586 239.92068 280.77342 242.68222 280.09375 246.15625 C 279.64057 248.34645 278.96222 250.72 278.09375 253.25 C 277.26296 255.78005 276.5729 257.75258 275.96875 259.1875 L 275 261.40625 L 274.03125 264.25 C 273.84241 264.25002 273.21354 265.35932 272.15625 267.625 L 270.5625 271.09375 C 270.41142 271.58465 269.8138 272.23175 268.71875 273.0625 C 267.6614 273.89326 266.70573 274.45442 265.875 274.71875 C 265.30855 274.86982 264.74738 274.9375 264.21875 274.9375 C 262.97259 274.9375 261.78907 274.59247 260.65625 273.875 C 259.52338 273.11978 258.59245 272.23832 257.875 271.21875 C 257.15752 270.1992 256.60286 269.19405 256.1875 268.25 C 255.80991 267.26821 255.66795 266.55341 255.78125 266.0625 C 255.81899 265.76042 255.98565 265.59376 256.25 265.59375 C 256.36326 265.59376 256.49868 265.15629 256.6875 264.25 C 256.83853 263.57031 257.21481 261.33867 257.78125 257.5625 C 258.38541 253.78637 258.89711 250.78395 259.3125 248.59375 C 260.52085 242.55193 261.65489 239.53129 262.75 239.53125 C 262.97654 239.53129 264.32672 238.60036 266.78125 236.75 C 269.27348 234.86197 270.61715 233.93755 270.84375 233.9375 C 270.84372 233.9376 270.91793 233.9128 271.03125 233.875 C 271.1445 233.79952 271.30465 233.70708 271.53125 233.59375 C 271.75778 233.48051 272.24473 233.32036 273 233.09375 C 273.75519 232.86722 274.71086 232.60812 275.84375 232.34375 C 276.25908 232.26826 276.62886 232.2188 276.96875 232.21875 z M 360.6875 232.84375 L 371.84375 235 C 372.10804 235.33989 371.39324 239.84613 369.65625 248.53125 C 367.27723 260.42616 365.66796 266.37501 364.875 266.375 C 365.59244 266.79039 365.94395 267.11719 365.90625 267.34375 C 365.86846 267.45705 365.75127 267.59896 365.5625 267.75 C 365.0338 268.08986 364.73175 268.44141 364.65625 268.78125 C 364.61846 268.97007 364.66142 269.33983 364.8125 269.90625 C 364.96348 270.43492 365.013 270.92187 364.9375 271.375 C 364.7109 272.35681 363.89715 273.12109 362.5 273.6875 C 361.1028 274.21617 359.45706 274.5 357.53125 274.5 C 354.88792 274.5 352.51437 274.03128 350.4375 273.125 C 348.3606 272.18097 347.3372 270.92975 347.375 269.34375 C 347.37498 269.07943 347.26432 268.05605 347 266.28125 C 346.73569 264.46871 346.612 263.37763 346.6875 263 L 347.09375 258.46875 C 347.35806 255.44784 347.68487 253.04956 348.0625 251.3125 C 348.40233 249.49997 348.74737 248.59378 349.125 248.59375 L 352.125 243.84375 L 353.84375 241.125 C 354.90105 239.27472 356.12754 237.4376 357.5625 235.625 C 358.99741 233.77473 360.04552 232.84379 360.6875 232.84375 z M 317.0625 233.59375 C 318.91278 233.59379 320.42962 234.40755 321.5625 236.03125 C 322.69531 237.65504 323.41662 239.76949 323.71875 242.375 C 324.02082 244.94282 324.08851 247.63666 323.9375 250.46875 C 323.78642 253.26313 323.41013 256.03119 322.84375 258.75 C 322.01296 262.97931 321.03907 265.80856 319.90625 267.28125 C 318.32024 269.24486 317.20441 271.05724 316.5625 272.71875 C 315.88276 274.15369 313.86075 274.87501 310.5 274.875 C 308.6119 274.87501 307.42838 274.75782 306.9375 274.53125 C 305.42702 273.85155 304.87237 272.55084 305.25 270.625 C 305.36327 270.20963 305.43095 270.00001 305.46875 270 C 305.12885 270.00001 304.987 269.93231 305.0625 269.78125 C 305.70443 269.17708 305.7539 268.57294 305.1875 267.96875 C 304.20568 266.79815 303.737 264.22149 303.8125 260.21875 C 303.88801 256.21604 304.28251 252.43112 305 248.84375 C 305.64193 245.67181 306.25257 244.06254 306.78125 244.0625 C 306.89452 244.06254 306.9622 244.04435 307 243.96875 C 307.0377 243.89326 307.06248 243.80081 307.0625 243.6875 C 307.06248 243.53648 307.10545 243.30212 307.21875 243 C 307.36978 242.66018 307.55466 242.2839 307.78125 241.90625 L 309.03125 239.53125 C 309.4466 238.88935 310.12495 238.12507 311.03125 237.21875 C 311.9375 236.31251 312.3997 235.80082 312.4375 235.6875 C 312.47523 235.46097 312.7096 235.18365 313.125 234.84375 C 313.54035 234.50394 313.93486 234.24484 314.3125 234.09375 C 315.29428 233.75394 316.19395 233.59379 317.0625 233.59375 z M 264.125 297.125 C 263.25645 297.12508 262.65233 297.30996 262.3125 297.6875 C 262.08591 298.14072 261.52473 298.58471 260.65625 299 C 259.7877 299.3777 258.93099 299.7045 258.0625 299.96875 C 257.19396 300.1954 256.35548 300.56517 255.5625 301.09375 C 254.76949 301.58473 254.33201 302.16412 254.21875 302.84375 C 254.14321 303.2592 254.16144 303.75266 254.3125 304.28125 C 254.50129 304.84775 254.77861 305.26047 255.15625 305.5625 C 255.53384 305.82692 255.93487 305.90112 256.3125 305.75 L 247.25 361.71875 L 246 368.5 L 243.9375 369.75 C 242.80464 370.35419 241.6029 371.28512 240.28125 372.53125 C 238.99736 373.77738 238.30078 374.65884 238.1875 375.1875 C 238.11197 375.6784 238.24738 376.19009 238.625 376.71875 C 239.04037 377.28518 239.66924 377.5625 240.5 377.5625 C 240.76433 377.5625 241.04165 377.54425 241.34375 377.46875 C 244.10033 376.82681 246.89313 376.5 249.6875 376.5 C 250.78257 376.5 252.08327 376.54297 253.59375 376.65625 C 255.14196 376.76958 256.14059 376.84375 256.59375 376.84375 C 257.83986 376.84375 258.69658 376.58465 259.1875 376.09375 C 259.5651 375.75389 259.7995 375.21747 259.875 374.5 C 259.9505 373.74477 259.78384 373.375 259.40625 373.375 C 259.17963 373.375 259.13669 373.12242 259.25 372.59375 C 259.36326 372.02733 259.15364 371.44143 258.625 370.875 C 258.13408 370.30859 257.50521 369.93881 256.75 369.75 C 255.73042 369.59896 255.10155 368.83469 254.875 367.4375 C 254.64841 366.00257 254.90751 363.49361 255.625 359.90625 C 256.38021 356.16787 257.73039 351.03278 259.65625 344.5 C 259.84504 343.63152 260.79419 342.41674 262.53125 340.90625 C 264.30602 339.39582 265.2369 338.51436 265.3125 338.25 C 265.35023 338.02346 265.88666 337.46881 266.90625 336.5625 C 267.92578 335.6185 268.43095 335.0326 268.46875 334.84375 C 268.50648 334.69275 268.60543 334.60685 268.71875 334.53125 C 268.832 334.45577 268.99215 334.35685 269.21875 334.28125 C 269.44528 334.16801 269.88927 333.95838 270.53125 333.65625 C 271.21092 333.31643 271.90098 332.92193 272.65625 332.46875 C 274.16667 331.63804 275.4244 331.21879 276.40625 331.21875 C 276.8971 331.21879 277.34109 331.34248 277.71875 331.53125 C 278.09632 331.7201 278.37365 332.06513 278.5625 332.59375 C 278.78903 333.0847 278.97391 333.59639 279.125 334.125 C 279.31381 334.65371 279.4062 335.41798 279.40625 336.4375 C 279.4062 337.4571 279.4062 338.38803 279.40625 339.21875 C 279.4062 340.04954 279.31376 341.23306 279.125 342.78125 C 278.93615 344.29175 278.776 345.61718 278.625 346.75 C 278.51167 347.88287 278.27731 349.46741 277.9375 351.46875 C 277.63536 353.43237 277.35804 355.12758 277.09375 356.5625 C 276.86714 357.9597 276.54034 359.86452 276.125 362.28125 L 274.78125 370.09375 L 270.84375 373.84375 C 270.50386 374.18361 270.31895 374.50389 270.28125 374.84375 C 270.13017 375.52346 270.53119 376.17706 271.4375 376.78125 C 276.83736 377.1211 281.06627 377.28125 284.125 377.28125 C 286.16408 377.28125 287.18095 377.18881 287.21875 377 C 287.29422 376.62239 287.57154 376.32032 288.0625 376.09375 C 288.44006 375.82942 288.6497 375.5521 288.6875 375.25 C 288.76297 374.87239 288.62757 374.45314 288.25 374 C 287.87234 373.54687 287.47783 373.20183 287.0625 372.9375 C 286.64708 372.63541 286.43745 372.46875 286.4375 372.46875 C 286.47521 372.24218 286.26559 372.00782 285.8125 371.78125 C 285.35931 371.55469 284.91533 371.23439 284.5 370.78125 C 284.12235 370.29035 284.00515 369.66149 284.15625 368.90625 C 284.19396 368.64193 284.29292 368.3646 284.40625 368.0625 C 284.48173 367.8737 284.5494 367.54689 284.625 367.09375 C 284.776 366.263 285.00385 364.51832 285.34375 361.875 C 285.72132 359.19395 286.00515 357.474 286.15625 356.71875 C 286.26948 356.03906 286.38667 355.68752 286.5 355.6875 C 286.68876 355.68752 286.87365 355.29953 287.0625 354.46875 C 287.28897 353.33593 287.31375 352.51566 287.125 352.0625 C 287.0872 352.02476 287.0872 351.95706 287.125 351.84375 C 287.12495 351.80601 287.33457 351.10944 287.75 349.75 C 288.16533 348.39061 288.48562 347.13939 288.75 345.96875 C 290.26041 338.26543 288.35558 332.5262 283.03125 328.75 C 281.29417 327.50392 279.3646 326.87504 277.25 326.875 C 275.81502 326.87504 274.35417 327.15238 272.84375 327.71875 C 271.33325 328.28522 270.05078 328.93883 269.03125 329.65625 C 268.01166 330.37377 267.20441 330.99612 266.5625 331.5625 C 265.92052 332.09121 265.56895 332.39325 265.53125 332.46875 C 265.53122 332.58208 265.01954 333.09377 264 334 C 263.01817 334.90632 262.37108 335.37504 262.03125 335.375 C 261.80466 335.37504 261.70565 335.16542 261.78125 334.75 C 261.93231 334.07033 261.93878 333.60162 261.75 333.375 C 261.41012 332.95967 261.59501 330.82698 262.3125 326.9375 C 263.02994 323.01035 263.8437 318.87388 264.75 314.53125 C 265.65625 310.15097 266.11845 306.14992 266.15625 302.5625 C 266.23174 298.93747 265.55991 297.12508 264.125 297.125 z M 355.53125 308.75 C 354.9648 308.75006 354.41015 308.79304 353.84375 308.90625 C 352.67312 309.17065 351.60678 310.03388 350.625 311.46875 C 349.64319 312.90375 348.96484 314.43881 348.625 316.0625 C 348.39838 317.30869 348.42316 318.32555 348.6875 319.15625 C 348.95182 319.9493 349.48173 320.3438 350.3125 320.34375 C 350.72786 320.3438 350.987 320.46099 351.0625 320.6875 C 351.17577 320.98965 351.57027 321.1563 352.25 321.15625 C 353.6094 321.1563 355.37882 320.71232 357.53125 319.84375 C 359.72139 318.93753 360.85544 318.12378 360.96875 317.40625 C 361.00644 317.25527 361.05595 317.11985 361.09375 316.96875 C 361.62238 314.24998 361.29558 312.20323 360.125 310.84375 C 358.95436 309.44664 357.4193 308.75006 355.53125 308.75 z M 65.6875 326.09375 C 65.158813 326.0938 64.369799 326.27217 63.3125 326.6875 C 62.255154 327.06516 61.558583 327.2813 61.21875 327.28125 C 60.539021 327.2813 60.16925 327.36723 60.09375 327.59375 C 60.055969 327.7826 59.501316 328.18363 58.40625 328.75 C 57.348909 329.27871 56.720041 329.53129 56.53125 329.53125 C 56.49347 329.53129 56.468733 329.53129 56.46875 329.53125 C 56.355449 329.53129 55.634139 330.01824 54.3125 331 C 53.028594 331.94408 52.23958 332.52998 51.9375 332.71875 C 51.74868 332.83207 51.582023 333.10941 51.46875 333.5625 C 51.355452 334.20449 51.380193 334.85159 51.53125 335.53125 C 51.720046 336.17324 52.02211 336.50004 52.4375 336.5 C 52.701818 336.50004 53.003883 336.3399 53.34375 336 C 53.570306 335.73571 53.854143 335.59379 54.15625 335.59375 C 54.458328 335.59379 54.852835 335.77867 55.34375 336.15625 C 55.872396 336.49614 56.242164 336.65629 56.46875 336.65625 L 56.90625 336.65625 C 56.868472 336.65629 56.572918 337.28515 55.96875 338.53125 C 55.402311 339.73965 55.050769 340.69533 54.9375 341.375 C 54.786438 342.01698 54.878881 342.34379 55.21875 342.34375 L 51.25 358.75 C 51.28775 358.71226 50.776063 360.43221 49.71875 363.90625 C 48.69918 367.38033 48.16275 369.19922 48.125 369.3125 C 48.011707 369.91669 47.734381 370.47134 47.28125 371 C 46.828104 371.52866 46.365894 371.94791 45.875 372.25 C 45.421856 372.55209 44.953134 372.89713 44.5 373.3125 C 44.084619 373.69012 43.85677 374.05989 43.78125 374.4375 C 43.705723 374.77736 43.748688 375.15364 43.9375 375.53125 C 44.239588 376.1732 45.54029 376.5 47.84375 376.5 C 49.089873 376.5 51.001215 376.38282 53.53125 376.15625 C 56.09902 375.92968 57.677047 375.8125 58.28125 375.8125 C 59.036462 375.8125 59.38149 375.90494 59.34375 376.09375 C 59.305969 376.35806 59.490854 376.4505 59.90625 376.375 C 60.359369 376.29948 60.852829 376.08986 61.34375 375.75 C 62.023436 375.2591 62.3932 374.8646 62.46875 374.5625 C 62.506489 374.33594 62.346343 374.08335 61.96875 373.78125 C 61.591112 373.47916 61.054687 373.10288 60.375 372.6875 C 58.449142 371.36585 58.029896 367.97543 59.125 362.5 C 59.502596 360.6497 60.29161 357.51187 61.5 353.09375 C 62.708347 348.63791 63.571576 345.26573 64.0625 343 C 64.289045 341.86719 64.775994 340.80085 65.53125 339.78125 C 66.286455 338.76172 67.124945 337.92975 68.03125 337.25 C 68.937498 336.53257 69.837181 335.9037 70.78125 335.375 C 71.763019 334.84638 72.60151 334.47661 73.28125 334.25 C 73.998686 333.98571 74.485635 333.8438 74.75 333.84375 C 74.78773 333.8438 74.812466 333.8438 74.8125 333.84375 C 75.341127 333.8438 75.710895 334.00394 75.9375 334.34375 C 76.201794 334.68365 76.31897 335.03518 76.28125 335.375 L 76.25 335.875 C 78.289086 336.78131 78.751297 340.06107 77.65625 345.6875 C 77.127551 348.21755 75.937519 352.51417 74.125 358.59375 C 72.350175 364.67338 71.148427 369.04419 70.46875 371.6875 C 70.279912 372.32945 69.977847 372.8164 69.5625 373.15625 C 69.184855 373.4961 68.783837 373.77343 68.40625 374 C 68.028606 374.22657 67.81898 374.50389 67.78125 374.84375 C 67.7057 375.10808 67.7057 375.41015 67.78125 375.75 C 67.818984 376.01433 68.423113 376.24869 69.59375 376.4375 C 70.764328 376.58857 71.929621 376.65625 73.0625 376.65625 C 74.119789 376.65625 74.68095 376.58855 74.71875 376.4375 L 84.15625 376.21875 C 84.458298 376.25645 84.742136 376.25 84.96875 376.25 C 85.686174 376.25 86.08068 376.04689 86.15625 375.59375 C 86.269488 375.10285 86.035127 374.56643 85.46875 374 C 84.940043 373.39582 84.286436 373.05078 83.53125 372.9375 C 81.492084 372.67317 80.986909 370.04703 81.96875 365.0625 C 82.195277 363.96743 82.472604 362.86984 82.8125 361.8125 L 83.25 360.21875 L 83.8125 356.9375 C 83.812456 356.89976 83.86193 356.73961 83.9375 356.4375 C 84.05074 355.87109 84.420509 354.01575 85.0625 350.84375 C 85.7044 347.67181 86.148384 345.50788 86.375 344.375 C 86.450477 343.99741 86.49344 343.69535 86.53125 343.46875 C 86.606724 343.24221 86.656203 343.0756 86.65625 343 C 86.69396 342.88675 86.718703 342.81905 86.71875 342.78125 C 86.794226 342.29039 87.003849 341.76047 87.34375 341.15625 C 87.721318 340.51434 88.066348 339.97791 88.40625 339.5625 C 88.746055 339.1094 88.937451 338.8503 88.9375 338.8125 C 88.975212 338.54821 89.27076 338.25265 89.875 337.875 C 90.47913 337.45966 90.83065 337.08339 90.90625 336.78125 C 90.98172 336.44144 91.91266 335.72012 93.6875 334.625 C 95.46224 333.49219 96.57806 332.93754 97.03125 332.9375 C 98.05076 332.93754 98.86451 333.28257 99.46875 334 C 100.07288 334.67975 100.49212 335.56121 100.71875 336.65625 C 100.94526 337.75137 101.013 339.17577 100.9375 340.875 C 100.86192 342.57431 100.67052 344.22003 100.40625 345.84375 C 100.17962 347.42976 99.85933 349.29163 99.40625 351.40625 C 99.14186 352.87897 98.67314 355.06113 98.03125 357.96875 C 97.38925 360.8764 96.95177 362.96612 96.6875 364.25 C 95.36579 370.82052 95.24861 374.70439 96.34375 375.875 C 97.02341 376.59247 97.65227 376.9375 98.21875 376.9375 C 98.29422 376.9375 98.89834 376.89453 100.03125 376.78125 C 101.20179 376.66792 102.42828 376.59375 103.75 376.59375 C 105.10935 376.59375 106.04028 376.55079 106.53125 376.4375 C 107.02208 376.28646 107.2994 376.02736 107.375 375.6875 C 107.375 375.53646 107.38145 375.23439 107.34375 374.78125 C 107.34368 374.29036 107.3619 373.87111 107.4375 373.53125 C 107.58848 372.85155 107.42833 372.0443 106.9375 371.0625 C 106.4843 370.04294 106.02209 369.53125 105.53125 369.53125 C 105.4179 369.53125 105.48561 368.18108 105.75 365.5 C 106.01427 362.78118 106.45824 359.92068 107.0625 356.9375 C 108.49737 350.55582 109.32935 346.62898 109.59375 345.15625 C 109.93354 343.60806 110.18613 342.28914 110.375 341.15625 C 110.56374 340.02344 110.68095 338.92585 110.71875 337.90625 C 110.75645 336.84897 110.75645 335.99225 110.71875 335.3125 C 110.68092 334.63284 110.49604 333.97923 110.15625 333.375 C 109.85409 332.7331 109.55202 332.24615 109.25 331.90625 C 108.94784 331.52868 108.43616 331.20188 107.71875 330.9375 C 107.00122 330.63546 106.32938 330.42583 105.6875 330.3125 C 105.08325 330.1615 104.17705 330.0756 102.96875 330 C 101.79808 329.88678 100.68226 329.81254 99.625 329.8125 C 98.56762 329.7748 97.19921 329.75005 95.5 329.75 C 95.04681 329.75005 94.23305 330.16929 93.0625 331 C 91.9296 331.83079 91.3255 332.43493 91.25 332.8125 C 91.17443 333.19016 90.98954 333.37505 90.6875 333.375 C 90.3476 333.37505 90.02079 333.56643 89.71875 333.90625 C 89.45437 334.20838 89.26948 334.3438 89.15625 334.34375 C 88.89187 334.3438 88.447887 333.88158 87.84375 332.9375 C 86.106672 330.14319 83.572973 328.75005 80.25 328.75 C 78.928306 328.75005 77.417983 328.95316 75.71875 329.40625 C 74.019446 329.85944 73.113251 330.09379 73 330.09375 C 72.169213 330.13156 71.330723 330.34118 70.5 330.71875 C 69.706977 331.05865 69.269505 331.21879 69.15625 331.21875 C 68.740844 331.21879 68.414041 330.52873 68.1875 329.09375 C 67.885379 327.09243 67.046889 326.0938 65.6875 326.09375 z M 315.84375 327.71875 C 314.18222 327.7188 312.52997 327.97139 310.90625 328.5 C 309.32024 329.02871 307.97007 329.68232 306.875 330.4375 C 305.7799 331.15502 304.78126 331.91929 303.875 332.75 C 303.00647 333.5808 302.35937 334.32685 301.90625 334.96875 C 301.45309 335.57298 301.19395 335.99222 301.15625 336.21875 C 301.11847 336.48312 300.81641 337.01954 300.25 337.8125 C 299.68356 338.56777 299.26432 339.1719 299 339.625 L 297.46875 342.09375 C 296.94008 343.00007 296.04039 346.83446 294.71875 353.59375 C 294.60546 354.04691 294.4388 354.72526 294.25 355.59375 C 294.09895 356.42453 293.98175 357.00392 293.90625 357.34375 C 293.52862 359.34513 293.29425 360.39325 293.21875 360.46875 C 293.02993 360.69534 292.91925 361.01563 292.84375 361.46875 C 292.6927 362.14848 292.6927 363.06118 292.84375 364.15625 C 292.99479 365.21359 293.15494 366.16275 293.34375 367.03125 C 293.53252 367.86202 293.6003 368.33075 293.5625 368.40625 C 293.52473 368.63283 293.69139 368.86068 294.03125 369.125 C 294.37115 369.35158 294.48175 369.61068 294.40625 369.875 C 294.33072 370.32815 294.45441 370.76561 294.71875 371.21875 C 295.02083 371.67189 295.3229 372.04167 295.625 372.34375 L 296.125 372.8125 C 296.0117 373.26564 296.5911 373.91925 297.875 374.75 C 299.15888 375.543 300.996 376.25779 303.375 376.9375 C 305.79172 377.61721 308.20824 377.96875 310.625 377.96875 C 312.39976 377.96875 314.11971 377.78387 315.78125 377.40625 C 317.44273 377.02864 319.1132 376.32555 320.8125 375.34375 C 322.54949 374.32419 324.13404 373.04823 325.53125 371.5 C 326.92839 369.95178 328.17961 367.92977 329.3125 365.4375 C 330.48306 362.90749 331.38926 360.0535 332.03125 356.84375 C 332.29554 355.6354 332.55464 355.03127 332.78125 355.03125 C 333.2721 355.03127 333.5924 354.51959 333.78125 353.5 C 333.93222 352.70704 333.99996 351.42455 334 349.6875 C 333.9999 347.91273 334.0247 346.93883 334.0625 346.75 C 334.25127 345.76823 334.20829 345.28128 333.90625 345.28125 C 333.67967 345.28128 333.65489 344.81256 333.84375 343.90625 C 334.22131 341.90492 333.29039 339.28529 331.0625 336 C 328.87229 332.71479 325.91934 330.36598 322.21875 328.96875 C 320.0663 328.13805 317.95837 327.7188 315.84375 327.71875 z M 229.75 328.125 C 228.3528 328.12505 226.76825 328.53778 225.03125 329.40625 C 223.33196 330.23705 221.75393 331.26042 220.28125 332.46875 C 218.80853 333.67716 217.44013 334.91016 216.15625 336.15625 C 214.91011 337.40242 213.88022 338.47527 213.125 339.34375 C 212.36975 340.2123 211.99999 340.72399 212 340.875 C 211.96223 341.02608 211.52475 341.76561 210.65625 343.125 C 208.05069 346.93894 206.33075 350.95824 205.5 355.1875 C 205.1979 356.69799 205.013 358.19008 204.9375 359.625 C 204.8997 361.05995 204.8997 362.16926 204.9375 363 C 205.01299 363.83076 205.03124 364.2747 205.03125 364.3125 C 204.80467 365.36984 205.06377 366.83719 205.78125 368.6875 C 206.53647 370.53782 207.32549 372.11585 208.15625 373.4375 L 209.40625 375.40625 C 209.29295 375.85939 209.68747 376.32811 210.59375 376.78125 C 211.53778 377.23438 212.48694 377.57942 213.46875 377.84375 L 214.9375 378.25 C 214.86196 378.51433 215.2812 378.65625 216.1875 378.65625 C 217.35809 378.65625 218.98559 378.42189 221.0625 377.96875 C 223.13936 377.55338 225.25381 376.96747 227.40625 376.25 C 229.55863 375.53254 231.48819 374.65108 233.1875 373.59375 C 234.88673 372.49867 235.86714 371.40759 236.09375 370.3125 C 236.09371 370.16146 236.09371 370.02605 236.09375 369.875 C 236.09371 368.32678 235.79165 367.53126 235.1875 367.53125 C 234.84761 367.53126 234.26171 367.83333 233.46875 368.4375 C 232.71348 369.00393 231.94921 369.65754 231.15625 370.375 C 230.36323 371.09248 229.36459 371.73957 228.15625 372.34375 C 226.98561 372.94794 225.84506 373.25 224.75 373.25 C 223.99474 373.25 223.34765 373.20704 222.78125 373.09375 C 222.25256 372.94271 221.74088 372.68361 221.25 372.34375 C 220.75908 372.0039 220.35806 371.72657 220.09375 371.5 C 219.82939 371.23567 219.45963 370.84117 218.96875 370.3125 C 218.51559 369.78384 218.18879 369.41408 218 369.1875 C 216.18743 367.26167 215.07161 364.38295 214.65625 360.53125 C 214.27862 356.64183 214.48824 352.70848 215.28125 348.78125 C 215.88542 345.64707 216.77338 343.21232 217.90625 341.4375 L 219.53125 338.71875 C 220.43751 337.24609 221.9973 335.77873 224.1875 334.34375 C 226.4154 332.90886 228.16009 332.18754 229.40625 332.1875 C 230.35026 332.18754 230.72002 332.68101 230.53125 333.625 C 230.53125 333.73833 230.50645 333.82426 230.46875 333.9375 C 230.39322 334.16411 230.3502 334.39847 230.3125 334.625 C 230.12362 335.45579 230.11715 336.15237 230.34375 336.71875 C 230.57029 337.24745 230.87886 337.64847 231.21875 337.875 C 231.59633 338.06385 231.94136 338.1745 232.28125 338.25 L 232.75 338.375 C 232.82549 338.52607 232.91142 338.59379 233.0625 338.59375 C 233.36456 338.59379 233.87624 338.29173 234.59375 337.6875 C 235.34894 337.04559 236.04552 336.39199 236.6875 335.75 L 237.5625 334.84375 C 237.67574 334.8438 237.79293 334.59121 237.90625 334.0625 C 237.98178 333.57164 237.95699 333.05995 237.84375 332.53125 C 237.76819 332.00263 237.48435 331.44798 237.03125 330.84375 C 236.57807 330.20185 235.78906 329.61595 234.65625 329.125 C 233.52337 328.63415 232.08075 328.33859 230.34375 328.1875 C 230.15491 328.1498 229.97654 328.12505 229.75 328.125 z M 385.84375 328.125 C 384.44654 328.12505 382.86201 328.53778 381.125 329.40625 C 379.42571 330.23705 377.84767 331.26042 376.375 332.46875 C 374.90228 333.67716 373.53387 334.91016 372.25 336.15625 C 371.00385 337.40242 370.00522 338.47527 369.25 339.34375 C 368.49476 340.2123 368.12498 340.72399 368.125 340.875 C 368.08722 341.02608 367.6185 341.76561 366.75 343.125 C 364.14444 346.93894 362.42449 350.95824 361.59375 355.1875 C 361.29165 356.69799 361.10675 358.19008 361.03125 359.625 C 360.99345 361.05995 360.99345 362.16926 361.03125 363 C 361.10674 363.83076 361.15624 364.2747 361.15625 364.3125 C 360.92967 365.36984 361.15752 366.83719 361.875 368.6875 C 362.63022 370.53782 363.41923 372.11585 364.25 373.4375 L 365.5 375.40625 C 365.3867 375.85939 365.78121 376.32811 366.6875 376.78125 C 367.63152 377.23438 368.61193 377.57942 369.59375 377.84375 L 371.0625 378.25 C 370.98696 378.51433 371.4062 378.65625 372.3125 378.65625 C 373.48309 378.65625 375.11059 378.42189 377.1875 377.96875 C 379.26436 377.55338 381.37882 376.96747 383.53125 376.25 C 385.68363 375.53254 387.58195 374.65108 389.28125 373.59375 C 390.98048 372.49867 391.96089 371.40759 392.1875 370.3125 C 392.18746 370.16146 392.18746 370.02605 392.1875 369.875 C 392.18746 368.32678 391.8854 367.53126 391.28125 367.53125 C 390.94136 367.53126 390.38671 367.83333 389.59375 368.4375 C 388.83849 369.00393 388.04296 369.65754 387.25 370.375 C 386.45697 371.09248 385.45834 371.73957 384.25 372.34375 C 383.07937 372.94794 381.93881 373.25 380.84375 373.25 C 380.08849 373.25 379.4414 373.20704 378.875 373.09375 C 378.34631 372.94271 377.83462 372.68361 377.34375 372.34375 C 376.85282 372.0039 376.48306 371.72657 376.21875 371.5 C 375.9544 371.23567 375.58463 370.84117 375.09375 370.3125 C 374.64059 369.78384 374.31379 369.41408 374.125 369.1875 C 372.31243 367.26167 371.19661 364.38295 370.78125 360.53125 C 370.40361 356.64183 370.61324 352.70848 371.40625 348.78125 C 372.01042 345.64707 372.86713 343.21232 374 341.4375 L 375.65625 338.71875 C 376.5625 337.24609 378.09105 335.77873 380.28125 334.34375 C 382.50915 332.90886 384.25384 332.18754 385.5 332.1875 C 386.44401 332.18754 386.81378 332.68101 386.625 333.625 C 386.625 333.73833 386.6002 333.82426 386.5625 333.9375 C 386.48697 334.16411 386.44395 334.39847 386.40625 334.625 C 386.21737 335.45579 386.24215 336.15237 386.46875 336.71875 C 386.69529 337.24745 386.97261 337.64847 387.3125 337.875 C 387.69008 338.06385 388.03512 338.1745 388.375 338.25 L 388.84375 338.375 C 388.91924 338.52607 389.03641 338.59379 389.1875 338.59375 C 389.48955 338.59379 390.00124 338.29173 390.71875 337.6875 C 391.47394 337.04559 392.17051 336.39199 392.8125 335.75 L 393.65625 334.84375 C 393.7695 334.8438 393.88668 334.59121 394 334.0625 C 394.07553 333.57164 394.05075 333.05995 393.9375 332.53125 C 393.86194 332.00263 393.60935 331.44798 393.15625 330.84375 C 392.70307 330.20185 391.91406 329.61595 390.78125 329.125 C 389.64837 328.63415 388.20575 328.33859 386.46875 328.1875 C 386.27991 328.1498 386.07029 328.12505 385.84375 328.125 z M 426.625 328.625 C 426.28511 328.62505 425.94009 328.6745 425.5625 328.75 C 423.48559 329.12767 421.57424 329.61462 419.875 330.21875 C 418.17571 330.82298 416.8073 331.40237 415.75 331.96875 C 414.69266 332.53521 413.71876 333.18231 412.8125 333.9375 C 411.94396 334.69277 411.3151 335.32165 410.9375 335.8125 C 410.55987 336.26568 410.14062 336.82685 409.6875 337.46875 C 409.27211 338.07298 409.0378 338.39325 409 338.46875 C 407.79162 339.82821 406.72528 341.55466 405.78125 343.59375 C 404.8372 345.6329 404.16537 347.37108 403.75 348.84375 C 403.37238 350.27872 402.83595 352.36843 402.15625 355.125 C 402.00519 355.65368 401.86328 356.21485 401.75 356.78125 C 401.4479 358.32949 401.22005 360.14189 401.03125 362.21875 C 400.8802 364.25789 400.73827 365.55858 400.625 366.125 L 401.125 368.15625 C 401.50261 369.51567 402.03904 371.02599 402.71875 372.6875 C 403.39845 374.31125 404.0768 375.40233 404.71875 375.96875 C 406.38025 377.51698 409.2095 378.3125 413.25 378.3125 C 415.93105 378.3125 418.72385 377.98569 421.59375 377.34375 C 424.4636 376.7018 426.87361 375.86331 428.875 374.84375 C 430.87633 373.82419 431.99865 372.80082 432.1875 371.78125 C 432.33851 371.10155 431.98696 370.47919 431.15625 369.875 C 431.11845 369.8373 431.0755 369.8125 431 369.8125 C 430.81115 369.8125 430.10808 370.1328 428.9375 370.8125 C 427.76686 371.45445 426.33075 372.1328 424.59375 372.8125 C 422.89446 373.45445 421.28517 373.78125 419.8125 373.78125 C 415.92304 373.78125 413.00135 371.52488 411 367.03125 L 409.96875 363.625 C 409.74212 362.22784 409.6992 361.25394 409.8125 360.6875 C 409.8502 360.38542 409.8502 359.92322 409.8125 359.28125 C 409.81249 358.63932 409.85545 358.01045 409.96875 357.40625 C 410.04428 357.06641 410.11845 356.36984 410.15625 355.3125 C 410.23176 354.21744 410.2995 353.49613 410.375 353.15625 C 410.4127 353.04299 410.43748 352.9506 410.4375 352.875 C 410.62629 352.23308 411.62493 351.65368 413.4375 351.125 C 415.25004 350.59636 417.03768 350.20185 418.8125 349.9375 C 420.58726 349.67319 423.21341 349.34639 426.6875 348.96875 C 430.19929 348.5534 432.44915 348.27608 433.46875 348.125 C 435.99873 347.74742 437.48431 346.3725 437.9375 344.03125 C 438.31507 342.14321 438.01952 339.97927 437 337.5625 C 435.98039 335.1458 434.46356 333.05608 432.5 331.28125 C 430.57413 329.5065 428.62633 328.62505 426.625 328.625 z M 355.1875 328.90625 C 354.24344 328.9063 352.89978 329.28258 351.125 330 C 349.38796 330.71752 347.85289 331.40758 346.53125 332.125 C 345.24735 332.84252 344.6002 333.26176 344.5625 333.375 C 344.48697 333.79042 344.57289 334.3021 344.875 334.90625 C 345.21484 335.47271 345.56638 335.75004 345.90625 335.75 C 346.2083 335.75004 346.3255 335.86722 346.25 336.09375 C 346.21223 336.35812 346.51429 336.64196 347.15625 336.90625 C 347.53389 337.0951 347.50911 339.02466 347.09375 342.6875 C 346.67836 346.3504 346.03126 350.36317 345.125 354.78125 C 344.06766 360.14341 342.88414 364.67438 341.5625 368.375 C 340.2786 372.07564 339.02087 373.9375 337.8125 373.9375 C 337.13279 373.9375 336.71355 374.10416 336.5625 374.40625 C 336.44921 374.70834 336.59113 375.21352 336.96875 375.96875 C 337.34636 376.95055 338.06767 377.46875 339.125 377.46875 C 339.3138 377.46875 339.51691 377.44405 339.78125 377.40625 C 340.08333 377.36855 340.26825 377.34375 340.34375 377.34375 C 340.6081 377.34375 340.7253 377.46093 340.6875 377.6875 C 340.64973 377.80083 341.09371 377.84375 342 377.84375 C 343.32164 377.84375 345.31891 377.72656 348 377.5 C 350.71881 377.31119 352.0872 377.2005 352.125 377.125 C 352.2005 376.74738 352.41013 376.39584 352.75 376.09375 C 353.24088 375.67837 353.54294 375.23439 353.65625 374.78125 C 353.73175 374.36588 353.59635 373.95314 353.21875 373.5 C 352.87888 373.0091 352.43489 372.6146 351.90625 372.3125 C 351.41533 371.97265 350.97786 371.62111 350.5625 371.28125 C 350.18487 370.90364 349.99345 370.60158 350.03125 370.375 C 350.10676 370.14844 350.31637 369.93881 350.65625 369.75 L 351.0625 366.625 C 351.36458 364.54812 351.7096 361.9285 352.125 358.71875 C 352.57811 355.47128 353.07158 352.07435 353.5625 348.5625 C 354.05338 345.05071 354.56506 341.61081 355.09375 338.25 C 355.66015 334.8515 356.12236 332.20062 356.5 330.3125 C 356.68878 329.36851 356.2448 328.9063 355.1875 328.90625 z M 129.875 330 L 119.4375 334.1875 C 118.94659 334.45187 118.64453 334.87112 118.53125 335.4375 C 118.3802 336.11725 118.52211 336.76434 118.9375 337.40625 C 119.35287 338.04824 119.93877 338.37504 120.65625 338.375 C 121.75132 338.37504 122.65752 339.02213 123.375 340.34375 C 124.09246 341.62768 124.55466 343.0703 124.78125 344.65625 C 125.0078 346.24227 125.23565 347.70962 125.5 349.03125 C 125.76431 350.31517 126.06638 350.93752 126.40625 350.9375 C 126.55723 350.93752 126.60675 351.10418 126.53125 351.40625 C 126.41795 352.08598 126.81246 354.08325 127.71875 357.40625 L 129.125 362.375 C 129.01169 362.94144 129.75774 365.4504 131.34375 369.90625 C 132.92971 374.32436 133.81117 376.5625 134 376.5625 C 134.33983 376.5625 134.45701 376.76562 134.34375 377.21875 C 134.23044 377.89846 133.55861 379.10672 132.3125 380.84375 C 131.10411 382.61854 129.92059 384.24604 128.75 385.71875 C 127.57938 387.19144 126.99998 387.9622 127 388 C 126.99998 388.11327 126.46356 388.66792 125.40625 389.6875 C 124.38668 390.74481 123.8255 391.41665 123.75 391.71875 C 123.67446 392.17188 123.48958 392.40624 123.1875 392.40625 C 122.96092 392.40624 122.8255 392.59112 122.75 392.96875 C 122.63671 393.38411 122.21746 393.94528 121.5 394.625 C 120.82028 395.34245 120.1172 395.94658 119.4375 396.4375 L 118.5 397.15625 C 118.42447 397.49608 116.79696 399.17307 113.625 402.15625 C 112.79424 402.91146 111.91278 403.42314 110.96875 403.6875 C 110.02471 403.9518 109.3034 404.1119 108.8125 404.1875 C 108.3216 404.26299 108.04425 404.49735 107.96875 404.875 C 107.93105 404.98825 107.90625 405.12367 107.90625 405.3125 C 107.94402 407.08727 108.98562 407.96872 111.0625 407.96875 C 111.66669 407.96872 112.38799 407.87628 113.21875 407.6875 C 114.08726 407.53643 114.55595 407.46872 114.59375 407.46875 C 115.95316 407.46872 117.54941 406.74741 119.4375 405.3125 C 121.36333 403.87754 123.08979 402.2995 124.5625 400.5625 C 126.07295 398.82544 127.37365 397.24742 128.46875 395.8125 L 130.03125 393.65625 C 130.14452 393.2031 130.84109 392.15499 132.125 390.53125 C 133.44663 388.94526 134.75385 387.41019 136 385.9375 L 137.90625 383.8125 C 137.94398 383.54816 138.48041 382.89455 139.5 381.875 C 140.55729 380.89319 141.14315 380.23959 141.21875 379.9375 C 141.25648 379.67316 141.48433 379.39584 141.9375 379.09375 C 142.42836 378.82942 142.70575 378.48438 142.78125 378.03125 C 142.85674 377.80468 143.97256 376.10947 146.125 372.9375 C 148.31513 369.76553 149.49865 367.71879 149.6875 366.8125 L 151.75 363.96875 C 153.10937 362.11844 153.82417 360.86071 153.9375 360.21875 L 156.5625 355.125 L 162.5 343.46875 C 162.95309 342.26041 163.64966 341.02742 164.59375 339.78125 C 165.5755 338.49739 166.53117 337.45579 167.4375 336.625 C 168.38148 335.75652 169.21346 334.86856 169.96875 334 C 170.72393 333.13153 171.1679 332.43496 171.28125 331.90625 C 171.35671 331.49092 171.23954 331.12115 170.9375 330.78125 C 170.82416 330.63025 170.12758 330.5131 168.84375 330.4375 C 167.5598 330.32428 166.11718 330.28129 164.53125 330.28125 C 161.7746 330.28129 159.38283 330.46618 157.34375 330.84375 C 155.34235 331.18365 154.276 331.78778 154.125 332.65625 C 154.04943 332.99615 154.14188 333.34118 154.40625 333.71875 C 155.1992 334.8894 155.29164 336.98562 154.6875 339.96875 C 154.00775 343.40508 152.58986 347.49208 150.4375 352.25 C 148.28505 356.97022 146.84243 359.84894 146.125 360.90625 L 141.3125 368.5 C 141.27471 368.6133 140.7448 367.17719 139.6875 364.15625 C 138.63015 361.13534 137.63151 357.83085 136.6875 354.28125 C 135.74344 350.69392 135.39189 348.30215 135.65625 347.09375 L 135.09375 345.84375 C 134.7916 345.84378 134.6744 345.65889 134.75 345.28125 C 134.8255 344.94142 134.4987 344.03524 133.78125 342.5625 C 133.10152 341.08984 132.75645 339.94928 132.71875 339.15625 L 132.25 334.625 C 131.98564 331.52859 131.24611 330.00005 130 330 C 129.96222 330.00005 129.9127 330.00005 129.875 330 z M 317.0625 332.1875 C 318.91279 332.18754 320.42962 333.00129 321.5625 334.625 C 322.69531 336.24878 323.41662 338.36324 323.71875 340.96875 C 324.02082 343.53657 324.08851 346.23042 323.9375 349.0625 C 323.78641 351.85688 323.41014 354.62494 322.84375 357.34375 C 322.01296 361.57306 321.03906 364.43356 319.90625 365.90625 C 318.32023 367.86986 317.20442 369.68225 316.5625 371.34375 C 315.88277 372.77869 313.86075 373.5 310.5 373.5 C 308.6119 373.5 307.42838 373.38282 306.9375 373.15625 C 305.42702 372.47654 304.87237 371.17585 305.25 369.25 C 305.36327 368.83464 305.43095 368.62501 305.46875 368.625 C 305.12886 368.62501 304.987 368.5573 305.0625 368.40625 C 305.70443 367.80207 305.75391 367.1667 305.1875 366.5625 C 304.20568 365.39191 303.737 362.81524 303.8125 358.8125 C 303.888 354.8098 304.28252 351.02488 305 347.4375 C 305.64193 344.26557 306.25257 342.68753 306.78125 342.6875 C 306.89451 342.68753 306.9622 342.6381 307 342.5625 C 307.0377 342.48701 307.06248 342.39457 307.0625 342.28125 C 307.06248 342.13024 307.10544 341.89588 307.21875 341.59375 C 307.36977 341.25393 307.55466 340.9089 307.78125 340.53125 L 309.03125 338.15625 C 309.44661 337.51434 310.12495 336.71882 311.03125 335.8125 C 311.93751 334.90627 312.3997 334.39458 312.4375 334.28125 C 312.47524 334.05472 312.7096 333.77739 313.125 333.4375 C 313.54035 333.09769 313.93486 332.86984 314.3125 332.71875 C 315.29427 332.37894 316.19396 332.18754 317.0625 332.1875 z M 424.03125 333 C 425.05078 333.00004 425.95698 333.27737 426.75 333.84375 C 427.58072 334.41022 428.17834 335.13153 428.59375 336 C 429.04685 336.86856 429.3984 337.6758 429.625 338.46875 C 429.8893 339.26178 430.05595 339.98309 430.09375 340.625 C 430.16925 341.98445 430.16925 342.87242 430.09375 343.25 C 429.98043 343.85422 429.60415 344.24872 429 344.4375 C 428.43354 344.62634 427.27476 344.83596 425.5 345.0625 C 423.04547 345.32686 420.3946 345.64715 417.5625 346.0625 C 414.76813 346.47791 413.21484 346.68753 412.875 346.6875 C 412.72394 346.6876 412.6002 346.6628 412.5625 346.625 C 412.26043 346.39846 412.19269 345.98572 412.34375 345.34375 C 412.53254 344.4375 413.11844 343.16154 414.0625 341.5 C 415.04428 339.83853 415.9687 338.42065 416.875 337.25 L 418.25 335.4375 C 418.28774 335.17321 418.70047 334.82167 419.53125 334.40625 C 420.36197 333.95315 421.26817 333.58338 422.25 333.28125 C 422.85416 333.09244 423.4648 333.00004 424.03125 333 z "
      transform="translate(10.931892,184.96021)"
      id="path3000"
    />
  </g>
</svg>
