<svg
  height="100px"
  width="100px"
  fill="#000000"
  xmlns:dc="http://purl.org/dc/elements/1.1/"
  xmlns:cc="http://creativecommons.org/ns#"
  xmlns:rdf="http://www.w3.org/1999/02/22-rdf-syntax-ns#"
  xmlns:svg="http://www.w3.org/2000/svg"
  xmlns="http://www.w3.org/2000/svg"
  xmlns:sodipodi="http://sodipodi.sourceforge.net/DTD/sodipodi-0.dtd"
  xmlns:inkscape="http://www.inkscape.org/namespaces/inkscape"
  viewBox="0 0 80 80"
  version="1.1"
  x="0px"
  y="0px"
>
  <path
    style=""
    d="M 24.133771,2.2417998 C 16.782608,9.5929595 9.4124505,16.925127 1.9853073,24.200307 l 0,31.66508 c 1.2536866,1.46264 2.6783304,2.73532 4.0269933,4.08398 6.0214954,6.04049 12.0049994,12.11897 18.1024744,18.08348 l 31.494127,0 c 3.83704,-3.68508 7.484129,-7.56011 11.321169,-11.22619 3.76106,-3.55211 7.389153,-7.23719 11.036241,-10.92227 l 0,-31.68408 C 70.672136,16.868137 63.339969,9.5549695 56.007802,2.2417998 l -31.874031,0 z m 4.748812,21.6735772 c 1.063734,0.15196 2.051487,0.60785 3.03924,1.00675 3.856036,1.53862 7.731068,3.03924 11.587104,4.59685 3.248188,1.42464 6.914271,0.56986 10.333416,0.98775 5.261685,0.26594 10.504374,0.72182 15.652087,1.84254 1.443639,0.28493 2.849288,0.87378 3.875032,1.93752 -1.08273,0.96876 -2.488378,1.50062 -3.894027,1.82354 -9.402649,1.86154 -19.014246,1.91852 -28.549862,2.24144 -0.968758,-0.095 -1.823545,0.34192 -2.678331,0.72182 -5.394651,2.54537 -10.922269,4.86279 -16.449887,7.08523 -2.488378,-0.019 -4.805799,-1.1777 -7.16121,-1.84254 3.191202,-2.22244 6.420395,-4.3879 9.649588,-6.55336 -4.425894,-0.64584 -8.965759,-0.7978 -13.220695,-2.20345 -0.778805,-0.24694 -1.4056492,-0.7788 -2.0134972,-1.29168 0.7978007,-0.7978 1.8425392,-1.27268 2.8682832,-1.70957 -0.36091,-2.45039 -1.063734,-4.84379 -1.614596,-7.27518 1.006748,-0.37991 2.013496,-0.7978 3.020245,-1.1967 2.241439,2.45039 4.786803,4.61585 7.142214,6.99025 2.602349,-0.20895 5.242689,-0.18995 7.826044,-0.56986 -1.424644,-1.82354 -3.00125,-3.51412 -4.368908,-5.37565 1.671582,-0.36091 3.267183,-1.04474 4.95776,-1.2157 z m 8.585854,19.71707 c 1.044739,0.37991 2.108473,0.77881 2.906273,1.57661 1.766559,-0.51287 3.438141,0.51287 5.109723,0.94976 0.854786,0.22794 1.348663,1.13972 1.272682,1.9945 -0.455886,0.68383 -1.367658,1.00675 -2.165459,0.77881 -1.652587,-0.3989 -3.43814,-0.68383 -4.786803,-1.82355 -1.044739,0.58886 -2.203449,0.24694 -3.286179,-0.019 0.341915,-0.49388 0.72182,-0.93077 1.006749,-1.44364 0.09498,-0.66483 -0.05699,-1.34866 -0.05699,-2.0135 z m -8.490877,7.08523 c 1.272681,0.3989 2.564358,0.89278 3.476131,1.95651 0.721819,0.20895 1.538615,-0.13296 2.27943,0.13297 1.51962,0.45588 3.03924,1.00675 4.444888,1.72857 0.873782,0.43689 0.968758,1.51962 1.12072,2.3744 -0.322919,0.58886 -0.816796,1.1967 -1.538615,1.25369 -1.405649,0.28493 -2.67833,-0.4179 -3.951012,-0.83579 -1.12072,-0.37991 -2.184454,-0.91177 -2.96326,-1.82355 -0.569857,0.22795 -1.120719,0.62685 -1.766558,0.55087 -0.7978,-0.057 -1.55761,-0.3989 -2.355411,-0.53187 0.493877,-0.75981 1.12072,-1.44364 1.462634,-2.26044 0.113972,-0.85478 -0.170957,-1.70957 -0.208947,-2.54536 z m -8.585854,8.22494 c 0.873782,0.22795 1.766558,0.45589 2.621345,0.79781 0.607848,0.30392 1.025743,0.91177 1.652587,1.21569 0.987753,0.076 2.013496,-0.18995 2.982254,0.11397 1.462634,0.43689 2.925269,0.89278 4.387903,1.34867 1.044739,0.32292 1.652587,1.42464 1.747563,2.46938 -0.284929,1.15871 -1.614596,1.61459 -2.697326,1.5956 -1.804548,-0.24694 -3.495126,-1.04474 -5.280679,-1.48163 -0.816796,-0.20895 -1.405649,-0.83579 -1.975507,-1.40565 -0.588852,0.26593 -1.15871,0.64584 -1.823544,0.62684 -1.006748,-0.13296 -1.994501,-0.34191 -3.001249,-0.51287 0.550862,-0.7788 1.15871,-1.51962 1.804549,-2.22244 -0.151962,-0.83579 -0.303924,-1.69058 -0.417896,-2.54537 z"
    fill="#000000"
    stroke="#000000"
    stroke-width="0.01780805"
  ></path>
</svg>
