<?xml version="1.0" encoding="UTF-8" standalone="no"?>
<!-- Created with Inkscape (http://www.inkscape.org/) -->
<svg
  xmlns:dc="http://purl.org/dc/elements/1.1/"
  xmlns:cc="http://creativecommons.org/ns#"
  xmlns:rdf="http://www.w3.org/1999/02/22-rdf-syntax-ns#"
  xmlns:svg="http://www.w3.org/2000/svg"
  xmlns="http://www.w3.org/2000/svg"
  xmlns:sodipodi="http://sodipodi.sourceforge.net/DTD/sodipodi-0.dtd"
  xmlns:inkscape="http://www.inkscape.org/namespaces/inkscape"
  width="898.75659"
  height="579.18164"
  viewBox="0 0 253.64909 163.45793"
  version="1.1"
  id="svg8"
  inkscape:version="0.48.4 r9939"
  sodipodi:docname="worker_united_never_defeated.svg"
>
  <defs id="defs2" />
  <sodipodi:namedview
    id="base"
    pagecolor="#ffffff"
    bordercolor="#666666"
    borderopacity="1.0"
    inkscape:pageopacity="0.0"
    inkscape:pageshadow="2"
    inkscape:zoom="0.63325836"
    inkscape:cx="647.36075"
    inkscape:cy="398.83601"
    inkscape:document-units="mm"
    inkscape:current-layer="layer9"
    showgrid="false"
    inkscape:window-width="1280"
    inkscape:window-height="749"
    inkscape:window-x="0"
    inkscape:window-y="26"
    inkscape:window-maximized="1"
    showguides="false"
    units="mm"
    fit-margin-top="0"
    fit-margin-left="0"
    fit-margin-right="0"
    fit-margin-bottom="0"
  >
    <sodipodi:guide
      position="41.657479,281.18197"
      orientation="0,1"
      id="guide2355"
      inkscape:locked="false"
    />
  </sodipodi:namedview>
  <metadata id="metadata5">
    <rdf:RDF>
      <cc:Work rdf:about="">
        <dc:format>image/svg+xml</dc:format>
        <dc:type rdf:resource="http://purl.org/dc/dcmitype/StillImage" />
        <dc:title />
      </cc:Work>
    </rdf:RDF>
  </metadata>
  <g
    inkscape:groupmode="layer"
    id="layer10"
    inkscape:label="drapeau"
    style="display: inline"
    transform="translate(-11.005857,-138.44024)"
  />
  <g
    inkscape:groupmode="layer"
    id="layer2"
    inkscape:label="frise"
    style="display: inline"
    transform="translate(-11.005857,-138.44024)"
  />
  <g
    inkscape:groupmode="layer"
    id="layer6"
    inkscape:label="gj1"
    style="display: inline"
    transform="translate(-11.005857,-138.44024)"
  />
  <g
    inkscape:groupmode="layer"
    id="layer9"
    inkscape:label="txt"
    style="display: inline"
    transform="translate(-11.005857,-138.44024)"
  >
    <path
      inkscape:connector-curvature="0"
      style="fill: #000000; stroke-width: 0.57348853; display: inline"
      d="m 239.90881,149.06663 c -0.13916,0.004 -0.27743,0.0288 -0.41452,0.0728 -5.43479,3.35714 -6.96798,1.69114 -3.85847,9.44816 4.70251,2.94675 2.94922,3.46148 2.2843,6.84754 0.0418,0.22448 0.14401,0.45689 0.22729,0.51656 0.0833,0.0597 0.17418,0.44403 0.20185,0.85384 0.0277,0.40981 0.15366,0.86915 0.27975,1.02105 0.12606,0.15189 0.16118,0.38609 0.0782,0.52037 -0.083,0.13428 0.0907,0.5048 0.38592,0.82332 0.62181,0.671 1.04268,1.78393 0.89229,2.35902 -0.0574,0.21945 -0.0134,0.80325 0.0976,1.29729 -0.52199,0.56855 -1.69623,5.65904 -1.69623,5.75307 -0.20094,1.98777 -4.13147,0.27332 -10.28356,3.99707 0,0.29388 -0.70384,-4.63118 -2.52845,-5.07788 -1.37861,-0.33751 -1.39256,-0.33639 -1.76139,0.15258 -0.27862,0.36937 -0.39831,0.41702 -0.4781,0.18946 -0.0878,-0.25035 -0.22545,-0.23541 -0.78327,0.0852 -0.37211,0.21387 -0.75214,0.39968 -0.84462,0.41325 -0.0925,0.0136 -0.48248,0.15613 -0.86655,0.31661 -1.32508,0.55366 -1.69613,1.25616 -1.84882,0.45743 -0.055,-0.28756 -0.016,-0.52292 0.0868,-0.52292 0.1028,0 0.18692,-0.10819 0.18692,-0.24032 0,-0.13232 -0.15788,-0.17955 -0.35158,-0.10522 -0.27211,0.10442 -0.32527,0.034 -0.23492,-0.31152 0.24015,-1.0002 -0.66029,-2.07686 -0.48414,-3.64296 -0.23104,-0.95406 -0.21866,-1.11049 0.10808,-1.34941 0.20327,-0.14863 0.44288,-0.22524 0.53214,-0.17007 0.27141,-0.0454 0.22432,-2.05068 0.58968,-3.17694 1.67853,-5.17434 1.71539,-4.73603 1.67842,-5.17452 -0.28734,-1.38181 0.34779,-5.60484 -2.09867,-7.11743 -0.47742,-0.21409 -1.23438,-0.74106 -1.68224,-1.17108 -0.96245,-0.92412 -1.23853,-2.46675 -4.48408,-1.87933 -1.30328,0.23588 -3.68746,0.75675 -5.03815,1.3491 l -2.59552,1.13834 -0.73526,0.89739 c -0.40437,0.49347 -0.641,5.0366 -1.23658,5.65452 0.01,3.13299 -0.85665,5.61624 -0.0178,6.87393 0.62989,1.29151 0.46729,6.02793 2.12346,2.81995 0.16751,0.0832 0.45341,0.16309 0.84748,0.23047 0.56696,0.0969 -0.159,0.44395 0.0201,0.45712 0.82006,1.11807 -0.41629,2.56785 -0.31884,3.77773 -1.15715,0.39087 -0.75354,0.24371 -3.71702,0.33791 -4.57172,0.14533 -7.26317,1.15673 -7.11107,1.40283 0.0737,0.11929 -0.0303,0.14641 -0.24446,0.0642 -0.2048,-0.0786 -0.31873,-0.0562 -0.25335,0.0496 0.14987,0.24249 -2.27107,2.61733 -2.67182,2.62095 -0.53692,0.005 -2.24766,-1.86176 -2.85142,-2.95918 0.26937,-0.0175 0.32215,-0.1234 0.22824,-0.41929 -0.12927,-0.40728 -0.10841,-0.4101 0.56965,-0.0718 0.50579,0.25232 0.7279,0.27993 0.78867,0.0976 0.0465,-0.13961 0.20203,-0.25399 0.34523,-0.25399 0.14995,0 0.24169,-0.25294 0.21647,-0.59667 -0.024,-0.32822 -0.0553,-0.59667 -0.0693,-0.59667 -0.014,0 -0.0577,-1.28842 -0.0973,-2.86318 -0.0617,-2.45966 -0.0232,-2.88204 0.27307,-2.99574 0.22695,-0.0871 0.26342,-0.18414 0.1068,-0.28355 -0.31306,-0.19871 1.1e-4,-2.55221 0.40531,-3.04565 0,0 4.73838,-0.27272 4.73838,-0.65326 0,-0.37254 -4.17802,-2.20261 -5.13637,-2.20261 -0.59979,0 -1.6605,-3.8959 -2.39526,-4.65192 -4.72517,-4.47637 -13.26617,-2.78562 -14.71868,4.60487 -0.9981,0.42173 0.58033,1.6512 0.0433,1.93273 -0.85831,0.44992 -0.9678,0.58758 -0.90248,1.13803 0.0408,0.34445 0.20377,0.77303 0.36175,0.95206 0.55511,0.62907 1.05352,2.17778 0.78677,2.44453 -0.60179,0.60178 -0.27137,1.40449 1.07,2.59934 1.30792,1.16506 -0.62394,2.51719 -0.60875,3.94367 0.01,0.89668 0.47269,-0.86259 -3.4144,-0.0372 -0.44524,0.0945 -1.12695,0.48204 -1.51471,0.86115 -0.79336,0.77564 -0.91104,0.81096 -3.3006,0.9972 -0.0165,4.9e-4 -0.0487,0.005 -0.0788,0.009 -0.24127,-0.46547 -0.532,-0.9587 -0.84462,-1.41936 -0.86821,-1.27938 -1.37881,-2.69625 -1.20764,-3.35082 0.16313,-0.6238 -0.072,-1.84723 -0.5226,-2.71854 -0.45055,-0.87131 -0.67803,-2.12435 -0.50544,-2.78435 0.1726,-0.66002 0.0261,-1.37781 -0.32551,-1.59514 -0.35167,-0.21733 -0.63958,-1.33595 -0.63958,-2.48586 0,-3.04718 -2.1404,-6.50076 -4.5146,-7.28431 -3.89126,-1.28424 -7.68659,0.41277 -9.59979,4.29207 -0.67972,1.37825 -1.76623,3.43232 -2.41465,4.5645 -0.86024,1.5021 -1.09673,2.71223 -0.87513,4.4774 0.21797,1.73607 -0.0306,3.06429 -0.8799,4.705 -0.42831,0.82745 -0.71257,1.63868 -0.84208,2.38477 -1.91721,-0.93681 -4.424,-1.37068 -7.05258,-1.646 -0.22564,-0.27975 -0.2074,-0.42572 0.0178,-0.84653 0.16131,-0.3014 0.42018,-0.49919 0.57537,-0.43964 0.1552,0.0596 0.26179,0.0385 0.23683,-0.0467 -0.025,-0.0852 0.41591,-0.63117 0.9794,-1.21305 0.56348,-0.58188 1.02422,-1.26224 1.02422,-1.51186 0,-0.57157 -0.65549,-2.31292 -0.87069,-2.31292 -0.24248,0 -0.99968,-4.7153 -1.39774,-6.30651 -0.68272,-2.72914 -1.17345,-4.94051 -3.16389,-4.70278 -3.75694,-2.80375 -7.19224,0.81428 -10.96415,2.24204 -0.18243,0.07 -0.52054,0.48137 -0.75148,0.91424 -0.59868,1.12215 -0.92324,1.48467 -1.41172,1.57702 -0.36267,0.0686 -0.47131,3.21573 -0.70761,4.86712 -0.1536,1.0734 -0.52655,2.70599 -0.82873,3.62834 -0.30217,0.92234 -0.51834,1.9477 -0.48032,2.27859 0.0616,0.53566 0.18209,0.6196 1.09988,0.76451 0.28139,0.0444 0.64729,0.10292 1.01532,0.16149 -0.012,0.45453 -0.0172,0.94027 -0.014,1.46958 0.004,0.728 -4.9e-4,1.35328 -0.0172,1.90031 -0.42435,0.14835 -0.90764,0.26663 -1.40441,0.33028 -0.81317,0.10419 -2.25992,0.39311 -3.21476,0.64213 l -1.73597,0.45266 -0.65102,-0.73526 c -0.35808,-0.4045 -0.92349,-0.80257 -1.25661,-0.88436 -0.3331,-0.0818 -0.5479,-0.2425 -0.47714,-0.35698 0.0708,-0.11449 -0.0101,-0.15482 -0.17992,-0.0897 -0.16984,0.0652 -0.45492,-0.0274 -0.63322,-0.20567 -0.60499,-0.60498 -4.03282,1.53429 -4.85632,1.31255 -0.71372,-0.19219 0.8073,-3.47172 0.99847,-3.82892 0.17652,-0.32983 0.13449,-0.43735 -0.21425,-0.54803 -0.46316,-0.147 -0.5989,-0.54231 -0.18628,-0.54231 0.29662,0 0.82097,-0.65087 0.83063,-1.0309 0.004,-0.14919 -0.13949,-0.27115 -0.31852,-0.27115 -0.40401,0 -0.40595,-0.17953 -0.0137,-1.34879 0.34701,-1.03437 0.49062,-3.48408 0.24859,-4.24057 -0.12273,-0.38362 -0.018,-0.6064 0.48349,-1.02836 2.43666,-2.07893 -0.87592,-2.47086 -2.15112,-3.29169 l -1.1714,-0.97813 -3.68905,0.14654 c -5.459194,0.21653 -5.178209,0.12307 -6.21336,2.06053 -0.478268,0.89516 -1.047221,1.82277 -1.264545,2.06148 -0.217324,0.23871 -0.651296,0.94578 -0.964145,1.57098 -0.466476,0.93223 -0.561559,1.40284 -0.528956,2.61587 0.0294,1.09522 -1.812994,8.33204 -2.101853,8.8054 -0.500327,0.8199 5.824954,-1.50012 3.872464,-0.21553 -2.890954,1.90205 -10.949445,0.44415 -11.306185,1.04806 -0.458473,0.77614 -1.256788,0.79733 -2.057348,0.055 -0.32701,-0.30322 -0.594444,-0.6449 -0.594444,-0.75943 0,-0.11452 -0.236061,-0.20821 -0.524508,-0.20821 -0.288435,0 -0.565606,-0.12196 -0.61574,-0.27116 -0.07292,-0.21695 -0.242465,-0.21723 -0.84621,-6.5e-4 -0.659846,0.23673 -0.868977,0.21577 -1.659676,-0.16625 -0.643176,-0.31075 -0.942369,-0.60849 -1.034708,-1.03026 -0.07144,-0.32631 -0.16636,-0.71265 -0.211081,-0.85861 -0.04472,-0.14596 0.164508,-0.55768 0.465067,-0.91487 1.83506,-2.22286 0.371842,-2.48828 2.188632,-3.91951 0.283636,0 0.553321,-0.12197 0.599211,-0.27116 0.04589,-0.14919 -0.950778,-1.31267 -0.882442,-3.38483 l -0.675194,-6.16598 -0.732722,-2.27987 c -2.065652,-1.92063 -2.270937,-0.41171 -5.051177,-0.61256 -3.83654,-0.27716 -4.311443,-0.25446 -4.850918,0.23333 -1.960838,0.43383 -3.768763,7.74874 -3.63532,9.22119 -0.365303,0.70641 -0.442079,2.29568 -0.120482,2.49443 0,0 0.154038,0.26776 0.08869,0.43805 0.806779,1.26044 1.337303,2.31732 1.483886,2.76146 -0.170321,1.16124 0.223795,0.84204 -0.170389,1.16123 -0.240256,0.19454 -0.781675,1.02104 -0.781675,1.02104 -0.587198,1.13553 -3.838658,1.24293 -4.49266,1.24293 -0.497073,0 -1.402544,0.44289 -1.760761,0.86115 -0.05968,0.0697 -0.547596,0.46588 -1.084303,0.88054 -0.5367,0.41466 -1.122629,0.86973 -1.302053,1.01119 -0.179426,0.14146 -0.765596,0.58406 -1.302691,0.98353 -0.5371,0.39948 -1.269498,1.1939 -1.627567,1.76553 -3.589328,5.71136 -6.087593,12.60869 -6.212411,20.45776 -0.0044,4.5015 -1.638704,10.91632 -3.622609,16.13994 -0.193856,0.29838 -0.333046,0.60895 -0.309301,0.69012 0.02376,0.0812 -0.205314,0.69094 -0.509251,1.35482 -0.326794,0.71381 -0.497297,1.38177 -0.417064,1.63457 0.207041,0.98081 -0.09537,1.8237 -0.09537,1.8237 0.370539,0.0741 0.609404,0.23162 0.534682,0.35253 -0.07431,0.12023 0.09231,0.43885 0.370335,0.70793 0.504214,0.48799 0.663093,1.71142 0.298812,2.30085 -0.08497,0.13746 -0.09411,0.34761 -0.02034,0.46697 0.122658,0.19849 -0.14343,0.29396 -0.453621,0.16275 -0.07054,-0.0298 -0.268453,0.21306 -0.439633,0.53977 -0.171177,0.32671 -0.528986,0.64879 -0.79503,0.71556 -0.683357,0.17151 -2.415865,-0.7796 -2.503338,-1.37422 -0.03772,-0.25639 -0.526203,-0.86806 -1.085257,-1.35927 -0.559048,-0.49121 -1.092386,-1.02735 -1.18539,-1.19143 -0.104015,-0.18351 0.08392,-0.74674 0.48827,-1.46322 0.739198,-1.30979 0.81523,-2.03967 0.313434,-3.01005 -0.25296,-0.48916 -0.407944,-0.60102 -0.585861,-0.4231 -0.296413,0.29644 -0.663958,0.32144 -0.485726,0.0331 0.224809,-0.36375 -0.935425,-1.96135 -1.424441,-1.96135 -0.246088,0 -0.952926,0.48323 -1.570666,1.07381 -1.069507,1.0225 -1.103308,1.08849 -0.706338,1.38058 0.449669,0.33086 0.578356,0.70298 0.651661,1.886 0.06345,1.024 -1.125801,2.16721 -2.262062,2.17465 -0.8593,0.006 -1.722645,0.56826 -1.840551,1.19938 -0.04351,0.23288 -0.09745,0.44794 -0.119841,0.47778 -0.391731,0.52196 0.703773,2.22423 1.431432,2.22423 0.723225,0 2.343017,-0.62701 2.543074,-0.98448 0.267286,-0.47761 0.698917,-0.38278 1.024223,0.22506 0.159691,0.29839 0.389503,0.54263 0.51084,0.54263 0.12133,0 0.44284,0.20879 0.714603,0.46411 0.271771,0.25531 0.717508,0.57565 0.990528,0.71174 0.273026,0.13608 0.623741,0.51289 0.779452,0.83762 0.155706,0.32474 0.449768,0.59063 0.653251,0.59063 0.20349,0 0.497019,0.20331 0.6523,0.45204 0.236707,0.37907 0.226781,0.53679 -0.06135,0.97654 -0.188997,0.28845 -0.295036,0.5245 -0.235552,0.5245 0.05947,0 0.0012,0.26844 -0.129697,0.59667 -0.130816,0.32823 -0.292606,0.93867 -0.359527,1.35642 -0.363525,2.26931 0.155691,3.29251 1.766482,3.48178 0.749892,0.0881 1.175631,0.29255 1.677157,0.80552 0.396437,0.40549 0.6067,0.79381 0.51243,0.94634 -0.09505,0.1538 -0.06755,0.20153 0.06771,0.11794 0.125114,-0.0773 0.589933,0.011 1.033125,0.19613 0.728747,0.3047 0.841776,0.30452 1.179668,-10e-4 0.698249,-0.63191 1.269812,-0.33491 1.124673,0.58427 -0.01413,0.0895 0.0475,0.15116 0.137009,0.13701 0.718931,-0.11351 0.881101,0.7042 0.378282,1.90762 -0.454683,1.0882 -0.42281,1.23818 0.462523,2.17147 0.432648,0.45608 0.932194,1.04909 1.110051,1.31763 0.376911,0.56911 0.668981,0.60071 1.673025,0.18119 l 0.734948,-0.30707 -0.255896,-1.00324 c -0.17934,-0.70301 -0.417657,-1.08419 -0.795983,-1.27282 -0.812648,-0.40514 -0.683528,-1.40073 0.24636,-1.8984 0.377158,-0.20184 0.547494,-0.1494 1.037893,0.32043 0.778212,0.74558 1.354742,0.70869 2.050353,-0.13097 1.030655,-1.24409 0.622068,-3.66378 -0.619557,-3.6687 -0.238705,-0.001 -0.700011,0.0633 -1.025177,0.14273 -0.510709,0.12473 -0.725145,4.9e-4 -1.573527,-0.91042 -1.049914,-1.12737 -1.154075,-1.40191 -0.681861,-1.79382 0.448894,-0.37255 0.393432,-1.96255 -0.096,-2.75447 -0.507758,-0.82156 -0.564248,-2.21657 -0.09696,-2.39589 0.178368,-0.0684 0.270436,-0.21199 0.204399,-0.31884 -0.06603,-0.10685 -3.25e-4,-0.19423 0.14591,-0.19423 0.146281,0 0.200803,-0.0649 0.121431,-0.14431 -0.07937,-0.0794 0.09003,-0.54388 0.376375,-1.03249 0.286343,-0.48862 0.687411,-1.42484 0.89103,-2.08024 0.868847,-2.79665 3.013345,-6.36727 3.749445,-6.24293 0.495695,0.0837 0.580829,-0.56978 0.252718,-1.9375 -0.305474,-1.27337 -0.228076,-1.50909 0.386865,-1.17999 0.314535,0.16834 0.4255,0.49642 0.464746,1.3739 0.02834,0.63401 0.194903,1.37284 0.370336,1.64187 0.215319,0.3302 0.309185,1.00003 0.288639,2.06148 -0.01677,0.86484 0.07025,2.30498 0.193591,3.20014 0.123349,0.89516 0.285983,2.65294 0.361116,3.90616 0.07514,1.25323 0.235914,3.5482 0.35762,5.09982 0.121706,1.55161 0.230386,3.06514 0.241274,3.36353 0.0421,1.15123 -0.328515,5.11102 -0.498442,5.3252 -0.09836,0.12397 -0.201175,0.66085 -0.228241,1.19333 -0.02705,0.53249 -0.16404,1.30996 -0.304533,1.72771 -0.299323,0.89 -0.253961,3.39005 0.100134,5.51402 0.137472,0.8246 0.185584,1.80125 0.106808,2.17019 -0.688387,2.98288 -2.685557,4.25369 -2.758917,7.43372 -0.013,0.56382 0.710649,2.87134 0.930765,3.47448 -0.215804,0 -2.721009,0.11604 -4.40206,1.63965 -0.62295,0.5646 -1.291294,1.02812 -1.485155,1.03058 -0.193863,0.002 -0.733628,0.13893 -1.199379,0.30326 -0.766461,0.27042 -0.934458,0.25733 -1.770297,-0.13605 -0.865937,-0.40755 -0.948385,-0.41196 -1.325259,-0.0709 -0.547877,0.49582 -0.928295,1.96867 -0.845889,3.27452 l 0.06803,1.08112 2.712505,0.26703 c 2.930465,0.28842 2.92796,0.28838 7.595527,0.24095 l 3.146418,-0.0321 -0.05881,0.7235 c -0.03243,0.39787 0.03861,0.78356 0.157989,0.85734 0.119387,0.0738 1.207797,-0.0321 2.418781,-0.23523 1.624218,-0.27249 2.548806,-0.32009 3.5247,-0.18215 1.633621,0.23091 2.168076,-0.0854 1.87456,-1.10878 -0.108985,-0.38012 -0.09755,-0.684 0.0286,-0.76197 0.115407,-0.0713 0.153091,-0.30787 0.08392,-0.52578 -0.06916,-0.21791 -0.135177,-1.61457 -0.146865,-3.10382 -0.02036,-2.59529 -1.270138,-2.19338 -0.731131,-2.90006 0.603765,-0.79157 1.791318,-3.28558 1.792549,-3.88931 4.06e-4,-0.20153 0.08414,-1.61189 -0.258121,-2.24586 -0.760102,-1.40786 0.03106,-2.49197 0.299766,-2.99605 0.112116,-0.21032 0.348786,-0.96835 0.526095,-1.68448 0.177315,-0.71613 0.523026,-1.88797 0.768007,-2.6041 0.244981,-0.71613 0.550572,-1.71698 0.679322,-2.22424 0.363488,-1.43213 2.588413,-8.20937 2.571681,-6.43683 -0.0081,0.86532 0.891583,8.64054 0.889122,9.28158 -0.0067,1.68155 -1.307887,0.0412 -0.432636,6.98264 0.133529,1.05902 -0.01403,0.91024 0.09663,2.51829 0.105681,1.53569 2.560824,0.80005 2.33359,1.18888 -0.223427,0.38232 -3.996748,5.66533 -4.198613,5.66533 -0.0997,0 -0.347452,1.83642 -0.347452,1.83642 -0.219594,0.48196 0.09572,1.46141 0.564567,2.45248 0.424971,0.89831 4.456887,-0.38458 5.391634,0.23587 0.750777,0.2099 0.330837,-0.57602 0.844937,-0.71715 1.34423,-0.36903 3.421527,-0.0277 5.575052,1.27186 2.697109,1.33806 3.011559,-0.90596 4.661134,-1.04235 0.594468,-0.52302 0.717903,-0.80661 0.832541,-1.91588 -1.266297,-1.36394 -5.016699,-1.79677 -5.922184,-3.70367 -0.216782,-0.78513 0.47737,-3.64641 1.46195,-9.40493 0.173459,-1.01451 2.095918,-3.19055 2.27319,-4.28031 0.177272,-1.08977 0.422074,-2.24363 0.543897,-2.56406 0.121829,-0.32042 0.221569,-1.11459 0.221569,-1.76489 0,-0.6503 0.08562,-1.35196 0.190411,-1.55922 0.104784,-0.20725 0.341018,-0.72949 0.524829,-1.1606 0.448193,-1.05114 1.135204,-1.2336 1.4327,-0.38019 0.121435,0.34839 0.166519,0.77451 0.100453,0.94667 -0.06606,0.17216 0.06857,0.55278 0.299132,0.84589 0.230568,0.29311 0.589732,0.97964 0.798204,1.52552 0.208472,0.54588 0.45755,0.99244 0.553438,0.99244 0.407982,0 0.897802,1.54439 0.775955,2.44644 -0.06815,0.50451 -0.168334,1.4646 -0.222836,2.13363 -0.0545,0.66904 1.428763,4.77023 1.297288,5.11571 -0.211092,0.55467 0.122076,0.38184 -0.162127,2.22806 -0.07601,0.49378 0.0043,0.76401 0.289597,0.97653 0.21615,0.27913 -2.548349,6.65973 -2.61714,8.14007 0,0.23541 -0.09776,0.48825 -0.217115,0.56202 -0.314781,0.19454 1.368737,0.99494 1.689873,0.88244 0.247386,-0.0867 -1.635617,-0.1817 2.613321,-0.42406 0.358075,0.19093 1.817029,0.8777 2.712192,1.02963 0.895163,0.15193 2.269763,0.43294 3.276753,0.62433 2.385029,-0.26159 4.523176,-0.94571 4.523176,-0.94571 -0.0186,-0.85113 -0.623289,-1.81258 -0.983855,-2.23187 -1.933218,-2.07941 -2.973985,-1.51504 -5.575692,-3.38768 -2.733083,-2.56648 1.429895,-9.6155 3.052324,-21.23086 0.283876,-0.62946 3.189193,1.84474 3.471933,1.10052 0.28275,-0.74422 0.57088,-1.35425 0.64022,-1.3561 0.36226,-0.009 0.69826,1.20317 0.64499,2.32723 -0.0673,1.41978 -0.0683,1.58952 -0.0397,5.9775 0.0111,3.9105 2.32704,8.15625 0.97272,12.30625 -0.0898,0.44927 0.004,0.79442 0.32711,1.20542 0.42533,0.54072 0.43204,0.61645 0.11285,1.23371 -0.18701,0.36163 -0.36713,0.96188 -0.40022,1.33416 -0.0331,0.37228 -0.13364,1.14744 -0.22348,1.72229 -0.14994,0.95954 -0.1133,1.09716 0.44663,1.68161 0.38971,0.40676 0.82878,0.63672 1.21623,0.63672 0.88675,0 3.67531,-0.44893 4.29493,-0.69139 0.40988,-0.16039 0.59146,-0.12944 0.78327,0.13287 0.68409,0.91162 3.07342,1.57659 4.19385,1.71562 0.38894,0.0787 0.74504,0.13377 1.05347,0.16594 -0.50165,0.68939 -0.83445,1.40338 -0.83445,1.9588 h -3.3e-4 c 0,0.5276 4.90137,0.35239 5.48605,-0.19614 0.30014,-0.2816 2.15588,-0.62098 4.12391,-0.75401 1.96803,-0.13302 3.74812,-0.41161 3.95575,-0.61924 0.20764,-0.20763 0.0624,-1.9788 -0.32265,-3.93573 -0.54949,-2.79482 -0.54956,-4.3518 -0.001,-7.2592 l 0.69807,-3.70145 2.34345,0.37479 c 1.28879,0.2061 2.40568,0.43703 2.48204,0.51338 0.33003,0.32997 0.25098,8.9515 -0.10458,11.41618 -0.37012,2.5655 -0.3142,2.72293 1.09193,3.07585 0.81502,0.20455 2.75954,0.0654 4.32132,-0.30931 1.561,-0.37456 3.87956,-0.60567 5.15385,-0.51402 -0.85326,1.08574 -1.42794,1.8823 -1.42794,2.00363 0,0.74916 8.95117,-0.24657 9.46152,-1.05252 0.37164,-0.58683 0.52135,-0.61085 0.528,-0.0846 0.005,0.40436 0.60443,0.73527 1.33225,0.73527 h 1.32335 v -17.90893 c 0,-12.48331 0.20056,-18.10949 0.66184,-18.5708 0.94965,-0.94972 1.64109,4.12266 0.81283,5.96288 -0.46227,1.02709 -0.41043,2.98164 0.19359,7.28527 0.7037,5.01384 0.95088,9.30208 1.22831,21.31986 0.0364,1.57709 0.27571,1.91143 1.36753,1.91143 0.84988,0 1.32304,-0.35527 1.32304,-0.99306 0,-0.83592 0.19,-0.78937 1.19937,0.29404 0.99462,1.06761 1.8473,1.28743 4.99905,1.28743 0.4759,0 0.87879,-0.007 1.24993,-0.0181 -0.1015,0.31624 -0.20111,0.68999 -0.30772,1.13866 -0.45071,1.89687 -0.46065,2.07466 -0.13033,2.32056 0.32397,0.24117 0.32782,0.36432 0.042,1.30682 -0.68358,2.25371 2.92715,2.8054 4.44656,1.44478 2.37703,-0.28706 3.87351,-0.75317 6.64537,-2.06974 2.09444,-0.9948 3.33429,-0.55463 3.33429,-1.27217 0,-0.23786 -0.27348,-2.29465 -0.6078,-2.79357 -0.33432,-0.49893 -0.72666,-1.3954 -0.87195,-1.99218 -0.26301,-1.08026 -0.17243,-2.92615 0.17547,-3.5762 0.39705,-0.7419 0.67092,-2.88556 1.30428,-10.20377 0.11879,-1.37258 0.37135,-3.27683 0.56106,-4.23167 0.90618,-4.56116 1.75695,-7.49403 1.8539,-6.39106 0.0152,0.17306 0.0463,1.7308 0.0693,3.46144 0.0295,2.21987 0.14823,3.4901 0.40276,4.31274 0.19871,0.64134 0.28932,1.27598 0.20185,1.41045 -0.0875,0.13446 -0.15925,3.29949 -0.15925,7.0335 0,5.80055 -0.0474,6.81843 -0.32552,6.99059 -0.17903,0.11083 -0.33222,0.27838 -0.34077,0.37225 -0.008,0.0939 -0.15385,0.45598 -0.32297,0.80456 -0.22753,0.46904 -0.24111,0.65607 -0.0521,0.71906 0.69359,0.2312 2.19272,1.60069 2.13681,1.95213 -0.0336,0.21121 0.0835,0.75183 0.26035,1.20128 0.26305,0.66838 0.27316,0.93451 0.0547,1.46195 -0.14691,0.35468 -0.34253,0.59857 -0.43455,0.54167 -0.092,-0.0569 -0.15713,0.0174 -0.14495,0.1653 0.062,0.75317 -3.01273,1.87216 -3.49229,2.05449 -0.4694,0.17847 -0.49475,0.26291 -0.30834,1.02136 0.11175,0.45471 0.26233,1.14649 0.33473,1.53728 0.30747,0.81922 0.2107,0.75948 0.3074,0.81919 0.15549,0.0961 3.99072,0.0966 6.34242,-0.49367 0.41775,-0.10485 1.44311,-0.25118 2.2786,-0.32519 1.77563,-0.15726 2.06147,-0.40948 2.06147,-1.81703 0,-0.64675 0.18324,-1.28274 0.54963,-1.90794 0.72213,-1.23223 0.78618,-1.81823 0.89484,-8.21159 l 0.0919,-5.42215 0.84017,-2.39017 c 0.46206,-1.3146 1.05683,-2.92737 1.32176,-3.58383 0.61195,-1.51629 0.87124,-3.98514 0.86878,-8.27739 -0.001,-2.42873 0.0742,-3.45613 0.26543,-3.61084 0.14698,-0.11892 1.14623,-0.28349 2.22042,-0.36589 1.94543,-0.14922 1.95532,-0.14753 2.53449,0.46412 0.3198,0.33773 0.72467,1.00487 0.89993,1.48229 0.17526,0.47742 0.53369,1.40503 0.79631,2.06148 0.26261,0.65645 0.51339,1.47224 0.55724,1.8129 0.0439,0.34065 0.13825,0.80384 0.20981,1.0293 0.0786,0.24754 -0.17622,1.03864 -0.6434,1.99695 -0.42553,0.87288 -0.77373,1.7414 -0.77373,1.92988 0,0.18848 -0.13923,0.61089 -0.3093,0.93871 -0.22407,0.43188 -0.25141,0.74858 -0.0989,1.14979 0.13704,0.36104 0.13509,0.74727 -0.006,1.11036 -0.34143,0.87837 -0.34872,1.38356 -0.0289,1.96771 0.26218,0.47894 0.25858,0.51087 -0.0299,0.27306 -0.17972,-0.14818 -0.39098,-0.20505 -0.46952,-0.12651 -0.25009,0.25008 -0.15341,1.56106 0.12843,1.74136 0.67367,0.43099 0.79968,1.06899 0.43614,2.2058 -0.32401,1.01342 -0.32398,1.13249 -0.002,1.48802 0.19239,0.21259 0.44815,0.64536 0.56838,0.9616 0.17547,0.46151 0.14303,0.64339 -0.16467,0.92186 -0.21083,0.19081 -0.47951,0.34713 -0.59698,0.34713 -0.11746,0 -0.50042,0.30138 -0.85098,0.6701 -0.35056,0.36872 -0.88983,0.80254 -1.19842,0.96383 -0.46406,0.24258 -0.54386,0.41044 -0.46157,0.97113 0.0962,0.65521 -0.39806,2.13076 -0.94443,2.81996 -0.14194,0.17903 -0.46168,0.79335 -0.71048,1.36499 l -0.45234,1.03916 0.53404,0.20313 c 0.29376,0.11169 0.53436,0.33686 0.53436,0.50035 0,0.41343 0.6552,0.96403 1.49628,1.25723 0.38975,0.13587 0.94049,0.47892 1.22386,0.76229 0.35994,0.35994 0.76319,0.51567 1.33861,0.51751 0.91538,0.002 2.39975,0.41781 3.49577,0.97782 0.39545,0.20205 1.32338,0.44915 2.0618,0.5493 0.73843,0.10015 1.63539,0.27679 1.99345,0.39259 v 0 c 1.00817,0.32604 2.27022,0.2832 3.15563,-0.10745 0.73323,-0.3235 0.81676,-0.44928 0.92887,-1.39583 0.0678,-0.57211 0.31021,-1.41309 0.53849,-1.86884 0.22828,-0.45574 0.47153,-1.19493 0.54073,-1.64251 0.11665,-0.75461 0.0868,-0.81378 -0.41008,-0.81378 -0.29471,0 -0.88628,-0.14648 -1.31477,-0.32551 -0.42848,-0.17904 -0.95062,-0.32552 -1.16028,-0.32552 -0.44374,0 -0.84062,-0.85975 -0.90533,-1.96134 -0.0582,-0.99081 0.14378,-1.29351 0.86401,-1.29475 1.94896,-0.004 3.29646,-1.26834 3.29646,-3.09269 0,-0.92752 1.06735,-3.52372 1.81671,-4.41923 1.7269,-2.0637 3.02942,-3.8556 3.50467,-4.82135 0.57271,-1.16375 1.89753,-3.04383 2.35457,-3.34128 0.53523,-0.34833 0.55272,-0.29237 0.5919,1.88028 0.0167,0.92555 0.14691,1.45402 0.46348,1.8822 0.28102,0.3801 0.40139,0.79752 0.33314,1.15455 -0.0588,0.30756 -0.0364,0.55916 0.0499,0.55916 0.0862,0 0.10883,0.25241 0.0499,0.56075 -0.0589,0.30834 -0.004,0.91847 0.12111,1.35609 0.12573,0.43762 0.34388,1.23511 0.48447,1.77221 0.14057,0.53709 0.5387,1.56107 0.88498,2.27541 0.34629,0.71436 0.62973,1.5015 0.62973,1.749 0,0.24752 0.1356,0.63542 0.30136,0.8621 0.16573,0.22668 0.25687,0.52811 0.20249,0.66979 -0.0544,0.14169 0.009,0.6594 0.14177,1.15074 0.19138,0.71076 0.40347,0.97046 1.03726,1.27058 0.67659,0.32038 0.8026,0.49166 0.83668,1.13676 0.0221,0.41773 0.0641,1.0527 0.0935,1.41077 0.0294,0.35807 -0.0183,1.00578 -0.10585,1.43969 -0.18613,0.92256 0.0789,1.19682 0.7893,0.81665 0.26638,-0.14257 1.22051,-0.285 2.12028,-0.31661 0.89978,-0.0316 2.12432,-0.16798 2.7211,-0.30263 1.75529,-0.39606 5.9357,-0.85793 7.85588,-0.86814 2.23679,-0.0119 3.88506,-0.35616 4.25836,-0.88913 0.21676,-0.30942 0.24273,-0.77934 0.10586,-1.92542 -0.33124,-2.77334 -0.80356,-3.57638 -1.8644,-3.1693 -0.31099,0.11935 -0.31683,0.1664 -0.0416,0.34045 0.27046,0.17107 0.26308,0.20227 -0.0477,0.20535 -0.20182,0.002 -0.42831,-0.096 -0.50321,-0.21712 -0.0749,-0.12116 -0.4495,-0.3513 -0.83286,-0.51147 -0.38334,-0.16017 -1.00417,-0.59793 -1.3793,-0.97304 -0.37512,-0.37512 -0.83253,-0.68218 -1.01659,-0.68218 -0.18406,0 -0.68439,-0.30709 -1.11195,-0.6825 -0.65559,-0.57572 -0.75613,-0.77954 -0.64149,-1.30142 0.14921,-0.67942 -0.22991,-2.0679 -0.69045,-2.52845 -0.20099,-0.20099 -0.29688,-0.91713 -0.3058,-2.28463 -0.0317,-4.93182 -0.1973,-9.06574 -0.42343,-10.56361 -0.46645,-3.0898 -0.49628,-4.05303 -0.15639,-5.05055 0.237,-0.69547 0.2944,-1.49389 0.21202,-2.93852 -0.10802,-1.89467 -0.13483,-1.98186 -0.60144,-1.94323 -0.23464,0.0194 -0.40414,0.11341 -0.41356,0.21966 -0.38409,-3.21648 -1.61993,-6.40759 -1.61993,-6.40759 0.16278,-0.51586 0.36735,-1.03552 0.45458,-1.15487 0.0872,-0.11935 0.32998,-0.65657 0.53943,-1.19366 0.20944,-0.5371 0.56669,-1.24496 0.79377,-1.57321 0.22708,-0.32825 0.43653,-0.8209 0.4657,-1.09448 0.0291,-0.27357 0.12369,-0.6112 0.2098,-0.75052 0.0861,-0.13932 0.15274,-0.57459 0.14782,-0.96732 -0.005,-0.39273 0.0389,-1.00724 0.0973,-1.36532 0.45974,-2.82212 -1.57547,-11.20319 -1.95815,-13.98563 -0.0784,-0.57024 -0.17842,-2.14648 -0.22253,-3.50276 -0.0798,-2.45377 -0.22816,-4.17019 -0.44471,-5.15036 -0.0625,-0.28272 -0.15916,-1.01513 -0.2149,-1.62757 -0.11117,-5.09023 -1.72551,-9.21037 -2.03637,-21.66636 l 5.93522,-1.02422 3.18139,-1.09606 c 0.39072,-0.60298 0.72811,-1.21656 0.74957,-1.36341 0.4796,-2.65802 2.2356,-6.47692 3.24781,-8.18425 0.62462,-0.51837 0.8211,-2.03672 0.84749,-6.55159 0.0293,-5.59645 -0.61881,-3.3293 -1.24738,-7.4102 -0.32232,-0.61563 -0.58594,-1.31319 -0.58839,-1.55 -0.002,-0.23682 -0.24863,-0.86089 -0.54931,-1.38693 -0.61767,-1.08047 -1.71474,-2.12944 -1.4451,-3.5727 0.32857,-1.7587 -0.52151,-3.85143 -1.49979,-6.28775 -0.93427,-2.32675 -1.95046,-3.30225 -2.92453,-3.27389 z M 84.127095,274.04918 c 0.45424,0.48247 0.120605,-1.16696 0,0 z m 81.673685,-35.37671 c 1.28461,1.47576 2.32097,3.47159 2.95759,5.97051 l 0.55788,15.84366 c 0.0458,1.2495 0.0547,7.23154 0.0124,8.35464 -0.0813,2.16073 -0.0391,3.36385 0.11793,3.36385 0.099,0 0.14191,0.73855 0.0963,1.64155 -0.0728,1.44083 -0.0265,1.70194 0.37765,2.13205 0.25324,0.26957 0.40169,0.54879 0.32997,0.62051 -0.0717,0.0717 -0.002,0.48486 0.15449,0.91805 0.17998,0.49774 0.20717,0.84303 0.0741,0.93839 -0.11585,0.083 -0.31782,0.34451 -0.44885,0.5811 -0.1062,0.19177 -0.32767,0.34362 -0.60271,0.42533 -0.95818,-1.68064 -3.82606,-4.66915 -5.05277,-5.05849 -2.05605,-0.65257 -2.26847,-2.63967 -1.36181,-12.73826 0.47334,-5.27209 1.01207,-10.31363 1.19747,-11.2032 0.22244,-1.06735 0.0922,-1.61739 -0.38305,-1.61739 -0.53442,0 -0.6288,-1.09959 -0.36652,-4.26378 0.28157,-3.39679 0.59769,-4.42841 1.5554,-5.07121 0.29925,-0.20087 0.57355,-0.5025 0.78454,-0.83731 z m -52.56852,4.90369 c 0.002,0.002 0.006,0.0232 0.01,0.0636 0.0343,0.35344 0.82963,0.66392 1.57003,1.07795 0.20952,1.58382 0.46459,2.31691 0.70538,1.93719 0.26378,-0.41604 0.48341,-0.57933 0.48827,-0.36303 6.2e-4,0.0378 0.0173,0.14821 0.0404,0.28864 0.0234,2.77831 -0.50481,11.55838 -0.50481,11.72103 0.734,-0.049 1.49084,-0.0994 2.25253,-0.15132 0.004,0.12773 0.0119,0.26642 0.0137,0.38401 0.0605,4.03167 0.30627,4.66074 1.94101,4.96884 1.03056,0.19424 1.16623,0.74106 1.31603,5.30899 0.18805,5.73292 -0.27567,6.71813 -3.69318,7.84602 -0.33954,0.11206 -0.69443,0.30359 -1.04425,0.54454 -0.004,-0.24292 -0.088,-0.4564 -0.25494,-0.62338 -0.17204,-0.17204 -0.19175,-0.32495 -0.0544,-0.4231 0.11836,-0.0845 0.23251,-0.34906 0.25367,-0.58777 -0.0303,-0.91811 -1.03102,-1.78255 -2.02588,-2.30498 -0.15301,-0.0587 -0.22512,-0.24505 -0.16021,-0.4142 0.0649,-0.16915 0.0179,-0.30739 -0.10427,-0.30739 -0.12218,0 -0.26231,0.1207 -0.31153,0.26829 -0.11864,0.35593 -2.85988,-2.12776 -3.33174,-2.66514 -0.64574,-0.73541 -0.66877,-1.30122 -0.0693,-1.69401 0.6644,-0.43533 0.71835,-0.96111 0.11476,-1.11895 -0.11472,1.11899 -0.38717,-0.17672 -0.18533,-0.41993 0.18184,-0.2191 0.18969,-0.44576 0.0277,-0.80138 -0.15872,-0.34834 -0.15515,-0.62062 0.0121,-0.91583 -0.63574,-5.17621 0.61505,-6.94823 2.6626,-12.30402 -0.17461,-1.78925 -0.15758,-2.61653 0.0795,-3.8518 0.2889,-1.50546 0.21147,-5.50172 0.2524,-5.46284 z m 32.97445,10.19295 c 0.10705,2.71389 0.31266,6.23208 0.5725,9.55688 l 0.78709,10.07025 -3.02467,3.63469 c -0.13672,0.16428 -0.26753,0.32378 -0.39958,0.48445 -0.48465,-0.34456 -1.05626,-0.72561 -1.69146,-1.11768 -3.87893,-2.39421 -4.17225,-3.02107 -3.91952,-8.37911 0.17323,-3.67202 0.18594,-3.69705 2.07039,-4.08036 1.04287,-0.21212 2.04533,-0.53507 2.22773,-0.71746 0.18241,-0.18241 0.53721,-2.60344 0.78835,-5.3802 0.10973,-1.2131 0.24098,-2.39853 0.38845,-3.55649 0.71652,-0.16357 1.45241,-0.33634 2.20072,-0.51497 z"
      id="path45"
    />
  </g>
</svg>
