<?xml version="1.0" encoding="UTF-8" standalone="no"?>
<!-- Created with Inkscape (http://www.inkscape.org/) -->
<svg
  xmlns:dc="http://purl.org/dc/elements/1.1/"
  xmlns:cc="http://creativecommons.org/ns#"
  xmlns:rdf="http://www.w3.org/1999/02/22-rdf-syntax-ns#"
  xmlns:svg="http://www.w3.org/2000/svg"
  xmlns="http://www.w3.org/2000/svg"
  xmlns:sodipodi="http://sodipodi.sourceforge.net/DTD/sodipodi-0.dtd"
  xmlns:inkscape="http://www.inkscape.org/namespaces/inkscape"
  width="751.36841"
  height="1445.5652"
  id="svg9407"
  version="1.1"
  inkscape:version="0.48.4 r9939"
  sodipodi:docname="New document 135"
>
  <defs id="defs9409" />
  <sodipodi:namedview
    id="base"
    pagecolor="#ffffff"
    bordercolor="#666666"
    borderopacity="1.0"
    inkscape:pageopacity="0.0"
    inkscape:pageshadow="2"
    inkscape:zoom="0.175"
    inkscape:cx="516.39827"
    inkscape:cy="839.92555"
    inkscape:document-units="px"
    inkscape:current-layer="layer1"
    showgrid="false"
    fit-margin-top="0"
    fit-margin-left="0"
    fit-margin-right="0"
    fit-margin-bottom="0"
    inkscape:window-width="515"
    inkscape:window-height="455"
    inkscape:window-x="381"
    inkscape:window-y="170"
    inkscape:window-maximized="0"
  />
  <metadata id="metadata9412">
    <rdf:RDF>
      <cc:Work rdf:about="">
        <dc:format>image/svg+xml</dc:format>
        <dc:type rdf:resource="http://purl.org/dc/dcmitype/StillImage" />
        <dc:title />
      </cc:Work>
    </rdf:RDF>
  </metadata>
  <g
    inkscape:label="Layer 1"
    inkscape:groupmode="layer"
    id="layer1"
    transform="translate(141.39827,73.277447)"
  >
    <g id="g9322" transform="translate(16502.653,-785.287)">
      <g id="g9242" transform="translate(-3600.1833,-519.03948)">
        <rect
          transform="translate(750.82318,-629.36649)"
          y="1990.869"
          x="-13611.834"
          height="180.03534"
          width="288.05655"
          id="rect9237"
          style="fill: #000000; fill-opacity: 1; stroke: none"
        />
        <rect
          style="fill: #000000; fill-opacity: 1; stroke: none"
          id="rect9239"
          width="20.907328"
          height="432.08481"
          x="-12727.437"
          y="1351.049"
        />
      </g>
      <path
        sodipodi:nodetypes="scccccccccccscscccccccscccccccccccccccccccccccccccccsccccsccccccccccccccccccccccccccccccccccccccccccsscccccccc"
        inkscape:connector-curvature="0"
        id="path7378-2"
        d="m -16319.643,1147.7512 c -5.575,1.4197 -10.473,13.101 -10.473,13.101 l 1.744,16.7394 7.771,16.2909 -1.244,13.1523 -5.332,28.696 -11.417,28.2252 24.55,-0.5266 1.464,-20.4249 10.911,-46.9299 7.046,-23.3268 -4.458,-15.6704 c 0,0 -12.992,-11.254 -20.562,-9.3262 z m 129.619,95.054 c -5.081,-0.094 -8.569,7.593 -8.569,12.704 0,3.4677 1.312,6.5405 3.239,8.4693 -0.787,1.5218 -1.506,3.1286 -2.193,4.7826 -12.295,6.7394 -19.549,24.018 -23.863,42.2469 -5.555,23.4761 5.691,20.0459 9.615,27.1516 2.053,3.7182 -0.653,13.4061 -0.15,18.3335 -4.111,-0.1836 -7.821,-0.3487 -7.821,-0.3487 -0.05,0.4564 -0.03,0.8607 -0.05,1.2953 -8.181,-6.1566 -10.494,-2.8832 -17.736,-5.7292 l -45.386,-17.8354 -28.895,-28.8953 -4.832,-12.405 5.53,-30.9379 -30.291,-2.74 -5.48,37.1154 -4.832,5.53 -1.345,21.3227 8.917,18.5329 45.386,41.3003 11.01,24.0627 17.188,15.0953 4.832,28.8953 -6.177,13.7502 -4.833,84.5934 -13.053,28.1978 18.184,4.5335 -0.1,2.3914 -1.494,0 0,28.4469 1.146,0 -1.346,33.4786 7.772,57.3422 34.525,118.6698 18.483,94.3581 4.833,49.0721 4.384,3.8859 c 0,0 1.049,9.3857 2.391,18.4332 l -6.526,-1.1458 c 0,0 -3.64,12.9849 -8.519,17.0382 -8.366,6.9503 -20.483,8.2721 -31.337,8.9675 -4.827,0.3092 -10.167,-4.6241 -14.348,-2.1921 -3.526,2.0509 -4.773,7.3983 -4.384,11.4585 0.483,5.0367 8.021,12.8534 8.021,12.8534 0,0 59.327,1.2336 61.029,0.7473 1.702,-0.4863 42.795,1.943 42.795,1.943 0,0 14.998,-0.9416 21.123,-4.6332 3.096,-1.8655 4.014,-11.7335 4.633,-15.2946 0.19,-1.0944 0.179,-2.1973 0,-3.2881 l 6.178,1.5942 c 0.563,0.1438 1.701,-0.8218 3.139,-2.4909 5.201,1.0729 11.076,2.0156 14.995,1.7436 5.477,-0.38 11.533,0.2968 16.291,-2.4411 3.149,-1.8116 6.074,-4.9651 6.825,-8.5191 0.919,-4.3467 -2.708,-11.6876 -3.437,-12.9033 l -0.797,-0.2491 1.544,-0.1992 -1.943,-10.213 10.213,-29.1942 -14.099,-10.213 1.943,-38.8591 -18.483,-56.4455 -15.294,-33.7277 c -5.945,-20.5934 -12.287,-35.5988 -18.035,-59.4346 l 1.246,-22.07 9.714,-91.4187 -4.483,-26.6533 0.149,0 0,-4.434 1.246,0 -0.698,-22.0202 2.043,-13.7501 11.708,1.3949 -4.833,-6.8751 1.395,-9.6151 -14.448,-23.4151 4.833,-6.8751 10.313,-26.1054 8.917,-13.0527 -3.437,-8.27 6.875,-41.2505 5.48,-1.395 1.395,-20.6252 -12.355,-32.3328 -0.947,0.8967 c -3.904,-6.2564 -11.736,-17.5561 -19.131,-19.6288 -12.083,-5.0405 -44.027,-3.5719 -38.909,-7.0247 19.655,0 49.023,-19.7767 49.023,-47.9762 0,-28.1995 -28.671,-63.7688 -48.325,-63.7688 -6.239,0 -11.71,2.9793 -16.241,7.9711 -4.789,-2.658 4.444,-9.6905 1.245,-11.1596 -0.786,-0.3611 -1.566,-0.5346 -2.291,-0.548 z m -73.334,341.1136 1.245,0.299 -1.245,0 z"
        style="color: #000000; fill: #000000"
      />
    </g>
  </g>
</svg>
