<svg
  xmlns:x="http://ns.adobe.com/Extensibility/1.0/"
  xmlns:i="http://ns.adobe.com/AdobeIllustrator/10.0/"
  xmlns:graph="http://ns.adobe.com/Graphs/1.0/"
  xmlns="http://www.w3.org/2000/svg"
  xmlns:xlink="http://www.w3.org/1999/xlink"
  version="1.1"
  x="0px"
  y="0px"
  viewBox="0 0 100 125"
  enable-background="new 0 0 100 100"
  xml:space="preserve"
>
  <switch>
    <foreignObject
      requiredExtensions="http://ns.adobe.com/AdobeIllustrator/10.0/"
      x="0"
      y="0"
      width="1"
      height="1"
    />
    <g i:extraneous="self">
      <path
        d="M38.849,52.246c3.141-0.341,5.405-3.155,5.067-6.293c-0.338-3.13-3.151-5.401-6.295-5.062    c-3.132,0.336-5.4,3.155-5.063,6.288C32.896,50.317,35.713,52.579,38.849,52.246z M50.616,84.479l-2.525-12.508l-0.011,0.003    c-0.024-0.165-0.032-0.327-0.073-0.49l-3.382-13.361c-0.497-1.958-2.123-3.323-4.003-3.594l-9.095-3.391l-4.873-9.719    l-3.453,1.528l4.318,11.078c0.263,0.601,0.752,1.056,1.369,1.286l5.832,2.174l-5.305,2.071l-8.276-5.958l-2.393,3.008l8.747,7.597    c0.436,0.348,0.966,0.526,1.502,0.526c0.297,0,0.596-0.054,0.882-0.167l5.834-2.276l2.823,11.145l-7.217,7.703    c-0.421,0.449-0.698,1.026-0.787,1.639l-1.783,16.375L33.644,100l2.731-15.437l6.643-7.084c0.01,0,0.019,0,0.027,0.002    l1.804,8.918c0.094,0.446,0.297,0.891,0.582,1.249L55.712,99.77l3.781-2.962L50.616,84.479z"
      />
      <path
        d="M64.487,8.686c-6.801-9.833-17.301-8.394-17.309-8.393L46.543,0L16.702,65.057l1.268,0.58l19.83-43.228    c3.054-0.017,10.616,0.781,15.929,8.463c6.792,9.836,18.813,7.866,18.813,7.866l10.756-22.194    C83.298,16.544,71.285,18.518,64.487,8.686z"
      />
    </g>
  </switch>
</svg>
