<svg
  xmlns="http://www.w3.org/2000/svg"
  xmlns:xlink="http://www.w3.org/1999/xlink"
  version="1.1"
  x="0px"
  y="0px"
  viewBox="0 0 100 125"
  enable-background="new 0 0 100 100"
  xml:space="preserve"
>
  <g>
    <path
      fill="#000000"
      d="M32.518,69.041v24.856c0,0,0,3.168,3.527,3.168c3.528,0,3.998-2.924,3.998-2.924c0-4.63,0-24.613,0-24.613"
    />
    <path
      fill="#000000"
      d="M41.935,69.294v24.857c0,0,0,3.168,3.527,3.168c3.528,0,3.998-2.925,3.998-2.925c0-4.63,0-24.613,0-24.613"
    />
    <rect x="32.518" y="44.916" fill="#000000" width="17.059" height="25.344" />
    <path
      fill="#000000"
      d="M33.484,46.479l-2.714-0.097c0,0,0.004,19.734,0.004,24.365c0,0-0.452,2.924-3.843,2.924   c-3.391,0-3.391-3.168-3.391-3.168V45.646c0,0-0.079-5.626,5.408-5.626h21.727c0,0,2.47,0.023,4.202,0.916   c0,0,13.582,14.13,16.729,17.405c0,0,1.668,2.4-0.729,4.895c-2.398,2.495-4.552,0.254-4.552,0.254l-16.46-17.01"
    />
    <circle fill="#000000" cx="40.312" cy="31.97" r="6.719" />
    <rect x="53.362" y="1" fill="#000000" width="28.024" height="33.354" />
    <rect x="66.532" y="17.184" fill="#000000" width="1.685" height="80.424" />
  </g>
</svg>
