<svg
  xmlns:x="http://ns.adobe.com/Extensibility/1.0/"
  xmlns:i="http://ns.adobe.com/AdobeIllustrator/10.0/"
  xmlns:graph="http://ns.adobe.com/Graphs/1.0/"
  xmlns="http://www.w3.org/2000/svg"
  xmlns:xlink="http://www.w3.org/1999/xlink"
  version="1.1"
  x="0px"
  y="0px"
  viewBox="0 0 100 125"
  enable-background="new 0 0 100 100"
  xml:space="preserve"
>
  <switch>
    <foreignObject
      requiredExtensions="http://ns.adobe.com/AdobeIllustrator/10.0/"
      x="0"
      y="0"
      width="1"
      height="1"
    />
    <g i:extraneous="self">
      <g>
        <path
          d="M17.999,49.896c2.388,0.354,4.606-1.29,4.959-3.675c0.354-2.383-1.288-4.603-3.679-4.958     c-2.38-0.355-4.604,1.292-4.956,3.672C13.969,47.323,15.614,49.539,17.999,49.896z"
        />
        <path
          d="M28.538,55.173l-7.688-3.616c-0.561-0.355-1.219-0.573-1.931-0.579c-0.757-0.006-1.462,0.216-2.052,0.602l-0.003-0.006     h-0.002l-6.146,3.774l-3.598-4.793l2.258-10.991l-0.395-0.081c0,0-1.59-1.531-3.942-0.711c-2.346,0.821-4.126-0.98-4.126-0.98     L0,42.84c0,0,1.782,1.806,4.129,0.984c1.602-0.559,2.84-0.028,3.471,0.368l-1.218,5.933l-2.134,1.412l4.373,7.337     c0.354,0.536,0.939,0.829,1.539,0.829c0.331,0,0.665-0.09,0.967-0.274l4.043-2.484l-0.088,9.438     c-0.001,0.126,0.023,0.246,0.034,0.369L12.6,76.11l-0.075,0.536l0.042,11.944l3.872,0.108l0.69-11.649l1.333-4.968l0.706,5.038     l1.805,11.249l4.003-0.539l-1.236-11.337l-1.332-9.529c0.025-0.168,0.054-0.334,0.055-0.508l0.095-10.02l3.01,1.412l-2.188,9.861     l2.815,0.742L29.53,57.31C29.756,56.453,29.338,55.553,28.538,55.173z"
        />
      </g>
      <g>
        <path
          d="M45.337,49.644c2.391,0.354,4.608-1.29,4.963-3.675c0.352-2.383-1.29-4.603-3.683-4.958     c-2.381-0.355-4.604,1.292-4.955,3.672C41.309,47.071,42.957,49.287,45.337,49.644z"
        />
        <path
          d="M49.625,58.76l2.108,2.354l1.257,8.448l3.046-0.337l-0.697-9.117c-0.044-0.392-0.207-0.75-0.472-1.04l-6.131-6.837     l-0.004,0.004c-0.669-0.757-1.633-1.246-2.723-1.258c-0.511-0.004-1,0.095-1.443,0.278l-6.059-3.028l-5.953-6.475l3.254-15.848     l-0.67-0.138c-0.009-0.008-2.699-2.587-6.668-1.202c-3.977,1.389-6.987-1.664-6.987-1.664l-1.542,8.549     c0,0,3.014,3.055,6.987,1.668c2.697-0.945,4.801-0.06,5.876,0.61l-1.551,7.552l-1.896,1.652l1.247,1.509l-0.615,2.993     l1.341,0.275l0.393-1.913l4.24,5.132c0.161,0.187,0.347,0.328,0.566,0.439l5.792,2.896c-0.014,0.123-0.04,0.244-0.042,0.371     l-0.114,11.751c-0.002,0.186,0.025,0.364,0.05,0.542L42.17,66.92l-1.54,9.417l-0.016,0.119L39.63,88.43l3.924,0.433l1.642-11.844     l0.564-3.454l0.497,3.556l1.833,11.244l3.947-0.53l-1.208-11.341l-1.333-9.535c0.025-0.166,0.054-0.33,0.056-0.502L49.625,58.76z     "
        />
      </g>
      <g>
        <path
          d="M94.376,37.711L100,19.722c0,0-8.855,2.845-15.103-3.821c-6.239-6.654-14.002-4.397-14.026-4.39l-0.513-0.148     L59.656,48.422l-0.146-0.21l-2.512,1.562l1.499,2.663l-1.513,5.239l1.024,0.295l1.222-4.231l1.995,3.544     c0.348,0.559,0.952,0.872,1.574,0.872c0.268,0,0.541-0.059,0.796-0.182l5.123-2.471l-0.094,9.909     c-0.002,0.237-0.02,0.684-0.02,0.684l-0.002-0.002l-1.007,10.458l-0.753,10.842l4.011,0.392l1.335-10.789l0.563-5.837     l1.644,5.488L73.62,87.554l4.097,0.387l1.318-11.309c0.028-0.29-0.005-0.601-0.087-0.88l-2.976-9.931     c0.011-0.114,0.035-0.225,0.037-0.342l0.109-11.752c0-0.055-0.014-0.104-0.016-0.159l8.021-0.463     c0.31-0.024,0.611-0.129,0.875-0.299l8.598-6.153L92.03,44.27l-8.661,5.188l-10.428,0.596c-0.158-0.022-0.317-0.052-0.482-0.053     c-0.689-0.006-1.331,0.189-1.886,0.513l-0.002-0.005h-0.002l-7.083,3.415l-3.046-4.375l5.852-20.264     c2.315-0.357,8.106-0.595,12.976,4.602C85.513,40.553,94.376,37.711,94.376,37.711z"
        />
        <path
          d="M66.855,43.417c-0.353,2.386,1.294,4.606,3.677,4.96c2.39,0.354,4.604-1.29,4.96-3.675     c0.354-2.384-1.291-4.603-3.679-4.959C69.432,39.391,67.21,41.036,66.855,43.417z"
        />
      </g>
    </g>
  </switch>
</svg>
