<svg
  xmlns="http://www.w3.org/2000/svg"
  xmlns:xlink="http://www.w3.org/1999/xlink"
  version="1.1"
  x="0px"
  y="0px"
  viewBox="0 0 101 126.25"
  style="enable-background: new 0 0 101 101"
  xml:space="preserve"
>
  <g>
    <path
      style=""
      d="M50.208,54.222c-0.074-0.111-0.117-0.239-0.088-0.373l2.512-11.624l-11.273,1.245   c-0.153,0.51-0.43,0.903-0.82,1.129l8.156,11.158c0.118-0.28,0.274-0.537,0.478-0.747C49.487,54.685,49.844,54.436,50.208,54.222z"
      fill="none"
    />
    <path
      style=""
      d="M17.676,18.509c-0.079-0.107-0.111-0.242-0.09-0.374s0.094-0.25,0.202-0.327l1.675-1.201   c0.225-0.161,0.534-0.109,0.695,0.111l11.844,16.203c0.436-3.725-0.32-7.943-0.951-10.497c-0.398,1.058-1.058,1.961-1.576,2.334   c-0.515,0.372-0.875,0.238-1.044,0.125c-6.284-4.794-4.634-14.808-4.093-18.098c0.002-0.013,0.004-0.026,0.006-0.039   c-1.272,1.091-1.878,2.931-2.23,4c-0.242,0.733-0.342,1.037-0.63,1.182c-0.146,0.073-0.319,0.07-0.463-0.008   c-0.144-0.079-0.24-0.223-0.257-0.386c-0.352-3.282-2.505-6.609-4.019-8.589c0.8,3.206,1.725,8.963-0.743,12.453   c-2.379,3.364-2.509,7.334-1.343,10.096c0.95-2.032,2.136-4.105,3.583-6.212L17.676,18.509z"
      fill="none"
    />
    <path
      style=""
      d="M74.672,89.632c-0.182-0.426-0.43-0.993-0.735-1.658l-7.668-11.438   c-0.039-0.027-0.077-0.049-0.116-0.075l-4.559,1.737l11.658,12.847L74.672,89.632z"
      fill="none"
    />
    <path
      style=""
      d="M65.64,33.994l0.18-0.058c0.017-0.048,0.032-0.099,0.049-0.146L65.64,33.994z"
      fill="none"
    />
    <path
      style=""
      d="M30.98,36.709L18.548,19.703c-1.076,3.723-3.092,13.034,2.194,17.052c1.91,1.452,4.793,2.194,9,1.748   C30.227,37.997,30.642,37.401,30.98,36.709z"
      fill="none"
    />
    <path
      style=""
      d="M31.203,38.304c0.279-0.045,0.552-0.085,0.841-0.139l-0.409-0.559   C31.5,37.849,31.357,38.083,31.203,38.304z"
      fill="none"
    />
    <path
      d="M78.392,92.047c-0.415-0.774-1.827-2.133-2.765-2.786c-0.009-0.006-0.019-0.008-0.028-0.013   c-1.088-2.569-4.537-10.192-8.345-13.221c0.101-0.055,0.186-0.136,0.23-0.244c0.052-0.129,0.048-0.273-0.01-0.399l-1.307-2.801   c0.37-1.427,2.603-10.481,1.558-16.828c-1.091,0.873-3.385,2.32-7.915,2.32c-1.332,0-2.513-0.171-3.542-0.429l-0.441,0.277   c-0.161,0.101-0.346,0.154-0.533,0.154c-0.079,0-0.159-0.009-0.237-0.028c-0.263-0.064-0.489-0.232-0.626-0.466l-0.073-0.124   c-0.256,0.58-0.854,1.342-2.26,1.801c-1.257,0.412-1.94-0.322-2.236-0.794c-0.572-0.916-0.559-2.153,0.028-2.759   c0.781-0.806,1.911-1.156,2.674-1.309l-0.329-0.561c-0.27-0.46-0.131-1.05,0.314-1.342c3.622-2.375,9.696-6.592,10.579-7.793   c0.273-0.382,0.669-2.339,0.987-3.912c0.439-2.171,0.949-4.68,1.705-6.852l-0.18,0.058l0.228-0.204   c0.965-2.713,2.335-4.847,4.454-5.084l-0.226-3.145l-0.107,0.015c0.121-0.291,0.259-0.652,0.398-1.066   c0.533-1.59,1.04-3.918,0.292-5.746c-0.461-1.127-1.329-1.915-2.58-2.342c-0.924-0.315-1.847-0.475-2.744-0.475   c-4.12,0-6.586,3.176-7.173,5.178c-0.07,0.238,0.046,0.492,0.271,0.595l1.712,0.785c-0.077,0.238-0.147,0.48-0.186,0.736   l-0.434,2.795l1.035-0.146l0.387-2.496c0.025-0.162,0.069-0.316,0.113-0.469l6.512,2.988l-8.304,1.169   c-0.316,0.561-1.144,2.374-0.167,4.647c0.027,0.062,0.041,0.129,0.041,0.197c0,0.422-0.938,5.546-1.487,8.504l4.392-3.919   c0.206-0.183,0.522-0.167,0.706,0.04c0.184,0.206,0.166,0.522-0.04,0.706l-5.484,4.894c-0.094,0.084-0.213,0.127-0.333,0.127   c-0.084,0-0.169-0.021-0.246-0.064c-0.187-0.105-0.285-0.317-0.246-0.527c0.632-3.384,1.625-8.819,1.729-9.68   c-0.3-0.734-0.438-1.426-0.478-2.059c-1.636,0.988-3.387,2.659-4.636,4.439l-1.342,2.009l-12.072,1.848   c-0.642-0.523-1.344-0.725-1.943-0.462c-0.545,0.239-0.891,0.787-1.032,1.499l-3.809-5.211c1.017-5.613-0.906-12.62-1.525-14.215   c-0.008-0.035-0.017-0.069-0.026-0.103l-0.014,0.003c-0.051-0.125-0.091-0.201-0.115-0.226c-0.161-0.16-0.409-0.193-0.604-0.079   c-0.196,0.114-0.291,0.345-0.231,0.564c0.428,1.57-0.932,3.608-1.452,3.948c-5.618-4.457-4.063-13.897-3.55-17.016   c0.198-1.2,0.233-1.416-0.109-1.624c-0.144-0.088-0.323-0.097-0.475-0.024c-1.879,0.898-2.794,2.907-3.316,4.369   c-1.278-4.785-5.28-9.029-5.47-9.228c-0.163-0.171-0.423-0.204-0.624-0.082c-0.201,0.124-0.288,0.371-0.209,0.593   c0.033,0.093,3.252,9.357,0.063,13.868c-2.865,4.052-2.774,8.789-1.065,11.865c-2.661,6.237-3.161,12.067-2.45,17.269   c1.974,14.45,13.262,24.054,13.361,24.063c9.429-12.195,8.231-25.696,7.539-29.135L51.858,65.27l0.313,8.664   c0.005,0.14,0.069,0.272,0.176,0.363c0.091,0.077,0.206,0.119,0.324,0.119c0.021,0,0.042-0.001,0.062-0.004l0.504-0.064   c0.622,3.109,3.305,14.224,3.854,16.493c-0.978,0.465-3.718,1.724-5.171,1.953c-0.798,0.126-1.358,0.442-1.666,0.941   c-0.39,0.632-0.198,1.286-0.175,1.358c0.066,0.207,0.258,0.348,0.476,0.348h11.047c0.007,0,0.013,0,0.02,0   c0.276,0,0.5-0.224,0.5-0.5c0-0.049-0.007-0.097-0.021-0.143c-0.016-2.038-0.376-3.392-0.482-3.748   c0.032-0.808,0.235-6.297-0.018-11.358L72.578,91.79c-0.033,0.094-0.031,0.194,0.025,0.302c0.087,0.407-0.142,3.305-0.578,6.575   c-0.095,0.713,0.015,1.256,0.328,1.613c0.248,0.283,0.608,0.433,1.04,0.433c0.427,0,0.797-0.146,0.837-0.163   c0.112-0.046,0.204-0.131,0.258-0.239l3.91-7.804C78.471,92.362,78.469,92.191,78.392,92.047z M66.153,76.461   c0.039,0.026,0.077,0.048,0.116,0.075c3.08,2.137,6.11,8.041,7.668,11.438c0.305,0.665,0.553,1.233,0.735,1.658l-1.421,1.413   L61.594,78.198L66.153,76.461z M57.017,62.268c0.269-0.025,0.521,0.167,0.552,0.441l1.82,16.321   c0.012-0.004,0.024-0.002,0.036-0.007l1.11-0.423c0.268,4.196,0.204,9.217,0.101,12.016h-2.57   c-1.027-4.24-3.283-13.661-3.836-16.393l3.566-0.45L56.575,62.82C56.544,62.546,56.742,62.299,57.017,62.268z M37.925,41.749   c-0.563-1.459-0.38-2.814,0.161-3.051c0.058-0.025,0.119-0.038,0.187-0.038c0.535,0,1.386,0.771,1.884,2.062   c0.563,1.459,0.38,2.814-0.161,3.051C39.478,44.004,38.486,43.203,37.925,41.749z M40.539,44.598   c0.391-0.227,0.668-0.619,0.82-1.129l11.273-1.245L50.12,53.848c-0.029,0.134,0.014,0.263,0.088,0.373   c-0.364,0.214-0.721,0.464-1.035,0.787c-0.204,0.211-0.36,0.467-0.478,0.747L40.539,44.598z M16.001,15.399   c2.468-3.49,1.543-9.248,0.743-12.453c1.514,1.98,3.667,5.308,4.019,8.589c0.018,0.163,0.113,0.307,0.257,0.386   c0.144,0.078,0.317,0.081,0.463,0.008c0.289-0.145,0.389-0.448,0.63-1.182c0.353-1.069,0.958-2.909,2.23-4   c-0.002,0.013-0.004,0.026-0.006,0.039c-0.542,3.291-2.191,13.304,4.093,18.098c0.17,0.113,0.53,0.247,1.044-0.125   c0.518-0.373,1.177-1.277,1.576-2.334c0.631,2.553,1.387,6.772,0.951,10.497L20.159,16.718c-0.162-0.221-0.47-0.272-0.695-0.111   l-1.675,1.201c-0.108,0.078-0.181,0.195-0.202,0.327s0.011,0.267,0.09,0.374l0.566,0.774c-1.447,2.107-2.633,4.18-3.583,6.212   C13.493,22.732,13.623,18.763,16.001,15.399z M29.742,38.502c-4.207,0.446-7.09-0.296-9-1.748   c-5.286-4.018-3.27-13.329-2.194-17.052L30.98,36.709l0.656,0.897l0.409,0.559c-0.289,0.054-0.563,0.094-0.841,0.139"
    />
    <path
      d="M68.471,49.962l-10.977,6.91c0.71,0.123,1.479,0.201,2.316,0.201c4.889,0,6.933-1.776,7.702-2.445l0.101-0.087   c0.675-0.58,0.933-0.896,0.935-0.899c0.003-0.004,0.008-0.005,0.011-0.009l0.521-4.418c-0.22,0.352-0.343,0.507-0.389,0.559   C68.627,49.847,68.553,49.911,68.471,49.962z"
    />
    <path
      d="M70.557,44.122c1.936-4.214,3.896-14.226,0.312-14.452c-0.054-0.003-0.107-0.005-0.16-0.005   c-4.8,0-5.47,13.853-6.774,15.628c-1.318,1.795-10.836,8.037-10.836,8.037l2.197,3.746l12.643-7.959   C67.938,49.116,68.621,48.336,70.557,44.122z"
    />
  </g>
</svg>
