<svg
  xmlns="http://www.w3.org/2000/svg"
  data-name="Layer 1"
  viewBox="0 0 100 125"
  x="0px"
  y="0px"
>
  <title>a</title>
  <g data-name="Group">
    <path
      data-name="Compound Path"
      d="M77.4,14.5v5.8l-57,15.1H13.2a8,8,0,0,0-8,8V56.6a8,8,0,0,0,8,8h7.1l2.3.6v8.6a8,8,0,0,0,8,8h18a8,8,0,0,0,8-7.6l20.7,5.5v5.8h4V63.6h3.4a10,10,0,0,0,10-10V46.4a10,10,0,0,0-10-10H81.4V14.5ZM9.2,56.6V43.4a4,4,0,0,1,4-4h5.4V60.6H13.2A4,4,0,0,1,9.2,56.6ZM52.6,73.8a4,4,0,0,1-4,4h-18a4,4,0,0,1-4-4V66.3l26,6.9Zm-30-12.8V38.9L77.4,24.4V75.6ZM84.8,40.4a6,6,0,0,1,6,6v7.2a6,6,0,0,1-6,6H81.4V40.4Z"
    />
  </g>
</svg>
