<svg
  xmlns="http://www.w3.org/2000/svg"
  xmlns:xlink="http://www.w3.org/1999/xlink"
  version="1.1"
  x="0px"
  y="0px"
  viewBox="0 0 100 125"
  style="enable-background: new 0 0 100 100"
  xml:space="preserve"
>
  <path
    d="M32.9,64.4c1.9-4.4,2-12.8,0.1-17.2c-5.8-13.1-22.4-12.4-28.6-0.6c-3.1,6-2,12.9,0.1,18c1.1,2.8,2.6,4.7,3.7,7.5  c1.6,4.1-2.4,5.3,0.7,7.5c3.1,2.1,16.2,3.1,21.7-1.1c2-1.5-1.5-4.2-0.4-6.6C30.4,71.6,31.3,68.2,32.9,64.4z M29.8,57.8  c-0.1,1.7-2.3,3.3-4.1,3.2s-3.8-1.3-3.8-2.6c0-1.9,2.4-3.4,4.5-3C28.3,55.7,29.8,56.7,29.8,57.8z M12.3,55.6c2.1-0.4,4.5,1,4.6,2.9  c0,1.2-1.8,2.6-3.7,2.7S9.1,59.8,9,58.1C8.9,57,10.3,56,12.3,55.6z M24,69.7c-0.1,1.6-2.2,2.5-3.7,2.5c-1.5-0.1-3.4-0.3-3.5-2.2  c-0.2-1.9,1.9-2.8,3.7-2.8S24.1,68.1,24,69.7z"
  />
  <path
    d="M70.2,76.6c1.1,2.3-2.3,5-0.4,6.6c5.4,4.2,18.5,3.2,21.7,1.1c3.2-2.1-0.8-3.4,0.7-7.5c1.1-2.8,2.6-4.7,3.7-7.5  c2.1-5.1,3.2-12,0.1-18c-6.1-11.9-22.8-12.6-28.6,0.6c-1.9,4.4-1.8,12.8,0.1,17.2C69.2,72.8,70.1,76.2,70.2,76.6z M74.2,60  c2.1-0.3,4.5,1.1,4.5,3c0,1.2-1.9,2.5-3.8,2.6c-1.9,0.1-4.1-1.5-4.1-3.2C70.7,61.3,72.2,60.3,74.2,60z M91.5,62.7  c-0.1,1.7-2.4,3.2-4.2,3.1c-1.9-0.1-3.7-1.4-3.7-2.7c0-1.9,2.5-3.3,4.6-2.9C90.2,60.5,91.6,61.6,91.5,62.7z M80.1,71.9  c1.8-0.1,3.8,0.9,3.7,2.8s-2,2.1-3.5,2.2c-1.5,0.1-3.7-0.8-3.7-2.5C76.4,72.7,78.3,71.9,80.1,71.9z"
  />
  <path
    d="M65.6,49.1c3.2-8,1.8-19.6-6.2-24.3c-0.9-0.5-1.7-0.9-2.7-1.3c0.7-0.9,1.1-2.1,1.3-3.3c0.4-3.8-2.3-7.3-6.2-7.7  c-3.8-0.4-7.3,2.3-7.7,6.2c-0.2,1.6,0.2,3.2,1,4.4c-1.5,0.5-2.7,1.3-3.9,2.1c-8.8,6.2-7.2,19.9-4.5,25c1.6,3,4.8,8.7,5.6,10.7  c0.4,0.9,0.8,2,0.7,2.9c-0.2,1.4-1.1,3-1.1,3.9c0,0.9-1.3,1.9-1.6,2.2c-0.4,0.6-0.5,1.7,0.2,2.2c3.6,2.7,17.3,2.9,21.8-0.2  c0.7-0.5,0.6-1.8-0.1-2.4c-0.3-0.3-1.4-1-1.5-1.9c-0.2-1.3-0.9-2.8-1.2-3.8c-0.3-1-0.1-2.1,0.5-3C60.3,60.2,63.9,53.3,65.6,49.1z   M41.3,43.5c-0.1-1.1,1.4-2.1,3.4-2.4c2.1-0.4,4.5,1,4.5,3c0,1.2-1.9,2.5-3.7,2.6C43.6,46.8,41.4,45.2,41.3,43.5z M51.1,59.7  c-1.5-0.1-3.4-0.3-3.5-2.2c-0.1-1.9,1.9-2.8,3.7-2.7s3.6,0.9,3.6,2.5C54.8,58.9,52.6,59.8,51.1,59.7z M57.9,46.7  c-1.9-0.1-3.8-1.4-3.7-2.6c0-1.9,2.5-3.3,4.5-3c2,0.3,3.4,1.3,3.4,2.4C62,45.2,59.8,46.8,57.9,46.7z"
  />
</svg>
