<svg
  xmlns="http://www.w3.org/2000/svg"
  xmlns:xlink="http://www.w3.org/1999/xlink"
  version="1.1"
  x="0px"
  y="0px"
  viewBox="0 0 64 80"
  enable-background="new 0 0 64 64"
  xml:space="preserve"
>
  <g>
    <g>
      <g>
        <path
          d="M43.25,4.262V3.738C43.25,1.677,41.573,0,39.512,0H13.738C11.677,0,10,1.677,10,3.738v0.523C10,6.323,11.677,8,13.738,8     h25.773C41.573,8,43.25,6.323,43.25,4.262z"
        />
      </g>
    </g>
    <g>
      <g>
        <path
          d="M63,58h-9v-3c0-0.553-0.447-1-1-1h-9c-0.553,0-1,0.447-1,1v3H33c-0.553,0-1,0.447-1,1v4c0,0.553,0.447,1,1,1h30     c0.553,0,1-0.447,1-1v-4C64,58.447,63.553,58,63,58z M52,58h-7v-2h7V58z"
        />
      </g>
    </g>
    <g>
      <g>
        <path
          d="M25.081,14h10.826c-0.439-2.723-2.649-4.555-5.571-4.555S25.464,11.277,25.081,14z"
        />
      </g>
    </g>
    <g>
      <g>
        <path
          d="M15.009,62.867c-0.038,0.286,0.049,0.574,0.238,0.791C15.438,63.876,15.712,64,16,64h14.184     C30.072,63.686,30,63.352,30,63v-4c0-1.654,1.346-3,3-3h5.988l-0.986-18.941c-0.032-0.552,0.389-1.024,0.939-1.057     c0.579-0.022,1.025,0.389,1.057,0.939L40.99,56H41v-1c0-1.654,1.346-3,3-3h5.227l-6.261-23.218     c-0.077-0.283-0.274-0.52-0.541-0.645L37,25.59V17c0-0.553-0.447-1-1-1c-0.024,0-0.044,0.012-0.067,0.013     c0-0.004,0.001-0.009,0.002-0.013H25.068c0.001,0.005,0.002,0.009,0.002,0.014C25.045,16.012,25.025,16,25,16     c-0.553,0-1,0.447-1,1v8.197l-6.876-0.194l-7.696-1.71l5.48-11.874c0.125-0.271,0.122-0.582-0.006-0.851     c-0.129-0.269-0.371-0.466-0.66-0.538l-4-1C9.803,8.918,9.34,9.122,9.122,9.521L3.105,20.553l-3,6     c-0.131,0.261-0.141,0.566-0.027,0.835c0.113,0.27,0.339,0.476,0.616,0.564l18.203,5.838L15.009,62.867z M26,19.498     c0.966,2.343,2.572,4.393,4.546,4.393c1.952,0,3.511-2.005,4.454-4.315v6.311l-4.5,5.91l-4.5-5.91V19.498z"
        />
      </g>
    </g>
  </g>
</svg>
