<svg
  xmlns="http://www.w3.org/2000/svg"
  xmlns:xlink="http://www.w3.org/1999/xlink"
  version="1.1"
  x="0px"
  y="0px"
  viewBox="0 0 64 80"
  enable-background="new 0 0 64 64"
  xml:space="preserve"
>
  <g>
    <g>
      <g>
        <path
          d="M9,62H5c-0.552,0-1,0.447-1,1s0.448,1,1,1h4c0.552,0,1-0.447,1-1S9.552,62,9,62z"
        />
      </g>
    </g>
    <g>
      <g>
        <path
          d="M26,57l-3.2,2.4c-0.442,0.331-0.531,0.958-0.2,1.399c0.196,0.263,0.497,0.4,0.801,0.4c0.208,0,0.419-0.065,0.599-0.2     l3.2-2.4c0.442-0.331,0.531-0.958,0.2-1.399C27.07,56.758,26.443,56.669,26,57z"
        />
      </g>
    </g>
    <g>
      <g>
        <path
          d="M48,62h-4c-0.552,0-1,0.447-1,1s0.448,1,1,1h4c0.552,0,1-0.447,1-1S48.552,62,48,62z"
        />
      </g>
    </g>
    <g>
      <g>
        <path
          d="M44.45,12.899H57.55c1.902,0,3.45-1.548,3.45-3.45V8.349c0-1.902-1.547-3.449-3.45-3.449H44.45     c-1.902,0-3.45,1.547-3.45,3.449v1.101C41,11.352,42.547,12.899,44.45,12.899z"
        />
      </g>
    </g>
    <g>
      <g>
        <path
          d="M63.781,56.375l-3.879-4.849l-2.887-9.624l0.703-7.023l4.451,6.676c0.276,0.413,0.812,0.561,1.261,0.349     c0.449-0.213,0.673-0.723,0.527-1.197l-4-13c-0.08-0.262-0.264-0.479-0.508-0.601L56,25.382V23c0-0.099-0.03-0.189-0.056-0.28     c0.354-0.343,0.679-0.75,0.944-1.259C56.961,21.319,57,21.16,57,21v-4v-1c0-0.193-0.056-0.383-0.161-0.545     c-0.138-0.213-1.42-2.08-3.839-2.08s-3.701,1.867-3.839,2.08C49.056,15.617,49,15.807,49,16v1v6c0,0.456,0.309,0.854,0.751,0.969     c0.024,0.006,0.114,0.028,0.249,0.055V25h-6v-9c0-0.512-0.386-0.94-0.895-0.994c-0.51-0.057-0.976,0.284-1.083,0.784l-3,14     c-0.063,0.296,0.011,0.604,0.2,0.839C39.412,30.863,39.698,31,40,31h6l0.002,10H53c0.552,0,1,0.447,1,1s-0.448,1-1,1h-7     c-0.001,0-0.001,0-0.001,0l-0.117,1.983l-0.626-2.33C45.102,42.477,45,42.253,45,42c0-0.061,0.024-0.114,0.035-0.172     l-2.441-9.088c-0.069-0.256-0.237-0.474-0.466-0.606c-0.23-0.134-0.504-0.167-0.759-0.1l-14.486,3.892     c-0.534,0.144-0.85,0.691-0.707,1.226l3.373,12.555c0.069,0.256,0.237,0.475,0.466,0.606c0.153,0.089,0.326,0.134,0.5,0.134     c0.087,0,0.174-0.012,0.259-0.034l14.486-3.892c0.24-0.065,0.426-0.218,0.556-0.408l-0.813,13.829     c-0.017,0.274,0.082,0.544,0.271,0.744C45.461,60.887,45.725,61,46,61h3c0.472,0,0.879-0.329,0.978-0.79l2.452-11.442     l2.702,4.729c0.029,0.051,0.062,0.099,0.1,0.145l5,6c0.18,0.216,0.442,0.346,0.723,0.358c0.28,0.018,0.554-0.093,0.752-0.292l2-2     C64.067,57.347,64.099,56.773,63.781,56.375z M55,20.736c-0.939,1.506-2.917,1.53-4,1.417V18h4V20.736z"
        />
      </g>
    </g>
    <g>
      <g>
        <path
          d="M32.905,31.574l-8-17c-0.078-0.165-0.199-0.306-0.35-0.406L22,12.465V5c0-2.599-2.457-5.056-5.056-5.056     C14.356-0.056,12,2.354,12,5v7.382l-3.447,1.724C8.214,14.275,8,14.621,8,15v0.85L4.087,28.566l-3.919,5.879     c-0.205,0.307-0.224,0.701-0.05,1.026C0.292,35.797,0.631,36,1,36h5c0.27,0,0.527-0.108,0.716-0.302l0.927-0.95l-0.637,5.147     l-2,19c-0.03,0.281,0.062,0.562,0.251,0.773S5.717,60,6,60h12c0.197,0,0.391-0.059,0.555-0.168l9-6     c0.355-0.237,0.521-0.674,0.413-1.087L23,33.871v-8.904l5.12,9.507c0.133,0.248,0.365,0.429,0.638,0.497     c0.274,0.067,0.563,0.018,0.797-0.139l3-2C32.967,32.558,33.116,32.022,32.905,31.574z M14,6h3v1.791     c-0.529,1.099-1.879,2.035-3,2.641V6z M19.581,15.242l-5,3.571C14.405,18.939,14.202,19,14.001,19     c-0.312,0-0.62-0.146-0.815-0.419c-0.321-0.449-0.217-1.074,0.233-1.395l5-3.571c0.448-0.321,1.073-0.218,1.395,0.232     C20.135,14.297,20.031,14.922,19.581,15.242z"
        />
      </g>
    </g>
  </g>
</svg>
