<svg
  height="100px"
  width="100px"
  fill="#000000"
  xmlns="http://www.w3.org/2000/svg"
  viewBox="0 0 100 100"
  x="0px"
  y="0px"
>
  <g data-name="sandra bland">
    <path
      data-name="sandra bland"
      d="M42.08521,48.41592A8.90617,8.90617,0,0,0,40.034,47.20873a2.219,2.219,0,1,1-4.389.46A2.20082,2.20082,0,0,1,35.9134,46.63a8.74745,8.74745,0,0,0-2.94715,1.04038L32.228,46.36469a9.48769,9.48769,0,0,1,5.4618-1.28952,9.88243,9.88243,0,0,1,2.1816.46776A10.35219,10.35219,0,0,1,43.011,47.23626Zm26.06393-2.05123a9.48621,9.48621,0,0,0-5.4618-1.28952,9.88387,9.88387,0,0,0-2.1816.46728,10.35742,10.35742,0,0,0-3.14056,1.69381l.92576,1.17966a8.9075,8.9075,0,0,1,2.0516-1.20737,2.219,2.219,0,1,0,4.38888.4602,2.20075,2.20075,0,0,0-.26934-1.04045,8.69785,8.69785,0,0,1,2.9488,1.042ZM42.512,38.4254a23.17952,23.17952,0,0,0-3.7636-1.7236,11.553,11.553,0,0,0-3.87394-.87693,7.04277,7.04277,0,0,0-3.35345.59227,6.483,6.483,0,0,0-2.28609,1.7983l1.164.94627a4.97726,4.97726,0,0,1,1.75876-1.3862,5.56216,5.56216,0,0,1,2.68158-.45067,10.13236,10.13236,0,0,1,3.41009.79149,21.69792,21.69792,0,0,1,3.52044,1.61178Zm19.61582-.30956a10.1322,10.1322,0,0,1,3.41009-.791,5.59483,5.59483,0,0,1,2.68158.45067,4.98828,4.98828,0,0,1,1.75876,1.3862l1.164-.94627a6.47674,6.47674,0,0,0-2.28609-1.7983,7.028,7.028,0,0,0-3.35345-.59227,11.55323,11.55323,0,0,0-3.87492.87693,23.30179,23.30179,0,0,0-3.7636,1.72311l.74217,1.30369A21.75816,21.75816,0,0,1,62.12778,38.11584Zm-8.51839,24.105a8.16487,8.16487,0,0,0-1.0322.83739,6.67,6.67,0,0,1-.86815.708,2.68326,2.68326,0,0,1-3.04.00049,6.6,6.6,0,0,1-.8701-.70848,8.05382,8.05382,0,0,0-1.0322-.83739,3.00912,3.00912,0,0,0-3.26654-.17187l.87889,1.2158a1.58537,1.58537,0,0,1,1.56833.21239,6.93267,6.93267,0,0,1,.84276.69091,7.92913,7.92913,0,0,0,1.07224.86326,4.88557,4.88557,0,0,0,2.28255.7083l.00061.01c.01464-.00092.02789-.004.04248-.00494.01458.001.02783.004.04248.00494l.00061-.01a4.89308,4.89308,0,0,0,2.28352-.7083,7.92975,7.92975,0,0,0,1.07224-.86326,6.86278,6.86278,0,0,1,.84276-.69139,1.58343,1.58343,0,0,1,1.56735-.2124l.87889-1.21482A3.00623,3.00623,0,0,0,53.60939,62.22082Zm-3.41594,20.5118a13.588,13.588,0,0,1,3.33782.44335l.39843-1.44626a14.549,14.549,0,0,0-3.74309-.49706,13.849,13.849,0,0,0-3.73918.53075l.41015,1.44235A12.36929,12.36929,0,0,1,50.19345,82.73262ZM75.99859,54.69949l-1.15818.95408a1.09568,1.09568,0,0,1-.16991,1.373l1.20505.89451A2.50415,2.50415,0,0,0,75.99859,54.69949ZM50.19345,76.04428a1.82558,1.82558,0,0,0,.89842-.30615,1.39026,1.39026,0,0,1,.2373-.124c.24218-.09131.41991-.04736.83592.07275a5.01636,5.01636,0,0,0,1.39841.24072A5.22,5.22,0,0,0,55.54,75.50181l-.60741-1.37205a3.04091,3.04091,0,0,1-1.34763.29785,3.58471,3.58471,0,0,1-1.00584-.18213,2.57053,2.57053,0,0,0-1.78121-.03369,2.79174,2.79174,0,0,0-.48241.24316c-.13184.08008-.14649.0874-.22266.09277a.57714.57714,0,0,1-.31249-.08935,3.17046,3.17046,0,0,0-.584-.21337,2.49,2.49,0,0,0-1.47361.10058,3.11519,3.11519,0,0,1-.65916.1499,3.07917,3.07917,0,0,1-1.58981-.32275l-.63671,1.35837a4.21867,4.21867,0,0,0,3.329.24756,1.05787,1.05787,0,0,1,.66991-.07764,1.73637,1.73637,0,0,1,.32324.12256,2.036,2.036,0,0,0,.90037.22509C50.10263,76.04867,50.14755,76.0472,50.19345,76.04428ZM25.62753,57.02659a1.09773,1.09773,0,0,1-.17089-1.37351L24.29846,54.7a2.50481,2.50481,0,0,0,.124,3.22112ZM83.64492,43.13283a1.49894,1.49894,0,0,1-2.01167-.67431c-.3847-.77256-.75658-1.55807-1.11375-2.3506.28655,1.17234.66393,2.52009,1.18308,4.01268.43749,1.25827.93748,2.51118,1.4863,3.724a1.49973,1.49973,0,1,1-2.73237,1.23728c-.5869-1.2949-1.12107-2.63276-1.58786-3.976-.102-.29321-.19061-.57213-.28295-.85515a41.87031,41.87031,0,0,0,.84251,4.25352,46.193,46.193,0,0,0,2.48823,7.31528,1.50041,1.50041,0,1,1-2.74994,1.20115c-.00928-.02124-.01727-.04321-.02655-.06445a10.31213,10.31213,0,0,1-.21661,2.39839,5.83446,5.83446,0,0,1-1.12748,2.58308,17.3793,17.3793,0,0,1,1.354,4.90212c.32128,2.92621.27148,7.94271-1.94821,8.18685a1.46662,1.46662,0,0,1-.16015.00879c-.874,0-1.64938-.80516-2.30562-2.39644a17.11362,17.11362,0,0,1-.906-3.21313,1.4829,1.4829,0,0,1-.43474-.27948c-.16272-.15643-.30779-.329-.45769-.49718-.063.22918-.11713.462-.18292.69l-.03143.10779c.03332.11712.05847.23608.09588.35216a10.60548,10.60548,0,0,0,1.06638,2.30953,1.49828,1.49828,0,0,1-2.5373,1.59408,40.95327,40.95327,0,0,1-3.10321,6.5747,29.83861,29.83861,0,0,1-4.37,5.9491,18.40408,18.40408,0,0,1-6.037,4.60928,20.168,20.168,0,0,1-5.68934,1.50534c-.54119.06763-1.093.10138-1.64255.1286L50.505,92.5c-.06408-.002-.12774-.01239-.19189-.015-.06414.00262-.1278.013-.19189.015l-.001-.03009c-.54955-.02722-1.10136-.061-1.64255-.1286A20.16779,20.16779,0,0,1,42.78832,90.836a18.40413,18.40413,0,0,1-6.037-4.60928,29.87148,29.87148,0,0,1-4.37-5.9491,41.05032,41.05032,0,0,1-3.233-6.93419c-.06464.11163-.11511.23083-.18292.34057a1.49978,1.49978,0,1,1-2.55269-1.57516,10.59829,10.59829,0,0,0,1.06639-2.31q.15316-.47489.2597-.96074c-.043-.15442-.08166-.3106-.12341-.46551a8.79411,8.79411,0,0,1-.71245.77391,1.477,1.477,0,0,1-.43517.28,17.09067,17.09067,0,0,1-.90562,3.21264c-.65722,1.59128-1.43259,2.39644-2.3066,2.39644a1.48014,1.48014,0,0,1-.16015-.00879c-2.22066-.24414-2.26851-5.26113-1.94723-8.18685a17.36184,17.36184,0,0,1,1.354-4.903,5.84307,5.84307,0,0,1-1.12937-2.58271,12.18712,12.18712,0,0,1-.21582-2.96478l.00018-.15411c-.10876.2614-.21032.52635-.32342.78544a1.50041,1.50041,0,0,1-2.74994-1.20115A46.192,46.192,0,0,0,20.572,48.5043a39.47537,39.47537,0,0,0,.80882-4.1536c-.08258.2514-.15936.49675-.24926.75523-.46679,1.34324-1.001,2.6811-1.58786,3.976a1.49973,1.49973,0,1,1-2.73237-1.23728c.54882-1.21287,1.04881-2.46578,1.4863-3.724.54882-1.57675.94353-3.00855,1.237-4.23093-.45739,1.01749-.85423,1.889-1.14714,2.52686a1.5003,1.5003,0,0,1-2.7265-1.2529c.47948-1.04295,1.21677-2.66108,2.0937-4.64835.309-.70024.58886-1.34274.85607-1.95961a1.49508,1.49508,0,0,1-2.26815-1.69315,39.99293,39.99293,0,0,1,8.06918-14.30781A32.255,32.255,0,0,1,34.9291,10.153C43.783,5.94662,52.71323,7.6513,57.39283,9.11a23.61326,23.61326,0,0,1,9.39208,1.74758A24.86617,24.86617,0,0,1,76.10406,17.71a32.44223,32.44223,0,0,1,7.59457,15.31121,1.49942,1.49942,0,0,1-1.17185,1.76852,1.53055,1.53055,0,0,1-.2998.03027,1.47051,1.47051,0,0,1-.70451-.20086c.21508.59563.45489,1.23093.74162,1.94009.623,1.541,1.31443,3.07611,2.05465,4.56241A1.50021,1.50021,0,0,1,83.64492,43.13283ZM26.54017,63.575c-.0321-.17852-.0581-.35839-.089-.53722a3.45833,3.45833,0,0,1-1.20841.22015c-.06934,0-.13965-.002-.21094-.00635a3.36832,3.36832,0,0,1-1.302-.35082,15.53365,15.53365,0,0,0-1.09147,4.1027c-.41992,3.82658.20409,6.29284.65623,6.54186.34417-.12371,1.15757-1.66391,1.67807-4.28019a1.47328,1.47328,0,0,1-.14782-2.28169,5.81,5.81,0,0,0,1.48727-2.35884A5.55934,5.55934,0,0,0,26.54017,63.575ZM74.6705,59.62957c-.07373.66893-.16663,1.33542-.26379,2.001a1.9141,1.9141,0,0,0,.7667.1239,1.8778,1.8778,0,0,0,.77392-.22637,16.11977,16.11977,0,0,0-.8247-1.47721l1.25-.82957c.03155.04748.30261.46282.66393,1.138a6.32509,6.32509,0,0,0,.421-1.32255,10.87683,10.87683,0,0,0,.18261-2.64936l-.001-.832c.00152-.592.01049-1.40348.03948-2.375-.44255-1.30125-.83109-2.62147-1.16251-3.95152a49.3583,49.3583,0,0,1-1.1699-6.62341c-.13867-1.13718-.2705-2.21187-.50682-3.495A33.41654,33.41654,0,0,0,70.06121,26.496c-.19531-.28368-.41893-.65282-.67967-1.08445-1.64938-2.73578-4.72061-7.82748-11.90406-8.17317a14.44877,14.44877,0,0,0-.88865-.18164C51.98052,15.36678,36.057,19.62841,29.86866,28.15754a29.4193,29.4193,0,0,0-4.71377,10.98464c-.27539,1.32859-.4121,2.47847-.55761,3.69573a47.26155,47.26155,0,0,1-1.11326,6.391c-.26165,1.05008-.569,2.091-.90025,3.12426l.00769-.0003c.05274,1.3486.06445,2.44868.06641,3.20208l-.001.83934a10.92236,10.92236,0,0,0,.18261,2.64252,6.30537,6.30537,0,0,0,.42163,1.32285c.3615-.67534.63273-1.0908.66429-1.13828l1.25.82957a16.10351,16.10351,0,0,0-.82328,1.47385,1.86564,1.86564,0,0,0,.77153.22973A1.9572,1.9572,0,0,0,26.201,61.5052c-.09229-.62365-.17621-1.24863-.2453-1.87563l1.49021-.16406c.03967.35936.09539.71653.1419,1.075q.28463,2.19374.73479,4.35416c.12329.5883.24694,1.17649.38854,1.75875q.27822,1.14384.60192,2.26985c.20843.72222.45519,1.5629.753,2.48348a39.97611,39.97611,0,0,0,3.60827,8.111,28.57784,28.57784,0,0,0,4.15909,5.67078,16.951,16.951,0,0,0,5.56435,4.27726,18.682,18.682,0,0,0,5.26551,1.38718c.54369.06818,1.09788.10473,1.64987.12909.552-.02436,1.10618-.06091,1.64987-.12909a18.682,18.682,0,0,0,5.26552-1.38718,16.95084,16.95084,0,0,0,5.56434-4.27726,28.51905,28.51905,0,0,0,4.1591-5.67078A39.70736,39.70736,0,0,0,70.4102,71.863c.3692-1.10447.66058-2.09981.90294-2.9397.178-.61668.33795-1.24106.495-1.86647.14654-.58355.27935-1.17137.40746-1.76126q.49584-2.28338.80394-4.61221c.05371-.406.11578-.81078.16076-1.21787Zm2.98919,7.37387a15.54722,15.54722,0,0,0-1.09183-4.10264,3.37315,3.37315,0,0,1-1.30265.35076c-.07226.0044-.14258.00635-.21191.00635a2.99691,2.99691,0,0,1-.88975-.13232c-.07532.43682-.14349.87529-.22839,1.30979.01819.06268.03039.12731.05078.1892a5.81,5.81,0,0,0,1.48727,2.35884,1.4997,1.4997,0,0,1,.042,2.12105,1.483,1.483,0,0,1-.18957.16052c.52306,2.61555,1.34708,4.15464,1.74911,4.272C77.45462,73.29628,78.07863,70.83051,77.65969,67.00344Z"
    ></path>
  </g>
</svg>
