<?xml version="1.0" encoding="UTF-8" standalone="no"?>
<!-- Created with Inkscape (http://www.inkscape.org/) -->
<svg
  xmlns:inkscape="http://www.inkscape.org/namespaces/inkscape"
  xmlns:rdf="http://www.w3.org/1999/02/22-rdf-syntax-ns#"
  xmlns="http://www.w3.org/2000/svg"
  xmlns:cc="http://creativecommons.org/ns#"
  xmlns:dc="http://purl.org/dc/elements/1.1/"
  xmlns:sodipodi="http://sodipodi.sourceforge.net/DTD/sodipodi-0.dtd"
  xmlns:svg="http://www.w3.org/2000/svg"
  xmlns:ns1="http://sozi.baierouge.fr"
  xmlns:xlink="http://www.w3.org/1999/xlink"
  id="svg2814"
  sodipodi:docname="smash_fascism.svg"
  viewBox="0 0 146.84 82.837"
  version="1.1"
  inkscape:version="0.47 r22583"
>
  <sodipodi:namedview
    id="base"
    bordercolor="#666666"
    inkscape:pageshadow="2"
    inkscape:window-y="88"
    pagecolor="#ffffff"
    inkscape:window-height="488"
    inkscape:window-maximized="0"
    inkscape:zoom="2.8489539"
    inkscape:window-x="44"
    showgrid="false"
    borderopacity="1.0"
    inkscape:current-layer="layer1"
    inkscape:cx="73.420587"
    inkscape:cy="-25.434197"
    inkscape:window-width="566"
    inkscape:pageopacity="0.0"
    inkscape:document-units="px"
  />
  <g
    id="layer1"
    inkscape:label="Ebene 1"
    inkscape:groupmode="layer"
    transform="translate(-291.17 -343.81)"
  >
    <path
      id="path2838"
      style="fill: #000000"
      d="m382.96 425.96c-0.9625-0.25152-1.75-0.81922-1.75-1.2616 0-0.44233 0.7875-1.407 1.75-2.1437 0.9625-0.73671 1.4283-0.95764 1.0352-0.49096-0.39315 0.46668-0.26481 1.6894 0.28519 2.717 0.55 1.0277 0.87166 1.8163 0.71481 1.7525s-1.0727-0.3218-2.0352-0.57333zm9.4243-1.6251c-2.4812-2.6411-2.8005-3.8631-0.80976-3.0992 1.1571 0.44403 4.1758 5.4136 3.2883 5.4136-0.16734 0-1.2827-1.0415-2.4786-2.3144zm-65.453-0.96848c-0.36376-0.94794-1.5776-1.2451-3.7711-0.92312-2.249 0.33008-3.021 0.12909-2.5336-0.6596 0.38558-0.62389 0.14607-1.1344-0.53227-1.1344-0.68088 0-0.18296-1.1181 1.1116-2.4961 1.2897-1.3728 2.1556-2.6445 1.9243-2.8259-0.23134-0.1814-3.9081-1.961-8.1706-3.9546-4.2625-1.9937-7.75-3.9373-7.75-4.3193 0-1.1489 5.4453-9.4004 6.2047-9.4024 0.38759-0.00098 5.7507 1.7982 11.918 3.9982s11.307 4 11.422 4c0.84889 0 4.4353-10.399 3.7848-10.974-0.45627-0.40337-6.0046-2.9209-12.33-5.5944-6.325-2.6736-11.642-4.9443-11.816-5.046-0.17406-0.10173 3.3585-6.4925 7.8501-14.202l8.1666-14.017 4.0488 1.7195 4.0488 1.7195 15.437-7.8835c8.4905-4.3359 15.542-7.7348 15.67-7.553 0.12784 0.18176 0.67596 3.1493 1.218 6.5946l0.98563 6.2642-3.5543 0.93043c-1.9548 0.51174-4.8418 1.2417-6.4156 1.6222-2.1771 0.52634-4.1864 2.7247-8.403 9.1935l-5.5417 8.5018 1.8686 3.4699c1.0467 1.9436 1.7422 4.9374 1.5812 6.8061-0.22 2.5536 0.31589 3.8608 2.2844 5.5724 1.9268 1.6753 2.5718 3.1982 2.5718 6.072 0 3.3902 0.40164 4.0274 3.4574 5.4846 2.3391 1.1154 3.9447 2.8666 4.9639 5.4139 1.1534 2.8825 2.1442 3.8402 4.2265 4.0851 2.0006 0.23529 2.9143 1.0524 3.4547 3.0891 0.64443 2.4289 0.28603 3.0741-2.9161 5.25-2.0079 1.3644-4.0494 2.4808-4.5366 2.4808-0.48722 0-2.4446-1.3686-4.3498-3.0414-1.9583-1.7194-4.189-2.8385-5.132-2.5747-3.9309 1.0999-8.1681 1.7333-8.1681 1.2212 0-0.30458 1.4625-1.3129 3.25-2.2407 5.9874-3.1077 1.3088-2.4161-10.274 1.5186-6.3121 2.1443-12.206 4.1987-13.097 4.5653-0.97136 0.39942-1.8359 0.10634-2.1574-0.73134zm20.518-48.526c-1.5069-4.4897-3.0274-8.0568-3.3788-7.9269-0.95206 0.35201-7.8671 8.8211-7.8228 9.5809 0.0367 0.62956 13.21 7.062 13.702 6.6904 0.13189-0.0997-0.99311-3.8547-2.5-8.3444zm19.99 32.907c-1.2393-2.982-2.8582-5.1627-4.1333-5.5674-1.5608-0.49536-2.0961-1.494-2.0961-3.9098 0-2.3904-0.7337-3.787-2.787-5.3051-2.0615-1.5241-2.8529-3.0381-3.0399-5.8157-0.13909-2.0654-0.85907-5.206-1.6-6.9792-1.2895-3.0862-1.1532-3.5508 3.1894-10.872l4.5364-7.6484h8.6762c8.0767 0 8.8437-0.18102 11.101-2.6196 2.7778-3.0016 9.328-7.3804 11.04-7.3804 0.63565 0 4.9336 2.7023 9.551 6.0051l8.3953 6.0051 5.7189-0.64394c3.1454-0.35417 7.0689-1.3278 8.7189-2.1637 1.65-0.83588 4.423-1.8421 6.1622-2.236 3.0314-0.68661 3.1879-0.5663 3.7842 2.9086 0.34211 1.9937 0.86738 4.8624 1.1673 6.3749 0.46037 2.3218 0.20781 2.75-1.6221 2.75-1.9668 0-2.1061 0.3624-1.5058 3.9156 0.52547 3.1103 0.0294 5.4202-2.4121 11.231-1.6905 4.0235-3.0736 7.8331-3.0736 8.4657 0 0.63262 2.025 1.6601 4.5 2.2833 3.9581 0.99667 4.5007 1.4625 4.5056 3.8687 0.003 1.5046 0.48587 4.4653 1.0729 6.5794s0.87526 4.0358 0.64052 4.2706c-0.23474 0.23474-3.5131-1.3767-7.2852-3.581-6.6914-3.9102-7.0298-3.9934-13.896-3.4157-5.3489 0.45-7.4646 1.082-8.8166 2.6337-1.6191 1.8582-2.5482 1.9874-10.34 1.4375-7.5439-0.53238-9.3364-0.31221-15.09 1.8535-3.5912 1.3517-7.9908 2.4576-9.777 2.4576-2.9448 0-3.4376-0.45713-5.2848-4.9021zm17.09-5.0293c2.8849-1.0968 3.1651-1.7539 1.7215-4.0364-0.80942-1.2798-1.5439-1.2472-5.7347 0.25494-2.6435 0.94752-5.5939 1.7205-6.5564 1.7178-1.7754-0.005-2.3702 2.0315-1 3.4239 0.88481 0.89913 7.7499 0.092 11.57-1.3602zm21.18-7.0686c3.1469-4.5409 6.5871-5.354 14.583-3.4468 1.9938 0.47557 2.5833 0.23444 2.5833-1.0566 0-2.3414-4.0984-3.7126-7.0615-2.3626-1.6389 0.74674-2.9568 0.76859-4.2056 0.0697-1.4082-0.78808-3.3514-0.24597-8.6092 2.4018-5.6508 2.8457-6.7904 3.8371-6.7904 5.907 0 2.157 0.44693 2.4874 3.364 2.4874 2.796 0 3.832-0.67539 6.136-4zm-24.263 0.37753c3.005-1.554 3.3487-2.392 1.6696-4.0711-0.69325-0.69325-2.249-0.79993-4.25-0.29143-1.736 0.44117-4.8439 1.0887-6.9064 1.4389-3.6342 0.61709-5.0355 2.9273-3.0063 4.9565 1.0252 1.0252 9.1298-0.29356 12.493-2.0328zm-4.915-6.9715c2.5969-0.88484 4.6781-2.2195 4.6781-3 0-1.6847 0.31974-1.6679-5.9887-0.31501-3.7713 0.8088-5.445 0.79394-6.4709-0.0574-1.7935-1.4885-5.5405 0.6804-5.5405 3.207 0 2.3176 6.7593 2.4015 13.322 0.16545zm28.178-3.4967c3.9186-2.9733 4.1649-3.0215 12.106-2.3659 7.922 0.654 8.1199 0.6158 8.7364-1.6871 1.5643-5.8434 1.5427-5.8562-9.8419-5.8562-7.6937 0-10.52-0.33408-10.574-1.25-0.1075-1.8084-0.93148-6.1072-1.1983-6.2517-0.12507-0.0678-3.2687-2.258-6.9858-4.8673l-6.7584-4.7441-7.4004 6.7025c-6.522 5.9069-7.4515 7.1897-7.8308 10.807-0.23673 2.2572-0.27963 4.2896-0.0953 4.5165 0.18429 0.22684 1.462-0.10101 2.8393-0.72856 1.868-0.85112 2.5042-1.9086 2.5042-4.1624 0-2.768 0.28448-3.0214 3.3916-3.0214 2.8548 0 3.5081-0.43529 4.1279-2.75 0.71707-2.6781 0.79731-2.6139 3.0708 2.4587 1.915 4.2726 2.1486 5.7418 1.3002 8.1755-0.82199 2.358-0.68806 3.4952 0.65262 5.5413 2.3477 3.583 6.8082 3.3904 11.957-0.51624zm-37.973-5.9531c0.35481-0.57409 0.14113-1.651-0.47484-2.3932-0.877-1.0567-0.10777-2.2146 3.5461-5.3378 5.29-4.5218 5.232-6.4273-0.15881-5.2115-2.2448 0.50629-4.8312 2.2318-6.9637 4.6459-3.501 3.9632-3.9055 5.0572-2.8688 7.7587 0.68369 1.7817 5.9008 2.1873 6.9201 0.53798zm-71.807-3.5437c-2.6442-1.434-2.8845-4.0732-0.27983-3.0737 0.68101 0.26133 2.0109-0.83299 2.9554-2.4318 0.94446-1.5988 2.0292-2.8875 2.4107-2.8637 0.3814 0.0238 3.1685 2.2688 6.1935 4.989l5.5 4.9457-7-0.029c-4.2902-0.0178-8.076-0.61255-9.7797-1.5364zm3.3206-14.829c-7.1354-3.6407-8.1159-4.4249-6.2664-5.012 1.667-0.52908 3.755 0.41891 8.709 3.954 3.584 2.5575 6.5164 4.8355 6.5164 5.0622 0 0.58665 0.31229 0.72623-8.959-4.0043zm7.1375-2.9016c-4.016-4.092-4.1447-4.4022-2.4582-5.923 1.5498-1.3976 2.1027-1.4256 4.2797-0.21731 1.8944 1.0514 2.076 1.3962 0.75 1.423-1.878 0.038-2.2469 1.0528-0.93993 2.5854 0.89728 1.0523 3.3047 6.45 2.8767 6.45-0.1487 0-2.1774-1.9432-4.5083-4.3181zm30.17-6.1473c0.3584-0.93397 0.65163-2.5173 0.65163-3.5185 0-1.1428 1.1723-2.229 3.1492-2.9182 4.0354-1.4067 6.1563-1.4011 5.2817 0.014-0.37792 0.6115-0.067 1.4976 0.69099 1.9692 1.0925 0.67964 0.80173 1.4337-1.4028 3.6382-2.174 2.174-2.9646 2.4856-3.6228 1.4276-0.67823-1.0901-1.2851-1.1161-3.1208-0.13366-1.9981 1.0693-2.1985 1.0104-1.6272-0.47854z"
    />
  </g>
  <metadata>
    <rdf:RDF>
      <cc:Work>
        <dc:format>image/svg+xml</dc:format>
        <dc:type rdf:resource="http://purl.org/dc/dcmitype/StillImage" />
        <cc:license
          rdf:resource="http://creativecommons.org/licenses/publicdomain/"
        />
        <dc:publisher>
          <cc:Agent rdf:about="http://openclipart.org/">
            <dc:title>Openclipart</dc:title>
          </cc:Agent>
        </dc:publisher>
        <dc:title>smash fascism</dc:title>
        <dc:date>2010-12-31T16:07:06</dc:date>
        <dc:description>A statemen to smashing fascism</dc:description>
        <dc:source
          >https://openclipart.org/detail/102745/smash-fascism-by-worker</dc:source
        >
        <dc:creator>
          <cc:Agent>
            <dc:title>worker</dc:title>
          </cc:Agent>
        </dc:creator>
        <dc:subject>
          <rdf:Bag>
            <rdf:li>fascism</rdf:li>
            <rdf:li>hakenkreuz</rdf:li>
            <rdf:li>hate</rdf:li>
            <rdf:li>hitler</rdf:li>
            <rdf:li>nazi</rdf:li>
            <rdf:li>smash</rdf:li>
            <rdf:li>swastika</rdf:li>
          </rdf:Bag>
        </dc:subject>
      </cc:Work>
      <cc:License rdf:about="http://creativecommons.org/licenses/publicdomain/">
        <cc:permits rdf:resource="http://creativecommons.org/ns#Reproduction" />
        <cc:permits rdf:resource="http://creativecommons.org/ns#Distribution" />
        <cc:permits
          rdf:resource="http://creativecommons.org/ns#DerivativeWorks"
        />
      </cc:License>
    </rdf:RDF>
  </metadata>
</svg>
