<?xml version="1.0" encoding="UTF-8" standalone="no"?>
<!-- Created with Inkscape (http://www.inkscape.org/) -->
<svg
  xmlns:inkscape="http://www.inkscape.org/namespaces/inkscape"
  xmlns:rdf="http://www.w3.org/1999/02/22-rdf-syntax-ns#"
  xmlns="http://www.w3.org/2000/svg"
  xmlns:xlink="http://www.w3.org/1999/xlink"
  xmlns:ns1="http://sozi.baierouge.fr"
  xmlns:cc="http://creativecommons.org/ns#"
  xmlns:dc="http://purl.org/dc/elements/1.1/"
  xmlns:sodipodi="http://sodipodi.sourceforge.net/DTD/sodipodi-0.dtd"
  id="svg3104"
  sodipodi:docname="New document 5.2014_05_29_10_05_46.0.svg"
  viewBox="0 0 1568.3 1567.9"
  version="1.1"
  inkscape:version="0.48.4 r9939"
>
  <sodipodi:namedview
    id="base"
    bordercolor="#666666"
    inkscape:pageshadow="2"
    inkscape:window-y="26"
    fit-margin-left="0"
    pagecolor="#ffffff"
    inkscape:window-height="748"
    inkscape:window-maximized="1"
    inkscape:zoom="0.16711812"
    inkscape:window-x="0"
    showgrid="false"
    borderopacity="1.0"
    inkscape:current-layer="layer1"
    inkscape:cx="810.34344"
    inkscape:cy="287.36011"
    fit-margin-top="0"
    fit-margin-right="0"
    fit-margin-bottom="0"
    inkscape:window-width="1280"
    inkscape:pageopacity="0.0"
    inkscape:document-units="px"
  />
  <g
    id="layer1"
    inkscape:label="Layer 1"
    inkscape:groupmode="layer"
    transform="translate(558.41 391.59)"
  >
    <path
      id="path3250"
      style="fill: #e80d0e"
      inkscape:connector-curvature="0"
      d="m-78.625-343.72-215.53 215.53-215.53 215.5-0.40625 304.69-0.4375 304.66 215.34 215.38 215.38 215.34 19 0.2812c10.463 0.1587 147.74 0.4009 305.03 0.5313l285.97 0.25 215.5-215.5 215.47-215.47 0.40625-304.66 0.40625-304.66-215.62-215.62-215.62-215.62-304.66-0.3125-304.69-0.3125z"
    />
    <path
      id="path3203"
      style="fill: #ffffff"
      inkscape:connector-curvature="0"
      d="m-64.812-308.59-205.22 205.28-205.25 205.28v290c0 270.77 0.1077 290.16 1.6875 292.47 0.9306 1.3599 2.1175 2.7786 2.625 3.125 0.5074 0.3465 92.128 91.809 203.59 203.25l202.66 202.59h290.5 290.47l205.25-205.28 205.22-205.28v-290.47-290.47l-205.28-205.25-205.25-205.25h-290.5-290.5zm99.031 35.531c41.569 0.0301 103.13 0.21208 193.97 0.5l275.97 0.875 73.562 73.812c40.475 40.588 128.33 128.77 195.22 195.97l121.62 122.19-0.46875 273.81c-0.2554 150.6-0.70145 275.27-0.96875 277.03-0.4052 2.663-19.019 21.648-112.19 114.47-61.444 61.215-149.13 148.62-194.88 194.22-45.744 45.595-83.769 83.256-84.5 83.719-1.3364 0.8472-105.53 0.8429-396.84-0.094l-157.5-0.5313-111.46-111.99c-61.313-61.6-148.81-149.43-194.44-195.19-45.625-45.76-83.306-83.793-83.719-84.531-0.4131-0.7382-0.439-125.67-0.0625-277.59l0.6875-276.22 74-73.781c193.27-192.69 315.63-314.19 317.72-315.53 1.0061-0.6459 10-1.01 49.031-1.0938 9.7578-0.0209 21.394-0.0412 35.25-0.0313z"
    />
    <path
      id="path3199"
      style="fill: #ffffff"
      inkscape:connector-curvature="0"
      d="m361.34 3.125c-11.1 0.1-22.27 0.9145-29.22 2.4062-35.499 7.6292-60.286 25.155-82.406 58.188-20.92 31.24-32.319 68.562-35.844 117.5-4.3154 59.921 3.8548 114.7 22.969 154 22.159 45.561 57.825 73.706 102.56 80.969 14.443 2.3448 43.967 1.399 57.719-1.8438 43.789-10.326 78.609-42.727 98.094-91.281 12.049-30.024 17.404-59.98 18.344-102.84 1.7904-81.638-16.038-139.49-55.188-179-19.23-19.441-40.09-30.541-68.11-36.231-6.74-1.3686-17.8-1.975-28.91-1.875zm-579.46 0.1562c-23.217-0.067-31.59 1.1706-47.812 6.9688-37.606 13.441-61.92 47.529-66.125 92.719-4.2346 45.504 14.072 86.92 48.281 109.22 13.751 8.9632 26.721 14.506 62.156 26.531 36.199 12.285 44.358 15.788 53.125 22.844 19.687 15.844 18.773 50.458-1.9062 71.344-10.776 10.884-24.513 15.812-44.188 15.812-36.333 0-56.57-19.724-66.062-64.344-1.2668-5.9543-2.5542-11.085-2.875-11.406-0.6284-0.6284-57.525 6.6046-59 7.5-1.3969 0.8478 0.033 15.515 2.875 29.469 9.9827 49.013 33.183 82.513 67.406 97.344 9.1434 3.9624 23.595 7.973 33.625 9.3438 11.882 1.6239 46.516 0.54295 57.281-1.7812 42.994-9.2829 68.478-32.563 82.688-75.5 5.1601-15.592 6.8278-27.333 6.7812-47.625-0.08-34.718-7.2346-59.161-23.812-81.25-15.278-20.357-37.737-33.527-80.5-47.281-26.074-8.3864-37.292-12.55-48.5-17.969-12.693-6.1364-19.697-11.889-23.938-19.656-2.4792-4.5407-2.9982-6.7347-3.3438-14.5-0.5288-11.88 1.2802-17.469 7.9062-24.719 5.6194-6.1485 15.192-11.6 24.938-14.188 8.9952-2.3884 29.147-2.4086 38-0.03125 20.261 5.4418 31.403 20.157 37 48.812 0.6158 3.1529 1.4309 5.9204 1.8125 6.1562 1.5767 0.9745 59.728-2.6342 60.938-3.7812 2.6828-2.5437-1.6686-31.528-7.1875-47.969-10.302-30.688-32.581-54.582-60.25-64.594-16.064-5.8126-26.534-7.4028-49.312-7.4688zm840.5 6.4062c-30.741 0.03695-58.545 0.451-59.312 1.2188-1.7593 1.759-1.7276 396.87 0.0313 398.62 0.9107 0.9107 8.7259 1.1357 31.25 0.9375l30.031-0.25 0.5-75 0.5-75 37-0.65625c48.811-0.8492 64.927-2.9306 80.156-10.375 9.5403-4.6636 17.606-10.853 26.5-20.344 13.022-13.895 22.842-33.971 27.688-56.594 2.3983-11.198 2.593-13.898 2.625-38.531 0.031-23.721-0.2066-27.699-2.25-37.781-5.2056-25.685-15.486-46.236-30.75-61.5-16.93-16.914-29.81-21.467-66.98-23.69-12.57-0.7518-46.26-1.0994-77-1.0625zm-683 0.53125-0.28125 33.75-0.25 33.75h44.812c33.521 0 45.102 0.2898 46 1.1875 0.9236 0.9236 1.2188 39.129 1.2188 165.84 0 90.548 0.28965 164.91 0.65625 165.28 0.3667 0.3667 14.034 0.6875 30.375 0.6875 23.71 0 29.95-0.2986 30.844-1.375 0.8137-0.9805 1.1911-46.389 1.375-166.25l0.25-164.88 45.25-0.28125 45.281-0.25-0.28125-33.75-0.25-33.719h-122.5-122.5zm424.65 61.656c1.2511 0.009 2.5096 0.02845 3.7812 0.09375 26.202 1.3457 46.397 14.285 61.312 39.25 7.851 13.14 13.88 32.275 17.469 55.5 2.5554 16.536 2.5095 67.286-0.0625 84.5-5.4212 36.287-16.17 60.36-34.938 78.125-14.421 13.651-28.807 19.418-48.125 19.312-6.4661-0.035-12.668-0.7444-17.219-1.9375-29.259-7.6718-51.071-33.408-61.406-72.5-5.4655-20.673-6.4826-30.861-6.4688-64.5 0.014-32.957 1.091-44.259 6.0312-63.781 12.063-47.668 40.842-74.342 79.625-74.062zm281.88 5.8438c10.852-0.04345 24.314 0.2798 35.469 0.96875 17.52 1.082 25.893 3.272 33.125 8.6562 13.968 10.4 20.695 25.692 20.656 46.875-0.041 22.27-7.8102 39.046-22.438 48.5-7.3322 4.7391-15.006 6.6008-32.938 7.9688-19.127 1.4591-52.194 1.3376-53.719-0.1875-0.904-0.9041-1.1875-14.648-1.1875-55.781s0.2835-54.908 1.1875-55.812c0.7365-0.73655 8.9916-1.144 19.844-1.1875zm-591.69 374c-24.114 0.0002-43.578 10.008-58.375 30.062-14.797 20.055-22.188 48.222-22.188 84.469 0 34.267 7.375 61.274 22.094 81.031 14.719 19.758 33.483 29.625 56.344 29.625 18.476 0 33.732-5.7436 45.75-17.281 12.018-11.538 20.614-29.2 25.781-52.969l-33.724-13.53c-2.8969 15.945-7.6579 27.635-14.312 35.062-6.6548 7.4278-14.606 11.156-23.844 11.156-12.527 0-22.702-5.845-30.531-17.531-7.8293-11.686-11.75-31.312-11.75-58.844 0-25.947 3.9908-44.694 11.938-56.281 7.9465-11.587 18.301-17.406 31.062-17.406 9.2383 0.0001 17.072 3.2763 23.531 9.8125 6.4589 6.5366 10.714 15.46 12.75 26.75l34.406-10.406c-3.9147-17.43-9.796-30.784-17.625-40.094-13.153-15.746-30.252-23.625-51.312-23.625zm389.31 0c-14.014 0.0002-26.399 2.8498-37.125 8.5938-8.064 4.2589-15.478 10.811-22.25 19.625-6.7722 8.8143-12.117 18.752-16.031 29.844-5.2455 15.054-7.875 33.691-7.875 55.875 0 34.663 7.5773 61.867 22.688 81.625 15.11 19.758 35.461 29.625 61.062 29.625 25.288 0 45.483-9.9244 60.594-29.781 15.11-19.857 22.656-47.342 22.656-82.5-0.0001-35.455-7.6162-63.156-22.844-83.062s-35.509-29.844-60.875-29.844zm344.78 0c-13.231 0.0002-24.519 2.5119-33.875 7.5625-9.3559 5.0511-16.529 12.407-21.5 22.062-4.9716 9.6562-7.4375 20.033-7.4375 31.125 0 17.232 5.2744 31.829 15.844 43.812 7.5159 8.5172 20.585 15.72 39.219 21.562 14.484 4.5558 23.772 7.7175 27.844 9.5 5.9499 2.6742 10.112 5.8228 12.5 9.4375 2.3878 3.6149 3.5936 7.9752 3.5938 13.125-0.0001 8.022-2.8552 15.04-8.5312 21.031-5.6762 5.9917-14.117 9.0002-25.312 9-10.569 0.0002-18.963-3.3904-25.188-10.125-6.2241-6.7344-10.339-17.265-12.375-31.625l-33.84 4.16c2.2704 24.363 9.2408 42.899 20.906 55.625s28.391 19.094 50.156 19.094c14.954 0 27.447-2.6391 37.469-7.9375 10.021-5.2985 17.77-13.387 23.25-24.281 5.4802-10.894 8.2186-22.584 8.2188-35.062-0.0001-13.766-2.2952-25.328-6.875-34.688-4.5801-9.3588-10.928-16.759-19.031-22.156-8.1033-5.3973-20.589-10.605-37.5-15.656-16.911-5.0508-27.553-9.9077-31.938-14.562-3.4449-3.6642-5.1876-8.0688-5.1875-13.219-0.0001-5.6449 1.8516-10.164 5.5312-13.531 5.7153-5.2488 13.619-7.8748 23.719-7.875 9.7863 0.0002 17.138 2.4728 22.031 7.375 4.8931 4.9025 8.0748 12.934 9.5625 24.125l34.75-1.9375c-0.55-20.01-6.26-35.99-17.19-47.97-10.92-11.99-27.2-17.97-48.81-17.97zm-1196.6 3.7188v217.78h130.94v-36.719h-96.156v-59.25h86.406v-36.719h-86.406v-48.281h92.875v-36.812h-127.66zm143.03 0 61.562 217.78h37.094l61.656-217.78h-36.875l-42.156 161.16-43.562-161.16h-37.719zm177.22 0v217.78h34.781v-217.78h-34.781zm229.25 0v36.812h51.062v180.97h34.781v-180.97h50.969v-36.812h-136.81zm158.28 0v217.78h34.781v-217.78h-34.781zm255.09 0v217.78h32.281v-142.03l69.406 142.03h34.875v-217.78h-32.281v145.41l-70.469-145.41h-33.812zm-110.75 33.844c14.327 0.0001 25.817 6.1572 34.469 18.438 8.651 12.281 12.969 30.887 12.969 55.844-0.0002 25.254-4.4264 44.217-13.312 56.844-8.8861 12.627-20.268 18.938-34.125 18.938-13.858 0-25.278-6.3676-34.281-19.094-9.0036-12.726-13.5-31.434-13.5-56.094 0-25.056 4.3564-43.79 13.125-56.219s20.329-18.656 34.656-18.656z"
    />
    <g
      id="g3109"
      style="fill: #ffffff"
      transform="matrix(4.4283 0 0 4.4283 240.13 -3574.9)"
    >
      <path
        id="path3176"
        sodipodi:nodetypes="ccccccccccccccc"
        style="fill: #ffffff"
        inkscape:connector-curvature="0"
        d="m-26.531 1002.6-4.5625 17.531c6.0617 4.7211 12.779 6.3468 20.081 3.5633l2.8252-10.844-4.7812 2.75zm-5.8125 22.281-0.5 1.9063 4.625 0.25c-1.3817-0.5612-2.766-1.2775-4.125-2.1563zm20.25 2.7188c-0.37269 0.1018-0.75328 0.193-1.125 0.2812l1.0312 0.063 0.09375-0.3438z"
      />
      <path
        id="path3107"
        sodipodi:nodetypes="cccccccc"
        style="fill: #ffffff"
        inkscape:connector-curvature="0"
        d="m19.375 998.16-25.656 13.84l-2.9814 11.032c2.5956-1.1119 6.1-3.7117 8.8133-5.7947 6.6884 8.9749 16.019 12.149 25.574 5.4815l2.6875-11.125 2.875-0.125z"
      />
      <path
        id="path3178"
        style="fill: #ffffff"
        inkscape:connector-curvature="0"
        d="m-3.2812 984.06-4.5 2.1875-0.5625 6.2812c-0.29542 0.37283-0.54112 0.31472-0.75-0.0625l0.5-5.7812-3.4688 1.1875-0.5625 6.6562c-0.25 0.21354-0.5 0.29713-0.75-0.0625l0.5625-6.625-2.4375-1.75-0.875 7.0625c-0.25 0.18194-0.5 0.34579-0.75-0.0937l0.3125-2.5938-13.625 6.5625 17.469 16.719 30.468-16.64-21.031-13.1zm-7.8125 0.59375-3.4062 1.0625 2.0938 1.5 3.5938-1.25-2.2812-1.3125z"
      />
      <path
        id="path3182"
        d="m-58.669 1025.8c9.5869 0.5963 16.66-2.1065 20.881-8.5536 11.102 11.543 23.323 13.852 37.107 3.2705 8.2492 10.386 21.571 12.181 32.831-0.2516 5.4782 5.6939 11.589 10.065 21.384 6.7926l2.3284 3.3829c-6.9617 3.4781-14.694 4.1902-23.319-4.3089-11.463 9.2775-22.808 11.035-33.601 0.8806-12.724 6.8979-25.373 8.9144-36.762-2.8771-3.9028 4.6781-9.7496 6.4263-17.672 6.4151z"
        sodipodi:nodetypes="ccccccccccc"
        style="fill: #ffffff"
        inkscape:connector-curvature="0"
      />
    </g>
    <path
      id="path3157"
      style="fill: #00ffff"
      inkscape:connector-curvature="0"
      d="m198.94 912.72c0.7743 0.45319 1.2777 0.6875 1.4688 0.6875 0.55661 0 1.4939-0.26681 2.5938-0.6875h-4.0625z"
    />
  </g>
  <metadata>
    <rdf:RDF>
      <cc:Work>
        <dc:format>image/svg+xml</dc:format>
        <dc:type rdf:resource="http://purl.org/dc/dcmitype/StillImage" />
        <cc:license
          rdf:resource="http://creativecommons.org/licenses/publicdomain/"
        />
        <dc:publisher>
          <cc:Agent rdf:about="http://openclipart.org/">
            <dc:title>Openclipart</dc:title>
          </cc:Agent>
        </dc:publisher>
      </cc:Work>
      <cc:License rdf:about="http://creativecommons.org/licenses/publicdomain/">
        <cc:permits rdf:resource="http://creativecommons.org/ns#Reproduction" />
        <cc:permits rdf:resource="http://creativecommons.org/ns#Distribution" />
        <cc:permits
          rdf:resource="http://creativecommons.org/ns#DerivativeWorks"
        />
      </cc:License>
    </rdf:RDF>
  </metadata>
</svg>
