<?xml version="1.0" encoding="UTF-8" standalone="no"?>
<!-- Created with Inkscape (http://www.inkscape.org/) -->
<svg
  xmlns:inkscape="http://www.inkscape.org/namespaces/inkscape"
  xmlns:rdf="http://www.w3.org/1999/02/22-rdf-syntax-ns#"
  xmlns="http://www.w3.org/2000/svg"
  xmlns:cc="http://creativecommons.org/ns#"
  xmlns:dc="http://purl.org/dc/elements/1.1/"
  xmlns:sodipodi="http://sodipodi.sourceforge.net/DTD/sodipodi-0.dtd"
  xmlns:svg="http://www.w3.org/2000/svg"
  xmlns:ns1="http://sozi.baierouge.fr"
  xmlns:xlink="http://www.w3.org/1999/xlink"
  id="svg2"
  sodipodi:docname="child labor just do it.svg"
  viewBox="0 0 558.73 402.19"
  version="1.1"
  inkscape:version="0.47 r22583"
>
  <sodipodi:namedview
    id="base"
    bordercolor="#666666"
    inkscape:pageshadow="2"
    inkscape:window-y="40"
    pagecolor="#ffffff"
    inkscape:window-height="652"
    inkscape:window-maximized="1"
    inkscape:zoom="0.80808081"
    inkscape:window-x="-4"
    showgrid="false"
    borderopacity="1.0"
    inkscape:current-layer="layer1"
    inkscape:cx="41.307479"
    inkscape:cy="203.80331"
    inkscape:window-width="1024"
    inkscape:pageopacity="0.0"
    inkscape:document-units="px"
  />
  <g
    id="layer1"
    inkscape:label="Ebene 1"
    inkscape:groupmode="layer"
    transform="translate(-360.31 -728.2)"
  >
    <path
      id="path2868"
      style="fill: #000000"
      d="m824.59 1124.5c-3.4369-0.4451-6.5432-1.1576-6.9029-1.5833-0.35973-0.4256-0.18129-4.0658 0.39654-8.0892 0.79391-5.5281 1.408-7.2748 2.5137-7.1494 0.80469 0.092 4.4258 0.4555 8.0469 0.8092 7.4513 0.7278 7.1057 0.086 5.9572 11.074-0.48874 4.676-0.9717 5.9681-2.1946 5.8717-0.86239-0.068-4.38-0.4879-7.8168-0.933zm-41.226-4.6804c-11.627-1.4046-21.383-2.7998-21.68-3.1005-0.56534-0.5721 5.9583-57.529 6.6708-58.242 0.63984-0.6398 16.722 0.8735 18.058 1.6994 0.92711 0.5729 0.63935 5.3885-1.2883 21.559-1.3651 11.452-2.3209 20.982-2.124 21.179 0.19696 0.1969 6.5716 1.07 14.166 1.9401l13.808 1.582-0.67147 7.3651c-0.36932 4.0509-0.86342 7.6945-1.098 8.0968-0.55646 0.9544-1.0645 0.9136-25.84-2.0794zm-49.439-5.7116-4.2524-0.3786 0.65441-6.5225c0.9297-9.2665 1.2237-9.9364 4.3604-9.9364h2.7185l1.1692-10.485c0.64308-5.767 1.3913-11.652 1.6627-13.078 0.43158-2.2672 0.10954-2.6765-2.5689-3.2647-3.0573-0.6716-3.0613-0.6809-2.4445-5.6987 0.3398-2.7643 0.85909-6.2793 1.154-7.8113l0.53618-2.7852 6.4837 0.6932c10.623 1.1358 14.777 4.3352 15.5 11.939 0.67006 7.0466-3.3734 38.117-5.423 41.67-0.94015 1.6301-3.2307 3.7311-5.09 4.6691-3.2688 1.649-5.4062 1.7952-14.461 0.989zm-18.669-2.2724c-11.111-1.3911-15.606-5.5724-15.606-14.515 0-6.045 2.7989-30.166 4.0574-34.966 2.377-9.0668 7.4175-11.644 19.437-9.9396 3.9122 0.5548 7.272 1.1678 7.4662 1.362 0.19424 0.1943 0.0503 3.6954-0.31987 7.7803l-0.67302 7.4272h-4.2547c-3.3858 0-4.2633 0.3486-4.2969 1.7069-0.0232 0.9388-0.64311 6.7524-1.3776 12.919-1.4537 12.206-1.3268 12.643 3.6846 12.67l2.7525 0.015-0.61865 5.6084c-0.96386 8.738-1.5369 10.983-2.7692 10.849-0.62794-0.068-3.9947-0.4808-7.4817-0.9174zm-34.56-3.9743c-3.7188-0.477-6.9006-1.0062-7.0707-1.1763-0.17003-0.1701 0.20213-4.9918 0.82705-10.715 0.62491-5.7232 0.93745-10.605 0.69452-10.848-0.24294-0.2429-3.2784-0.7987-6.7456-1.235l-6.3038-0.7935 0.26063-3.3971c0.14335-1.8684 0.50026-4.8654 0.79314-6.6599l0.53252-3.2627 6.7661 0.6794c4.2158 0.4234 6.7661 0.3205 6.7661-0.273 0-0.5238 0.26214-2.2631 0.58254-3.8652l0.58254-2.9127-6.9931-0.689-6.9931-0.6891 0.63666-6.5178c1.0254-10.498-0.0769-9.7414 12.161-8.346 12 1.3684 17.272 3.366 18.736 7.0985 1.3403 3.4174 0.23539 17.36-1.5975 20.157-0.8012 1.2228-2.3875 2.5186-3.5251 2.8797-2.0322 0.6451-2.0212 0.7057 0.62264 3.4654l2.691 2.8088-1.258 12.702c-1.4309 14.448-0.0592 13.141-12.165 11.589zm-39.082-4.48c-2.1458-0.2139-4.29-0.7699-4.7648-1.2357-0.49984-0.4904 0.50886-13.028 2.3961-29.783l3.2594-28.936 8.3331 0.6743c4.5832 0.3709 8.6798 1.0034 9.1036 1.4055 0.61613 0.5847-2.858 33.855-5.6854 54.446l-0.56921 4.1453-4.0856-0.1639c-2.2471-0.09-5.8413-0.3391-7.9872-0.553zm182.44-0.5023c-0.8961-2.8692-1.5695-25.698-0.94498-32.036l0.68151-6.9163 4.0104 0.5417c2.2058 0.2978 6.0368 0.8185 8.5134 1.1571l4.503 0.6154-0.42537 4.5419c-0.23395 2.498-2.2217 11.016-4.4172 18.929l-3.9918 14.387h-3.7741c-2.1659 0-3.9364-0.5195-4.1549-1.2192zm-220.97-4.1454-9.2662-0.9754 0.184-2.9261c0.1012-1.6094 1.1318-11.186 2.2902-21.282s1.8646-18.597 1.5694-18.892c-0.29523-0.2952-4.3332-0.9971-8.9733-1.5597l-8.4365-1.023 0.6738-7.3956c0.3706-4.0675 0.96392-7.6745 1.3185-8.0156 0.70224-0.6755 53.53 5.3868 54.384 6.2409 0.60386 0.6039-1.1628 14.306-1.9454 15.089-0.28714 0.287-4.1549 0.059-8.595-0.5086-4.4401-0.5669-8.1337-0.9547-8.2079-0.8619-0.0742 0.093-1.1028 8.7279-2.2859 19.189-1.183 10.461-2.4419 20.117-2.7974 21.458l-0.64651 2.4385-9.2662-0.9754zm-46.097-5.274-4.643-0.5783-8.7685-18.376c-4.8227-10.107-8.7686-18.849-8.7686-19.426 0-0.5776-0.20167-0.8486-0.44815-0.6021s-1.3755 8.3251-2.5089 17.952c-1.1334 9.6274-2.1388 17.553-2.2342 17.613s-4.014-0.3181-8.708-0.8393c-6.8759-0.7636-8.5268-1.2564-8.4947-2.536 0.10807-4.2977 6.5816-56.816 7.0625-57.298 0.30519-0.3052 5.471 0.01 11.48 0.6926l10.925 1.2474 2.7214 5.9138c1.4968 3.2527 4.6622 10.155 7.0342 15.339l4.3128 9.4249 1.1899-10.888c0.65447-5.9883 1.4407-12.355 1.7472-14.148l0.55724-3.2604 7.9214 0.6762c4.3568 0.372 8.2526 0.9853 8.6573 1.3628 0.61768 0.5762-3.797 43.279-5.6817 54.958-0.57751 3.5787-0.67792 3.6544-4.6499 3.5045-2.2328-0.084-6.149-0.4136-8.7026-0.7316zm-73.19-8.5583c-2.899-0.3397-3.6049-0.7916-3.2484-2.0793 0.2505-0.905 0.74958-4.6496 1.1091-8.3213l0.6536-6.676 3.2032 0.6009 3.2033 0.6009 1.1377-9.531c0.62573-5.2422 1.3799-11.334 1.676-13.537 0.52131-3.8795 0.43974-4.0252-2.5924-4.6317l-3.1306-0.6261 0.70018-7.5607c0.3851-4.1584 0.84812-7.716 1.0289-7.9059 0.96622-1.0146 15.713 1.8974 17.926 3.5398 5.5902 4.1487 5.9813 8.1824 3.0702 31.662-2.6302 21.214-4.5814 24.432-14.992 24.728-3.3225 0.095-7.7077-0.024-9.7448-0.2628zm-18.461-2.3423c-7.3865-1.0825-10.883-3.018-12.818-7.0952-2.0329-4.284-2.0009-6.3986 0.39898-26.407 2.7013-22.522 4.728-25.916 15.473-25.916 2.5822 0 6.7524 0.282 9.2672 0.6267 4.2844 0.5872 4.5425 0.7868 4.0984 3.17-0.26064 1.3988-0.73979 4.9671-1.0648 7.9296l-0.5909 5.3863-3.7162-0.3543-3.7162-0.3545-1.3443 12.525c-0.73938 6.8888-1.3524 12.964-1.3622 13.5-0.01 0.5365 1.4087 1.113 3.1522 1.281 3.5463 0.342 3.7714 1.3744 2.538 11.643-0.68875 5.7341-0.21038 5.5455-10.315 4.0646zm-45.712-5.2762c-23.735-2.9241-27.173-4.7122-27.989-14.558-0.44763-5.3978 2.1163-30.445 3.7683-36.812 0.53823-2.0747 2.3635-4.8309 4.36-6.5839 4.2384-3.7214 7.4461-3.8311 30.677-1.0498 8.8516 1.0597 16.914 1.9288 17.915 1.9315 1.6808 0 1.7683 0.5886 1.1324 7.5639-0.37904 4.1576-0.97926 7.8324-1.3338 8.1664-0.35457 0.334-8.2236-0.2803-17.487-1.3652-9.2632-1.0847-17.014-1.7969-17.224-1.5825-0.61722 0.6299-3.4936 25.436-3.0354 26.178 0.22987 0.372 8.1487 1.5025 17.597 2.5122l17.179 1.836-0.62301 6.3903c-0.89383 9.1682-1.1749 9.8191-4.1896 9.7056-1.4391-0.055-10.776-1.1037-20.748-2.3322zm449.74-55.089c-17.435-2.5723-62.644-9.1348-100.46-14.583-37.821-5.4484-69.564-10.148-70.54-10.443-1.2169-0.36791-1.9328 0.0653-2.2758 1.3767-0.38713 1.4804-1.641 2.0474-5.54 2.505-6.9372 0.8143-10.556 0.1354-27.961-5.2445-8.3152-2.5702-17.924-5.3997-21.353-6.2878-3.7491-0.97099-6.939-2.4646-8.0022-3.7468-4.8332-5.8286-4.4702-22.642 0.64832-30.028 1.4501-2.0925 3.2436-3.8046 3.9856-3.8046 2.8404 0-2.3444-12.569-5.2918-12.829-0.92792-0.0817-2.2048-0.19704-2.8375-0.25629-3.4385-0.32197-1.3705-1.7478 7.6705-5.2886 5.5338-2.1673 12.193-4.8864 14.798-6.0427 3.7029-1.6434 4.9802-1.8427 5.8523-0.91339 0.84344 0.89875 0.77219 1.3132-0.29203 1.6986-5.268 1.9081-7.1395 7.9408-4.9305 15.893l0.9664 3.4788 22.681 1.1688c12.475 0.64283 23.669 1.4329 24.876 1.7557 1.627 0.43514 2.1946 1.3079 2.1946 3.3743 0 2.1105 0.71052 3.1548 2.9262 4.3005 1.6094 0.83224 2.9262 1.7647 2.9262 2.0722 0 0.30745-1.2786 1.7534-2.8413 3.2131-5.4058 5.0498-6.1208 16.879-1.18 19.523 3.6909 1.9753 110 18.987 156.08 24.977 26.5 3.4445 48.406 6.4866 48.68 6.7602 0.2737 0.2737-0.5784 3.0252-1.8934 6.1144-1.9327 4.5403-2.8502 5.6472-4.7872 5.7749-1.318 0.087-16.661-1.9467-34.096-4.5191zm-310.9-2.2021c-5.5313-0.733-7.078-1.2887-7.1014-2.5515-0.0164-0.888 1.4101-14.264 3.17-29.724l3.1998-28.109 5.8523 0.60618c11.283 1.1687 11.282 1.1684 10.699 5.214-0.89448 6.2-6.3095 52.827-6.3095 54.33 0 0.7885-0.54866 1.3748-1.2192 1.3029-0.67058-0.072-4.4014-0.5524-8.2908-1.0678zm-32.853-3.8973c-3.7188-0.4326-6.8505-0.8895-6.9593-1.0153-0.10877-0.1259 0.30037-3.7402 0.90919-8.0318l1.107-7.8032 3.4718 0.30256 3.4718 0.30257 1.1613-11.141c1.7146-16.449 1.7333-16.288-1.8908-16.288h-3.0521l0.69958-8.0469c0.38478-4.4258 0.81228-8.1617 0.95001-8.302 0.13772-0.14029 3.7202 0.21075 7.961 0.7801 8.8002 1.1815 11.802 2.8947 14.462 8.2542 1.8571 3.7423 1.8544 3.9438-0.29955 22.292-1.1955 10.183-2.7463 19.868-3.4464 21.521-2.7758 6.5546-7.6553 8.4427-18.545 7.1757zm-23.846-2.7848c-8.3793-1.6461-12.118-5.9409-12.069-13.863 0.0174-2.7937 0.77222-11.663 1.6775-19.71 2.6543-23.593 5.499-27.049 20.797-25.263 8.5021 0.99252 7.9584 0.0526 6.5908 11.394l-0.67993 5.6388-3.3399-0.62657c-1.8369-0.3446-3.3437-0.46798-3.3484-0.27416-0.005 0.19382-0.65923 5.8389-1.4546 12.545-1.8313 15.44-1.8821 14.631 0.91782 14.631 3.3863 0 3.7713 1.1964 3.0076 9.3462l-0.678 7.2353-3.5745-0.1069c-1.966-0.058-5.4968-0.4845-7.8464-0.9461zm-45.655-5.2876c-4.9287-0.5585-9.173-1.227-9.4317-1.4857-0.25874-0.2587 0.62041-9.8406 1.9537-21.293s2.1968-21.05 1.919-21.328c-0.27784-0.27785-4.3016-0.96553-8.9417-1.5282l-8.4365-1.023 0.6738-7.3955c0.3706-4.0675 0.96392-7.6746 1.3185-8.0156 0.45037-0.43321 45.233 4.4291 54.626 5.9311 0.36121 0.0577-0.58541 8.5243-1.4625 13.08l-0.53618 2.7852-6.4837-0.66454c-3.5661-0.36551-7.4055-0.88179-8.532-1.1473-1.9744-0.46536-2.1276 0.21426-4.2481 18.85-1.2099 10.633-2.4828 20.439-2.8286 21.791l-0.62881 2.458-8.9613-1.0151zm127.71-4.6222c-9.0205-1.0505-8.6956-0.6134-7.4128-9.9727l0.6341-4.6262 7.0475 0.66043 7.0474 0.66034 0.68239-4.5504c0.37531-2.5028 0.43059-4.8022 0.12283-5.11-0.30775-0.30776-3.2713-0.93042-6.5857-1.3837-3.3144-0.45327-6.2085-1.0064-6.4313-1.2293-0.22283-0.22282-0.0936-3.7297 0.28716-7.7931l0.69231-7.3879 3.0554 0.0309c1.6805 0.017 7.6632 0.64723 13.295 1.4005 9.4006 1.2574 10.46 1.6158 12.924 4.3737 2.995 3.352 3.1269 4.6367 1.7091 16.654-1.5453 13.099-1.8516 14.24-4.5462 16.934-2.2325 2.2325-3.2857 2.5309-8.5109 2.4118-3.2797-0.075-9.5843-0.5576-14.01-1.073zm-196.3-3.2315c-9.9245-1.2226-18.645-2.2598-19.378-2.305-1.0696-0.0663-1.1973-1.5795-0.64468-7.6414 0.37902-4.1576 0.97925-7.8284 1.3338-8.1573 0.54853-0.5088 23.173 1.7681 34.429 3.4649 3.354 0.5056 3.5716 0.37292 3.9828-2.4282 0.23918-1.6297 0.17718-3.1223-0.13779-3.317-0.31497-0.19465-6.486-1.0766-13.713-1.9598-16.292-1.9909-21.103-3.8762-21.993-8.6181-0.69003-3.6782 0.96827-19.671 2.4415-23.546 1.2657-3.329 5.8186-5.4276 11.775-5.4276 4.151 0 40.03 3.77 40.609 4.2671 0.21803 0.18703-1.6738 15.618-1.9389 15.815-0.10429 0.0774-7.5929-0.731-16.641-1.7966-17.636-2.0769-18.124-2.0026-18.159 2.761-0.0138 1.8786 0.86908 2.1161 12.085 3.252 15.31 1.5503 18.763 2.344 21.537 4.9498 3.1479 2.9573 3.4822 5.9584 1.9607 17.601-1.2267 9.387-1.5752 10.423-4.338 12.891-3.7449 3.346-7.4486 3.3677-33.21 0.19454zm479.4-5.8798c-21.995-3.4246-66.326-10.218-98.514-15.097-32.188-4.8789-59.138-9.068-59.888-9.3091-1.0411-0.3342-0.82028-1.0185 0.92978-2.8813 1.9346-2.0593 2.9151-2.3618 6.2423-1.9257 2.1709 0.28452 17.334 2.4724 33.696 4.862 44.917 6.5599 80.76 11.782 107.29 15.633 13.143 1.9074 30.799 4.4737 39.236 5.7028 8.4364 1.2291 15.628 2.5238 15.981 2.8771 1.1271 1.1271-1.7298 6.5619-3.3963 6.4611-0.87375-0.053-19.584-2.8981-41.579-6.3226zm38.04-12.738c-1.6094-0.18276-8.4127-0.81051-15.118-1.395-12.08-1.0529-30.17-3.1853-41.454-4.8865-3.2188-0.48525-9.5832-1.3-14.143-1.8105-15.53-1.7388-29.282-5.28-40.478-10.423-7.1761-3.2966-14.54-9.6341-17.587-15.135-2.6201-4.7305-2.8924-6.0632-2.8614-14.006 0.0339-8.6743 0.0947-8.8932 5.1306-18.444 5.0124-9.5061 8.1992-13.987 15.199-21.372 1.943-2.0499 3.5328-4.1348 3.5328-4.6331 0-0.49826 0.54865-0.92003 1.2192-0.93724 0.67057-0.0173 3.1944-2.2182 5.6085-4.891s7.6812-8.285 11.705-12.472c9.452-9.8351 25.273-26.409 42.429-44.448 7.5105-7.8971 15.411-15.967 17.557-17.933 8.0034-7.3329 16.094-15.748 16.094-16.739 0-1.2902-4.9185-1.3313-8.2393-0.0687-1.3827 0.52569-2.9848 1.9891-3.5602 3.252-1.0907 2.3938-1.8897 2.8427-25.753 14.468-12.422 6.0519-15.448 7.1478-20.047 7.2603l-5.4161 0.1325-1.6712-8.1189c-0.91916-4.4654-1.9009-8.7175-2.1816-9.4491-0.35135-0.91561 1.1737-1.9027 4.8927-3.1668 6.513-2.2138 7.0678-3.7525 1.0264-2.8466-4.823 0.72325-9.2786-0.0265-9.2786-1.5614 0-0.54308 0.76812-1.2645 1.7069-1.6032 0.93881-0.3387 2.8151-1.3817 4.1695-2.3178s4.8658-2.1828 7.8031-2.7705 12.228-2.5304 20.647-4.3171c13.899-2.9498 15.603-3.1239 18.531-1.8929 2.4925 1.048 4.1528 1.1219 7.3154 0.32552 6.3081-1.5884 16.539-1.3003 19.356 0.54508 2.0432 1.3388 2.4041 2.3339 2.4041 6.629 0 7.8118-6.1198 16.235-25.934 35.696-51.33 50.416-63.026 62.411-76.087 78.034-11.079 13.252-17.951 26.65-17.951 34.998 0 3.8355 4.2838 11.489 6.8942 12.318 1.0363 0.32892 1.8842 1.0074 1.8842 1.5077 0 0.50031 0.66435 0.90966 1.4763 0.90966 0.81197 0 2.2385 0.4286 3.17 0.95244 6.3575 3.5752 27.318 7.9243 49.488 10.268 18.965 2.0052 44.582 5.9083 55.231 8.4153l8.4129 1.9805 0.60455 4.4111c0.64541 4.7085 0.22599 6.2483-1.6379 6.0138-0.63898-0.0804-2.4784-0.29567-4.0878-0.47842zm-331.12-32.89c-2.4141-0.69238-12.691-5.3347-22.838-10.316l-18.448-9.0575 3.5628-1.8278c7.0538-3.6188 9.4758-9.9876 10.14-26.665 0.46876-11.767 1.028-14.078 3.4197-14.128 2.3892-0.0503 7.5121 15.101 7.5799 22.419 0.0248 2.6754 0.25456 3.0974 1.0622 1.9508 0.73869-1.0487 0.90739 1.8209 0.59562 10.131l-0.43498 11.594 3.2842 3.6352c2.3561 2.6079 5.3556 4.3907 10.614 6.3084 8.7692 3.1983 10.714 2.8366 9.9534-1.851l-0.53731-3.3111 26.992-10.953c46.573-18.9 102.01-40.93 104.05-41.345 3.1104-0.6347 3.0968-0.70232-0.30277-1.5071-3.5104-0.83104 2.883-3.126-86.994 31.228-22.8 8.7147-42.161 16.04-43.026 16.278-0.86484 0.23849-1.8209-0.21402-2.1247-1.0056-0.41913-1.0922 2.5467-2.6637 12.302-6.5183 26.065-10.299 44.279-17.417 52.357-20.461 4.5599-1.7181 10.151-3.9628 12.426-4.9883 2.2741-1.0254 4.4024-1.8644 4.7295-1.8644 0.32713 0 1.9779-0.59877 3.6683-1.3306 1.6904-0.73184 4.8292-2.0128 6.9751-2.8465 14.322-5.5648 15.118-5.9724 15.118-7.7376 0-0.99104-0.59164-2.0289-1.3148-2.3064-0.72312-0.27749-25.177 8.494-54.343 19.492-29.165 10.998-53.144 19.88-53.286 19.738-0.37032-0.37032-9.0778-57.817-9.0778-59.89 0-1.2023 1.5538-2.2749 5.1208-3.5347 2.8164-0.99475 18.069-6.6293 33.895-12.521 15.826-5.8919 39.527-14.667 52.671-19.5 13.143-4.8333 29.51-10.856 36.371-13.385 6.861-2.5284 13.199-5.3218 14.085-6.2076 3.6086-3.6086 0.39827-2.9151-19.244 4.1572-6.1693 2.2212-14.07 4.9529-17.557 6.0704-24.231 7.7648-91.998 30.647-96.075 32.441-4.0963 1.802-10.307 3.7294-10.704 3.3217-0.18257-0.18757-0.48235-1.8402-0.66619-3.6724l-0.33426-3.3314 34.626-12.129c86.093-30.156 77.555-26.94 74.269-27.983-1.878-0.59605-8.3653 0.91603-14.282 3.329-1.0729 0.43753-6.7789 2.3494-12.68 4.2487-59.248 19.069-78.376 25.284-80.351 26.109-1.2764 0.53272-2.5931 0.6954-2.9262 0.36153-0.72439-0.72628-0.37595-19.55 0.4076-22.019 0.38118-1.201 1.9447-1.9072 5.1322-2.318 5.3711-0.69229-3.7263 2.0292 125.04-37.407 56.06-17.169 104.23-31.509 107.05-31.867 3.6958-0.46957 5.1208-0.3247 5.1208 0.52063 0 0.67617 0.66408 0.91644 1.571 0.56839 1.3177-0.50564 1.4958-0.0112 1.104 3.0657-0.28494 2.2383 1.214 11.844 3.8446 24.639 7.8282 38.075 12.988 65.606 12.988 69.298 0 2.0626-0.73951 4.4959-1.7069 5.6164-3.1336 3.6294 0.10651 2.2149-141.6 61.819-11.495 4.8349-21.978 8.9862-23.295 9.2249-1.3168 0.23877-16.052 5.8681-32.746 12.51-48.036 19.111-45.692 18.444-55.224 15.711zm-82.908-9.1634c-3.7916-1.7181-6.9522-4.6609-12.196-11.356-6.0795-7.7618-10.908-15.785-10.029-16.665 1.5841-1.5841 6.1263 1.3139 10.214 6.5162 7.4037 9.4238 12.998 11.71 18.35 7.4999 2.6604-2.0927 2.6915-2.2418 2.093-10.029-0.6294-8.1882-2.9192-17.576-4.5297-18.571-0.50818-0.31407-3.679 0.51105-7.0462 1.8336-11.098 4.359-21.285 7.7126-21.816 7.1818-0.28722-0.28723-1.7784-4.0367-3.3136-8.3322-8.0876-22.628-9.4695-46.748-3.113-54.333 0.90623-1.0814 5.615-3.2158 10.544-4.7795 9.9051-3.1424 14.622-3.0482 18.869 0.37667 5.1217 4.1302 6.7375 4.2932 15.024 1.5152l7.6855-2.5766 2.3959 2.246c1.3178 1.2353 4.3397 5.1675 6.7155 8.7383 13.974 21.004 23.336 58.346 17.718 70.676-1.0351 2.2718-7.1869 5.1698-14.173 6.6768-1.752 0.37792-3.9466 1.7898-4.8769 3.1376-3.5901 5.2012-4.9984 5.9704-15.547 8.4928-5.8662 1.4026-10.854 2.5194-11.085 2.4817-0.23054-0.0376-1.0776-0.36689-1.8822-0.73154zm51.769-98.615c-3.7251-3.7251-4.6935-12.701-1.7706-16.412 1.4043-1.7829 4.0756-1.49 6.0215 0.66023 5.7478 6.3513 1.6252 21.627-4.2509 15.751zm-52.253-10.072c-0.3146-1.7435-1.377-7.9547-2.3608-13.803l-1.7888-10.633 3.1313-3.4168c4.8205-5.2601 9.5205-5.2406 31.739 0.13158 9.9245 2.3997 22.434 5.3706 27.798 6.602 5.3646 1.2314 9.934 2.3693 10.154 2.5286 0.813 0.58796-3.1927 4.2031-4.6572 4.2031-0.83375 0-13.775-3.0957-28.759-6.8793l-27.243-6.8793-2.7357 2.621c-3.9605 3.7944-4.641 10.605-1.9594 19.609 2.5743 8.644 2.5572 9.0853-0.35212 9.0853-1.9336 0-2.5043-0.60988-2.9663-3.17zm17.553-35.33-3.9015-1.2858 3.3547-0.10228c3.4898-0.10638 20.825-5.0429 135.64-38.625 37.821-11.062 71.618-20.727 75.105-21.476 5.6613-1.2168 10.412-1.1056 44.38 1.0388 20.922 1.3208 38.918 2.5294 39.991 2.6856 2.9274 0.42634-4.7975 3.6042-8.7613 3.6042-1.7371 0-18.301-1.3186-36.808-2.9302l-33.65-2.9302-11.11 3.3379c-6.1106 1.8358-34.373 10.206-62.806 18.601-94.891 28.016-101.36 29.929-117.42 34.736-17.238 5.1579-18.133 5.2828-24.007 3.3469z"
    />
  </g>
  <metadata>
    <rdf:RDF>
      <cc:Work>
        <dc:format>image/svg+xml</dc:format>
        <dc:type rdf:resource="http://purl.org/dc/dcmitype/StillImage" />
        <cc:license
          rdf:resource="http://creativecommons.org/licenses/publicdomain/"
        />
        <dc:publisher>
          <cc:Agent rdf:about="http://openclipart.org/">
            <dc:title>Openclipart</dc:title>
          </cc:Agent>
        </dc:publisher>
        <dc:title>stop control</dc:title>
        <dc:date>2011-08-05T15:27:39</dc:date>
        <dc:description />
        <dc:source
          >https://openclipart.org/detail/153781/stop-control-by-worker</dc:source
        >
        <dc:creator>
          <cc:Agent>
            <dc:title>worker</dc:title>
          </cc:Agent>
        </dc:creator>
        <dc:subject>
          <rdf:Bag>
            <rdf:li>camera</rdf:li>
            <rdf:li>control</rdf:li>
            <rdf:li>monitoring</rdf:li>
            <rdf:li>stop</rdf:li>
          </rdf:Bag>
        </dc:subject>
      </cc:Work>
      <cc:License rdf:about="http://creativecommons.org/licenses/publicdomain/">
        <cc:permits rdf:resource="http://creativecommons.org/ns#Reproduction" />
        <cc:permits rdf:resource="http://creativecommons.org/ns#Distribution" />
        <cc:permits
          rdf:resource="http://creativecommons.org/ns#DerivativeWorks"
        />
      </cc:License>
    </rdf:RDF>
  </metadata>
</svg>
