<svg
  height="100px"
  width="100px"
  fill="#000000"
  xmlns="http://www.w3.org/2000/svg"
  viewBox="0 0 100 100"
  x="0px"
  y="0px"
>
  <g data-name="tamir rice">
    <path
      data-name="tamir rice"
      d="M56.61955,60.78369l-.4414,1.4336a4.0226,4.0226,0,0,0-1.96192-.13428,2.97941,2.97941,0,0,0-.61425.19385c-.18653.07373-.41358.16308-.75293.27685a8.69967,8.69967,0,0,1-2.8335.6333h-.03027a8.68492,8.68492,0,0,1-2.8291-.63183c-.34375-.11524-.5708-.20459-.75733-.27832a2.97949,2.97949,0,0,0-.61426-.19385,4.01648,4.01648,0,0,0-1.96191.13428l-.44141-1.4336a5.51793,5.51793,0,0,1,2.69043-.17334,4.39977,4.39977,0,0,1,.87793.27149c.168.06591.37256.147.67774.249a6.82928,6.82928,0,0,0,2.38623.5556,7.27257,7.27257,0,0,0,2.35547-.55414c.30957-.10351.51416-.18457.68213-.25048a4.39977,4.39977,0,0,1,.87793-.27149A5.51685,5.51685,0,0,1,56.61955,60.78369ZM33.93376,38.61963a10.584,10.584,0,0,1,2.45069-.32764,16.27759,16.27759,0,0,1,6.36523,1.167l.72852-1.8623A18.10282,18.10282,0,0,0,36.32683,36.293a12.579,12.579,0,0,0-2.92725.39892,11.24818,11.24818,0,0,0-4.60595,2.57618l1.34765,1.47754A9.26822,9.26822,0,0,1,33.93376,38.61963Zm37.27344.64844a11.24689,11.24689,0,0,0-4.60644-2.57618A12.59337,12.59337,0,0,0,63.674,36.293a18.08924,18.08924,0,0,0-7.15137,1.30371l.72852,1.8623a16.2712,16.2712,0,0,1,6.36523-1.167,10.59889,10.59889,0,0,1,2.45068.32764,9.2682,9.2682,0,0,1,3.79249,2.126ZM51.41985,73.919a13.86679,13.86679,0,0,1,3.72754-.59717c.42871-.02539.77734-.02735,1.00341-.02686l.00977-1.5c-.24658.001-.63086.002-1.103.02979a15.19413,15.19413,0,0,0-4.19775.70019,2.81919,2.81919,0,0,1-.83936.18946,3.07717,3.07717,0,0,1-.959-.21631,15.09583,15.09583,0,0,0-4.11914-.67334c-.47168-.02783-.85449-.02881-1.102-.02979l.00976,1.5c.22461-.00049.57373.00147,1.0044.02686a13.92947,13.92947,0,0,1,3.80078.62256,4.30845,4.30845,0,0,0,1.377.269A4.45377,4.45377,0,0,0,51.41985,73.919Zm26.56592-9.52149a3.27744,3.27744,0,0,1-1.15332,2.0874,3.17945,3.17945,0,0,1-1.9126.5586,4.50956,4.50956,0,0,1-.64813-.047,39.65667,39.65667,0,0,1-.908,5.05286c-1.7793,6.78808-9.81739,13.98242-11.00586,15.01709A13.78973,13.78973,0,0,1,56.48918,91.646a18.29313,18.29313,0,0,1-6.521,1.03613,18.262,18.262,0,0,1-6.54-1.03662A13.81,13.81,0,0,1,37.56,87.06641c-1.18847-1.03467-9.22656-8.229-11.00585-15.01758a39.37106,39.37106,0,0,1-.906-5.04712,4.401,4.401,0,0,1-.58478.04028,3.15,3.15,0,0,1-1.89551-.55713A3.27837,3.27837,0,0,1,22.01506,64.397c-1.675-8.80957-2.47851-13.06476-.2019-14.8631-.32233-7.12481-1.03681-18.31909,2.06531-24.6264a31.0307,31.0307,0,0,1,13.10437-13.539,26.894,26.894,0,0,1,12.306-3.6695c.2503-.00952.58209-.01824.98449-.0166l.20032.01038.12006.00622a26.894,26.894,0,0,1,12.306,3.6695,31.03116,31.03116,0,0,1,13.10443,13.539c3.11133,6.32611,2.47021,17.48071,2.14972,24.60193C80.47045,51.29352,79.66869,55.546,77.98577,64.39746Zm-.94141-13.84228a2.524,2.524,0,0,0-1.52686-.271L75.38372,48.79H75.384c-.17993-4.6615-.77368-9.09229-1.91126-11.06079-1.17694-2.03668-2.26287-2.93683-3.2666-5.60266-1.246-3.30957-.40558-4.13532-1.4-6.08979-1.47565-2.90045-4.72559-3.83172-9.38037-5.16558a40.03841,40.03841,0,0,0-8.88263-1.484l-.06067-.04627a40.19312,40.19312,0,0,0-10.0257,1.53022c-4.65478,1.33386-7.90472,2.26513-9.38037,5.16558-.99438,1.95447-.15387,2.78022-1.4,6.08979-1.00372,2.66583-2.08966,3.566-3.2666,5.60266C25.2744,39.694,24.796,44.13806,24.61528,48.79l.00183.00006-.13379,1.49414a2.529,2.529,0,0,0-1.52685.27148c-1.83936,1.08985-.99707,5.51954.53223,13.56153a1.86152,1.86152,0,0,0,.58007,1.16845,2.08514,2.08514,0,0,0,1.43482.223c-.04944-.61176-.08887-1.25251-.10816-1.89539l1.499-.04492c.02343.76611.07031,1.54443.14013,2.31348a41.928,41.928,0,0,0,.97071,5.78662c1.72754,6.59131,10.23437,14.00293,10.5957,14.31543l.1084.11572a12.35565,12.35565,0,0,0,5.25781,4.14648,16.65268,16.65268,0,0,0,5.94434.936,16.90652,16.90652,0,0,0,6.03955-.93652,12.32781,12.32781,0,0,0,5.25683-4.14551l.10889-.11621c.36133-.3125,8.86816-7.72412,10.5957-14.31494a41.96224,41.96224,0,0,0,.97071-5.78614c.07129-.78662.11425-1.52588.13672-2.21093l1.499.04882c-.01837.55805-.05444,1.15973-.10266,1.78247a2.21373,2.21373,0,0,0,1.51526-.21753,1.86009,1.86009,0,0,0,.58056-1.168C78.04143,56.0752,78.88372,51.64551,77.04436,50.55518ZM74.122,58.37842l1.19238.91015a3.07327,3.07327,0,0,0,.626-1.77539,3.11605,3.11605,0,0,0-.7544-2.0747l-1.13281.9834a1.58891,1.58891,0,0,1,.38721,1.05664A1.55978,1.55978,0,0,1,74.122,58.37842Zm-49.43555.91015,1.19238-.91015a1.56014,1.56014,0,0,1-.31836-.90039,1.58844,1.58844,0,0,1,.38721-1.05615l-1.13281-.9834a3.11559,3.11559,0,0,0-.7544,2.07422A3.07356,3.07356,0,0,0,24.68645,59.28857ZM68.08684,46.00635a10.80921,10.80921,0,0,0-12.5249.05469l.90234,1.19824A8.51812,8.51812,0,0,1,59.33061,45.885a2.424,2.424,0,1,0,4.64051-.09961,8.58271,8.58271,0,0,1,3.22314,1.42706Zm-36.17285,0,.89258,1.20605a8.58787,8.58787,0,0,1,3.22314-1.42682,2.39659,2.39659,0,0,0-.11841.71112,2.42353,2.42353,0,1,0,4.7591-.61151,8.52066,8.52066,0,0,1,2.86615,1.37409l.90234-1.19824A10.80762,10.80762,0,0,0,31.914,46.00635ZM52.66521,80.43408a9.094,9.094,0,0,0-2.66406-.48388,9.09516,9.09516,0,0,0-2.66553.48388l.4873,1.419a7.54313,7.54313,0,0,1,2.17627-.40283,7.54737,7.54737,0,0,1,2.17871.40283Z"
    ></path>
  </g>
</svg>
