<?xml version="1.0" encoding="UTF-8"?>
<!-- Created with Inkscape (http://www.inkscape.org/) -->
<svg
  id="SVGRoot"
  width="2e3px"
  height="1200px"
  version="1.1"
  viewBox="0 0 2e3 1200"
  xmlns="http://www.w3.org/2000/svg"
  xmlns:cc="http://creativecommons.org/ns#"
  xmlns:dc="http://purl.org/dc/elements/1.1/"
  xmlns:rdf="http://www.w3.org/1999/02/22-rdf-syntax-ns#"
>
  <metadata>
    <rdf:RDF>
      <cc:Work rdf:about="">
        <dc:format>image/svg+xml</dc:format>
        <dc:type rdf:resource="http://purl.org/dc/dcmitype/StillImage" />
        <dc:title />
      </cc:Work>
    </rdf:RDF>
  </metadata>
  <rect y="-2.1316e-14" width="2e3" height="1200" stroke-width="1.0026" />
  <g transform="matrix(13.646 0 0 13.69 2938.6 -6218)">
    <path
      d="m-142.06 463.19 7.9926 23.865 25.167 0.22662-20.227 14.976 7.5615 24.005-20.494-14.609-20.494 14.609 7.5615-24.005-20.227-14.976 25.167-0.22662z"
      fill="#d00"
      fill-rule="evenodd"
    />
    <g>
      <path
        d="m-110.01 498.67c-0.11137-0.25898-0.33122-0.52493-0.66677-0.80262-1.3047-1.0797-3.0992-1.75-4.2971-2.6256-1.1978-0.8756-2.5946-4.7214-3.1166-7.1542-1.0251 0.52946-2.057 2.1498-3.4368 3.8235-1.3799 1.6737-4.0369 3.2353-8.2824 7.2096-4.2455 3.9743-11.967 7.0086-14.335 8.0106 8.6495 1.8071 10.5 4.2099 8.2008 6.251-1.0194 0.49839-1.7884 0.71829-2.6033 1.3213-1.7596 1.1409-0.30432 3.4149 0.66737 4.2261 3.9738 3.3177 4.6584 6.8669 3.0318 12.73 3.0293-1.7059 11.322-8.745 15.127-10.309 3.7512-1.9352 11.613-4.8171 13.461-4.9227 0.59304-0.33042-3.9062-3.3869-4.5062-4.2873-1.9655-2.9496-3.3623-6.1698-3.7767-9.6765-4e-3 -0.0241-2e-3 -0.0486-4e-3 -0.0728 0.99383-0.52021 1.9316-1.0066 2.7846-1.4418 1.4412-0.78735 2.0857-1.5025 1.7516-2.2795z"
        fill-rule="evenodd"
        stroke="#d00"
        stroke-linecap="round"
        stroke-linejoin="bevel"
        stroke-width="1.5875"
      />
      <path d="m-151.11 499.04 4.5201-15.035h3.7042l-4.5201 15.035z" />
      <path
        d="m-162.32 520.46 44.233-32.371"
        stroke="#d00"
        stroke-linecap="round"
        stroke-width="3.4321"
      />
      <path
        d="m-140.65 504.55-0.4987 1.8134 10.337-1.4508 11.243-13.284-2.2215-0.81606z"
      />
      <path
        d="m-162.32 520.46 43.575-31.918"
        stroke="#000"
        stroke-linecap="round"
        stroke-width="1.8521"
      />
    </g>
    <g fill-rule="evenodd">
      <ellipse cx="-134.89" cy="531.74" rx=".78205" ry=".73671" fill="#d00" />
      <path
        d="m-110.01 498.67c-0.11137-0.25898-0.33122-0.52493-0.66677-0.80262-1.3047-1.0797-3.0992-1.75-4.2971-2.6256-1.1978-0.8756-2.5946-4.7214-3.1166-7.1542-1.0251 0.52946-2.057 2.1498-3.4368 3.8235-1.3799 1.6737-4.0369 3.2353-8.2824 7.2096-4.2455 3.9743-11.967 7.0086-14.335 8.0106 8.6495 1.8071 10.5 4.2099 8.2008 6.251-1.0194 0.49839-1.7884 0.71829-2.6033 1.3213-1.7596 1.1409-0.30432 3.4149 0.66737 4.2261 3.9738 3.3177 4.6584 6.8669 3.0318 12.73 3.0293-1.7059 11.322-8.745 15.127-10.309 3.7512-1.9352 11.613-4.8171 13.461-4.9227 0.59303-0.33042-3.9062-3.3869-4.5062-4.2873-1.9655-2.9496-3.3623-6.1698-3.7767-9.6765-4e-3 -0.0241-2e-3 -0.0486-4e-3 -0.0728 0.99384-0.52021 1.9316-1.0066 2.7846-1.4418 1.4412-0.78735 2.0857-1.5025 1.7516-2.2795z"
        stroke="#000"
        stroke-linejoin="bevel"
        stroke-width=".17084"
      />
      <rect
        x="-161.75"
        y="483.69"
        width="11.906"
        height="3.175"
        fill="#d00"
        stroke="#d00"
        stroke-linecap="round"
        stroke-width="1.3491"
      />
    </g>
    <g>
      <rect
        x="-161.75"
        y="483.69"
        width="11.906"
        height="3.175"
        fill-rule="evenodd"
      />
      <rect
        x="-148.83"
        y="492.69"
        width="10.271"
        height="3.175"
        fill-rule="evenodd"
      />
      <path d="m-136.25 499.04-4.5201-15.035h-3.7042l4.5201 15.035z" />
      <rect
        transform="rotate(90)"
        x="486.36"
        y="153.81"
        width="12.676"
        height="3.9688"
        fill-rule="evenodd"
      />
    </g>
  </g>
  <path
    d="m1330.5 475.53-0.4818-7.6799"
    fill="none"
    stroke="#000"
    stroke-width="1.0866"
  />
  <path
    d="m1301.8 466.67s26.572-25.612 35.216-8.6441c0 0-9.836 4.897-1.46 35.685 8.3759 30.788-33.756-27.04-33.756-27.04z"
  />
</svg>
