<?xml version="1.0" encoding="UTF-8" standalone="no"?>
<!-- Created with Inkscape (http://www.inkscape.org/) -->
<svg
  xmlns:inkscape="http://www.inkscape.org/namespaces/inkscape"
  xmlns:rdf="http://www.w3.org/1999/02/22-rdf-syntax-ns#"
  xmlns="http://www.w3.org/2000/svg"
  xmlns:sodipodi="http://sodipodi.sourceforge.net/DTD/sodipodi-0.dtd"
  xmlns:cc="http://creativecommons.org/ns#"
  xmlns:xlink="http://www.w3.org/1999/xlink"
  xmlns:dc="http://purl.org/dc/elements/1.1/"
  xmlns:svg="http://www.w3.org/2000/svg"
  xmlns:ns1="http://sozi.baierouge.fr"
  id="svg2"
  sodipodi:docname="thats_normal.svg"
  viewBox="0 0 1023.1 1024.1"
  version="1.1"
  inkscape:version="0.47 r22583"
>
  <defs id="defs4">
    <linearGradient
      id="linearGradient3610"
      y2="-23.852"
      gradientUnits="userSpaceOnUse"
      x2="190.48"
      y1="880.46"
      x1="-702.47"
      inkscape:collect="always"
    >
      <stop id="stop3614" style="stop-color: #ff0000" offset="0" />
      <stop id="stop3618" style="stop-color: #ff5b00" offset=".091678" />
      <stop id="stop3620" style="stop-color: #fcff00" offset=".23653" />
      <stop id="stop3622" style="stop-color: #00ff00" offset=".36396" />
      <stop id="stop3624" style="stop-color: #00fff4" offset=".47082" />
      <stop id="stop3626" style="stop-color: #0000c2" offset=".74725" />
      <stop id="stop3616" style="stop-color: #ca00ef" offset="1" />
    </linearGradient>
  </defs>
  <sodipodi:namedview
    id="base"
    bordercolor="#666666"
    inkscape:pageshadow="2"
    inkscape:snap-to-guides="false"
    pagecolor="#ffffff"
    inkscape:window-height="669"
    inkscape:window-maximized="1"
    inkscape:zoom="0.19203947"
    inkscape:snap-nodes="false"
    showgrid="false"
    borderopacity="1.0"
    inkscape:current-layer="layer1"
    inkscape:cx="265.04861"
    inkscape:cy="1078.5125"
    inkscape:window-y="24"
    inkscape:snap-grids="false"
    inkscape:window-x="-4"
    inkscape:window-width="1024"
    inkscape:pageopacity="0.0"
    inkscape:document-units="px"
  />
  <g
    id="layer1"
    inkscape:label="Ebene 1"
    inkscape:groupmode="layer"
    transform="translate(811.8 44.681)"
  >
    <path
      id="path2830"
      style="fill: url(#linearGradient3610)"
      d="m-565.11 957.58c-0.39442-0.63814-0.82942-2.2135-0.96667-3.5008s-0.7039-2.7949-1.2592-3.3502c-1.4488-1.4488-1.2441-4.0338 0.4293-5.4226 1.8721-1.5536 1.8212-4.1808-0.16175-8.3596-1.2655-2.6668-1.3659-3.7492-0.47966-5.1683 0.61659-0.98733 1.1211-2.4486 1.1211-3.2471 0-0.79864 0.4317-1.452 0.95932-1.452 2.5121 0 4.7856-4.0591 5.4954-9.8112 0.72572-5.881 0.80787-6.0176 3.6193-6.0176 2.0628 0 3.1446 0.61042 3.8234 2.1576 1.4324 3.2648 6.4398 3.8423 11.482 1.324 2.2496-1.1235 4.7669-2.0427 5.5942-2.0427 1.8468 0 4.8116-3.6459 6.4041-7.8752 0.65383-1.7364 1.6154-4.0639 2.1368-5.1724 0.5214-1.1084 0.8016-3.051 0.62268-4.3169-0.2735-1.935-0.93653-2.3448-4.1626-2.5724-5.4055-0.38162-10.073-3.0034-10.073-5.6583 0-2.254 3.5429-4.4106 9.1136-5.5473 4.8949-0.99885 7.0768-3.39 6.4913-7.1136-0.32761-2.0836-1.1493-3.4081-2.3013-3.7094-0.98544-0.25768-1.7917-0.99041-1.7917-1.6284 0-0.63795-1.0792-2.1738-2.3983-3.413-4.8325-4.5399-2.0757-9.7124 7.6174-14.292 3.3719-1.5931 6.3971-3.3277 6.7227-3.8546 0.32563-0.52687-0.60922-1.5829-2.0774-2.3466-1.4682-0.76377-3.7161-2.5089-4.9952-3.8781s-2.8048-2.4894-3.3904-2.4894c-0.58558 0-3.4095 2.3743-6.2754 5.2763s-5.7758 5.2763-6.4664 5.2763c-2.3055 0-3.3023-5.1095-2.9475-15.109 0.31951-9.0065 0.20167-9.833-1.4019-9.833-2.9144 0-7.4113-2.8165-7.4113-4.6418 0-0.94298-1.2951-2.9553-2.878-4.4718-3.4085-3.2656-3.4956-4.1421-0.91416-9.2021 1.7877-3.5042 1.838-4.1015 0.56141-6.6606-1.3457-2.6976-1.2864-2.9087 1.4674-5.226 2.1198-1.7837 3.9788-2.4148 7.1132-2.4148 4.0351 0 4.2433 0.13544 4.2433 2.7605 0 1.5183-0.64754 3.2979-1.439 3.9548-0.79144 0.65684-1.439 1.5731-1.439 2.0361 0 1.4286 4.4898 0.92847 5.7962-0.64562 0.79866-0.96232 2.449-1.3857 4.6742-1.1992 3.017 0.25289 3.4075 0.57677 3.1778 2.6356-0.14408 1.291-0.89955 3.0517-1.6788 3.9128-0.77926 0.86109-1.4306 2.8267-1.4474 4.368s-0.66433 3.6404-1.439 4.6646c-2.0003 2.6446-1.7763 4.29 0.50297 3.694 1.0513-0.27492 3.8578-0.20797 6.2368 0.14877l4.3254 0.64863-0.60692 6.5302c-0.54291 5.8415-0.39127 6.7459 1.4378 8.5749 1.4728 1.4728 3.2362 2.0447 6.305 2.0447 2.3432 0 4.5271 0.43169 4.8532 0.95932 0.81428 1.3175 5.6013 1.2099 6.9678-0.1566 0.61377-0.61376 4.5945-1.3173 8.846-1.5634 4.2516-0.24612 7.9623-0.82319 8.2461-1.2824 0.28379-0.45919 3.8772-0.83489 7.9853-0.83489 6.2509 0 7.7525-0.31294 9.2056-1.9186 0.95499-1.0552 2.1299-1.9186 2.611-1.9186 0.48106 0 2.2488-0.9724 3.9284-2.1609s3.9005-2.628 4.9353-3.1989c2.2261-1.2282 4.8337-5.8407 4.8337-8.5504 0-1.6122-0.73787-1.9658-4.6201-2.2136-2.6692-0.17042-6.3575 0.36853-8.7345 1.2763-4.3321 1.6544-9.2964 1.6238-9.8479-0.0608-0.17971-0.54897 0.29261-1.844 1.0496-2.878 1.0972-1.4986 2.4073-1.8489 6.4604-1.7273 4.2303 0.12698 5.6527-0.29255 8.4696-2.4982 2.4724-1.9358 4.8915-2.8011 8.9692-3.208 3.9079-0.39002 6.5518-1.2957 8.8097-3.0179 1.7743-1.3534 3.7472-2.4606 4.3842-2.4606 1.5212 0 9.732-4.021 10.961-5.368 0.52762-0.57808 2.3212-1.5847 3.9858-2.237 3.5097-1.3753 4.3322-3.295 4.622-10.788 0.16631-4.3006 0.7444-6.0765 2.7564-8.4677 1.4003-1.6642 2.6-3.4243 2.6659-3.9115 0.17587-1.299 0.437-2.1229 1.289-4.0667 1.2671-2.891-4.2381-7.9028-14.905-13.569-0.95414-0.50685-2.0271-1.8019-2.3843-2.878-0.35722-1.076-0.76152-2.2802-0.89846-2.6759-0.13693-0.39572-0.30292-1.1309-0.36887-1.6338-0.066-0.50288-1.615-1.6238-3.4423-2.4909-2.7908-1.3243-3.971-2.8254-4.8651-6.188-1.4156-5.3236-4.4928-7.6746-10.045-7.6746-1.5174 0-2.9949-0.38188-3.2834-0.84862-0.28846-0.46675-2.4624-1.1392-4.8308-1.4944-2.3685-0.35518-4.55-1.04-4.8478-1.5219-0.2978-0.48184-2.6919-1.1614-5.3202-1.51-2.6283-0.34866-5.0104-1.0087-5.2935-1.4668-0.69897-1.131-12.26-1.0623-13.401 0.0796-0.50186 0.50186-4.1045 1.0415-8.0058 1.1992-8.2913 0.33509-10.2 1.8192-7.2931 5.6723 2.0823 2.7605 7.3973 5.6465 10.399 5.6465 1.1919 0 2.6189 0.45193 3.1713 1.0043 1.5175 1.5175 8.4948 1.4943 11.358-0.0378 1.9862-1.063 2.9203-1.1104 4.3451-0.22061 1.1483 0.71715 2.0283 0.78833 2.3957 0.19379 0.87962-1.4232 5.5556-1.1258 8.954 0.56957 3.2262 1.6094 3.542 2.3456 2.1361 4.9792-0.48911 0.91619-1.1012 2.3643-1.3603 3.218-0.5341 1.7602-14.017 8.9817-20.299 10.872-2.2845 0.68754-5.2999 1.031-6.7007 0.76318-1.4009-0.2678-3.5915 0.072-4.868 0.7552-1.6707 0.89415-2.9279 0.96876-4.4876 0.26631-2.6041-1.1728-11.061-0.90735-20.873 0.65521-5.427 0.86415-7.8432 1.7568-9.833 3.6328-6.9847 6.585-0.48171 12.804 13.917 13.31 8.6924 0.30504 13.184 1.9589 13.184 4.8544 0 1.1436-0.90064 1.3086-4.5568 0.83529-2.5062-0.32449-5.636-0.7279-6.9551-0.89647-1.3191-0.16858-3.6136-0.80996-5.0989-1.4253s-3.4512-1.1188-4.3686-1.1188c-1.6482 0-7.8003 5.6017-7.8003 7.1025 0 0.42658-1.3314 2.4566-2.9586 4.5111-2.4035 3.0347-3.5734 3.7355-6.2356 3.7355-2.987 0-3.277-0.24972-3.277-2.8214 0-1.5517-0.43169-3.0882-0.95932-3.4142-0.52763-0.32609-0.95932-2.861-0.95932-5.6331 0-4.3719-0.38994-5.4138-2.941-7.8578-1.6175-1.5497-3.0205-2.6744-3.1178-2.4993-0.2455 0.44188-5.4572-0.73728-8.2112-1.8578-1.2532-0.50987-4.0592-2.3356-6.2356-4.0571s-5.468-3.8136-7.3147-4.6489c-18.567-8.3987-22.784-11.938-16.895-14.177 3.1232-1.1874 9.2201-6.6525 9.2201-8.2646 0-0.72053 0.9167-3.0688 2.0371-5.2183 1.1204-2.1496 1.774-4.1713 1.4525-4.4929-0.9604-0.9604-6.4015-0.49861-7.7999 0.66199-0.98588 0.81821-2.185 0.59526-4.9699-0.92408-7.6242-4.1594-9.4363-5.5138-9.7696-7.3023-0.53401-2.8658-2.1823-4.496-3.3576-3.3207-2.4877 2.4877-3.4942 0.99598-3.4942-5.179 0-3.3984-0.38276-6.4155-0.85058-6.7047-0.46781-0.28912-1.1268-1.998-1.4644-3.7975-0.33759-1.7995-1.2499-3.7998-2.0274-4.445-0.93051-0.77224-1.4136-2.9695-1.4136-6.4294v-5.2562l6.9551 0.68354c3.8253 0.37596 7.3868 1.0145 7.9144 1.4189 0.52763 0.40447 2.0386 1.0595 3.3576 1.4556 1.3191 0.39611 4.4304 2.6074 6.914 4.914 2.8246 2.6233 5.4113 4.1938 6.9074 4.1938 1.3154 0 2.737 0.54217 3.1589 1.2048 1.0713 1.6825 7.6193 6.4698 8.8492 6.4698 0.55836 0 1.5544 0.86339 2.2134 1.9186 0.95149 1.5236 2.2372 1.9186 6.2437 1.9186 2.775 0 5.0455 0.38205 5.0455 0.84899s1.1322 1.5908 2.5159 2.4975c2.1238 1.3916 2.8713 1.4583 4.7966 0.42789 2.6761-1.4322 3.2052-5.693 0.70696-5.693-1.3873 0-6.9048-2.2548-12.21-4.9897-1.1923-0.61468-2.1393-0.57644-2.83 0.11429-0.57094 0.57094-1.8151 1.0381-2.7649 1.0381-1.3292 0-1.7268-0.76215-1.7268-3.31 0-4.0387-1.849-5.2794-6.8652-4.6066-3.8577 0.51742-6.5653-0.83917-6.5653-3.2894 0-2.2592-5.7495-8.7182-9.2311-10.37-1.782-0.84564-3.2401-2.112-3.2401-2.814 0-0.70208-0.62192-1.7926-1.382-2.4235-0.76012-0.63085-1.5156-2.3026-1.6788-3.7149-0.25638-2.2184-0.7938-2.6089-3.9478-2.8689-2.3946-0.19738-3.8302-0.85764-4.1718-1.9186-1.6073-4.993-6.3709-13.522-8.9119-15.956-1.6123-1.5447-2.9314-3.7541-2.9314-4.9098s-0.69133-2.6751-1.5363-3.3764c-1.2123-1.0061-1.4016-2.2904-0.89765-6.0892 0.35125-2.6478 0.99273-5.2567 1.4255-5.7976 0.43278-0.54081 1.1024-2.4942 1.4881-4.3409 0.38566-1.8467 1.0254-3.7893 1.4217-4.3169 0.39627-0.52763 1.0163-5.0431 1.3779-10.034 0.36157-4.9913 1.0089-9.5241 1.4384-10.073 0.42958-0.54877 1.0234-4.3693 1.3197-8.4902 0.29625-4.1208 0.9472-8.0061 1.4466-8.6339 0.49935-0.62782 1.2142-3.2555 1.5885-5.8393 0.37433-2.5838 1.0256-5.3898 1.4472-6.2356 1.2304-2.4684 2.972-9.68 3.9624-16.407 0.50486-3.4296 1.3131-7.099 1.796-8.1542 0.48294-1.0552 1.1706-3.4004 1.5282-5.2114 0.35759-1.811 1.3918-4.617 2.2983-6.2356 0.90647-1.6186 1.4616-3.497 1.2336-4.1742-0.22797-0.67728 0.10974-1.8631 0.75047-2.6351 0.67374-0.81181 1.2574-4.9444 1.3841-9.8008 0.17322-6.6376 0.64994-9.1006 2.2751-11.755 1.1308-1.8467 2.3567-4.0052 2.7243-4.7966 0.36756-0.79144 1.3048-1.9162 2.0828-2.4994 1.8418-1.3808 0.27847-4.7389-4.4973-9.6603-1.809-1.8642-2.0181-2.5811-1.0817-3.7094 1.258-1.5158 0.67183-1.69-2.6716-0.79397-1.2383 0.33183-2.1585 1.3246-2.1585 2.3286 0 0.96258-0.38124 1.9858-0.8472 2.2737-0.46595 0.28798-1.1437 2.8968-1.5061 5.7974-0.36241 2.9006-1.01 5.4908-1.439 5.7559-0.42904 0.26515-1.0766 2.8553-1.439 5.7559-0.36241 2.9006-1.01 5.4908-1.439 5.7559-0.42904 0.26516-1.0766 2.8553-1.439 5.7559-0.36241 2.9006-1.0035 5.4868-1.4246 5.7471-0.42116 0.2603-1.0662 2.7386-1.4335 5.5072-0.36728 2.7687-1.0898 5.5425-1.6056 6.1639-0.51578 0.62147-1.1942 4.9492-1.5077 9.6172-0.31344 4.668-0.89891 8.9189-1.301 9.4466-0.40212 0.52763-1.0428 5.1749-1.4238 10.327-0.38097 5.1524-1.0257 9.5738-1.4328 9.8254-0.40706 0.25158-1.0496 4.7813-1.4278 10.066-0.37825 5.2847-1.0726 9.8464-1.543 10.137-0.47042 0.29073-0.8553 2.5947-0.8553 5.1199 0 3.2548-0.51847 5.0605-1.7811 6.2032-1.6676 1.5091-1.8663 1.5092-3.1178 0.00096-1.5539-1.8725-1.6053-21.782-0.0611-23.692 0.50094-0.61975 1.2223-6.4192 1.603-12.888 0.38069-6.4685 1.0333-11.972 1.4502-12.229 0.41689-0.25765 1.0669-5.5418 1.4444-11.742 0.37751-6.2007 1.0171-11.706 1.4212-12.233 0.40416-0.52763 1.0429-5.6002 1.4194-11.272 0.3765-5.6722 1.0747-10.554 1.5515-10.849 0.47684-0.2947 0.86964-1.6975 0.87289-3.1173 0.003-1.4198 0.59226-3.7052 1.3089-5.0786 0.71665-1.3734 1.6023-4.4931 1.9682-6.9327 0.36585-2.4396 1.0344-4.6638 1.4856-4.9427 0.45122-0.27888 1.1114-2.2293 1.467-4.3343 0.35563-2.105 1.0407-4.0708 1.5224-4.3685 0.48172-0.29772 0.87851-1.703 0.88176-3.1228 0.003-1.4198 0.6508-3.818 1.439-5.3293 0.78819-1.5113 1.4334-3.4539 1.4338-4.317 0.00085-1.7434 4.199-10.511 8.5598-17.878 1.5618-2.6381 3.7326-6.3075 4.8242-8.1542 8.15-13.789 24.198-37.414 25.414-37.414 0.70825 0 1.5362-0.64754 1.8399-1.439 0.3037-0.79144 1.0775-1.439 1.7196-1.439 0.64209 0 2.1649-0.93703 3.384-2.0823s2.4367-1.8621 2.7059-1.593c0.4848 0.4848-3.6347 8.8517-5.4436 11.056-0.9803 1.1947-4.5098 7.6017-9.1459 16.602-1.4948 2.9019-3.5343 6.4937-4.5323 7.9817-2.1087 3.1441-3.6362 5.8794-8.1303 14.559-1.7968 3.4704-3.6043 6.5183-4.0165 6.7731-0.41222 0.25477-1.8568 2.804-3.2103 5.6649-1.3534 2.8609-2.8541 5.4447-3.3348 5.7418-0.4807 0.29708-1.1762 2.3726-1.5456 4.6122-0.36938 2.2396-1.1624 4.6833-1.7623 5.4304-0.91373 1.1379-0.62374 1.2363 1.7873 0.6064 4.7856-1.2502 5.7762-1.126 5.4711 0.68629-0.15914 0.94517 0.47585 1.962 1.439 2.3043 3.4785 1.2363 5.0814 3.4657 5.0814 7.0675 0 1.9641-0.5965 4.0662-1.3256 4.6713-0.89572 0.74338-1.4531 4.0156-1.7188 10.091-0.26102 5.9681-0.86358 9.559-1.7922 10.68-1.8156 2.1926-2.0418 34.327-0.26702 37.937 0.62258 1.2664 1.32 5.426 1.5497 9.2436 0.22978 3.8176 0.86508 7.487 1.4118 8.1542 0.54671 0.66724 1.3033 4.1331 1.6813 7.7019 0.37797 3.5688 1.068 6.7241 1.5334 7.0117 1.2558 0.77613 1.0246 6.8653-0.34396 9.0566-0.94722 1.5168-0.94722 2.2945 0 3.8112 1.5369 2.461 1.5317 7.9215-0.009 9.4625-0.86793 0.86805-1.1659 5.337-1.0789 16.179l0.12027 14.98 4.3926 3.9185c2.5302 2.2571 4.5129 4.9186 4.6763 6.2774 0.16777 1.3949 1.0678 2.5711 2.2024 2.878 1.0552 0.28543 1.9618 1.0586 2.0146 1.7181 0.3282 4.1026 0.1817 4.0238 6.4018 3.443 5.0045-0.46734 6.6583-0.21888 9.8188 1.4751 2.0904 1.1204 4.7032 2.0371 5.8062 2.0371s3.0037 1.0625 4.2237 2.3612c1.7468 1.8594 2.5978 2.158 4.0045 1.4052 1.9598-1.0489 2.4961-6.0924 0.76179-7.1643-0.56346-0.34824-0.93538-1.9926-0.82648-3.6541 0.25036-3.8199-0.65716-6.0536-4.0668-10.009-1.6364-1.8979-2.7165-4.2597-2.7165-5.939 0-1.5334-0.43169-3.0548-0.95932-3.3809-1.4693-0.9081-1.1398-5.8509 0.47966-7.1949 2.2685-1.8827 1.691-5.1556-1.439-8.1542-3.5065-3.3595-3.6352-5.5007-0.47966-7.9828 2.5495-2.0054 3.2338-4.968 1.1475-4.968-0.68794 0-2.6306-1.4236-4.3169-3.1635-3.3272-3.4328-4.0087-7.3312-1.6272-9.3077 0.79144-0.65684 1.439-1.924 1.439-2.8159 0-1.7773-4.2916-6.1499-6.9551-7.0862-2.3742-0.83464-2.0816-3.7748 0.62897-6.3213 1.878-1.7643 2.6702-1.9741 4.2539-1.1266 2.7817 1.4887 7.8282 1.3284 7.8282-0.24878 0-1.6757-2.4751-3.7406-6.9175-5.771-2.7176-1.242-3.7864-2.4473-4.5172-5.0944-0.6348-2.2991-0.6361-4.0677-0.004-5.2491 1.1052-2.065 2.1366-2.2152 4.6093-0.67101 2.2335 1.3949 4.9107 0.4384 4.9107-1.7544 0-0.91479-1.358-3.0643-3.0177-4.7768-2.999-3.0942-3.02-3.1864-3.3788-14.888-0.19861-6.4762-0.78326-12.197-1.2992-12.713-1.4257-1.4257-1.1201-6.8837 0.45884-8.1941 1.607-1.3337 3.3996-0.5634 3.3996 1.4607 0 0.7603 0.64243 1.3824 1.4276 1.3824 0.9277 0 1.6461-1.3663 2.0515-3.9017 0.84277-5.2704 2.4693-6.8263 5.6121-5.3684 1.3231 0.61372 2.409 1.5886 2.4131 2.1663 0.0109 1.5407 3.2639 4.2258 5.1194 4.2258 0.8818 0 1.617 0.75546 1.6338 1.6788 0.0366 2.0092 2.1824 5.0364 3.5701 5.0364 2.4419 0 1.9902-3.1369-0.82133-5.7049-1.7926-1.6373-2.8256-3.4132-2.6152-4.4964 0.29201-1.5039 1.2669-1.7966 6.0958-1.8303 3.1615-0.0221 6.2841-0.37129 6.9391-0.7761 1.2485-0.77159 1.5846-7.2094 0.57345-10.984-0.36934-1.3789-1.5346-2.3969-3.1047-2.7123-1.3824-0.27768-3.3415-1.1118-4.3536-1.8536-1.5593-1.1429-1.6722-1.7172-0.74005-3.7632 1.0889-2.3898 3.4148-3.209 4.4332-1.5614 1.3374 2.164 5.2674 2.0024 7.7728-0.31958 2.6571-2.4625 2.4817-4.3708-0.40165-4.3708-4.3647 0-7.6438-7.8833-4.3992-10.576 1.5104-1.2535 3.3645-0.71031 7.4247 2.1751 1.3977 0.99327 2.2284 0.9025 4.707-0.51431 2.09-1.1946 3.3158-1.4145 4.0108-0.71949 0.55052 0.55051 2.3586 1.0009 4.018 1.0009 1.7988 0 3.7182 0.77477 4.7534 1.9186 1.9944 2.2038 3.6513 2.4376 5.0795 0.71677 1.0787-1.2998-0.63515-4.5541-2.3984-4.5541-1.7959 0-4.2731-3.687-3.9573-5.8899 0.25195-1.7577 1.1642-2.3777 4.4501-3.0246 2.2732-0.44754 4.37-1.4309 4.6594-2.1852 0.28945-0.7543 1.0197-1.3744 1.6228-1.378 1.278-0.008 4.8615-5.0567 6.2933-8.8672 0.54521-1.451 1.6033-2.6381 2.3514-2.6381 0.74805 0 1.6298-0.70282 1.9594-1.5618 0.47717-1.2435 1.5147-1.4587 5.0902-1.0556 2.4699 0.27839 5.5921 0.0364 6.938-0.53788 1.346-0.57423 5.0374-1.5022 8.2032-2.0622 5.4879-0.97068 5.7614-1.1521 5.8731-3.896 0.18518-4.5471 1.398-7.1949 3.2957-7.1949 0.96259 0 2.017 0.43169 2.343 0.95932 0.32609 0.52762 2.8921 0.95932 5.7022 0.95932 4.3913 0 5.3301-0.33702 6.6807-2.3983 1.278-1.9504 2.3515-2.3983 5.7488-2.3983 4.6203 0 6.5708 1.5394 6.5708 5.186 0 2.8637-4.7128 9.2038-6.8414 9.2038-0.86752 0-2.0034 0.97132-2.5243 2.1585-0.64198 1.4633-2.0284 2.316-4.3046 2.6476-2.9858 0.43501-3.3366 0.78799-3.1675 3.1871 0.24386 3.461 2.3849 8.3152 3.6676 8.3152 0.9837 0 3.8251-2.5553 9.8127-8.8246 1.7148-1.7955 3.1178-4.2056 3.1178-5.3559 0-1.4908 0.75769-2.2706 2.6381-2.7153 1.451-0.34314 4.0411-1.6684 5.7559-2.9451 2.6805-1.9956 3.1178-2.904 3.1178-6.4771v-4.1559l-6.4602-0.83168-6.4602-0.83167 0.0979-4.5899c0.0538-2.5245 0.37075-4.8628 0.70427-5.1963 0.3335-0.33351 0.60638-1.8295 0.60638-3.3245 0-2.0031 0.4659-2.7181 1.7713-2.7181 2.6464 0 7.822 2.8363 7.822 4.2865 0 0.69741 1.0718 2.2846 2.3817 3.5272 2.7167 2.5769 3.0668 4.4675 0.9759 5.2699-2.5549 0.98042-1.5299 3.1209 1.793 3.7443 5.0188 0.94152 7.607 0.19107 9.2072-2.6696 1.7893-3.1988 0.8025-5.216-3.6165-7.3928-1.6627-0.81906-3.0329-1.9785-3.0449-2.5765-0.012-0.59799-0.88517-1.313-1.9404-1.589-1.264-0.33054-1.9186-1.3085-1.9186-2.8663 0-2.113 0.51015-2.4322 4.7966-3.0008 4.119-0.54641 4.7973-0.93653 4.8014-2.7617 0.003-1.169 1.04-3.4193 2.3052-5.0006 2.9571-3.696 1.9182-5.8416-3.2517-6.715-2.1146-0.35726-4.0884-1.0437-4.3861-1.5254-0.29772-0.48172-3.7254-0.87585-7.6172-0.87585-8.3848 0-10.694-0.75682-15.545-5.0952-3.3124-2.9625-4.339-3.3128-11.172-3.8129-8.7609-0.64118-11.656-2.3933-10.824-6.5512 0.69344-3.4672-3.297-6.6562-9.9825-7.9778-3.9135-0.77362-7.4605-2.3131-9.8091-4.2574-1.2003-0.99364-4.5818-1.4508-11.732-1.5862-5.656-0.10705-10.606-0.65514-11.328-1.2543-0.70525-0.5853-3.7482-1.354-6.7622-1.7082-3.0139-0.35423-5.7036-1.006-5.977-1.4485-0.27343-0.44243-1.3357-0.28077-2.3605 0.35926-1.5611 0.97493-2.1919 0.8351-3.8891-0.86209-1.6782-1.6782-1.8389-2.375-0.93639-4.0613 0.59916-1.1195 1.6548-2.0355 2.3459-2.0355 1.6622 0 4.4319-3.1213 4.4319-4.9945 0-0.81718 0.64754-2.0232 1.439-2.68 1.5917-1.321 2.0702-10.553 0.54696-10.553-0.49061 0-1.8852 2.0506-3.0991 4.5568s-3.1868 5.8926-4.3842 7.5253c-1.1975 1.6327-2.1772 3.2914-2.1772 3.686 0 0.39461-0.86339 1.8151-1.9186 3.1566l-1.9186 2.4392 0.07-2.2878c0.0386-1.2583 0.39032-4.5348 0.78179-7.2811 0.39148-2.7463 0.34171-5.6545-0.11059-6.4627-1.0741-1.9193 0.33688-4.5076 6.1153-11.218 5.1616-5.9944 6.1772-10.204 2.6825-11.118-1.2367-0.32341-1.7729-1.0372-1.4369-1.9127 0.2948-0.76822 0.80984-3.1937 1.1446-5.39 0.3347-2.1963 0.99278-4.483 1.4624-5.0816 0.46961-0.59857 0.97147-5.2245 1.1152-10.28 0.14378-5.0553 0.53426-9.4644 0.86773-9.7978 0.33348-0.33348 0.3908-1.168 0.12737-1.8545-0.26343-0.68648-0.0178-1.5331 0.54576-1.8815 1.2254-0.75732 1.3974-14.566 0.19077-15.312-0.45868-0.28348-1.1382-4.4043-1.51-9.1575-0.37184-4.7531-1.0508-8.8737-1.5089-9.1568-0.45807-0.28311-1.0958-2.5552-1.4171-5.0492-0.32133-2.4939-0.94081-5.1991-1.3766-6.0116-0.4358-0.81244-1.1073-5.4562-1.4922-10.319-0.38491-4.8632-1.0855-9.0805-1.5568-9.3718-1.0919-0.67481-1.1282-9.7288-0.0417-10.4 0.44837-0.27711 1.0651-4.3601 1.3704-9.0734 0.30535-4.7133 0.95978-9.3686 1.4543-10.345 0.4945-0.97658 2.338-4.7974 4.0967-8.4908s3.9751-7.7448 4.9254-9.0031c0.95029-1.2583 1.7278-3.0054 1.7278-3.8824 0-0.87703 1.7268-3.2807 3.8373-5.3416 2.1105-2.0608 3.8373-4.2634 3.8373-4.8946 0-1.3328 13.288-14.499 18.227-18.059 3.2712-2.3584 9.003-5.371 16.788-8.8238 4.287-1.9013 4.0104-1.8134 10.366-3.298 5.9803-1.397 40.114-0.86164 42.011 0.65894 0.7398 0.59298 3.5036 1.3888 6.1417 1.7686 2.6381 0.37975 5.2908 1.0969 5.8948 1.5936 0.60399 0.49677 1.4674 0.81952 1.9186 0.71725 1.2834-0.29089 3.8776 0.80155 15.219 6.4089 5.8087 2.8719 11.527 5.2216 12.708 5.2216 1.1809 0 3.8195 1.5109 5.8635 3.3576 2.0441 1.8467 4.0959 3.3591 4.5595 3.3609 0.46368 0.002 4.1504 3.0237 8.1927 6.7152 4.0423 3.6916 7.7225 6.712 8.1782 6.712 1.0596 0 14.691 13.69 14.691 14.754 0 0.43929 1.2172 2.3718 2.7048 4.2944s4.5477 7.3809 6.8002 12.13c2.2525 4.7486 4.7539 9.929 5.5587 11.512 0.98865 1.9445 1.6233 6.923 1.9567 15.349 0.27139 6.8592 0.85587 12.93 1.2988 13.492 1.3858 1.7556 1.5147 23.17 0.14773 24.541-0.65954 0.6618-1.2167 1.8724-1.2381 2.6902-0.0214 0.81782-1.3165 2.9816-2.878 4.8083-4.2765 5.0031-3.6345 10.091 2.3652 18.743 2.9434 4.2449 4.3355 6.5408 4.9441 8.1542 0.29852 0.79144 0.95584 2.0865 1.4607 2.878 0.50488 0.79144 1.1716 2.1944 1.4816 3.1178 0.47299 1.4087 1.777 1.6788 8.104 1.6788h7.5403l1.941-4.0175c1.1753-2.4327 1.941-5.9618 1.941-8.9463 0-3.9117 0.4582-5.3593 2.2203-7.0147 1.2212-1.1472 3.1176-2.0859 4.2143-2.0859s2.2425-0.64754 2.5462-1.439c0.3037-0.79144 1.2133-1.439 2.0213-1.439s1.4691-0.64754 1.4691-1.439c0-1.9964 14.97-2.0412 18.869-0.0565 1.4937 0.76036 4.6585 2.2803 7.0328 3.3776 5.7176 2.6425 10.58 5.5582 13.013 7.8024 1.0893 1.005 2.4254 1.8273 2.9691 1.8273 1.6017 0 3.9626 3.1372 4.6925 6.2356 0.67798 2.878 4.8387 8.1542 6.4302 8.1542 0.46412 0 2.2181 1.0456 3.8976 2.3236 1.6796 1.278 4.3489 2.6326 5.9318 3.0102 1.5829 0.37765 3.3097 1.0202 3.8373 1.4278 0.52762 0.40766 2.6455 1.0563 4.7064 1.4415l3.747 0.70033-0.55834-4.6916c-0.5574-4.6836-1.5481-7.1308-4.9165-12.145-2.8092-4.1818-1.7242-10.045 2.6725-14.442 1.9396-1.9396 3.8909-3.5265 4.3364-3.5265 0.44543 0 1.3473-0.64754 2.0041-1.439 0.65684-0.79144 2.038-1.439 3.0692-1.439s3.1117-1.2367 4.6232-2.7483c3.1907-3.1907 2.9741-6.0103-0.65854-8.5731-1.2703-0.89621-4.4058-3.2483-6.9676-5.2269-2.5619-1.9786-5.1095-3.5975-5.6614-3.5975-0.55191 0-2.996-1.7245-5.4312-3.8322s-5.5913-4.1147-7.0134-4.4601c-1.4221-0.34534-3.4372-1.211-4.478-1.9238-1.0407-0.71274-2.9952-1.2959-4.3433-1.2959s-3.4566-0.70431-4.6856-1.5651c-1.8943-1.3268-2.1461-2.1179-1.654-5.1959 0.31932-1.9969 1.3018-5.0699 2.1834-6.8289 2.9543-5.8948 3.1968-6.5223 3.1968-8.2696 0-0.95689-0.45781-2.1976-1.0174-2.7572-0.55954-0.55954-0.88331-3.1281-0.71949-5.708 0.28996-4.5661 0.38451-4.6989 3.5626-5.0022 2.18-0.20805 4.1592 0.34975 5.9569 1.6788 1.664 1.2303 4.1508 1.9904 6.5116 1.9904 2.1007 0 4.0863 0.4317 4.4124 0.95933 0.32609 0.52762 2.1188 0.95932 3.9837 0.95932 2.6286 0 3.5082 0.44899 3.9132 1.9975 0.47786 1.8274 0.98602 1.9436 5.9673 1.3655 4.3361-0.50326 5.7006-0.32394 6.7002 0.88051 1.3995 1.6863 8.2201 2.0975 9.1745 0.55314 0.96374-1.5594 10.62-1.1731 11.992 0.47966 0.65683 0.79144 2.5676 1.439 4.2462 1.439 2.2304 0 3.9308 0.90671 6.3164 3.368 4.0854 4.2151 10.108 7.1845 14.571 7.1845 2.5817 0 3.5422 0.4577 3.9097 1.8631 0.26795 1.0247 0.23756 2.1127-0.0675 2.4178-1.1604 1.1604-0.77247 4.4018 0.68417 5.7167 0.84467 0.76248 5.1359 1.7657 9.6725 2.2613 8.0681 0.88142 8.1213 0.90466 5.0364 2.2008-1.7148 0.72049-3.1178 1.9708-3.1178 2.7785 0.00003 1.7332 5.9787 6.7448 8.0463 6.7448 0.7885 0 1.7004 0.4317 2.0265 0.95932 0.32609 0.52763 1.3461 0.95932 2.2667 0.95932 0.92061 0 3.1383 1.5109 4.9282 3.3576 3.5501 3.6628 6.091 4.1678 9.3798 1.8642 2.0536-1.4384 2.1321-1.3929 2.1321 1.2354 0 1.6359 1.137 4.059 2.839 6.0502 1.5614 1.8268 2.8565 3.8824 2.878 4.5682 0.06264 2.0028 2.9379 7.1752 5.5296 9.9473 1.3165 1.4081 2.1343 2.9797 1.8174 3.4925-0.95116 1.539 3.8777 4.0202 7.8241 4.0202 2.0282 0 4.5257 0.62125 5.5498 1.3806 1.5845 1.1747 1.6834 1.6734 0.66302 3.3446-1.7623 2.8864-1.4826 4.7338 1.1992 7.921 1.3191 1.5676 2.3983 3.1991 2.3983 3.6256 0 1.5919-4.6821 3.7613-8.7463 4.0524-3.8096 0.27293-4.2336 0.55446-4.5137 2.9974-0.37089 3.2347 0.93075 4.9802 5.2379 7.0241 3.5857 1.7015 3.8991 2.4366 1.7865 4.1899-0.79144 0.65684-1.439 1.8269-1.439 2.6001 0 1.1025-0.80679 1.2695-3.7388 0.77418-4.4197-0.7467-5.6938 0.53574-3.8868 3.9121 1.5023 2.8071 4.1675 2.9798 5.9831 0.38767 1.324-1.8902 1.3694-1.8914 3.0094-0.0791 2.7809 3.0728 1.6135 6.0796-2.8079 7.2326-4.9183 1.2826-6.1587 2.1182-7.1965 4.8479-0.7427 1.9534-1.3119 2.1586-4.72 1.7015-3.2183-0.43167-3.9716-0.21412-4.4426 1.283-0.31193 0.99153-0.91245 2.4645-1.3345 3.2732-0.42202 0.80876-1.0929 2.9531-1.4909 4.7651-0.39799 1.812-1.0689 3.9564-1.4909 4.7651-1.4018 2.6864-2.1636 5.2901-1.987 6.7908 0.09602 0.8157-1.3612 4.3772-3.2384 7.9144-1.8771 3.5372-3.0981 6.4313-2.7132 6.4313 0.38483 0 0.18166 0.51803-0.4515 1.1512-0.63315 0.63315-1.1512 2.3993-1.1512 3.9248 0 2.318-2.6263 5.3591-15.99 18.515-8.7944 8.6577-16.565 15.741-17.268 15.741-0.70287 0-1.278 0.43169-1.278 0.95932s-0.58064 0.95932-1.2903 0.95932c-2.8197 0-4.4656 3.4078-4.4656 9.2456 0 3.5591-0.53467 6.4438-1.4085 7.599-1.7058 2.2552-1.869 5.3959-0.35896 6.9059 1.6724 1.6724-0.61692 3.8874-6.8334 6.6117-2.9202 1.2797-6.0743 2.7518-7.0092 3.2713-0.93488 0.51949-3.7409 1.2225-6.2356 1.5624-2.4947 0.3398-6.4348 1.6253-8.7558 2.8567s-5.0272 2.2389-6.0139 2.2389c-0.98663 0-4.2208 1.2951-7.1871 2.878-2.9662 1.5829-5.8068 2.878-6.3123 2.878-0.8909 0-4.8801 1.6082-10.802 4.3549-1.5829 0.73412-4.0651 1.6123-5.5161 1.9516-1.451 0.33922-2.6381 1.0017-2.6381 1.4721-0.00001 0.47046-0.45844 0.85536-1.0187 0.85536-1.8905 0-11.452 4.9276-11.452 5.9018 0 1.0352 5.5185 0.18579 7.1949-1.1075 0.52762-0.40704 2.7918-1.0423 5.0314-1.4117 2.2396-0.36938 4.2925-1.0282 4.5618-1.464 0.26934-0.43581 2.212-1.0834 4.3169-1.439 2.105-0.35563 4.0554-1.0158 4.3343-1.467 0.27888-0.45123 2.5475-1.1157 5.0415-1.4765 2.4939-0.36085 5.0097-1.0328 5.5905-1.4932 0.58086-0.46038 3.171-1.1131 5.7559-1.4505 2.5849-0.33739 5.1937-1.0004 5.7974-1.4734 0.60367-0.47298 3.4097-1.1202 6.2356-1.4383 2.8259-0.31809 5.5697-0.90237 6.0973-1.2984 0.52762-0.39603 3.2252-1.0247 5.9947-1.397 2.7695-0.37232 5.2772-1.0682 5.5727-1.5464 0.29553-0.4782 1.7109-0.86945 3.1452-0.86945s3.5126-0.63369 4.6184-1.4082 3.8999-1.6968 6.2092-2.0496c2.3093-0.35278 4.7676-1.0913 5.4629-1.6412 1.5811-1.2505 22.323-0.95732 23.614 0.33373 0.51038 0.51038 1.7477 0.92796 2.7496 0.92796 2.6084 0 8.4879 2.8943 10.809 5.3212 1.0904 1.1399 2.7373 3.5387 3.6598 5.3307 1.586 3.0809 3.7865 7.2494 5.5183 10.453 0.42781 0.79144 1.4771 2.8221 2.3317 4.5126 0.85463 1.6905 2.1616 3.5781 2.9045 4.1946 0.74284 0.6165 1.3506 1.7004 1.3506 2.4087 0 0.70828 0.86339 1.7498 1.9186 2.3146 1.0553 0.56475 1.9186 1.3365 1.9186 1.7149 0 0.37843 3.2334 4.1406 7.1852 8.3603 3.9519 4.2197 7.1896 8.0248 7.1949 8.4558 0.0058 0.43092 1.0889 2.1984 2.408 3.9278s2.3983 3.4732 2.3983 3.8751c0 0.40188 1.403 2.5014 3.1178 4.6657 3.341 4.2167 5.5161 7.964 5.5161 9.5034 0 0.5233 1.1999 2.5245 2.6665 4.4471 3.3304 4.366 6.9267 11.739 6.9267 14.201 0 1.0238 0.4681 2.3296 1.0402 2.9018 0.57213 0.57213 1.2807 3.6926 1.5747 6.9344 0.29395 3.2418 0.90508 6.1232 1.3581 6.4032 1.5998 0.98874 0.78966 4.9469-2.0623 10.076-2.7298 4.909-2.8529 5.5908-2.276 12.606 0.49137 5.9758 0.30656 7.8794-0.95143 9.7993-1.0719 1.6358-1.5613 4.5182-1.5613 9.1949 0 7.7017-0.63165 9.2948-6.0302 15.208l-3.8393 4.2055 0.49125 43.51c0.39588 35.063 0.74862 43.82 1.817 45.108 1.7448 2.1033 1.9417 39.59 0.21899 41.686-0.60868 0.74059-1.4174 3.9367-1.7972 7.1025-0.37977 3.1658-1.0126 6.1876-1.4063 6.7152-0.39372 0.52762-1.0266 2.6861-1.4065 4.7966-0.37982 2.1105-1.0838 4.3134-1.5644 4.8953-0.48058 0.5819-1.1496 4.3211-1.4867 8.3094l-0.61297 7.2514 3.4912 4.2606c1.9202 2.3433 3.4912 4.6894 3.4912 5.2135 0 1.9526 3.0856 7.0314 6.9966 11.516 6.9061 7.9195 10.205 14.321 10.281 19.95 0.0284 2.1105 0.6854 4.6753 1.46 5.6995 0.77466 1.0242 1.4085 3.0493 1.4085 4.5002s0.4317 2.9048 0.95932 3.2309c0.52763 0.3261 0.95932 2.0255 0.95932 3.7764 0 1.751 0.64754 3.721 1.439 4.3778 0.91343 0.75809 1.439 2.8763 1.439 5.7998 0 3.3331 0.59636 5.3547 2.1585 7.3173 6.819 8.5669 6.8408 8.6296 7.2511 20.925 0.21156 6.3393 0.77112 11.936 1.2435 12.437 1.3126 1.3929 1.0224 7.6676-0.4894 10.582-1.454 2.8026-4.5162 4.7452-9.0499 5.7409-2.7374 0.6013-4.6292 3.7752-4.1226 6.9167 0.09994 0.61973-0.26142 1.4007-0.80305 1.7354-0.54162 0.3347-0.98476 1.4825-0.98476 2.5506 0 2.892-5.8795 8.1106-9.8666 8.7576-1.8809 0.30526-4.3329 1.468-5.4488 2.5839-3.2442 3.2441-6.6428 4.0706-13.797 3.3551l-6.5683-0.65685 0.33276 4.1838 0.33276 4.1838-257.76 0.24156c-200.79 0.18822-257.92-0.0144-258.48-0.91874zm28.182-24.39c2.5884-0.69369 2.763-2.0825 0.47966-3.8159-3.4868-2.6469-10.781-0.3938-9.5038 2.9355 0.59122 1.5407 4.9672 1.9676 9.0242 0.88037zm-17.028-4.1354c0-1.1318-1.871-2.3427-2.5582-1.6555-0.68718 0.68716 0.52362 2.5582 1.6555 2.5582 0.49648 0 0.9027-0.40617 0.9027-0.90272zm40.479-47.723c4.1454-3.9715 3.2668-9.8282-1.2667-8.4436-5.0336 1.5373-7.4654 6.8894-4.4847 9.8702 1.6986 1.6987 2.7656 1.434 5.7514-1.4266zm13.724-8.2146c1.8328-1.1872 3.3376-2.4822 3.3442-2.878 0.022-1.3281-5.4955-0.73589-6.7034 0.7195-0.65684 0.79144-2.2206 1.439-3.4751 1.439-1.3879 0-2.2808 0.56341-2.2808 1.439 0 2.2018 5.2442 1.7879 9.1151-0.71949zm60.856-45.388c2.6922-1.3522 4.6448-2.8631 4.3392-3.3576-0.61412-0.99368-11.187-1.207-14.592-0.29445-1.6056 0.43029-2.1585 1.2869-2.1585 3.3445 0 2.5779 0.25572 2.7661 3.7585 2.7661 2.1207 0 5.8914-1.0713 8.6533-2.4585zm-82.026-117.22c2.5452-1.2666 3.3792-2.29 3.397-4.1683 0.0269-2.835-1.6849-4.5184-7.1713-7.0526-2.1105-0.97484-4.5869-2.1406-5.5031-2.5906-2.7825-1.3666-5.0906-0.92894-7.256 1.376l-2.0614 2.1942 4.2834 1.8829c4.7575 2.0913 5.3175 3.6306 2.2302 6.1306-1.1655 0.94379-1.77 2.1646-1.3824 2.7919 1.046 1.6925 9.6537 1.3318 13.463-0.56413zm-18.644-25.229c0-1.0258-5.4911-3.7352-6.178-3.0483-1.2414 1.2414-0.38574 3.6702 1.6212 4.6017 2.1119 0.98029 4.5568 0.14679 4.5568-1.5535zm29.218-162.14c-0.82235-1.3306-1.398-1.0825-1.398 0.60257 0 0.82258 0.43873 1.2244 0.97496 0.89303 0.53624-0.33141 0.72661-1.0044 0.42304-1.4956zm55.584-20.319c2.4449-3.8094 2.3191-5.9958-0.34498-5.9958-3.2057 0-5.8154 4.3761-3.95 6.6237 1.7144 2.0658 2.6544 1.9284 4.295-0.62795zm207.48-11.183c2.3877-4.5293 2.8128-7.2894 1.2695-8.2432-0.52762-0.32609-0.95932-1.2756-0.95932-2.11 0-0.83441-0.82065-3.2912-1.8237-5.4595-4.0355-8.7238-8.8919-18.5-10.623-21.385-1.0076-1.6792-2.1336-4.6609-2.5023-6.626-0.36865-1.965-1.2544-4.6922-1.9683-6.0604-0.71392-1.3681-1.3007-2.9728-1.304-3.5659-0.0199-3.6149-12.631-19.547-15.472-19.547-0.53362 0-2.3852-1.0792-4.1145-2.3983-1.7294-1.3191-3.7511-2.401-4.4928-2.4042-0.74165-0.003-2.449-0.58024-3.794-1.2822-1.3451-0.70195-4.5392-1.5632-7.0981-1.914-2.5589-0.35074-5.1278-1.0081-5.7086-1.4608-0.58086-0.45269-2.531-1.1033-4.3336-1.4457-1.8026-0.34243-4.8172-1.8062-6.6991-3.2528-4.2351-3.2555-19.003-10.784-21.153-10.784-0.87085 0-2.0568 0.47342-2.6354 1.052-0.57862 0.57862-3.363 1.3341-6.1876 1.6788l-5.1356 0.62679-0.30145 4.2093c-0.47644 6.653 1.0886 9.1165 7.9316 12.485 3.3197 1.6343 6.6854 2.9714 7.4794 2.9714 0.79399 0 1.981 0.64755 2.6379 1.439 0.65684 0.79144 1.9793 1.439 2.9388 1.439s2.0114 0.43169 2.3374 0.95932c0.32609 0.52763 1.2608 0.95932 2.077 0.95932 0.81628 0 3.0572 1.2061 4.9798 2.6803s4.5749 3.222 5.894 3.8842c6.4184 3.222 8.3705 4.7358 16.191 12.556 4.6281 4.6281 10.528 11.609 13.111 15.512 2.5827 3.9036 6.4358 9.3374 8.5624 12.075 8.3607 10.763 11.561 15.089 12.021 16.25 0.26381 0.66601 2.8125 3.6314 5.6638 6.5897 4.3578 4.5214 5.6463 5.3326 8.0838 5.0891 2.3261-0.23231 3.3406-1.126 5.1286-4.5176zm-192.51-42.779c0-0.79144-0.64754-1.439-1.439-1.439-0.79144 0-1.439 0.64755-1.439 1.439 0 0.79144 0.64754 1.439 1.439 1.439 0.79144 0 1.439-0.64754 1.439-1.439zm12.955-5.283c0.32839-0.53136-0.0965-1.2322-0.94409-1.5575-1.8368-0.70483-2.8604 0.0718-1.9775 1.5004 0.7966 1.2889 2.144 1.3152 2.9216 0.0571zm264.48-66.594c1.1864-0.83098 3.1461-1.5109 4.355-1.5109 1.2088 0 2.9475-0.38525 3.8637-0.8561 0.91619-0.47085 2.745-1.3513 4.0641-1.9566 5.7634-2.6447 11.512-7.1002 11.512-8.9226 0-0.4666 1.2679-2.4419 2.8177-4.3896 1.5497-1.9477 3.1202-4.8363 3.4899-6.4192 0.36973-1.5829 1.0733-3.3887 1.5635-4.0129 2.0002-2.5473-5.5579-9.8972-10.178-9.8972-2.5259 0-3.4669 2.161-1.4767 3.391 0.5955 0.36803-1.0368 2.794-3.9584 5.8832-3.6862 3.8976-4.6924 5.5363-3.8913 6.3374 2.5833 2.5833 0.13592 10.29-3.2677 10.29-0.64506 0-1.7102 0.64755-2.3671 1.439-1.658 1.9977-10.841 1.9639-12.509-0.046-1.0128-1.2203-0.94822-2.0812 0.36219-4.8292 2.3949-5.0222 2.0999-7.7554-0.89909-8.3286-3.5504-0.6787-5.5969 0.0629-6.6575 2.4127-0.50686 1.1228-2.2166 2.75-3.7995 3.6159-1.683 0.92067-2.9217 2.4074-2.9832 3.5805-0.0578 1.1034-0.39088 3.7923-0.73997 5.9754-0.84006 5.2534 1.4555 9.3435 5.5808 9.9433 5.106 0.74245 12.88-0.13147 15.119-1.6996zm-104.56-7.2668c8.8645 0 9.0922-0.0572 11.856-2.9773l2.8176-2.9773 9.4794 0.43905c9.4042 0.43557 9.505 0.41654 12.711-2.3984 1.7774-1.5606 3.2317-3.3421 3.2317-3.9589 0-1.2844 4.9675-4.0729 8.8902-4.9904 1.4601-0.34152 4.7038-2.407 7.2083-4.5899s5.3928-4.4362 6.4184-5.0073c1.0256-0.57107 2.219-2.4058 2.6521-4.0771 0.58615-2.262 1.3322-3.0397 2.9185-3.0424 2.558-0.004 5.4887-6.2032 5.4887-11.609 0-4.1525-1.4463-5.5829-9.1136-9.0136-3.1658-1.4165-7.53-3.3987-9.6983-4.4049-4.8923-2.2703-7.8381-2.3178-10.217-0.16498-1.313 1.1882-3.9422 1.7669-9.1891 2.0224-4.0424 0.19688-7.7816 0.69463-8.3092 1.1061-0.52762 0.41147-3.2252 1.0528-5.9947 1.4251-2.7695 0.37232-5.2772 1.0682-5.5727 1.5464-0.29554 0.4782-3.251 0.86945-6.5676 0.86945-6.6798 0-7.5703 0.58584-10.937 7.1949-1.075 2.1105-3.4628 5.2407-5.3063 6.9559-3.0963 2.8809-3.4039 3.6853-4.0364 10.553-0.45349 4.9237-1.313 8.3247-2.5454 10.072-1.7522 2.4842-2.287 2.6381-9.1683 2.6381-6.1826 0-7.6494 0.32112-9.5279 2.0859-1.2212 1.1472-2.2203 3.0899-2.2203 4.317 0 1.9605 0.46181 2.2311 3.8078 2.2311 2.0942 0 5.5478 0.90698 7.6746 2.0155 3.0636 1.5968 3.8668 2.5534 3.8668 4.6053 0 1.4244 0.53962 3.7522 1.1992 5.173l1.1992 2.5831 3.9731-4.3105 3.9731-4.3105h9.0381zm114.28-25.361c4.413-3.366 4.5548-5.2876 0.40471-5.4862-7.3039-0.34952-13.308 1.5803-15.051 4.8377-2.6028 4.8634 8.4776 5.3539 14.647 0.64848zm-338.96-15.89c0-0.52762-0.64754-0.95932-1.439-0.95932-0.79144 0-1.439 0.4317-1.439 0.95932 0 0.52763 0.64754 0.95933 1.439 0.95933 0.79144 0 1.439-0.4317 1.439-0.95933zm234.14-24.95c0.97121-1.8467 2.0192-4.0052 2.3288-4.7966 0.89541-2.2887 3.1187-5.9614 3.9984-6.605 1.3936-1.0196 4.1639-6.5664 4.1639-8.3369 0-2.6607-2.9089-5.2038-5.9522-5.2038-4.1923 0-8.1943 2.5062-10.371 6.4952-1.074 1.9677-2.8494 5.0759-3.9454 6.907-1.5562 2.6-1.7609 3.7004-0.93468 5.0234 0.58189 0.93176 1.058 2.6832 1.058 3.892s0.68928 3.182 1.5317 4.3847c2.2638 3.232 5.9134 2.4412 8.1229-1.76zm153.24-44.321c0.63316-0.63316 1.1512-2.386 1.1512-3.8952 0-2.5842-0.20946-2.7267-3.5974-2.4463-2.9929 0.2477-3.5426 0.62019-3.271 2.2164 0.33175 1.95 2.8202 5.2763 3.9474 5.2763 0.34032 0 1.1368-0.51803 1.77-1.1512zm-497.27 674.53c-1.5516-1.7145-1.8447-4.0175-2.1779-17.111l-0.38504-15.13 3.4585-10.227c1.9022-5.6251 3.8419-10.984 4.3104-11.909 0.46858-0.92479 1.5499-3.1923 2.403-5.039 3.8545-8.344 7.6214-13.43 9.9459-13.43 1.1302 0 1.2528 1.3112 0.6955 7.4347-0.37215 4.0891-1.0052 7.8664-1.4066 8.3941-0.4015 0.52763-0.92349 9.0285-1.16 18.891-0.29452 12.282-0.80441 18.383-1.6185 19.364-0.6537 0.7877-1.3184 4.1585-1.477 7.4907-0.40411 8.4873-0.39756 8.4568-1.8119 8.4568-0.69946 0-2.2856 1.0792-3.5248 2.3983-2.7405 2.9171-4.8778 3.0401-7.2515 0.41721zm47.149-30.278c-0.6949-1.8109 0.9758-4.1954 2.9394-4.1954 1.9099 0 2.6891 2.6329 1.2813 4.3291-1.556 1.875-3.4732 1.8142-4.2207-0.13373zm-18.846-60.379c-1.5587-1.8781-1.805-15.9-0.31243-17.785 0.5827-0.73587 1.3129-3.2806 1.6227-5.6549 1.4833-11.368 9.295-16.961 9.295-6.6544 0 2.0148 0.43169 3.93 0.95932 4.2561 0.52762 0.3261 0.95932 2.9163 0.95932 5.7559 0 2.8397-0.4317 5.4298-0.95932 5.7559-0.52763 0.32609-0.95932 1.2756-0.95932 2.11s-0.95323 3.507-2.1183 5.9391c-3.683 7.6884-5.934 9.3533-8.487 6.2771zm61.449-22.84c0-1.5721 5.7317-2.9262 7.0034-1.6545 1.5305 1.5305-0.26618 2.9735-3.7024 2.9735-2.1613 0-3.301-0.45542-3.301-1.3191zm69.307-58.554c-0.81379-1.3161 3.4877-4.4014 6.1363-4.4014 2.6397 0 4.0351 2.4478 2.3538 4.1292-1.3271 1.3271-7.7112 1.5318-8.49 0.27224zm-92.091-271.33c0.60441-1.8152 3.5979-2.0733 3.5979-0.31017 0 0.8899-0.82022 1.5093-1.9986 1.5093-1.1723 0-1.8335-0.49579-1.5993-1.1992zm98.291-60.796c-0.37401-0.37401-0.68001-1.5001-0.68001-2.5025 0-1.4222 0.57943-1.7558 2.6381-1.5189 1.8974 0.21832 2.6381 0.84226 2.6381 2.2222 0 1.9274-3.2111 3.1844-4.5962 1.7992zm370.57-68.41c0-0.55877 0.43169-1.0159 0.95932-1.0159s0.95932 0.19036 0.95932 0.42304c0 0.23267-0.43169 0.68985-0.95932 1.0159-0.52763 0.32609-0.95932 0.13572-0.95932-0.42304zm-704.62-315.56c-7.4401-1.77-14.9-7.7224-18.965-15.132-3.0123-5.4909-2.372-6.7377 3.856-7.5085 3.0338-0.37546 5.9586-1.045 6.4994-1.4878 0.54082-0.44286 3.1845-1.0972 5.8748-1.4541l4.8914-0.64888 2.171 4.3469c1.2408 2.4845 3.0395 4.5801 4.1981 4.891 6.4073 1.7198 12.741-0.67106 15.096-5.6986l1.5575-3.3243h-9.9516-9.9516v-7.1949-7.1949h10.265c7.9837 0 10.009-0.25582 9.1136-1.1512-0.63315-0.63315-1.1512-1.8835-1.1512-2.7786 0-0.89507-1.5801-3.0148-3.5114-4.7104-3.038-2.6674-4.0236-3.0143-7.3109-2.5734-2.5172 0.33763-4.8697 1.5468-6.9703 3.5829-2.9246 2.8346-3.5097 3.0224-7.5362 2.4186-2.401-0.36005-4.5936-1.0238-4.8724-1.4751-0.27887-0.45123-2.3229-1.1272-4.5422-1.5022-2.2194-0.37496-4.9152-1.168-5.9907-1.7623s-2.0712-1.1242-2.2125-1.1776c-0.14135-0.053405 0.32183-1.2128 1.0293-2.5764 1.828-3.5235 9.5031-10.869 12.255-11.729 1.2771-0.39903 2.6299-1.2069 3.0061-1.7954 0.94837-1.483 27.492-1.4463 30.583 0.04231 1.2701 0.61169 2.9568 1.3841 3.7482 1.7164 4.6364 1.947 11.512 7.6249 11.512 9.5067 0 0.51927 0.5995 1.6257 1.3322 2.4587 3.0865 3.5088 5.909 26.794 3.5356 29.168-0.56677 0.56679-1.0305 1.8343-1.0305 2.8167 0 2.7491-4.4813 11.589-7.142 14.089-2.361 2.2181-5.4428 4.2301-8.2072 5.3584-0.79144 0.32302-2.3024 1.0839-3.3576 1.6908-2.1727 1.2497-23.359 1.8512-27.82 0.78987zm149.65 0.14729c-1.5829-0.22535-3.2881-0.80822-3.7893-1.2952-0.50125-0.48703-1.5879-0.8855-2.4148-0.8855-2.8144 0-11.048-8.2742-13.968-14.037-2.7136-5.3556-2.852-6.2145-2.852-17.693 0-11.39 0.15631-12.382 2.7986-17.747 2.9388-5.9679 7.8109-11.919 9.7581-11.919 0.63148 0 1.3966-0.64754 1.7004-1.439 0.3037-0.79144 1.5586-1.439 2.7887-1.439s2.6467-0.40507 3.1479-0.90016c0.50125-0.49509 3.1778-1.1982 5.9478-1.5626l5.0364-0.66241v9.0097c0 8.3367-0.15662 9.0804-2.097 9.9566-4.1801 1.8877-6.023 6.8739-6.023 16.296 0 9.4222 1.8429 14.408 6.023 16.296 1.9374 0.87489 2.097 1.6234 2.097 9.833v8.8861l-2.6381-0.14374c-1.451-0.07905-3.9332-0.32813-5.5161-0.55348zm14.869-7.3204v-8.2909l3.6874-3.6874c4.1024-4.1024 4.9541-6.9246 4.9307-16.338-0.0177-7.148-2.6909-13.303-6.5102-14.989-2.0568-0.90829-2.1579-1.4186-1.9003-9.5932l0.27209-8.6339 5.2763 0.29044c2.9019 0.15974 5.6864 0.69936 6.1876 1.1992 0.50124 0.49979 1.6964 0.90872 2.6559 0.90872 0.95949 0 4.5426 2.798 7.9624 6.2178s6.2178 7.0029 6.2178 7.9624 0.53962 2.2842 1.1992 2.9437c0.84829 0.84829 1.1992 5.2411 1.1992 15.013 0 9.7723-0.35086 14.165-1.1992 15.013-0.65953 0.65953-1.1992 1.89-1.1992 2.7344 0 2.4561-9.4209 12.342-13.77 14.45-2.1876 1.0602-6.4596 2.1894-9.4935 2.5092l-5.5161 0.58148v-8.2909zm176.99 7.3772c-2.1458-0.4673-5.9718-2.0205-8.1542-3.3104-0.79144-0.46774-2.3024-1.2353-3.3576-1.7057-4.0552-1.8076-9.3482-9.9957-11.227-17.367-2.2977-9.0168-1.1398-22.414 2.625-30.374 2.4305-5.1385 11.144-13.755 13.909-13.755 0.82689 0 1.9135-0.38774 2.4148-0.86164 0.50124-0.4739 3.1778-1.162 5.9478-1.529l5.0364-0.66736v8.628c0 8.5815-0.0181 8.6461-3.3576 11.986-1.8467 1.8467-3.3576 4.2387-3.3576 5.3156s-0.4317 2.2248-0.95932 2.5509c-0.52763 0.32609-0.95932 3.348-0.95932 6.7152 0 3.3673 0.43169 6.3892 0.95932 6.7152 0.52762 0.32609 0.95932 1.474 0.95932 2.5509s1.5109 3.4689 3.3576 5.3156c3.3343 3.3343 3.3576 3.417 3.3576 11.896v8.538l-2.6381-0.11128c-1.451-0.06121-3.5015-0.29931-4.5568-0.52911zm14.869-8.1218c0-8.3371 0.15661-9.0807 2.097-9.957 3.5962-1.624 5.8297-6.967 6.3306-15.144 0.37195-6.0726 0.11839-8.1383-1.3465-10.97-2.0415-3.9466-4.6972-6.9704-6.1217-6.9704-0.57313 0-0.95932-3.7186-0.95932-9.2371v-9.2371l4.8803 0.6474c2.6842 0.35607 5.5981 1.0277 6.4754 1.4925 0.87731 0.46483 2.2427 1.1094 3.0341 1.4325 4.7641 1.9444 11.512 7.6229 11.512 9.6876 0 0.62812 0.62639 1.6619 1.392 2.2973 0.76557 0.63537 1.6788 3.0679 2.0293 5.4055 0.35055 2.3377 1.0192 4.4863 1.486 4.7748 1.1203 0.69237 1.101 18.369-0.0208 19.062-0.4782 0.29554-1.1618 2.663-1.5191 5.261-0.37052 2.694-1.2335 4.9477-2.0085 5.2451-0.74737 0.28679-1.3588 1.0949-1.3588 1.7958 0 1.839-6.6575 8.0673-10.977 10.27-2.0316 1.0358-6.2207 2.1691-9.3092 2.5185l-5.6153 0.6353v-9.01zm526.19 8.119c-1.5829-0.25509-3.2881-0.86228-3.7893-1.3493-0.50125-0.48703-1.5879-0.8855-2.4148-0.8855-2.8144 0-11.048-8.2742-13.968-14.037-2.7283-5.3845-2.852-6.1701-2.852-18.1s0.12378-12.715 2.852-18.1c2.9201-5.7631 11.153-14.037 13.968-14.037 0.82689 0 2.0429-0.53962 2.7022-1.1992 0.84407-0.84431 5.1445-1.1992 14.533-1.1992 9.3877 0 13.689 0.3549 14.534 1.1992 0.66 0.65953 2.2064 1.1992 3.4365 1.1992s2.485 0.64754 2.7887 1.439c0.30371 0.79144 1.0689 1.439 1.7003 1.439 1.4205 0 7.2805 5.9383 7.2805 7.3778 0 0.57797 0.64754 1.2993 1.439 1.603 0.79144 0.3037 1.439 1.5586 1.439 2.7887s0.53961 2.7765 1.1992 3.4365c0.8443 0.84484 1.1992 5.1463 1.1992 14.534 0 9.3884-0.35485 13.689-1.1992 14.533-0.65954 0.65933-1.1992 1.8897-1.1992 2.7341 0 2.4126-9.3715 12.309-13.77 14.541-3.2655 1.6572-6.0379 2.0658-15.489 2.2828-6.3315 0.14538-12.807 0.05564-14.39-0.19946zm16.711-17.838c3.9675-2.0255 6.0959-7.0925 6.5793-15.663 0.38981-6.9119 0.18054-8.2262-1.9093-11.992-2.5849-4.6572-5.4887-6.5988-9.8691-6.5988-4.119 0-7.2236 1.8697-9.5108 5.7276-1.6378 2.7627-1.9915 4.9725-1.9958 12.471-0.005 8.0602 0.25792 9.4825 2.2718 12.306 3.4296 4.8085 9.3472 6.3453 14.434 3.7484zm-823.34 16.882c-0.35176-0.35174-0.63955-11.792-0.63955-25.422v-24.782h-10.11-10.11l0.27719-8.3941 0.27717-8.3941 31.418-0.25294 31.418-0.25294v8.6134 8.6134l-9.833 0.27339-9.833 0.27339-0.25575 25.182-0.25577 25.182h-10.856c-5.971 0-11.144-0.2878-11.496-0.63955zm165.55-33.177 0.2521-33.816h11.032 11.032l0.27058 11.306 0.27057 11.306 9.1751-0.2742 9.1751-0.2742 0.14751-11.032 0.14752-11.032 11.272-0.27028 11.272-0.27028v34.117 34.117l-11.272-0.27027-11.272-0.27028-0.26617-13.67-0.26617-13.67h-9.0872-9.0872v13.91 13.91h-11.524-11.524l0.25211-33.816zm158.29 0 0.2521-33.816h9.5932 9.5932l0.2521 33.816 0.25211 33.816h-10.097-10.097l0.25211-33.816zm69.071 0 0.2521-33.816h15.318 15.318l1.1964 6.7152c2.5145 14.113 3.6888 19.533 4.3825 20.227 0.39502 0.39501 0.71822 1.9668 0.71822 3.4929 0 4.8546 1.8046 1.8684 2.4803-4.1045 0.35769-3.1615 0.9913-5.9589 1.408-6.2165 0.41674-0.25756 1.0584-3.2758 1.4258-6.7071 0.36747-3.4314 1.0489-6.4742 1.5143-6.7618 0.46537-0.28762 0.84613-1.5238 0.84613-2.7472 0-4.0161 1.7354-4.4478 16.741-4.1642l14.083 0.26611-0.0475 33.576-0.0475 33.576-9.6083 0.27339-9.6083 0.2734v-16.285c0-9.8221-0.38074-16.521-0.95933-16.878-0.55812-0.34493-0.95932 0.61071-0.95932 2.2851 0 1.5829-0.38076 3.1133-0.84613 3.4009-0.46537 0.28761-1.1468 3.3304-1.5143 6.7618-0.36747 3.4314-1.022 6.4575-1.4544 6.7248-0.43246 0.26729-1.0914 3.5237-1.4642 7.2364l-0.67792 6.7505-10.212-0.27127-10.212-0.27127-0.32472-2.878c-0.17859-1.5829-0.66495-3.3097-1.0808-3.8373-0.41583-0.52763-1.0554-3.4348-1.4212-6.4603-0.36585-3.0255-1.0154-5.7174-1.4434-5.9819-0.42799-0.26451-1.0822-3.7249-1.4537-7.6897-1.205-12.859-2.4305-7.7866-2.4305 10.059v17.268h-10.085-10.085l0.25211-33.816zm82.788 30.698c0.36666-1.7148 0.99865-3.5495 1.4044-4.0771 0.40578-0.52763 1.0533-2.4703 1.439-4.3169 0.38567-1.8467 1.0332-3.7893 1.439-4.3169 0.40577-0.52763 1.0533-2.4703 1.439-4.3169 0.38566-1.8467 1.0332-3.7893 1.439-4.3169 0.40577-0.52763 1.0533-2.4703 1.439-4.3169 0.38567-1.8467 1.0332-3.7893 1.439-4.3169 0.40578-0.52763 1.0442-2.3914 1.4186-4.1417 0.37446-1.7503 1.285-4.3405 2.0235-5.7559 0.73845-1.4154 1.3453-3.3035 1.3486-4.1957 0.003-0.89221 0.40004-1.8658 0.88176-2.1635 0.48172-0.29772 1.1668-2.2636 1.5224-4.3685 0.35563-2.105 0.99181-4.0406 1.4137-4.3013 0.4219-0.26075 1.0705-2.0977 1.4414-4.0821 1.0464-5.5993 1.7722-6.0064 10.711-6.0064h8.055l-0.63021 2.6381c-0.34662 1.451-1.0396 3.1588-1.5398 3.7953-0.50029 0.63642-0.64957 1.5779-0.33173 2.0922 0.31784 0.51428 0.19492 1.1718-0.27317 1.461-0.91361 0.56464-2.4139 6.0695-2.1608 7.9283 0.0844 0.61975-0.28969 1.4007-0.83131 1.7354-0.54163 0.33474-0.98477 1.6369-0.98477 2.8937s-0.43873 2.5562-0.97496 2.8876c-0.53624 0.33141-0.74504 0.9746-0.46402 1.4293 0.28103 0.45471 0.0722 1.0979-0.46401 1.4293-0.53623 0.33141-0.97497 1.6308-0.97497 2.8876s-0.43874 2.5562-0.97497 2.8876c-0.53623 0.33141-0.74504 0.9746-0.46401 1.4293 0.28102 0.45471 0.0722 1.0979-0.46402 1.4293-0.53623 0.33141-0.97496 1.3911-0.97496 2.3549s-0.64489 2.9889-1.4331 4.5002c-0.78818 1.5113-1.4357 3.4539-1.439 4.3169-0.003 0.86303-0.65079 2.8057-1.439 4.3169-0.78819 1.5113-1.4357 3.6472-1.439 4.7464-0.003 1.0992-0.32968 2.3224-0.7254 2.7181-0.39572 0.39572-0.7671 1.0073-0.8253 1.359-0.0582 0.35175-0.43593 2.0426-0.8394 3.7573l-0.73361 3.1178h-9.0699-9.0699l0.66667-3.1178zm49.016 0.95932c-0.31815-1.1872-0.58435-3.1298-0.59156-4.3169-0.008-1.1872-0.44479-2.1585-0.97242-2.1585-0.52762 0-0.95932-0.64754-0.95932-1.439 0-1.1666-1.5489-1.439-8.1843-1.439-6.4206 0-8.3044-0.31273-8.7412-1.4512-0.30628-0.79816-0.11552-1.9853 0.42392-2.6381 0.53944-0.65282 1.2842-2.8106 1.6551-4.795 0.37084-1.9844 1.057-3.8446 1.5248-4.1337 0.46782-0.28913 0.85058-1.3636 0.85058-2.3877 0-1.4885 0.67357-1.862 3.3576-1.862 2.7708 0 3.3576-0.35191 3.3576-2.0135 0-1.1074-0.72033-3.5315-1.6007-5.3868-1.253-2.6404-1.3611-3.757-0.49769-5.1395 0.60667-0.97143 1.3859-3.6198 1.7317-5.8852 0.34576-2.2655 0.95157-4.5507 1.3462-5.0783 0.39467-0.52763 1.0382-2.4561 1.43-4.2855 0.39184-1.8294 1.0428-3.9878 1.4465-4.7966 0.40376-0.80876 1.2464-2.7529 1.8726-4.3204l1.1385-2.8499 1.8129 2.3703c0.9971 1.3037 1.7571 2.802 1.6889 3.3296-0.0682 0.52763 0.44862 2.2544 1.1486 3.8373 0.69993 1.5829 1.33 3.0938 1.4002 3.3576 0.67782 2.5491 1.8316 5.7757 2.9159 8.1542 1.6603 3.6421 2.7228 6.4455 2.9086 7.6746 0.0798 0.52763 0.71583 2.2544 1.4134 3.8373 0.69759 1.5829 1.3258 3.0938 1.3959 3.3576 0.67782 2.5491 1.8316 5.7757 2.9159 8.1542 1.6603 3.642 2.7228 6.4455 2.9086 7.6746 0.0798 0.52763 0.7133 2.2544 1.4078 3.8373 0.69451 1.5829 1.1821 3.385 1.0835 4.0048-0.0986 0.61975 0.26385 1.4007 0.80548 1.7354 0.54162 0.33474 0.98476 1.472 0.98476 2.5273s0.43169 1.6518 0.95932 1.3258c0.52763-0.32609 0.95932-3.5893 0.95932-7.2515v-6.6586h3.2089c6.1309 0 6.3197-0.76906 6.6066-26.917l0.25729-23.447h29.259 29.259v33.576 33.576l-11.256 0.27014-11.256 0.27014-0.25581-25.212-0.25582-25.212-6.4754-0.28366-6.4754-0.28366v18.214c0 11.303-0.36995 18.443-0.97496 18.817-0.53623 0.33141-0.70117 1.0456-0.36651 1.5871 0.64799 1.0485-1.0376 4.9941-3.3056 7.7379-0.75473 0.91304-2.8287 1.9333-4.6087 2.2672-1.7801 0.33394-3.4731 0.98992-3.7622 1.4577-0.28913 0.46781-10.379 0.85057-22.422 0.85057h-21.896l-0.57844-2.1585zm108.76-31.897v-34.123l9.833 0.27339 9.833 0.27339v33.576 33.576l-9.833 0.27339-9.833 0.2734v-34.123zm27.501 33.416c-0.35175-0.35174-0.63955-4.237-0.63955-8.6339v-7.9943h3.929c4.1798 0 9.5015-2.9552 9.5015-5.2763 0-2.3324-5.3222-5.2763-9.5388-5.2763h-3.9664l0.27719-8.3941 0.27718-8.3941 7.0438-0.28365c3.8741-0.15601 7.5435 0.11895 8.1542 0.61103 0.61072 0.49207 2.9429 1.1969 5.1825 1.5663 2.2397 0.36938 4.3321 1.0924 4.65 1.6066 0.31783 0.51425 1.6229 1.3323 2.9002 1.818 1.2773 0.48562 2.7452 1.862 3.2622 3.0586 0.5169 1.1966 1.3055 2.8232 1.7523 3.6147 2.5803 4.5697 3.0294 6.266 3.0294 11.442 0 3.1418-0.43169 5.9791-0.95932 6.3052-0.52763 0.32609-0.95932 1.3717-0.95932 2.3236 0 2.8667-9.0357 10.627-12.373 10.627-1.5744 0-3.1292 0.4317-3.4553 0.95932-0.65246 1.0557-17.041 1.3458-18.067 0.31977zm45.844-0.56595c-0.25443-0.66303-0.3488-15.88-0.20973-33.816l0.25288-32.611h11.032 11.032l0.47966 11.512c0.26381 6.3315 0.80343 11.404 1.1992 11.272 0.39572-0.13191 4.6047-0.23983 9.3534-0.23983h8.6339v-11.542-11.542l11.272 0.27028 11.272 0.27028v33.576 33.576l-11.246 0.27005-11.246 0.27004-0.26636-13.701-0.26636-13.701h-9.1136-9.1136l-0.26617 13.67-0.26616 13.67h-11.036c-7.9748 0-11.164-0.33438-11.499-1.2055zm156.89-8.8674v-10.073h10.553 10.553v10.073 10.073h-10.553-10.553v-10.073zm-512.28-18.626v-8.5535l2.8505-1.2618c5.0623-2.2408 4.8525-8.5313-0.37792-11.33-2.3707-1.2687-2.4726-1.6725-2.4726-9.7951v-8.4718h6.7283c6.0976 0 7.846 0.42513 12.458 3.0294 0.79144 0.44688 2.4103 1.2325 3.5974 1.7458 1.1872 0.51331 2.1585 1.5387 2.1585 2.2785 0 0.7399 0.64754 1.8827 1.439 2.5395 0.79144 0.65684 1.439 2.1952 1.439 3.4185s0.4317 2.491 0.95932 2.8171c1.1758 0.72667 1.2886 15.512 0.12391 16.232-0.45948 0.28398-1.1009 1.8436-1.4253 3.4658-0.71744 3.5872-6.7383 9.4908-10.433 10.23-1.4824 0.29649-2.9277 0.915-3.2117 1.3745-0.28397 0.45947-3.5127 0.83541-7.175 0.83541h-6.6586v-8.5535zm515.16 1.5504c0-2.2688-0.43103-4.5561-0.95788-5.083-0.52686-0.52684-1.2431-8.8307-1.5916-18.453l-0.63373-17.495 10.465 0.27383 10.465 0.27384-0.22755 16.728c-0.13191 9.6919-0.63632 17.137-1.1992 17.699-0.53444 0.53435-0.9716 3.0437-0.9716 5.5763v4.6047h-7.6746-7.6746v-4.1251z"
    />
  </g>
  <metadata>
    <rdf:RDF>
      <cc:Work>
        <dc:format>image/svg+xml</dc:format>
        <dc:type rdf:resource="http://purl.org/dc/dcmitype/StillImage" />
        <cc:license
          rdf:resource="http://creativecommons.org/licenses/publicdomain/"
        />
        <dc:publisher>
          <cc:Agent rdf:about="http://openclipart.org/">
            <dc:title>Openclipart</dc:title>
          </cc:Agent>
        </dc:publisher>
        <dc:title>That is normal!</dc:title>
        <dc:date>2012-02-20T18:33:50</dc:date>
        <dc:description />
        <dc:source
          >https://openclipart.org/detail/168429/that-is-normal!-by-worker</dc:source
        >
        <dc:creator>
          <cc:Agent>
            <dc:title>worker</dc:title>
          </cc:Agent>
        </dc:creator>
        <dc:subject>
          <rdf:Bag>
            <rdf:li>anti</rdf:li>
            <rdf:li>gay</rdf:li>
            <rdf:li>homophobia</rdf:li>
            <rdf:li>is</rdf:li>
            <rdf:li>love</rdf:li>
            <rdf:li>man</rdf:li>
            <rdf:li>men</rdf:li>
            <rdf:li>normal</rdf:li>
            <rdf:li>that</rdf:li>
            <rdf:li>woman</rdf:li>
          </rdf:Bag>
        </dc:subject>
      </cc:Work>
      <cc:License rdf:about="http://creativecommons.org/licenses/publicdomain/">
        <cc:permits rdf:resource="http://creativecommons.org/ns#Reproduction" />
        <cc:permits rdf:resource="http://creativecommons.org/ns#Distribution" />
        <cc:permits
          rdf:resource="http://creativecommons.org/ns#DerivativeWorks"
        />
      </cc:License>
    </rdf:RDF>
  </metadata>
</svg>
