<?xml version="1.0" encoding="UTF-8" standalone="no"?>
<svg
  xmlns:ooo="http://xml.openoffice.org/svg/export"
  xmlns:dc="http://purl.org/dc/elements/1.1/"
  xmlns:cc="http://creativecommons.org/ns#"
  xmlns:rdf="http://www.w3.org/1999/02/22-rdf-syntax-ns#"
  xmlns:svg="http://www.w3.org/2000/svg"
  xmlns="http://www.w3.org/2000/svg"
  xmlns:sodipodi="http://sodipodi.sourceforge.net/DTD/sodipodi-0.dtd"
  xmlns:inkscape="http://www.inkscape.org/namespaces/inkscape"
  version="1.2"
  width="238.125mm"
  height="158.75mm"
  viewBox="0 0 23812.5 15875"
  preserveAspectRatio="xMidYMid"
  xml:space="preserve"
  id="svg2"
  inkscape:version="0.92.3 (2405546, 2018-03-11)"
  sodipodi:docname="TQILA_Anarchism2.svg"
  style="
    fill-rule: evenodd;
    stroke-width: 28.22200012;
    stroke-linejoin: round;
    enable-background: new;
  "
>
  <metadata id="metadata79">
    <rdf:RDF
      ><cc:Work rdf:about=""
        ><dc:format>image/svg+xml</dc:format
        ><dc:type
          rdf:resource="http://purl.org/dc/dcmitype/StillImage" /><dc:title></dc:title></cc:Work
    ></rdf:RDF>
  </metadata>
  <sodipodi:namedview
    pagecolor="#ffffff"
    bordercolor="#666666"
    borderopacity="1"
    objecttolerance="10"
    gridtolerance="10"
    guidetolerance="10"
    inkscape:pageopacity="0"
    inkscape:pageshadow="2"
    inkscape:window-width="1366"
    inkscape:window-height="711"
    id="namedview77"
    showgrid="false"
    inkscape:zoom="0.13958334"
    inkscape:cx="-945.42478"
    inkscape:cy="163.99833"
    inkscape:window-x="0"
    inkscape:window-y="0"
    inkscape:window-maximized="1"
    inkscape:current-layer="layer1"
    showguides="true"
    inkscape:guide-bbox="true"
    inkscape:measure-start="0,0"
    inkscape:measure-end="0,0"
    inkscape:pagecheckerboard="true"
    fit-margin-top="0"
    fit-margin-left="0"
    fit-margin-right="0"
    fit-margin-bottom="0"
  />
  <defs class="ClipPathGroup" id="defs4">
    <clipPath id="presentation_clip_path" clipPathUnits="userSpaceOnUse">
      <rect x="0" y="0" width="76200" height="50800" id="rect7" />
    </clipPath>
    <clipPath id="clipPath3360">
      <rect
        id="rect3362"
        style="
          opacity: 1;
          fill: none;
          fill-rule: evenodd;
          stroke: #000000;
          stroke-width: 1.99999988;
          stroke-linejoin: round;
        "
        y="68.05304"
        x="250.51782"
        height="152"
        width="229"
      />
    </clipPath>
    <clipPath id="clipPath3360-5">
      <rect
        id="rect3362-2"
        style="
          opacity: 1;
          fill: none;
          fill-rule: evenodd;
          stroke: #000000;
          stroke-width: 1.99999988;
          stroke-linejoin: round;
        "
        y="68.05304"
        x="250.51782"
        height="152"
        width="229"
      />
    </clipPath>
    <clipPath id="clipPath3360-8">
      <rect
        id="rect3362-5"
        style="
          opacity: 1;
          fill: none;
          fill-rule: evenodd;
          stroke: #000000;
          stroke-width: 1.99999988;
          stroke-linejoin: round;
        "
        y="68.05304"
        x="250.51782"
        height="152"
        width="229"
      />
    </clipPath>
    <clipPath id="clipPath3360-6">
      <rect
        id="rect3362-1"
        style="
          opacity: 1;
          fill: none;
          fill-rule: evenodd;
          stroke: #000000;
          stroke-width: 1.99999988;
          stroke-linejoin: round;
        "
        y="68.05304"
        x="250.51782"
        height="152"
        width="229"
      />
    </clipPath>
    <clipPath id="clipPath3360-7">
      <rect
        id="rect3362-6"
        style="
          opacity: 1;
          fill: none;
          fill-rule: evenodd;
          stroke: #000000;
          stroke-width: 1.99999988;
          stroke-linejoin: round;
        "
        y="68.05304"
        x="250.51782"
        height="152"
        width="229"
      />
    </clipPath>
    <clipPath id="clipPath3360-5-3">
      <rect
        id="rect3362-2-1"
        style="
          opacity: 1;
          fill: none;
          fill-rule: evenodd;
          stroke: #000000;
          stroke-width: 1.99999988;
          stroke-linejoin: round;
        "
        y="68.05304"
        x="250.51782"
        height="152"
        width="229"
      />
    </clipPath>
    <clipPath id="clipPath3360-8-7">
      <rect
        id="rect3362-5-5"
        style="
          opacity: 1;
          fill: none;
          fill-rule: evenodd;
          stroke: #000000;
          stroke-width: 1.99999988;
          stroke-linejoin: round;
        "
        y="68.05304"
        x="250.51782"
        height="152"
        width="229"
      />
    </clipPath>
    <clipPath id="clipPath3360-6-9">
      <rect
        id="rect3362-1-6"
        style="
          opacity: 1;
          fill: none;
          fill-rule: evenodd;
          stroke: #000000;
          stroke-width: 1.99999988;
          stroke-linejoin: round;
        "
        y="68.05304"
        x="250.51782"
        height="152"
        width="229"
      />
    </clipPath>
  </defs>
  <defs class="TextShapeIndex" id="defs9">
    <g ooo:slide="id1" ooo:id-list="id3 id4 id5" id="g11" />
  </defs>
  <defs class="EmbeddedBulletChars" id="defs13">
    <g
      id="bullet-char-template(57356)"
      transform="matrix(4.8828125e-4,0,0,-4.8828125e-4,0,0)"
    >
      <path
        d="M 580,1141 1163,571 580,0 -4,571 Z"
        id="path16"
        inkscape:connector-curvature="0"
      />
    </g>
    <g
      id="bullet-char-template(57354)"
      transform="matrix(4.8828125e-4,0,0,-4.8828125e-4,0,0)"
    >
      <path
        d="M 8,1128 H 1137 V 0 H 8 Z"
        id="path19"
        inkscape:connector-curvature="0"
      />
    </g>
    <g
      id="bullet-char-template(10146)"
      transform="matrix(4.8828125e-4,0,0,-4.8828125e-4,0,0)"
    >
      <path
        d="M 174,0 602,739 174,1481 1456,739 Z M 1358,739 309,1346 659,739 Z"
        id="path22"
        inkscape:connector-curvature="0"
      />
    </g>
    <g
      id="bullet-char-template(10132)"
      transform="matrix(4.8828125e-4,0,0,-4.8828125e-4,0,0)"
    >
      <path
        d="M 2015,739 1276,0 H 717 l 543,543 H 174 v 393 h 1086 l -543,545 h 557 z"
        id="path25"
        inkscape:connector-curvature="0"
      />
    </g>
    <g
      id="bullet-char-template(10007)"
      transform="matrix(4.8828125e-4,0,0,-4.8828125e-4,0,0)"
    >
      <path
        d="m 0,-2 c -7,16 -16,29 -25,39 l 381,530 c -94,256 -141,385 -141,387 0,25 13,38 40,38 9,0 21,-2 34,-5 21,4 42,12 65,25 l 27,-13 111,-251 280,301 64,-25 24,25 c 21,-10 41,-24 62,-43 C 886,937 835,863 770,784 769,783 710,716 594,584 L 774,223 c 0,-27 -21,-55 -63,-84 l 16,-20 C 717,90 699,76 672,76 641,76 570,178 457,381 L 164,-76 c -22,-34 -53,-51 -92,-51 -42,0 -63,17 -64,51 -7,9 -10,24 -10,44 0,9 1,19 2,30 z"
        id="path28"
        inkscape:connector-curvature="0"
      />
    </g>
    <g
      id="bullet-char-template(10004)"
      transform="matrix(4.8828125e-4,0,0,-4.8828125e-4,0,0)"
    >
      <path
        d="M 285,-33 C 182,-33 111,30 74,156 52,228 41,333 41,471 c 0,78 14,145 41,201 34,71 87,106 158,106 53,0 88,-31 106,-94 l 23,-176 c 8,-64 28,-97 59,-98 l 735,706 c 11,11 33,17 66,17 42,0 63,-15 63,-46 V 965 c 0,-36 -10,-64 -30,-84 L 442,47 C 390,-6 338,-33 285,-33 Z"
        id="path31"
        inkscape:connector-curvature="0"
      />
    </g>
    <g
      id="bullet-char-template(9679)"
      transform="matrix(4.8828125e-4,0,0,-4.8828125e-4,0,0)"
    >
      <path
        d="M 813,0 C 632,0 489,54 383,161 276,268 223,411 223,592 c 0,181 53,324 160,431 106,107 249,161 430,161 179,0 323,-54 432,-161 108,-107 162,-251 162,-431 0,-180 -54,-324 -162,-431 C 1136,54 992,0 813,0 Z"
        id="path34"
        inkscape:connector-curvature="0"
      />
    </g>
    <g
      id="bullet-char-template(8226)"
      transform="matrix(4.8828125e-4,0,0,-4.8828125e-4,0,0)"
    >
      <path
        d="m 346,457 c -73,0 -137,26 -191,78 -54,51 -81,114 -81,188 0,73 27,136 81,188 54,52 118,78 191,78 73,0 134,-26 185,-79 51,-51 77,-114 77,-187 0,-75 -25,-137 -76,-188 -50,-52 -112,-78 -186,-78 z"
        id="path37"
        inkscape:connector-curvature="0"
      />
    </g>
    <g
      id="bullet-char-template(8211)"
      transform="matrix(4.8828125e-4,0,0,-4.8828125e-4,0,0)"
    >
      <path
        d="M -4,459 H 1135 V 606 H -4 Z"
        id="path40"
        inkscape:connector-curvature="0"
      />
    </g>
  </defs>
  <defs class="TextEmbeddedBitmaps" id="defs42" />
  <g id="g44" transform="translate(-26193.75,-17462.5)">
    <g id="id2" class="Master_Slide">
      <g id="bg-id2" class="Background" />
      <g id="bo-id2" class="BackgroundObjects" />
    </g>
  </g>
  <rect
    class="BoundingBox"
    x="6344.25"
    y="-10788.5"
    width="11123"
    height="10732"
    id="rect66"
    style="fill: none; stroke: none"
  />
  <rect
    class="BoundingBox"
    x="-19288.75"
    y="4686.5"
    width="62387"
    height="17694"
    id="rect73"
    style="fill: none; stroke: none"
  />
  <g
    inkscape:groupmode="layer"
    id="layer2"
    inkscape:label="Field"
    style="display: inline"
    transform="translate(-26193.75,-17462.5)"
    sodipodi:insensitive="true"
  >
    <g
      class="com.sun.star.drawing.PolyPolygonShape"
      id="g56"
      style="display: inline; fill: #f05b72; fill-opacity: 1; stroke: none"
      transform="matrix(0.3124959,0,0,0.3124877,26193.75,17462.813)"
    >
      <g id="id3" style="fill: #f05b72; fill-opacity: 1; stroke: none">
        <rect
          class="BoundingBox"
          x="0"
          y="-1"
          width="76201"
          height="50802"
          id="rect59"
          style="fill: #f05b72; fill-opacity: 1; stroke: none"
        />
      </g>
    </g>
    <g
      style="
        display: inline;
        fill-rule: evenodd;
        stroke-width: 28.22200012;
        stroke-linejoin: round;
        enable-background: new;
      "
      transform="matrix(26.458335,0,0,29.398149,-4810.3174,-11325.208)"
      id="layer1-84"
      inkscape:label="Field"
    >
      <g
        inkscape:label="Field"
        id="layer2-0"
        transform="translate(23.646216,-330.72202)"
      >
        <g
          id="layer1-6"
          inkscape:label="Field"
          style="display: inline"
          transform="matrix(1.125,0,0,1.125,-139.35018,-734.72924)"
        />
        <g
          transform="translate(23.104699,-147.29241)"
          id="layer1-2"
          inkscape:label="Field"
          style="display: inline"
        >
          <g id="g865" transform="translate(995.63388,805.9502)">
            <g
              transform="translate(50,-90)"
              inkscape:label="Field"
              id="layer1-8"
            />
            <g
              transform="matrix(1,0,0,0.85714288,-8.6642661,216.26094)"
              id="g864"
              style="enable-background: new"
            >
              <path
                style="stroke-width: 1.02469516"
                sodipodi:nodetypes="cccc"
                inkscape:connector-curvature="0"
                id="rect2-1"
                d="M 1038.0866,507.54512 V 1137.5451 H 138.08664 Z"
              />
            </g>
          </g>
        </g>
      </g>
    </g>
  </g>
  <g
    inkscape:groupmode="layer"
    id="layer1"
    inkscape:label="Emblem"
    style="display: inline"
    sodipodi:insensitive="true"
  >
    <path
      transform="translate(-26193.75,-17462.5)"
      inkscape:connector-curvature="0"
      d="m 38100,19322.852 a 1902.1804,1901.6927 0 0 1 0,3803.385 1902.1804,1901.6927 0 0 1 0,-3803.385 z m -481.886,1876.336 h 963.772 L 38100,20165.935 Z m 1153.99,405.695 h -1344.208 l -339.222,725.812 a 1499.5522,1499.1677 0 0 0 2022.652,0 z m -418.48,-1854.151 1039.859,2231.32 a 1499.5522,1499.1677 0 0 0 -1039.859,-2231.32 z m -507.248,0 a 1499.5522,1499.1677 0 0 0 -1039.859,2231.32 z"
      id="path5824"
      style="
        display: inline;
        fill: #ffffff;
        fill-rule: evenodd;
        stroke-width: 178.92150879;
        stroke-linejoin: round;
        enable-background: new;
      "
    />
    <path
      transform="translate(-26193.75,-17462.5)"
      d="m 48017.74,25474.975 c -135.822,-20.994 -324.764,-115.464 -382.018,-267.19 h -222.657 v 36.58 h -44.532 v -57.573 h -82.701 v -57.255 h -65.525 v -781.211 c 0,-32.762 -26.402,-59.163 -59.482,-59.163 h -259.556 c -32.762,0 -59.163,26.401 -59.163,59.163 v 189.259 l -312.357,649.207 v 57.573 h -1348.671 v -49.303 c -402.693,0 -575.093,-312.357 -698.827,-542.649 h -1438.688 v -41.032 h -320.627 v -6.68 c 0,-32.444 -26.402,-59.164 -58.846,-59.164 h -50.894 c -7.634,-23.856 -29.581,-41.032 -55.981,-41.032 l -2109.525,-65.843 c -20.04,0 -37.216,9.86 -48.031,24.492 h -75.703 c -32.763,0 -59.164,27.037 -59.164,59.481 v 22.902 h -123.098 v -137.73 c 0,-33.08 -26.401,-59.481 -59.163,-59.481 h -299.634 c -5.725,-27.991 -30.536,-49.303 -60.436,-49.303 -27.037,0 -49.621,17.177 -58.209,41.033 h -743.359 c -4.772,-6.68 -12.406,-11.133 -20.993,-11.133 h -113.557 c -8.587,0 -16.221,4.453 -20.675,11.133 h -38.17 v -20.358 l -61.707,-41.032 v 90.336 h 94.788 v 41.669 c 0,14.313 11.769,26.082 25.764,26.082 h 25.447 v 18.767 c 0,5.725 4.772,9.861 9.861,9.861 h 3.499 c -18.767,3.498 -31.172,11.451 -38.17,22.901 -11.769,0 -22.902,0 -34.671,0 v 156.179 h -4587.388 c 0,0 -57.891,-17.813 -106.876,7.952 -48.985,26.083 -82.383,57.573 -82.383,57.573 l -188.306,213.752 h -107.512 l -98.605,139.956 h 83.019 l -158.723,180.671 h -80.475 l 2.545,25.447 c -215.978,14.949 -1233.843,206.117 -1383.978,237.607 -156.179,33.081 -304.087,49.621 -427.503,0 -123.098,-49.302 -296.135,-139.956 -550.601,-114.827 -254.785,24.492 -2746.008,296.135 -2779.089,369.93 -4.135,9.542 -8.588,17.812 -13.359,25.446 -7.634,-21.311 -21.948,-36.579 -44.214,-25.446 -37.215,18.766 -73.795,49.302 -32.444,255.102 40.715,205.482 221.704,1602.819 229.974,1742.775 7.952,139.638 90.653,148.226 123.098,123.416 -0.955,-5.725 -1.591,-11.769 -2.545,-17.812 30.536,11.45 79.839,10.496 158.723,-23.539 173.037,-73.795 4637.01,-1594.866 4817.999,-1652.439 l 180.671,-6.998 v 87.473 c 0,22.265 12.723,41.669 30.535,51.847 l -5.725,-0.636 c -24.81,73.796 -41.033,156.179 32.763,263.055 74.113,106.876 33.08,279.594 -16.222,435.773 -49.621,156.179 -213.752,616.763 -320.628,888.087 -106.876,271.325 7.952,369.93 98.606,443.725 90.017,73.795 410.645,123.098 591.952,82.384 180.671,-41.033 180.671,-164.767 180.671,-197.212 0,-33.08 0,-123.415 24.81,-205.799 24.493,-82.383 369.93,-879.817 435.773,-1035.995 62.981,-150.772 141.866,-232.201 229.02,-304.406 99.242,158.088 196.893,238.244 321.581,238.563 124.053,0 419.87,-7.953 608.811,-7.953 167.947,0 271.642,-101.786 327.625,-213.751 h 158.723 l 22.902,57.255 -24.492,213.751 40.715,16.541 79.52,-287.547 h 9.543 c 32.762,0 59.163,-26.719 59.163,-59.164 v -357.843 h 76.658 v 115.147 h 143.773 c 191.168,1180.086 843.237,2549.114 2410.749,3499.863 l 81.43,-128.823 460.901,-726.819 156.179,-246.196 c -1268.515,-866.776 -1697.608,-1882.414 -1834.065,-2800.719 l 1086.252,-44.213 v -0.954 c 0,32.444 26.402,59.163 58.845,59.163 h 162.859 v 22.902 c 0,32.445 26.401,58.846 59.163,58.846 0,0 146.636,0 235.063,-17.177 89.063,-17.813 363.251,-105.922 437.682,-122.144 73.795,-16.858 221.704,-25.129 345.12,-25.129 123.098,0 2070.082,-65.525 2070.082,-65.525 22.901,0 42.941,-13.677 52.484,-33.08 h 70.932 c 15.586,0 29.899,-6.043 40.397,-16.222 h 59.799 v -98.924 h 1660.392 v 41.351 h 148.226 v -41.351 h 2376.077 v 33.08 h 164.45 v -116.418 c 11.132,9.225 19.721,21.312 22.902,34.035 h 75.703 v -98.606 h 156.497 v -48.985 h 44.532 v 40.715 h 608.81 v -90.653 c -0.954,0 -1.908,0.636 -4.135,0.636 z m -1299.368,-467.264 c 0,-32.444 25.128,-190.849 190.849,-190.849 h 177.808 c 32.445,0 58.846,26.4 58.846,59.481 v 160.95 c 0,32.445 -26.401,59.164 -58.846,59.164 h -308.858 c -33.08,0 -59.799,-26.719 -59.799,-59.164 z m -2359.219,22.902 v 213.752 h -1405.608 v -131.368 h -230.609 v -74.114 h 320.627 v -16.222 h 904.308 v 7.952 z m -748.131,-336.849 c 22.902,0 41.351,18.448 41.351,41.351 0,22.265 -18.449,40.714 -41.351,40.714 -22.901,0 -41.351,-18.449 -41.351,-40.714 0,-22.903 18.45,-41.351 41.351,-41.351 z m -180.671,0 c 22.266,0 40.715,18.448 40.715,41.351 0,22.265 -18.449,40.714 -40.715,40.714 -22.902,0 -41.351,-18.449 -41.351,-40.714 0,-22.903 18.449,-41.351 41.351,-41.351 z m -181.307,0 c 22.902,0 41.351,18.448 41.351,41.351 0,22.265 -18.449,40.714 -41.351,40.714 -22.266,0 -41.033,-18.449 -41.033,-40.714 0,-22.903 18.767,-41.351 41.033,-41.351 z m -4380.635,-228.383 h 3.181 c 5.408,0 9.543,-4.136 9.543,-9.861 v -18.767 h 18.767 c 14.313,0 26.082,-11.769 26.082,-26.082 v -41.669 h 565.869 c -183.215,87.154 -344.483,111.965 -586.226,117.69 -7.316,-10.815 -18.767,-17.813 -37.216,-21.311 z m -2952.125,2390.709 c -189.896,0 -486.031,8.27 -608.811,8.27 -92.561,0.318 -173.991,-60.118 -272.278,-218.523 50.257,-53.755 50.257,-92.88 50.257,-127.233 0,-40.714 -65.525,-81.747 -65.525,-81.747 32.444,0 60.117,-11.133 62.98,-37.216 l 1.59,-195.302 c 42.305,28.309 87.155,49.302 107.831,60.117 49.62,24.175 98.923,32.444 131.368,180.353 33.08,148.227 197.529,255.102 329.215,287.547 71.887,18.449 90.336,-24.174 16.541,-40.715 -161.586,-35.943 -255.103,-197.211 -263.373,-254.784 -7.952,-57.573 16.54,-197.529 98.924,-288.183 l 156.179,-7.952 14.313,-38.17 503.207,-20.994 v 567.46 c 0,9.542 3.181,18.767 7.316,27.037 -48.031,98.287 -131.368,179.717 -270.37,180.035 z m 6412.229,-1744.366 c 0,32.445 -26.4,58.845 -58.846,58.845 h -556.008 c -33.081,0 -59.481,-26.4 -59.481,-58.845 v -23.538 h -419.233 v 23.538 c 0,32.445 -26.402,58.845 -59.164,58.845 h -555.69 c -32.445,0 -59.164,-26.4 -59.164,-58.845 v -23.538 h -65.525 v -65.525 h 65.525 v -31.172 c 0,-33.08 26.719,-59.481 59.164,-59.481 h 555.69 c 32.762,0 59.164,26.401 59.164,59.481 v 31.172 h 419.233 v -31.172 c 0,-33.08 26.4,-59.481 59.481,-59.481 h 556.008 c 32.446,0 58.846,26.401 58.846,59.481 v 31.172 h 188.941 v 65.525 h -188.941 z m 435.773,527.699 v -49.302 h 189.259 v -66.161 h 1405.608 v 98.605 h 65.525 v 16.858 z m 4086.09,-66.161 v 66.161 h -2277.472 v -16.858 h 90.653 v -32.444 h 517.521 v -66.161 h 1348.671 v 49.302 z"
      id="path4546"
      inkscape:connector-curvature="0"
      style="
        display: inline;
        fill: #ffffff;
        fill-rule: evenodd;
        stroke: none;
        stroke-width: 8.97692966;
        stroke-linejoin: round;
        enable-background: new;
      "
    />
    <g
      transform="matrix(26.458333,0,0,26.458333,-37499.749,5354.8511)"
      style="display: inline"
      inkscape:label="Field"
      id="layer1-27"
    />
  </g>
</svg>
