<?xml version="1.0" encoding="UTF-8" standalone="no"?>
<!-- Created with Inkscape (http://www.inkscape.org/) -->
<svg
  xmlns:dc="http://purl.org/dc/elements/1.1/"
  xmlns:cc="http://creativecommons.org/ns#"
  xmlns:rdf="http://www.w3.org/1999/02/22-rdf-syntax-ns#"
  xmlns:svg="http://www.w3.org/2000/svg"
  xmlns="http://www.w3.org/2000/svg"
  xmlns:sodipodi="http://sodipodi.sourceforge.net/DTD/sodipodi-0.dtd"
  xmlns:inkscape="http://www.inkscape.org/namespaces/inkscape"
  width="578.22107"
  height="631.4931"
  id="svg3599"
  version="1.1"
  inkscape:version="0.48.4 r9939"
  sodipodi:docname="wirehanger_never_again_2.svg"
>
  <defs id="defs3601" />
  <sodipodi:namedview
    id="base"
    pagecolor="#ffffff"
    bordercolor="#666666"
    borderopacity="1.0"
    inkscape:pageopacity="0.0"
    inkscape:pageshadow="2"
    inkscape:zoom="0.35"
    inkscape:cx="305.89631"
    inkscape:cy="283.01114"
    inkscape:document-units="px"
    inkscape:current-layer="layer1"
    showgrid="false"
    fit-margin-top="0"
    fit-margin-left="0"
    fit-margin-right="0"
    fit-margin-bottom="0"
    inkscape:window-width="515"
    inkscape:window-height="455"
    inkscape:window-x="0"
    inkscape:window-y="26"
    inkscape:window-maximized="0"
  />
  <metadata id="metadata3604">
    <rdf:RDF>
      <cc:Work rdf:about="">
        <dc:format>image/svg+xml</dc:format>
        <dc:type rdf:resource="http://purl.org/dc/dcmitype/StillImage" />
        <dc:title />
      </cc:Work>
    </rdf:RDF>
  </metadata>
  <g
    inkscape:label="Layer 1"
    inkscape:groupmode="layer"
    id="layer1"
    transform="translate(-69.103694,-309.59453)"
  >
    <g
      transform="matrix(0.62739034,0,0,0.62739034,1622.3456,546.66671)"
      id="g3554"
    >
      <path
        transform="matrix(1.1041667,0,0,1.1041667,-3392.7344,-329.28052)"
        d="m 1595.073,596.81024 c 0,29.96376 -155.4588,54.25419 -347.2268,54.25419 -191.7681,0 -347.22678,-24.29043 -347.22678,-54.25419 0,-29.96376 155.45868,-54.25418 347.22678,-54.25418 191.768,0 347.2268,24.29042 347.2268,54.25418 z"
        sodipodi:ry="54.254185"
        sodipodi:rx="347.22678"
        sodipodi:cy="596.81024"
        sodipodi:cx="1247.8462"
        id="path3242"
        style="fill: #ff0000; stroke: none"
        sodipodi:type="arc"
      />
      <path
        style="
          fill: none;
          stroke: #000000;
          stroke-width: 6;
          stroke-linecap: butt;
          stroke-linejoin: miter;
          stroke-opacity: 1;
        "
        d="m -1925.1608,-87.517107 c -7.2291,-25.321583 -13.2573,-37.663303 -27.0987,-41.769333 -13.8414,-4.10602 -31.4843,1.4089 -40.3422,14.55827 -8.8579,13.1494 -5.0729,34.54752 4.4155,53.346544 6.6401,13.155592 7.5525,34.124469 8.4246,43.809589 0.8721,9.685133 0.083,23.884747 -2.2498,38.797717 -2.3329,14.912971 -3.9082,28.034724 8.9506,34.343194 12.8587,6.30845 18.9393,5.58863 38.489,17.95685 49.7294,37.914836 106.7499,75.988886 147.8235,106.140236 16.3514,12.01065 26.9443,21.99458 35.6151,35.61758 11.6551,18.31182 19.3453,26.66307 32.7654,19.30473 8.6029,-4.717 23.6937,3.10399 28.6691,16.91066 8.2658,22.93734 2.4066,29.33362 -1.0415,29.04252 -27.8437,-2.35069 -272.4784,-46.78203 -312.4111,-53.98374 -39.9329,-7.20175 -322.2211,-43.90711 -340.8524,-47.03242 -5.1215,-0.85907 -8.4728,-3.85243 -3.1406,-13.52187 5.3321,-9.66944 20.6028,-33.483 35.7789,-21.92042 19.0548,14.51769 32.9796,2.59943 41.3735,-8.60444 12.382,-16.527 15.3553,-12.57477 53.3265,-27.30518 38.5493,-14.954636 149.3409,-49.854246 190.0176,-56.451726 25.4729,-4.13156 30.6286,-1.54128 31.3947,-12.992592 1.2486,-18.663372 6.1744,-22.710892 10.9173,-25.975461 5.5893,-3.847147 12.7022,-3.272256 7.0963,-6.73788 -5.6059,-3.465634 -10.4866,-5.361691 -4.9142,-7.887595 5.5725,-2.525913 11.4564,-8.077132 5.0458,-10.536103 -6.4105,-2.458961 -11.0549,-1.729372 -5.1859,-6.150392 5.8689,-4.421035 6.3577,-5.477109 6.4478,-12.258294 0.09,-6.781174 0.09,-6.781174 0.09,-6.781174"
        id="path3244"
        inkscape:connector-curvature="0"
        sodipodi:nodetypes="czzssssccssssssssssssssssssc"
      />
      <path
        sodipodi:nodetypes="cc"
        inkscape:connector-curvature="0"
        id="path3246"
        d="m -1921.8077,-49.302549 c 66.5986,88.798151 -66.5986,88.798151 0,0 z"
        style="fill: #ff0000; stroke: none"
      />
      <path
        style="fill: #ff0000; stroke: none"
        d="m -1873.127,141.67529 c 66.5986,88.79815 -66.5987,88.79815 0,0 z"
        id="path3252"
        inkscape:connector-curvature="0"
        sodipodi:nodetypes="cc"
      />
      <g id="g3550">
        <path
          inkscape:connector-curvature="0"
          style="
            font-size: 177.24485779px;
            font-style: normal;
            font-variant: normal;
            font-weight: normal;
            font-stretch: normal;
            line-height: 125%;
            letter-spacing: 0px;
            word-spacing: 0px;
            fill: #000000;
            fill-opacity: 1;
            stroke: none;
            font-family: Purisa;
            -inkscape-font-specification: Purisa;
          "
          d="m 293.625,161.65625 c -7.2081,1.5e-4 -13.9942,0.84586 -20.375,2.5 -6.3809,1.53626 -11.36135,3.23453 -14.90625,5.125 -3.4267,1.89075 -6.6084,3.65834 -9.5625,5.3125 -2.9541,1.53625 -5.0752,2.31263 -6.375,2.3125 -0.709,1.3e-4 -1.52345,0.42298 -2.46875,1.25 -0.9454,0.7091 -1.96775,2.29994 -3.03125,4.78125 -0.9453,2.36338 -1.40625,5.29897 -1.40625,8.84375 0,4.37215 0.39155,10.87418 1.21875,19.5 1.0634,11.10742 2.01655,24.53435 2.84375,40.25 0.9453,15.59758 1.791,27.36434 2.5,35.28125 0.709,7.79879 1.7002,12.46388 3,14 1.5361,2.2451 6.02445,3.34375 13.46875,3.34375 12.2889,0 24.83205,-2.47465 37.59375,-7.4375 12.8797,-5.08101 19.3124,-9.67677 19.3125,-13.8125 -10e-5,-1.29978 -0.59965,-2.60643 -1.78125,-3.90625 -1.1817,-1.41793 -2.34965,-2.12497 -3.53125,-2.125 -1.2999,3e-5 -3.80575,0.99124 -7.46875,3 -5.4355,2.9541 -12.2911,5.56741 -20.5625,7.8125 -8.1533,2.12695 -14.8702,3.18751 -20.1875,3.1875 l -9.03125,0 -0.53125,-15.25 c -0.2363,-14.6522 -0.375,-22.03804 -0.375,-22.15625 0,-2.24505 1.02245,-3.90523 3.03125,-4.96875 2.1269,-1.06342 7.60645,-2.65425 16.46875,-4.78125 12.0525,-3.07218 20.1073,-5.4394 24.125,-7.09375 4.0174,-1.65422 5.9999,-3.52924 6,-5.65625 -10e-5,-2.954 -1.7676,-4.43742 -5.3125,-4.4375 -2.9541,8e-5 -10.20135,1.37607 -21.78125,4.09375 -11.4618,2.71783 -18.21005,4.66219 -20.21875,5.84375 -0.4727,0.35456 -0.8956,0.53131 -1.25,0.53125 -1.2998,6e-5 -2.291,-4.91113 -3,-14.71875 -0.3545,-4.37196 -0.7774,-8.79096 -1.25,-13.28125 -0.4727,-4.4901 -0.8262,-7.74112 -1.0625,-9.75 -0.1182,-2.12683 -0.1875,-3.54092 -0.1875,-4.25 0,-3.30846 0.915,-5.85244 2.6875,-7.625 2.8359,-2.71764 8.31545,-5.50771 16.46875,-8.34375 8.1533,-2.95395 16.8457,-5.1825 26.0625,-6.71875 11.3436,-2.00865 17,-3.84559 17,-5.5 0,-3.4266 -5.3723,-5.1561 -16.125,-5.15625 z m 234.03125,0 c -7.2081,1.5e-4 -14.02545,0.84586 -20.40625,2.5 -6.3809,1.53626 -11.3301,3.23453 -14.875,5.125 -3.4267,1.89075 -6.6084,3.65834 -9.5625,5.3125 -2.9541,1.53625 -5.0752,2.31263 -6.375,2.3125 -0.709,1.3e-4 -1.5547,0.42298 -2.5,1.25 -0.9454,0.7091 -1.9365,2.29994 -3,4.78125 -0.9453,2.36338 -1.4375,5.29897 -1.4375,8.84375 0,4.37215 0.4228,10.87418 1.25,19.5 1.0634,11.10742 2.01655,24.53435 2.84375,40.25 0.9453,15.59758 1.75975,27.36434 2.46875,35.28125 0.709,7.79879 1.73145,12.46388 3.03125,14 1.5361,2.2451 6.02445,3.34375 13.46875,3.34375 12.2889,0 24.8008,-2.47465 37.5625,-7.4375 12.8797,-5.08101 19.3124,-9.67677 19.3125,-13.8125 -10e-5,-1.29978 -0.5684,-2.60643 -1.75,-3.90625 -1.1817,-1.41793 -2.3809,-2.12497 -3.5625,-2.125 -1.2999,3e-5 -3.7745,0.99124 -7.4375,3 -5.4355,2.9541 -12.2911,5.56741 -20.5625,7.8125 -8.1533,2.12695 -14.90145,3.18751 -20.21875,3.1875 l -9.03125,0 -0.53125,-15.25 C 486.10745,260.9728 486,253.58696 486,253.46875 c 0,-2.24505 0.9912,-3.90523 3,-4.96875 2.1269,-1.06342 7.6377,-2.65425 16.5,-4.78125 12.0525,-3.07218 20.07605,-5.4394 24.09375,-7.09375 4.0174,-1.65422 6.03115,-3.52924 6.03125,-5.65625 -10e-5,-2.954 -1.7676,-4.43742 -5.3125,-4.4375 -2.9541,8e-5 -10.2326,1.37607 -21.8125,4.09375 -11.4619,2.71783 -18.1788,4.66219 -20.1875,5.84375 -0.4727,0.35456 -0.8956,0.53131 -1.25,0.53125 -1.2998,6e-5 -2.32225,-4.91113 -3.03125,-14.71875 -0.3545,-4.37196 -0.74615,-8.79096 -1.21875,-13.28125 -0.4727,-4.4901 -0.8262,-7.74112 -1.0625,-9.75 -0.1182,-2.12683 -0.1875,-3.54092 -0.1875,-4.25 0,-3.30846 0.88375,-5.85244 2.65625,-7.625 2.8359,-2.71764 8.3467,-5.50771 16.5,-8.34375 8.1533,-2.95395 16.81445,-5.1825 26.03125,-6.71875 11.3436,-2.00865 17.03125,-3.84559 17.03125,-5.5 0,-3.4266 -5.3723,-5.1561 -16.125,-5.15625 z m -425.3125,1.25 c -3.5449,1.4e-4 -5.9503,1.48356 -7.25,4.4375 -0.709,1.77258 -1.4854,15.34502 -2.3125,40.75 -0.8272,25.287 -1.21875,45.50015 -1.21875,60.625 -1e-4,8.7441 0.2842,15.06938 0.875,18.96875 0.5908,3.78123 1.40525,6.14846 2.46875,7.09375 1.1816,0.94532 3.19535,1.47559 6.03125,1.59375 1.8906,0 3.62015,-2.72073 5.15625,-8.15625 1.6543,-5.55365 2.46865,-11.34865 2.46875,-17.375 -1e-4,-1.1816 -0.24615,-4.00976 -0.71875,-8.5 -0.4727,-4.49015 -0.6875,-9.75487 -0.6875,-15.78125 0,-11.69809 0.53025,-23.74903 1.59375,-36.15625 1.0635,-12.5252 2.16205,-18.78114 3.34375,-18.78125 0.2363,1.1e-4 0.41305,0.10753 0.53125,0.34375 0.1181,0.3546 3.96875,6.39569 11.53125,18.09375 7.5624,11.58008 11.76655,19.18076 12.59375,22.84375 0.5908,2.24517 1.19035,4.0821 1.78125,5.5 0.5907,1.29986 1.2978,2.67585 2.125,4.09375 0.8271,1.29985 2.4561,4.23544 4.9375,8.84375 2.4814,4.49025 5.34075,9.93173 8.53125,16.3125 6.4989,13.2343 12.82415,22.91802 18.96875,29.0625 6.1444,6.14448 13.03805,9.21875 20.71875,9.21875 4.372,0 7.3387,-2.6514 8.875,-7.96875 1.6541,-5.4355 3.1376,-17.13292 4.4375,-35.09375 1.0634,-13.47056 2.16195,-26.19044 3.34375,-38.125 1.2996,-11.93439 2.25275,-20.73432 2.84375,-26.40625 0.5907,-5.67173 0.8749,-9.80654 0.875,-12.40625 -1e-4,-3.7811 -0.46105,-6.4325 -1.40625,-7.96875 -0.8272,-1.53599 -2.2414,-2.31237 -4.25,-2.3125 -1.0636,1.3e-4 -1.94745,0.0695 -2.65625,0.1875 -2.836,0.70911 -4.84975,3.67594 -6.03125,8.875 -1.4181,5.79011 -3.1856,25.51107 -5.3125,59.1875 -0.4727,8.62597 -1.00305,16.0118 -1.59375,22.15625 -0.4727,6.02635 -0.965,10.58403 -1.4375,13.65625 -0.4728,2.9541 -1.00305,5.25198 -1.59375,6.90625 -0.591,1.6543 -1.05185,2.60743 -1.40625,2.84375 -0.3546,0.23634 -0.7775,0.34376 -1.25,0.34375 -3.7813,10e-6 -11.80485,-12.12026 -24.09375,-36.34375 -5.6719,-11.22545 -11.1827,-21.26269 -16.5,-30.125 -5.1992,-8.98032 -8.84185,-15.0595 -10.96875,-18.25 -2.127,-3.30848 -3.1875,-5.32217 -3.1875,-6.03125 0,-1.18153 -3.6739,-6.90719 -11,-17.1875 -7.2079,-10.39824 -11.5889,-16.08581 -13.125,-17.03125 -2.0088,-1.29965 -4.02255,-1.93736 -6.03125,-1.9375 z m 241.8125,2.84375 c -1.5361,1.3e-4 -3.12695,0.88394 -4.78125,2.65625 -1.6543,1.77258 -2.46885,3.78628 -2.46875,6.03125 -10e-5,2.83605 1.59075,6.47866 4.78125,10.96875 3.1904,4.49031 4.78125,7.21105 4.78125,8.15625 0,1.41807 3.14355,10.21799 9.40625,26.40625 l 18.59375,49.8125 c 5.0809,13.82512 8.7549,22.5557 11,26.21875 2.3633,3.5449 5.4756,5.34375 9.375,5.34375 2.0087,0 4.09175,-1.55276 6.21875,-4.625 2.245,-3.1904 5.5654,-9.51568 9.9375,-18.96875 7.9169,-17.60628 13.39635,-30.8252 16.46875,-39.6875 2.4813,-7.56238 5.663,-16.43163 9.5625,-26.59375 3.8993,-10.2801 6.8662,-18.37297 8.875,-24.28125 2.1269,-5.90804 3.1873,-10.1122 3.1875,-12.59375 -2e-4,-1.65416 -0.53035,-2.9989 -1.59375,-4.0625 -1.0635,-1.06334 -2.0548,-1.73229 -3,-1.96875 -0.9454,-0.35435 -1.7912,-0.53112 -2.5,-0.53125 -2.3634,1.3e-4 -6.3215,6.57151 -11.875,19.6875 -5.5538,13.11622 -10.11145,25.8742 -13.65625,38.28125 -2.4815,8.50782 -6.47775,19.56753 -12.03125,33.15625 -5.4356,13.47064 -8.64845,20.18752 -9.59375,20.1875 -2.127,2e-5 -8.31355,-14.94841 -18.59375,-44.84375 -3.3086,-9.57114 -6.73635,-18.65524 -10.28125,-27.28125 -3.4268,-8.74397 -5.9014,-14.96183 -7.4375,-18.625 -1.5361,-3.7811 -2.3125,-6.36317 -2.3125,-7.78125 0,-2.36314 -0.59965,-3.56237 -1.78125,-3.5625 -0.9453,1.3e-4 -2.4288,-1.8749 -4.4375,-5.65625 -2.0088,-3.89926 -3.95315,-5.84362 -5.84375,-5.84375 z m 244.3125,5.125 c -1.418,1.3e-4 -4.77645,3.00505 -10.09375,9.03125 -5.3173,6.02644 -8,10.05383 -8,12.0625 0,1.53623 0.53025,2.77355 1.59375,3.71875 1.0635,0.94541 2.30075,1.4376 3.71875,1.4375 1.5361,1e-4 2.84285,-0.42275 3.90625,-1.25 1.0635,-0.82703 1.7705,-1.24989 2.125,-1.25 1.2998,1.1e-4 2.32225,2.12123 3.03125,6.375 0.8272,4.13581 1.57225,11.59098 2.28125,22.34375 l 1.4375,20.21875 -5.84375,2.65625 c -3.4268,1.65434 -5.15625,3.70613 -5.15625,6.1875 0,2.7178 1.7676,4.83892 5.3125,6.375 4.8447,2.24514 7.28125,10.93764 7.28125,26.0625 0,14.41592 2.22855,21.625 6.71875,21.625 1.5361,0 2.666,-0.46094 3.375,-1.40625 0.709,-0.82714 1.1318,-1.78028 1.25,-2.84375 0.1182,-0.94531 0.1875,-2.53615 0.1875,-4.78125 l 0,-1.0625 c 0,-4.25387 -0.0694,-7.99708 -0.1875,-11.1875 l -0.71875,-20.71875 13.84375,5.5 c 6.2626,2.3633 12.87205,5.47564 19.84375,9.375 7.0897,3.78124 12.8153,6.8555 17.1875,9.21875 4.4901,2.36328 7.6718,3.56251 9.5625,3.5625 2.1268,10e-6 3.1874,-1.48341 3.1875,-4.4375 -10e-5,-1.65427 -1.87505,-4.37501 -5.65625,-8.15625 -3.6631,-3.89936 -6.31455,-5.91306 -7.96875,-6.03125 -1.1817,3e-5 -4.5021,-1.87499 -9.9375,-5.65625 -3.4268,-2.36322 -8.26865,-4.79979 -14.53125,-7.28125 -6.2627,-2.48139 -11.6349,-4.42575 -16.125,-5.84375 -4.3721,-1.53608 -6.5625,-2.41987 -6.5625,-2.65625 0,-0.59076 2.1211,-2.07418 6.375,-4.4375 5.1991,-2.7177 11.17095,-6.2529 17.90625,-10.625 6.8534,-4.49013 10.28125,-7.14153 10.28125,-7.96875 0,-0.59074 0.95305,-2.07416 2.84375,-4.4375 2.0087,-2.36319 4.1992,-4.90716 6.5625,-7.625 2.3632,-2.83583 4.4843,-6.33294 6.375,-10.46875 2.0087,-4.25377 2.9999,-8.38859 3,-12.40625 -10e-5,-8.50763 -3.9582,-13.87977 -11.875,-16.125 -2.836,-0.94518 -11.8127,-2.35927 -26.9375,-4.25 -15.125,-1.89049 -24.98545,-2.84362 -29.59375,-2.84375 z m 7.625,13.3125 12.75,0 c 8.2714,1.2e-4 16.43365,1.09877 24.46875,3.34375 4.372,1.18175 7.4843,2.13489 9.375,2.84375 2.0087,0.70909 3.1385,1.17003 3.375,1.40625 0.2362,0.23644 0.3749,0.58996 0.375,1.0625 -10e-5,2.5997 -1.9757,7.47281 -5.875,14.5625 -3.8995,7.08988 -7.3653,11.96983 -10.4375,14.6875 -2.836,2.59967 -7.81655,5.85069 -14.90625,9.75 -7.0899,3.89945 -11.43945,5.84381 -13.09375,5.84375 -0.2363,6e-5 -0.6592,-2.86618 -1.25,-8.65625 -0.5908,-5.90808 -1.25975,-12.65622 -1.96875,-20.21875 -0.709,-7.68051 -1.23925,-12.69912 -1.59375,-15.0625 l -1.21875,-9.5625 z"
          transform="translate(-2398.3004,-476.74126)"
          id="path3273"
        />
        <path
          inkscape:connector-curvature="0"
          style="
            font-size: 177.24485779px;
            font-style: normal;
            font-variant: normal;
            font-weight: normal;
            font-stretch: normal;
            line-height: 125%;
            letter-spacing: 0px;
            word-spacing: 0px;
            fill: #000000;
            fill-opacity: 1;
            stroke: none;
            font-family: Purisa;
            -inkscape-font-specification: Purisa;
          "
          d="m 570.5,897.8125 c -3.5449,1.4e-4 -5.9503,1.45231 -7.25,4.40625 -0.709,1.77258 -1.4854,15.37627 -2.3125,40.78125 -0.8272,25.287 -1.2501,45.50015 -1.25,60.625 -10e-5,8.7441 0.31545,15.0694 0.90625,18.9688 0.5908,3.7812 1.40525,6.1484 2.46875,7.0937 1.1816,0.9453 3.19535,1.4756 6.03125,1.5937 1.8906,0 3.5889,-2.7207 5.125,-8.1562 1.6543,-5.5537 2.4999,-11.3487 2.5,-17.375 -10e-5,-1.1816 -0.24615,-4.0098 -0.71875,-8.5 -0.4727,-4.49016 -0.71875,-9.75487 -0.71875,-15.78125 0,-11.69809 0.53025,-23.74903 1.59375,-36.15625 1.0634,-12.5252 2.1933,-18.78114 3.375,-18.78125 0.2363,1.1e-4 0.41305,0.10754 0.53125,0.34375 0.1181,0.3546 3.96875,6.36444 11.53125,18.0625 7.5624,11.58008 11.7353,19.21201 12.5625,22.875 0.5908,2.24517 1.19045,4.0821 1.78125,5.5 0.5908,1.29986 1.2978,2.6446 2.125,4.0625 0.8271,1.29985 2.48725,4.26669 4.96875,8.875 2.4814,4.49025 5.3095,9.93173 8.5,16.3125 6.4989,13.2343 12.82415,22.918 18.96875,29.0625 6.1444,6.1445 13.0693,9.2187 20.75,9.2188 4.372,-1e-4 7.30745,-2.6515 8.84375,-7.9688 1.6541,-5.4355 3.1376,-17.1329 4.4375,-35.09375 1.0633,-13.47056 2.1932,-26.19044 3.375,-38.125 1.2996,-11.93439 2.25275,-20.73432 2.84375,-26.40625 0.5907,-5.67173 0.8749,-9.80655 0.875,-12.40625 -10e-5,-3.7811 -0.46105,-6.4325 -1.40625,-7.96875 -0.8272,-1.536 -2.2414,-2.31238 -4.25,-2.3125 -1.0636,1.2e-4 -1.9787,0.0695 -2.6875,0.1875 -2.836,0.70911 -4.8185,3.64469 -6,8.84375 -1.4181,5.79011 -3.21695,25.54232 -5.34375,59.21875 -0.4727,8.62596 -1.00305,16.0118 -1.59375,22.1563 -0.4727,6.0263 -0.93375,10.5527 -1.40625,13.625 -0.4728,2.9541 -1.00305,5.2832 -1.59375,6.9374 -0.591,1.6544 -1.05185,2.5762 -1.40625,2.8126 -0.3546,0.2363 -0.7775,0.375 -1.25,0.375 -3.7813,0 -11.80485,-12.1203 -24.09375,-36.3438 -5.6719,-11.22545 -11.1827,-21.26268 -16.5,-30.125 -5.1992,-8.98031 -8.8731,-15.05949 -11,-18.25 -2.127,-3.30847 -3.1875,-5.32217 -3.1875,-6.03125 0,-1.18153 -3.64265,-6.90719 -10.96875,-17.1875 -7.208,-10.39824 -11.5889,-16.08581 -13.125,-17.03125 -2.0088,-1.29966 -4.02255,-1.93736 -6.03125,-1.9375 z m -64.65625,1.0625 c -6.3809,1.4e-4 -10.23155,0.28432 -11.53125,0.875 -1.7725,0.70912 -5.90735,2.08511 -12.40625,4.09375 -6.3809,2.00891 -11.64565,3.95327 -15.78125,5.84375 -4.1358,1.77258 -6.1875,3.43275 -6.1875,4.96875 0,2.59971 3.3965,3.87512 10.25,3.875 5.4355,1.2e-4 11.05365,-0.81435 16.84375,-2.46875 l 5.15625,-1.40625 0,18.9375 c -10e-5,12.87988 0.53015,30.37229 1.59375,52.46875 l 1.59375,33.1563 -8.875,4.0624 c -6.3808,2.7178 -11.6143,4.0938 -15.75,4.0938 -2.7178,0 -4.5547,0.2842 -5.5,0.875 -0.9453,0.5908 -1.4375,1.7901 -1.4375,3.5625 0,1.6543 0.66895,2.999 1.96875,4.0625 1.2997,1.0635 3.66695,2.0547 7.09375,3 3.1903,0.9453 5.70305,1.4375 7.59375,1.4375 3.0722,0 8.1601,-1.376 15.25,-4.0937 10.8709,-4.1358 18.25675,-7.3174 22.15625,-9.5626 3.8993,-2.3632 5.84375,-4.8378 5.84375,-7.4374 0,-1.6543 -0.7071,-2.961 -2.125,-3.9063 -1.2999,-1.0634 -2.89075,-1.5937 -4.78125,-1.5937 -1.1817,0 -2.3116,0.2461 -3.375,0.7187 -0.9453,0.4727 -1.69055,0.9336 -2.28125,1.4063 -0.5909,0.3545 -0.9444,0.5312 -1.0625,0.5312 -2.4815,0 -4.14165,-23.92509 -4.96875,-71.78125 L 504.75,913.75 l 5.34375,-0.71875 c 5.7899,-0.70886 9.6787,-1.52332 11.6875,-2.46875 2.0087,-1.06334 2.9999,-2.65419 3,-4.78125 -10e-5,-1.06334 -0.3536,-2.19323 -1.0625,-3.375 -0.709,-1.18149 -1.45425,-1.95787 -2.28125,-2.3125 -2.2452,-0.827 -7.44055,-1.21861 -15.59375,-1.21875 z m -370.25,1.59375 c -0.4727,1.4e-4 -1.3947,0.39174 -2.8125,1.21875 -1.5362,1.0636 -5.5636,8.27268 -12.0625,21.625 -6.499,13.35254 -11.587,24.76578 -15.25,34.21875 -5.7901,15.12495 -9.6788,24.94735 -11.6875,29.4375 -2.0088,4.49025 -3.8457,7.67193 -5.5,9.5625 -1.6543,2.00882 -3.59865,5.96685 -5.84375,11.87495 -2.1269,5.9082 -3.85645,9.0899 -5.15625,9.5626 -1.6543,0.5908 -2.46875,2.0049 -2.46875,4.25 0,1.6542 -1.23735,4.3369 -3.71875,8 -2.4815,3.5449 -3.71875,6.1963 -3.71875,7.9687 0,1.5361 0.5683,2.666 1.75,3.375 1.1816,0.709 2.41895,1.0625 3.71875,1.0625 3.0722,0 5.9697,-3.2129 8.6875,-9.5938 3.3085,-8.035 9.77245,-20.9698 19.34375,-38.81245 l 5.125,-9.75 12.40625,-1.0625 c 7.6806,-0.59076 14.71285,-1.36714 21.09375,-2.3125 l 8.6875,-1.0625 3.375,14 c 0.8271,3.42677 1.6034,6.99325 2.3125,10.65625 0.827,3.6631 1.3954,6.3145 1.75,7.9687 0.3543,1.6543 0.7772,3.3839 1.25,5.1563 0.4725,1.7725 0.8954,3.0479 1.25,3.875 0.4725,0.8272 1.0409,1.6035 1.75,2.3125 0.7089,0.709 1.59265,1.3467 2.65625,1.9375 2.3632,1.2998 4.2001,1.9688 5.5,1.9687 1.6542,1e-4 2.4999,-1.2373 2.5,-3.7187 -1e-4,-2.4814 -1.5529,-8.9454 -4.625,-19.3437 -2.9542,-10.51653 -4.7912,-18.18656 -5.5,-23.0313 -0.8273,-4.84463 -2.27935,-11.38476 -4.40625,-19.65625 -2.127,-8.38951 -3.2569,-13.7929 -3.375,-16.15625 -1e-4,-3.5448 -1.94445,-11.499 -5.84375,-23.90625 -3.7813,-12.40701 -6.3253,-19.08581 -7.625,-20.03125 -1.5362,-1.06333 -2.7355,-1.59361 -3.5625,-1.59375 z m 254.8125,0 c -0.4728,1.4e-4 -1.42595,0.39174 -2.84375,1.21875 -1.5362,1.0636 -5.5636,8.27268 -12.0625,21.625 -6.499,13.35254 -11.5869,24.76578 -15.25,34.21875 -5.79,15.12495 -9.6788,24.94735 -11.6875,29.4375 -2.0088,4.49025 -3.8458,7.67193 -5.5,9.5625 -1.6543,2.00882 -3.59865,5.96685 -5.84375,11.87495 -2.1269,5.9082 -3.8252,9.0899 -5.125,9.5626 -1.6543,0.5908 -2.5,2.0049 -2.5,4.25 0,1.6542 -1.23725,4.3369 -3.71875,8 -2.4814,3.5449 -3.71875,6.1963 -3.71875,7.9687 0,1.5361 0.59955,2.666 1.78125,3.375 1.1816,0.709 2.41895,1.0625 3.71875,1.0625 3.0722,0 5.9697,-3.2129 8.6875,-9.5938 3.3085,-8.035 9.7412,-20.9698 19.3125,-38.81245 l 5.125,-9.75 12.40625,-1.0625 c 7.6806,-0.59076 14.71285,-1.36714 21.09375,-2.3125 l 8.6875,-1.0625 3.375,14 c 0.8271,3.42677 1.6034,6.99325 2.3125,10.65625 0.827,3.6631 1.3955,6.3145 1.75,7.9687 0.3544,1.6543 0.7772,3.3839 1.25,5.1563 0.4725,1.7725 0.8954,3.0479 1.25,3.875 0.4725,0.8272 1.07215,1.6035 1.78125,2.3125 0.7089,0.709 1.59265,1.3467 2.65625,1.9375 2.3631,1.2998 4.2001,1.9688 5.5,1.9687 1.6542,1e-4 2.46865,-1.2373 2.46875,-3.7187 -10e-5,-2.4814 -1.5528,-8.9454 -4.625,-19.3437 -2.9541,-10.51653 -4.75995,-18.18656 -5.46875,-23.0313 -0.8273,-4.84463 -2.3106,-11.38476 -4.4375,-19.65625 -2.127,-8.38951 -3.257,-13.7929 -3.375,-16.15625 -10e-5,-3.5448 -1.94445,-11.499 -5.84375,-23.90625 -3.7813,-12.40701 -6.3253,-19.08581 -7.625,-20.03125 -1.5362,-1.06333 -2.70425,-1.59361 -3.53125,-1.59375 z m -116.5,1.75 c -4.8448,1.3e-4 -7.84965,1.02261 -9.03125,3.03125 -0.709,1.18177 -2.6847,2.59584 -5.875,4.25 -3.0724,1.53625 -6.5382,3.19643 -10.4375,4.96875 -3.7813,1.77257 -8.33905,5.02359 -13.65625,9.75 -5.3174,4.72664 -10.22855,10.38296 -14.71875,17 -6.3808,9.45314 -10.6925,16.90832 -12.9375,22.34375 -2.127,5.43558 -3.7559,12.89075 -4.9375,22.34375 -0.709,5.79005 -1.09375,10.45514 -1.09375,14 0,5.08105 0.915,10.66805 2.6875,16.81255 1.5361,5.79 2.98835,9.8867 4.40625,12.25 1.5361,2.2451 3.8652,4.1894 6.9375,5.8437 4.0175,2.2451 8.3291,3.375 12.9375,3.375 7.9169,0 16.1172,-3.0743 24.625,-9.2187 8.5077,-6.2627 16.1396,-14.9552 22.875,-26.0626 l 5.65625,-9.4062 0,20.2188 c -10e-5,13.1161 1.1991,20.7861 3.5625,23.0312 1.2997,1.1816 2.53695,1.7812 3.71875,1.7812 1.1815,0 2.242,-0.4228 3.1875,-1.25 2.1268,-1.4179 3.1873,-6.0137 3.1875,-13.8124 -2e-4,-14.8886 -0.95325,-28.06943 -2.84375,-39.5313 -1.7725,-11.46177 -4.35465,-18.60151 -7.78125,-21.4375 -2.0089,-1.65421 -6.14365,-3.20696 -12.40625,-4.625 -6.2627,-1.41787 -11.7042,-2.12492 -16.3125,-2.125 -3.545,8e-5 -5.62795,0.49227 -6.21875,1.4375 -0.5908,1.06354 -2.005,1.94735 -4.25,2.65625 -2.2452,0.70905 -4.25885,1.59286 -6.03125,2.65625 -1.7725,1.06354 -2.65635,2.58504 -2.65625,4.59375 -1e-4,3.19047 1.8369,5.5196 5.5,6.9375 3.663,1.41802 7.37495,2.12506 11.15625,2.125 3.5448,6e-5 6.0888,-0.59956 7.625,-1.78125 1.6542,-1.29973 2.96085,-1.93743 3.90625,-1.9375 1.536,7e-5 3.0195,0.74519 4.4375,2.28125 1.536,1.41802 2.3124,3.0782 2.3125,4.96875 -10e-5,3.0723 -1.37615,7.56064 -4.09375,13.46875 -2.7179,5.9082 -5.9689,11.41905 -9.75,16.49995 -7.6807,10.1621 -17.4337,15.2188 -29.25,15.2188 -5.5537,0 -9.33495,-2.0518 -11.34375,-6.1875 -2.0088,-4.2538 -3.0001,-12.17 -3,-23.75 -1e-4,-8.03505 0.4228,-13.76071 1.25,-17.1875 0.8271,-3.42667 2.98635,-8.58397 6.53125,-15.4375 3.8994,-7.56237 8.2802,-14.27925 13.125,-20.1875 4.8446,-6.02622 9.33295,-10.69132 13.46875,-14 4.2538,-3.30846 8.45805,-6.09853 12.59375,-8.34375 4.2538,-2.24498 7.75095,-3.7284 10.46875,-4.4375 2.7177,-0.70886 4.94625,-1.06238 6.71875,-1.0625 1.7724,1.2e-4 3.07895,1.4142 3.90625,4.25 0.827,2.71787 1.8876,4.09386 3.1875,4.09375 1.536,1.1e-4 3.0195,-1.37588 4.4375,-4.09375 1.4179,-2.8358 2.1248,-4.95692 2.125,-6.375 -2e-4,-2.24497 -1.72965,-4.43543 -5.15625,-6.5625 -3.3087,-2.24497 -7.5509,-3.37487 -12.75,-3.375 z m -139.375,21.46875 c 1.2997,1.1e-4 3.24405,6.14863 5.84375,18.4375 2.7177,12.1709 4.09365,19.84092 4.09375,23.03125 -1e-4,2.4815 -1.13,4.14168 -3.375,4.96875 -2.2452,0.70905 -7.6866,1.41608 -16.3125,2.125 l -14,1.0625 2.125,-5.5 c 3.1904,-8.50768 7.32515,-17.9453 12.40625,-28.34375 5.1991,-10.51642 8.27335,-15.78114 9.21875,-15.78125 z m 254.8125,0 c 1.2997,1.1e-4 3.24405,6.14863 5.84375,18.4375 2.7177,12.1709 4.0624,19.84092 4.0625,23.03125 -10e-5,2.4815 -1.13,4.14168 -3.375,4.96875 -2.2452,0.70905 -7.65535,1.41608 -16.28125,2.125 l -14,1.0625 2.125,-5.5 c 3.1904,-8.50768 7.32515,-17.9453 12.40625,-28.34375 5.1991,-10.51642 8.27335,-15.78114 9.21875,-15.78125 z"
          transform="translate(-2398.3004,-476.74126)"
          id="path3284"
        />
      </g>
    </g>
  </g>
</svg>
